iters,price,time
651299,0,3.438845894
641780,0,3.107107771
632762,0,3.350158223
673844,0,3.265835300
668333,0,2.965509899
649796,0,3.227840674
4508,15042,.037777607
689375,0,3.379231483
13526,14262,.096590740
697892,0,3.691575706
