iters,price,time
13025,2179,.077182056
8015,2051,.066023836
442883,-1,2.562815856
3506,2162,.028156597
434366,0,2.464510116
1502,1722,.016947449
17033,2575,.109483903
405809,0,2.394829805
426350,0,2.341617716
430358,-1,2.513710363
