iters,price,time
590678,-86,2.749911232
662822,-229,3.409725443
700898,0,3.234702700
680858,-1,3.206039704
631259,-128,3.413526273
654305,-85,3.283548255
670337,0,3.110476029
645788,-1,3.336099453
660317,-1,3.343486160
663824,-202,3.143224080
