iters,price,time
4508,13629,.051929385
10019,11359,.079151173
8516,12787,.063407296
11021,16980,.060971301
613724,0,2.757925473
2504,12278,.026010111
13526,13430,.071126978
596690,0,2.699743433
2504,11598,.023854653
22544,15519,.157518797
