iters,price,time
484967,0,2.205051040
482963,0,2.309751769
459917,0,2.193107873
476951,0,2.428627068
469937,-1,2.238911489
487472,0,2.417109295
488975,0,2.421109417
485969,0,2.184366762
475949,0,2.380245857
470939,0,2.238167857
