iters,price,time
447893,-1,2.382637898
498995,-1,2.465051716
3005,5091,.028170654
471941,-9,2.550686293
7514,6333,.040460340
482462,-1,3.404222145
474446,-1,2.426079956
11522,7199,.071683813
473444,-3,2.415903639
500999,-1,2.940399033
