iters,price,time
12023,6648,.096169663
18035,7914,.106249461
575147,-1,2.558009968
2504,5128,.025981897
555107,-1,2.973253373
562622,-1,2.719708857
574646,-4,3.088498973
560117,-12,2.908612055
565628,-1,2.732907370
578654,-1,2.937110593
