iters,price,time
10019,22166,.087800759
2003,25607,.020657082
1502,12686,.017430705
371741,-2,2.059090663
4007,25656,.034307985
27554,25607,.188170027
21041,24213,.124150730
2003,13860,.018735536
15029,21477,.107763698
2504,25607,.025150377
