iters,price,time
5510,19609,.047261149
486470,-1238,2.524937806
2003,17582,.018326648
8015,19726,.051392092
461921,-1310,2.501986992
1001,14871,.012884162
12023,17367,.090817941
2504,16458,.022859514
1502,17392,.016346150
453404,-567,2.470258367
