iters,price,time
536570,-370,2.677619361
6011,15912,.048856476
26051,19020,.181224837
3506,18630,.031570554
599195,-276,2.758444021
10019,19867,.074165040
1502,16319,.016140456
7514,19922,.059827117
14528,19989,.104520935
23045,13964,.131993799
