iters,price,time
4508,2800,.040948683
468935,-113,2.178370261
468935,-133,2.193516320
457412,-182,2.240844090
12023,2547,.074983806
470438,-193,2.265531943
11522,2352,.086473336
456911,-143,1.925720006
8015,2391,.060590007
468935,-179,2.028822938
