iters,price,time
453905,-112,2.104458266
460919,-112,2.199414223
42083,2838,.250804110
2504,2978,.024208731
459416,-147,2.084089306
465929,-59,2.390377447
16031,2504,.108571423
19538,2866,.144977071
22544,2866,.128502862
37574,2353,.231831185
