iters,price,time
341180,-76,1.775098021
391280,-45,2.020965562
372242,0,1.918088982
416330,-85,2.122223539
397793,-31,1.979713092
401300,-80,2.198287081
428354,-56,2.214715908
3005,2465,.028547069
370238,-20,1.777782967
379256,-25,1.958644374
