iters,price,time
471941,-234,2.467139170
481961,-226,2.561638303
483464,-211,2.462493594
496490,-152,2.662522927
493484,-80,2.698284407
477953,-245,2.681679763
20039,2312,.168588358
495989,-123,2.836450744
3005,1948,.029386460
9518,2238,.082035215
