iters,price,time
546590,-757,2.876336103
3005,14353,.026319613
548093,-962,3.134906073
522542,-962,2.329026095
1001,16599,.014077324
13025,14871,.102679412
562622,-962,3.016918336
556610,-793,3.241416704
2504,15858,.021975018
517532,-962,2.575717191
