iters,price,time
7514,17024,.068698026
695387,-1115,4.319751343
649796,-1155,3.857249454
675848,-1115,4.059872806
6011,13777,.052502616
657311,-1115,3.771534078
17033,17037,.108731089
9518,19452,.075039999
659315,-1116,3.977587696
665828,-1115,4.096398397
