iters,price,time
12524,2479,.100331861
5009,2235,.043859282
461921,-1,2.407937319
466931,-3,2.347757928
472442,0,2.354232864
474446,-1,2.348114376
3005,2276,.031278569
451400,-2,2.342774120
33566,2410,.231411782
457412,0,2.429383115
