iters,price,time
383765,-1054,1.972200566
12524,19861,.085812316
500498,-1052,2.561048184
317633,-606,1.654361827
2003,18484,.020484682
6011,15908,.046115111
15029,18380,.098087788
516029,-909,2.619877769
411821,-139,2.147260930
392783,-985,1.840035258
