iters,price,time
473945,-199,2.321712218
6512,2537,.049957867
12524,2490,.097134074
498494,-109,2.509175087
484466,-110,2.323304655
468434,0,2.409243187
465428,-88,2.237132005
481460,-121,2.310171688
8516,1802,.075030931
11522,2172,.066605123
