iters,price,time
334667,-962,1.879659148
25049,19401,.150844834
395288,-826,1.988352590
314627,-1281,1.734751239
384266,-1306,2.044943190
302102,-806,1.384811112
366731,-1142,1.761618134
353705,-289,1.918069796
271040,-818,1.279084266
353204,-628,1.882389275
