iters,price,time
521540,-1314,2.209759508
3005,20186,.028988590
4007,23818,.036166646
11522,22278,.086965266
7013,23818,.058777038
5510,24126,.048670410
4508,20062,.040610251
7514,24479,.058570864
557612,-285,2.787237386
13526,18312,.108237264
