iters,price,time
3005,20212,.034069042
8516,22839,.065687753
10019,22644,.077537080
16532,22675,.117178678
7514,22769,.055577847
4508,18681,.035554425
1001,21638,.014088742
6011,22773,.047151304
17534,21347,.123059705
6512,21226,.050398746
