iters,price,time
611219,-415,2.990324228
596690,-1430,2.726418261
9518,14867,.079544681
600197,-658,2.644549835
568133,-1286,2.622395409
560117,-1085,2.958735666
610718,-1209,2.986222817
5510,12156,.038937571
609716,-415,3.178474929
544085,-695,2.551812387
