iters,price,time
323645,-104,1.394395722
354707,-49,1.585269677
353204,-50,1.653166757
379256,-104,1.739555375
368735,-121,1.727268520
369737,-110,1.566809553
12023,2510,.085306108
362723,-149,1.641507823
376250,-168,1.682010669
384266,-138,1.757551134
