iters,price,time
576650,-82,3.182741931
11021,7760,.083482919
14528,9192,.099327640
1001,8245,.014091977
6512,6979,.050000880
3506,5399,.031638724
3005,9431,.029943035
2003,9321,.023326894
5510,9443,.046558444
1001,9020,.014959553
