iters,price,time
486470,-195,2.738565934
483965,-71,2.691597120
482963,-188,2.752119793
480959,-157,2.392859816
585668,-35,2.768808147
474446,-196,2.369440075
492482,-37,2.394021930
467933,-195,2.588811074
497993,-174,2.439992801
465428,-31,2.523751809
