iters,price,time
604205,0,2.900114581
25550,15247,.184494957
581660,0,2.846968975
650798,0,2.931883348
671840,0,3.294101739
579656,0,2.785218900
597692,0,2.892750283
628754,0,3.048927599
1502,16870,.019378500
660818,0,3.249719392
