iters,price,time
1502,15940,.027650774
9017,17167,.067852981
370238,-41,1.947705719
16532,22644,.119751881
338174,-376,1.800635158
381761,-399,2.000794535
8015,13915,.063329478
369236,-822,1.908223280
1502,16289,.015561529
410819,-381,2.204799941
