iters,price,time
398795,-933,2.273982644
462422,-1098,2.713995161
442883,-623,2.480581035
435368,-911,2.298569843
451901,-1248,2.589532990
431360,-1742,2.484097836
425348,-859,2.462234969
463925,-1169,2.638559015
4508,16125,.040893749
429857,-251,2.379973375
