iters,price,time
11021,17959,.061876898
6512,19109,.051223282
362723,-1757,1.792371820
2003,16703,.019068346
422843,-1273,2.306092810
29057,22044,.196687230
2504,14698,.021901322
444386,-203,2.382106846
464426,-924,2.223720796
463424,-1303,2.225565919
