iters,price,time
16031,21015,.110269462
11522,20261,.084625455
3005,24826,.026252746
3005,15589,.025351633
21041,23277,.140669170
1001,25411,.012684144
9518,24183,.070055403
3506,24235,.030363624
10520,24141,.074487668
2003,23221,.018936945
