iters,price,time
1502,2876,.031442402
41582,2675,.232016187
4508,1936,.040622249
1502,2147,.017324947
15029,2701,.089184166
2003,2027,.022017549
356711,0,1.993143163
1001,2493,.012960368
2003,2451,.020471391
1502,1832,.020165856
