iters,price,time
493985,-202,2.409427425
453905,-302,2.216510431
3005,2275,.027641187
460418,-244,2.363295556
450398,-158,2.225622934
459917,-306,2.079846259
503003,-114,2.571499207
45590,3047,.266050419
479456,-249,2.220320310
480959,-178,2.645803779
