iters,price,time
3506,6903,.047005589
2003,7682,.021029123
20039,6353,.142403984
1001,6994,.013541755
4007,7604,.034850358
8015,7849,.052776495
8015,6827,.060095626
1001,8391,.013763368
4508,6261,.039910247
20039,7418,.122827605
