iters,price,time
6512,2281,.049378565
479957,0,2.660823812
489977,0,2.675876527
502001,0,2.723405147
6512,1735,.051371321
468434,0,2.533409543
482462,0,2.559512527
493985,0,2.311212554
41582,2477,.223490475
485468,0,2.482135783
