iters,price,time
7013,6390,.072608748
8015,6620,.063627121
6011,5786,.047968923
28556,6358,.168826760
11021,7167,.079792460
332162,-562,1.697749176
3005,6896,.031756358
2003,6840,.020859848
4007,5634,.034320895
332162,-271,1.619957528
