iters,price,time
17534,20205,.130011988
1502,18073,.015963959
4007,13754,.032149134
13526,15086,.091955718
1502,18100,.016405543
31061,21448,.206446605
2504,20552,.022929398
3005,18807,.027415620
15029,16749,.103483875
12023,15223,.093492863
