iters,price,time
2504,14363,.024883181
9518,17746,.076549111
12524,16245,.090353909
5009,17689,.039621094
4007,19373,.033435517
65630,19835,.369196103
9518,17215,.071486981
3005,16706,.026838777
3506,15796,.030881586
23045,17843,.168548257
