iters,price,time
637271,0,2.933756376
24548,16413,.163932421
2003,12028,.019471082
653303,0,2.910447572
13025,17341,.091543088
631259,0,2.985151529
653303,0,2.767128112
16031,13464,.115859054
652301,0,3.005229983
642782,0,2.944844212
