iters,price,time
423845,0,2.307523165
419837,0,2.467578401
390779,0,2.087671828
430358,0,2.235480080
457412,0,2.334647539
449897,0,2.472956037
361721,0,1.935694240
416330,0,2.270684695
386771,0,2.165266489
414827,0,2.192117138
