iters,price,time
1001,12991,.020464222
2504,18772,.027638656
1001,16445,.015973728
1001,17175,.016341005
1502,16130,.019863899
569636,-514,2.724629369
1502,14576,.020732656
4007,18832,.039802125
1001,8736,.013784444
1502,15658,.018894028
