iters,price,time
489476,-17,2.500348523
473945,-16,2.335685975
464426,0,2.566556737
448895,0,2.254682053
474947,0,2.758054640
3506,12679,.034127829
460919,0,2.389884801
448394,0,2.297773780
1502,15372,.016738840
488474,0,2.335099859
