iters,price,time
466931,-2,2.680432196
490478,-6,2.669455264
479456,-4,2.590382179
493985,-2,2.533054253
480959,-4,2.476488921
495989,-3,2.564200544
1001,1350,.013092906
490979,-3,2.700756386
484967,-2,2.245816273
497993,-2,2.757422982
