iters,price,time
374747,0,2.154826467
1502,1953,.017337750
414326,-115,2.363554481
393785,-28,2.357375606
381260,-6,2.323510473
366731,-27,2.153078965
364727,-111,2.095386411
399296,-2,2.401425688
408314,0,2.382117532
446891,-111,2.471655208
