iters,price,time
9017,19545,.078487713
503504,-938,2.332227333
56111,21406,.346222335
483965,-129,2.673235294
7013,17602,.056512220
10520,18760,.092395448
448895,-930,2.303514512
3506,20213,.027397991
9518,15802,.050042626
539576,-279,2.530238962
