iters,price,time
6011,18326,.056521854
1001,15225,.014189574
14027,17001,.105540901
1502,17959,.016931480
1502,16124,.017931612
1502,17652,.018331833
4007,15395,.030388236
1001,18517,.015897667
311621,0,1.581363860
1001,19139,.014338549
