iters,price,time
560618,-7,3.101313657
29558,26862,.173906882
580157,0,2.790171458
9518,15929,.072376774
603704,0,3.223835327
3506,21829,.029744045
4508,13235,.036550910
613223,0,2.881427347
20540,23100,.148218892
6512,15925,.051231158
