iters,price,time
8516,16501,.078837267
48596,18850,.294499541
650798,-1015,2.968550210
649295,-877,2.937668365
4007,17193,.030822472
669836,-1501,3.098700534
3005,16762,.025663684
1001,17636,.012858152
17033,16517,.107417576
1001,18335,.013344899
