iters,price,time
500999,-1,2.736672498
494486,-3,2.815617817
475949,-3,2.118113537
493484,-3,2.762382364
490478,-5,2.732020704
484967,-3,2.706478703
468434,-2,2.478345226
486470,-3,2.719472460
504506,-2,2.532203501
511019,-2,2.865109011
