iters,price,time
643784,-1447,3.107189282
635768,-1447,2.955292454
649295,-1374,3.052073658
692882,-1447,3.278099518
656309,-1447,3.218585379
648794,-1447,3.046029271
7013,12460,.055838783
618233,-809,3.011390673
644786,-1447,3.153516830
652802,-1447,3.109235693
