iters,price,time
492482,-91,2.441368031
476951,-8,2.276133042
487472,-168,2.165523265
19037,2247,.139260421
477452,-36,1.992164717
457913,-155,1.998216018
486470,-17,2.222819160
483965,-4,2.447742475
1502,2197,.016497093
474446,-9,2.051931428
