iters,price,time
672341,0,3.208362488
676349,0,3.299998028
682862,0,3.398813964
660317,-2,3.168147197
688373,0,3.237850487
679355,0,2.941153412
703403,-1,4.785763777
673844,0,4.688830697
683864,0,4.364314150
680858,0,3.532923967
