iters,price,time
467432,-99,2.446091326
12524,2481,.098576437
480959,-149,2.620684235
464927,-12,2.364638375
8015,1878,.063657118
8015,2283,.062913432
478955,-8,2.296279106
7514,2492,.076286067
482462,-82,2.497240487
19037,2352,.111890437
