iters,price,time
487472,0,2.741418000
504005,-1,2.694594739
500999,-1,2.662705246
513524,0,2.796282339
516029,0,2.812295541
493484,0,2.676738360
496490,0,2.839422654
8015,7024,.063373300
11021,6240,.089613237
468935,-92,2.665836120
