iters,price,time
1502,8253,.023301279
4007,4968,.034906669
1502,8423,.018253363
4508,9032,.039265473
1502,8041,.018340055
3506,8367,.031403118
6011,8909,.048339276
2003,6732,.020379405
3005,8607,.025760885
1001,4677,.016145751
