iters,price,time
676850,-729,3.798453790
692381,-728,3.754365977
646790,-729,3.276816799
689876,-764,3.867564115
676349,-729,3.671092313
674846,-729,3.717376608
667331,-649,3.818572522
672842,-266,3.665842214
671339,-730,3.685210384
668834,-763,3.717523959
