iters,price,time
459416,-61,2.572164104
450899,-81,2.044493113
472442,-81,2.130232976
448895,-62,2.648130991
471941,-81,2.502548777
482963,-2,2.658123816
4007,1957,.034599894
11522,2255,.084209370
478955,-1,2.685255729
4007,2245,.035888048
