iters,price,time
1502,13210,.043402267
430859,-204,2.769366209
386270,-223,2.323757547
2504,16781,.022039917
406310,-357,2.399189279
394787,-206,2.347171431
426350,-408,2.576989184
27554,19370,.164359268
421340,-241,2.188782951
389276,-382,2.228645851
