iters,price,time
687371,-1,3.612819148
703403,-1,3.964824326
686369,-2,3.514831231
687872,0,4.194707409
684866,0,4.012938045
673343,-637,3.899398799
675848,0,3.532302412
696389,0,3.969372201
679856,0,3.664820925
694385,0,3.479815293
