iters,price,time
628253,0,3.638026489
33566,21181,.220703688
666830,0,3.798572377
639275,0,3.713894862
664325,-48,3.772144517
644786,0,3.398242326
650798,0,3.640003936
18536,18816,.135256586
693383,-1,3.906977688
668834,-1,3.777586663
