iters,price,time
3506,13792,.042819126
502502,-629,2.205411285
24047,16663,.167299282
537572,0,2.827139743
604706,-407,3.025098910
553103,0,2.763659478
580157,-452,2.764519767
571139,-1457,2.578450664
2504,15019,.039314513
504506,-1201,2.179550218
