iters,price,time
651299,-1,3.514865587
688373,-4,3.762777563
1001,19426,.017734305
678353,-304,3.693078817
626750,-310,3.325947433
667832,-9,3.807013300
11021,19772,.083131762
662822,0,4.047306571
659315,-9,3.693504116
657311,-24,3.969135472
