iters,price,time
16031,3971,.129943122
2504,2232,.021489909
12524,4090,.101674380
463424,0,2.545388183
1001,1686,.014340162
18035,3971,.097394928
1001,3971,.034011899
458915,0,2.786787901
18035,3681,.107222492
1001,1417,.012950990
