iters,price,time
433364,0,2.286962604
1502,2099,.016832465
4007,1412,.033847429
460919,0,2.616969150
429356,0,2.142752135
3506,2107,.028435641
3005,1842,.017833434
1502,2538,.015690229
30059,2598,.178384663
1502,2209,.016415427
