iters,price,time
671840,-1082,3.413927346
676850,0,3.361315145
665828,-1740,3.264528325
687872,-1625,2.857018404
2504,18750,.019647054
660317,-1850,3.410764479
683864,-2483,3.075765584
669836,-1564,2.994931197
671339,-808,3.316851172
669335,-1016,3.505563261
