iters,price,time
8516,2173,.072584982
351200,-283,1.562384138
8015,1498,.062768103
380759,-234,1.673513920
376751,-224,1.651316782
25049,2562,.173490171
382262,-259,1.670939700
2504,1972,.022513007
392282,-244,1.668729423
356711,-187,1.871820588
