iters,price,time
1001,17828,.019370104
1502,14890,.017931953
1502,16979,.019727217
2003,15622,.022013451
14528,17826,.111819011
1001,19103,.018017597
1001,15567,.019806504
1502,15440,.020372471
1001,17817,.017442307
1502,15691,.023967690
