iters,price,time
1001,22582,.028428102
1502,14493,.015139937
6011,24055,.050646184
1001,22756,.015418891
7013,21160,.055010493
11021,22115,.080606573
3005,19168,.022866573
14528,20143,.106240484
6512,20939,.052590408
1001,19439,.014051381
