iters,price,time
6512,23158,.054249773
3506,23356,.029090645
1001,23349,.013644582
13526,23356,.084166732
11021,22604,.080879536
659315,-3,3.119648806
8015,21983,.060050730
1502,23264,.016972884
12524,23151,.088319441
668333,-1,3.566381790
