iters,price,time
464426,-153,1.838610357
474446,-104,2.110768535
449897,-145,1.947129001
475448,-65,2.165206283
1001,1867,.014986599
467432,-71,2.048598392
474947,-153,2.142942459
454406,-153,2.058293549
468434,-149,2.046786101
458414,-115,2.018084355
