iters,price,time
17033,13420,.086421862
419336,-942,1.957247947
393785,-1280,1.835971765
385769,-1219,1.813349890
32564,16049,.168311999
417833,-105,1.897213800
427853,-821,2.078215213
10520,15961,.068750011
426851,-789,2.099836353
407813,-1219,1.966353962
