iters,price,time
274547,-89,1.613478910
288575,-89,1.580955098
10520,19159,.076757940
258014,-59,1.510035541
301100,-59,1.647746548
1502,10472,.016315716
268535,-59,1.465143259
279056,-126,1.512847671
286571,-59,1.597796845
279557,-59,1.523690488
