iters,price,time
15029,2832,.113030393
24548,2155,.178709119
467933,-13,2.093975657
1502,2074,.017627390
486971,0,2.183123258
462422,-1,2.295606710
468434,0,2.177200899
1001,2351,.013177002
8015,2016,.047009923
463424,-1,2.329247398
