iters,price,time
319136,-428,2.121615320
8015,15800,.073844285
1502,14532,.020276839
12524,14046,.102545911
6011,16222,.046597224
23045,17372,.183931830
290078,-28,1.837453320
329657,0,2.061698974
6011,17583,.065395414
344687,-118,2.198316868
