iters,price,time
5009,15233,.045049803
457412,-986,2.062503818
476951,-813,2.418184568
20540,19038,.146976890
1001,18652,.021663446
485969,-1020,2.775019544
5510,15899,.043745458
459917,-1248,2.104094089
4508,16365,.037148018
7514,19102,.049758381
