iters,price,time
604205,-4,3.036316800
607712,-4,2.892214690
609716,-1,2.738962658
569135,-1,2.504415137
622742,0,2.943134827
609215,0,2.817341229
582161,-1,2.608156391
10520,13767,.061360710
560117,0,2.650922867
566129,-3,2.688803681
