iters,price,time
4508,4658,.052743757
566630,-30,2.943809402
2003,8461,.021100474
17033,8173,.127838795
8015,8125,.065487551
2504,8035,.025369014
573644,-29,2.923619013
537572,-28,2.391698410
4508,7077,.039981683
13025,8461,.096557120
