iters,price,time
662822,-1244,3.109193857
23546,15934,.136855981
4007,11603,.032779881
674345,-429,3.331863310
10520,13813,.076368560
652802,-1019,3.393512733
644285,-1490,2.846830971
672341,-721,3.187350673
672341,-700,3.260645849
587672,-1346,2.820215301
