iters,price,time
645788,-6,3.000958086
642782,-20,2.768912030
645788,-5,2.945182189
644786,-5,3.050004585
654305,-5,3.128391882
657311,-5,3.102500628
692381,-5,3.333591556
669836,-5,3.110991696
14528,17572,.104753674
663323,-5,3.046125994
