iters,price,time
13025,6635,.107921254
28556,6046,.175368168
12023,7488,.100126017
14027,7322,.101233456
5510,6787,.046866835
27053,6875,.197000309
8015,5194,.054076246
433364,0,2.168800178
423845,-152,2.102834940
2504,6469,.026179976
