iters,price,time
663323,-247,2.776168372
3506,14359,.030949606
47093,15619,.280291878
5009,16686,.040291892
12524,14600,.091293436
16031,14741,.116817508
658313,-1,2.729851503
654305,-242,2.708837240
4508,14844,.038583664
8516,13969,.055306660
