iters,price,time
696890,-45,3.892110336
693884,-45,3.687490402
1502,16495,.016739687
1502,14363,.016162022
1502,13097,.014751894
653303,-937,3.345260924
18536,16182,.132959923
663824,-51,3.461363699
657311,-1053,3.301721013
3005,15870,.027158287
