iters,price,time
445388,-1,2.344579153
2003,2413,.021414861
3005,2094,.027239258
1001,2636,.014365726
3005,1969,.024731881
10019,2614,.075562048
469436,0,2.266129987
478454,0,2.317492537
1001,2047,.014203766
481961,0,2.539090386
