iters,price,time
468434,-58,2.589478601
3506,2132,.028938398
454406,-208,2.006903040
453404,-4,2.508413646
479957,-160,2.118735963
487973,-48,2.523674531
1001,1734,.012796354
3506,1633,.027162917
19037,3121,.142052752
2003,2325,.018851206
