iters,price,time
646289,-19,3.870243707
646790,-2,3.628022797
665327,-18,3.603183986
663323,-41,3.586010173
655307,-38,3.644021346
658313,-2,3.750485022
10520,13602,.084984768
682361,0,4.012807086
660317,0,3.966379551
661319,-6,3.772247930
