iters,price,time
1502,2246,.017874159
2003,2073,.017400462
4007,3213,.034123667
2003,3201,.020073164
3506,2954,.026038456
1502,2218,.015731273
11522,3361,.089383247
5009,3289,.030252242
34568,3376,.218740117
13025,3336,.096973547
