iters,price,time
1502,19364,.023340850
1001,13342,.014832373
4508,17814,.038177748
3506,18285,.032980075
13025,16505,.097429969
1502,18573,.017998205
9518,17246,.073020766
1502,17427,.018272629
1001,20186,.014714745
2003,20414,.022695365
