iters,price,time
5510,6781,.045644957
1001,7283,.014720801
2003,9236,.020736503
5510,7014,.041077625
1001,9406,.015403456
3506,8903,.029964220
2504,7718,.025980374
1001,7514,.014974791
1502,6929,.017882132
4007,6543,.033850074
