iters,price,time
5510,23274,.062421190
14528,23642,.107948326
1502,12525,.014201096
534566,-30,2.580196425
408314,-30,1.999122417
8015,26687,.061572786
2504,15853,.019924144
2504,24127,.024359038
13025,25299,.077831644
1001,19310,.013506227
