iters,price,time
6011,17104,.057383206
17033,18051,.125802577
4508,14971,.038504654
31562,18457,.216134773
1001,15961,.013678938
635768,-72,3.475740461
3005,18081,.027591031
17033,16728,.117068272
622742,-845,3.379246603
1502,12142,.017118552
