iters,price,time
425849,-295,2.045281677
409817,-118,2.139530387
14027,6305,.108011067
450398,-30,2.480142260
13526,6101,.101036680
461921,-575,2.291986269
437372,-23,2.083327568
412823,-577,1.897472845
8015,5809,.067033688
446390,-398,2.056771046
