iters,price,time
562622,0,3.178736179
440378,0,2.326470255
5510,5657,.044410235
555107,0,3.233437039
2504,7736,.026411780
49097,8190,.316803698
509015,-3,3.089560143
22544,7276,.159634735
528554,-14,3.115758510
521039,-40,2.792716186
