iters,price,time
529055,-24,3.023751639
557111,-30,2.496151794
524546,-24,2.820548369
512021,-72,2.758994643
540578,-31,2.942932941
12023,6108,.091749759
546089,-24,2.963139406
526550,-24,2.402065280
12023,6925,.083282746
515528,-25,2.891431831
