iters,price,time
549596,-237,3.031161840
538574,-26,3.050358993
608714,-701,3.559523650
555107,-684,2.858012691
559115,-140,2.969200384
552602,-169,3.071078334
1001,13864,.013975280
540077,-575,2.963867247
13526,17125,.100030008
569636,-729,3.199906888
