iters,price,time
620738,-629,3.260104873
574145,-52,2.917683775
611219,-585,3.299160576
6512,13864,.052940283
17033,18096,.124384814
588173,-629,3.272039795
595187,-140,3.138506150
611720,-266,3.456071084
576650,-582,3.186625495
605708,-629,3.289858606
