iters,price,time
1502,2220,.023201183
342683,-21,1.746928224
352202,-44,1.720684671
356711,-87,1.912887977
15530,2911,.114523504
364727,-21,1.925352612
3005,2927,.029196232
381260,-21,1.928142585
29558,2939,.158380656
3506,2955,.031139939
