iters,price,time
16031,8821,.137909807
11021,7562,.083308095
4508,6775,.038825587
1001,8479,.015730016
580658,-684,2.569685422
4508,8441,.039952302
4007,6225,.030821415
581660,-632,2.449767794
543584,-684,2.223872321
50600,8479,.267529463
