iters,price,time
1001,14426,.029165748
7514,16198,.056356828
28556,15849,.199576046
3005,15666,.025862293
12023,18181,.086498118
1001,16859,.013914252
3506,14172,.027622131
1502,11051,.016642902
2504,18649,.024655234
4007,18144,.034401665
