iters,price,time
6512,18822,.065189264
20540,20997,.134799902
3506,22935,.034941035
7514,22188,.056978158
12023,15578,.073036260
1001,18057,.013035085
7013,18593,.051079383
23546,20318,.125280046
1001,13665,.013439915
1502,18857,.016924937
