iters,price,time
676349,0,4.068282808
687371,0,4.035304427
668834,0,3.895489757
683363,0,4.014171510
684866,0,3.901390970
682862,0,3.928688800
688874,0,3.971385923
22544,17546,.140465630
684365,0,4.004106336
630758,0,3.617555635
