iters,price,time
674345,-1585,3.514350502
732461,-1529,3.911316072
12524,14855,.091242844
708914,-676,3.956770529
687371,-1585,3.902977385
671339,-1665,3.299724210
10520,14975,.077914182
658814,-1585,3.569052910
681860,-993,3.494296789
656810,-1585,3.727182311
