iters,price,time
18035,20750,.137662709
513524,-1,2.497134855
5009,15628,.039345056
530057,-1,2.527665725
552101,-1,2.534039909
17033,20048,.119421980
548093,-1,2.704093320
524546,-1,2.366751477
523544,-1,2.428268051
569636,-9,2.576938578
