iters,price,time
15029,8523,.118951931
1001,7858,.014146065
3506,9046,.032810255
1001,5702,.014277327
6011,9216,.040235314
1502,9400,.017829623
11021,7445,.080222578
4007,8160,.037941826
2504,7667,.025092140
1502,8837,.019931613
