iters,price,time
494486,0,2.731692536
465929,0,2.524237768
463424,0,2.614746227
500498,0,2.565498028
500999,0,2.715995138
449396,0,2.682364022
5009,19381,.041759168
447392,0,2.542263435
27053,20335,.211387567
453404,0,2.505934700
