iters,price,time
489476,-133,2.395506549
470939,-126,2.313013163
465428,-136,2.008540108
463424,-246,2.324624014
480959,-71,2.382890445
501500,-246,2.581309649
2504,2125,.023584161
477953,-192,2.340460248
475949,-181,2.155069487
475949,-248,2.287251607
