iters,price,time
701900,-1452,3.881802839
673343,-862,3.706719099
675347,-1168,3.894333069
687371,-1454,3.704932768
687872,-1452,3.940122387
755507,-1452,4.286761274
677351,-1,3.891523469
6011,19637,.046713255
679856,-1270,3.903891043
685367,-1452,3.858694900
