iters,price,time
456911,0,2.491332336
10520,21150,.079479255
14027,19283,.097802938
415328,0,2.400059609
27554,21372,.204418666
13526,20125,.100930001
4007,14859,.034963013
14528,19867,.114799266
4508,17702,.038229011
2003,16305,.020138755
