iters,price,time
1001,4980,.022460526
4508,6821,.036901877
4508,6239,.038423618
11522,6035,.067879456
3005,4486,.026815076
10019,6548,.076029757
1502,6518,.019727918
1502,5948,.019044537
541079,-404,2.836129023
5009,7076,.045181996
