iters,price,time
2003,6259,.028082180
7514,7075,.045163767
2504,7714,.024259723
6512,7252,.041977681
1001,5910,.014392617
1001,6156,.013589537
16532,6700,.113729946
1001,6884,.013841273
18536,6800,.118723324
4007,7648,.035851758
