iters,price,time
8015,19181,.054854785
13025,16035,.098616585
2003,18539,.019376206
3005,19568,.028070143
267032,-572,1.175144152
1001,18013,.014336300
15029,19663,.090419534
1502,12011,.016820387
2504,20115,.023774489
10019,12725,.072974948
