iters,price,time
465428,-206,2.545091344
478454,-117,2.568110900
485969,-81,2.743202394
482963,-208,2.622154359
484466,-135,2.649125393
497492,-109,2.624035683
478955,-121,2.671633550
515528,-151,3.017189341
510017,-117,2.858802933
454907,-242,2.113958909
