iters,price,time
671339,-3,3.211580804
10019,22977,.075362440
668333,-3,3.126578933
647792,-3,2.823871144
649295,-3,3.133814054
2504,22284,.025748576
1001,22639,.015052178
5009,23673,.042813711
33566,23380,.224217594
17033,18603,.123210142
