iters,price,time
459416,-1,2.422723705
481961,-1,2.987633011
472442,-1,2.165060946
500999,-1,2.766180169
455408,-1,2.326743920
34067,12814,.204301716
448895,-47,2.647125332
511019,-1,2.682398474
490979,-1,2.632214358
577151,-708,3.076953081
