iters,price,time
1001,22229,.024770269
7514,22197,.052459072
1001,21070,.013011345
5009,22224,.041690041
1001,20909,.013769135
1502,23184,.016758358
1502,22530,.016790535
3005,23141,.024817826
1001,14152,.012837773
1001,19734,.013403786
