iters,price,time
459416,-261,2.405598560
384266,-341,1.943168359
465428,-285,2.365446445
18035,2055,.102458263
2003,2014,.019874490
446891,-89,2.344847947
455408,-242,2.209018711
445889,-287,2.202144270
466931,-158,2.266768108
465929,-296,2.503141386
