iters,price,time
11522,2540,.092011991
3506,2814,.029892132
6011,2488,.048157308
19037,2595,.135679946
17033,2931,.122351605
2003,2814,.020921663
1502,2499,.016625253
17534,2455,.100834608
6011,2660,.049880535
1001,2814,.012820956
