iters,price,time
258014,0,1.448868001
3005,19414,.026100254
23546,19095,.129673340
8015,14795,.066598981
244988,0,1.329851897
6011,17497,.050784545
286571,0,1.549593725
23045,16954,.150311200
261521,0,1.358374901
18035,16829,.130640320
