iters,price,time
11522,18497,.073822148
457412,-470,2.407933527
461921,-762,2.306673866
463925,-33,2.081323685
2003,15468,.020177930
532562,-762,2.804454382
444386,0,2.155599708
438374,0,2.250289124
6011,12997,.047194010
449897,-204,2.309870200
