iters,price,time
2504,20429,.035823319
403304,-860,2.355257254
415328,-860,2.452917970
427853,-860,2.254643889
389276,-860,2.153066687
40079,16969,.207453095
4007,16544,.033849358
408815,-860,2.100269607
2003,16012,.020329044
24548,18726,.175162955
