iters,price,time
657311,-1,2.937814359
675347,-1,3.220710288
3005,15706,.034851065
2504,17198,.026432019
660818,-1,3.155124310
1502,17200,.016777460
6011,15608,.046845904
5510,12887,.046932310
693383,-1,3.042411014
681860,-1,3.179442123
