iters,price,time
468935,-188,2.678133825
21041,2944,.145105547
489476,-187,2.479388247
483965,-17,2.104488333
474947,-188,2.185454885
470939,-186,2.290024967
496490,-157,2.478060953
467933,-159,2.235835400
461921,-111,2.285759062
470939,-132,2.318615705
