iters,price,time
436871,-67,2.018493417
23546,6537,.144921831
492983,-2,2.561199448
1502,7894,.015900006
3005,7058,.029814363
599696,-10,3.289556434
593684,-10,3.260240743
484967,-11,2.273854384
475448,-10,2.449350215
574145,-11,3.042783596
