iters,price,time
508013,-14,2.824946678
537572,-1,3.089019074
551600,-1,3.191876170
526049,-14,2.960237675
539075,-80,3.335307279
556109,-653,3.201164117
509516,-14,2.854284524
547091,0,2.992940859
527051,-727,3.040451039
17033,17320,.143316714
