iters,price,time
482462,-3,2.300536671
22544,18842,.162849815
6011,20567,.046683079
523043,-1297,2.526506653
5510,20710,.044153219
3005,20181,.028942000
525047,-736,2.441918384
5009,17243,.040810088
481961,-26,2.302401433
6011,20502,.048116881
