iters,price,time
5009,15592,.043614618
4007,24137,.035691140
2003,19977,.019213790
2003,24473,.021705652
2003,14020,.018283831
2504,20685,.023284122
2504,20455,.025008300
1001,15102,.012430800
1001,12835,.012161014
2504,24053,.023011611
