iters,price,time
681359,-532,3.028184790
671840,-740,2.807416844
677351,-740,2.939950836
686870,-521,3.246474850
644786,-740,2.907059902
674345,0,3.190039201
669836,0,2.947571013
5009,12165,.040106672
657812,-147,2.938709711
671840,-84,3.017213963
