iters,price,time
6011,18062,.059146100
1502,18485,.016570845
495488,-476,2.518838839
522542,-220,2.743440489
581159,-1007,3.189877091
16031,18328,.116393642
6011,17512,.048304259
507011,-334,3.225209079
3005,17251,.030407554
529556,-408,2.920081276
