iters,price,time
646289,-863,3.282944069
4508,12311,.036389136
617732,-1621,3.451927274
649796,-2047,3.646394521
671339,-1797,3.756763223
608213,-1269,3.698909135
644285,-2355,3.360143910
5510,15375,.044446495
632261,-1731,3.033771451
636269,-653,3.421714843
