iters,price,time
688874,0,3.473848994
678353,0,2.998304910
701399,0,3.773091097
702902,0,3.151413562
4007,19281,.033013528
690377,0,3.690296820
685367,0,3.445106179
4007,18611,.032705444
657812,0,3.372924038
686870,0,3.451872023
