iters,price,time
2003,15881,.035684735
1502,15625,.015430272
2504,18558,.022042938
1502,13676,.015796679
606710,0,2.668764591
1502,13091,.016314710
2504,14922,.018914759
543584,0,2.802336009
1502,16364,.018128640
5510,13393,.044720028
