iters,price,time
1502,6795,.033239682
517532,-444,2.446099712
2504,6423,.023664505
10520,7091,.080209343
2504,7328,.024880396
523544,-392,2.665293111
16532,5840,.114847283
18536,6085,.098383508
485969,-491,2.333313311
494987,-65,2.099581146
