iters,price,time
681860,-146,3.101327698
676850,-915,3.182926689
630257,-1209,3.156277245
611219,-1256,2.945041845
678353,-1404,3.205105322
582662,-828,2.877282644
568133,-1277,2.835627519
6011,11905,.047256339
662321,-920,3.344668872
534065,-1698,2.554114075
