iters,price,time
15029,2111,.086809013
2504,1900,.024856104
28556,1925,.176754790
10019,2203,.073679481
5510,1995,.043817466
1502,2279,.018591469
438875,-123,2.117692641
17534,2312,.129385690
9017,2162,.067669694
459917,-47,2.011778357
