iters,price,time
1001,20075,.030286581
2003,18112,.019292221
1001,18914,.013807594
1502,17699,.017335909
2504,14503,.022823276
1502,15344,.016240352
2504,20048,.023610962
1001,18867,.013636992
3005,16035,.026656483
4007,19996,.034787802
