iters,price,time
2504,3138,.039570702
4007,2789,.034137879
1001,2849,.015261580
2504,2254,.024376165
7013,2510,.056031035
12023,2527,.074732566
4508,2619,.038827430
2003,2817,.022213228
1502,2035,.017053687
1502,2316,.017082098
