iters,price,time
590177,0,3.059399332
580157,-197,3.204836293
11021,6830,.089670196
582161,-1,2.954055678
593183,0,3.307690639
589676,0,3.370976633
610217,-290,3.137841218
600197,0,3.511493652
609215,0,3.379573408
577652,-1,3.340900613
