iters,price,time
479957,0,2.663511442
3506,2296,.031879254
469937,0,2.659090716
4007,2365,.035184852
489476,0,2.471042877
475949,0,2.626677320
3506,2311,.035135799
481460,0,2.687165432
501500,0,2.779504569
482462,0,2.714924860
