iters,price,time
327653,-122,2.042253124
1001,2255,.017792767
3005,2584,.030753907
316631,-122,1.835937570
2504,2165,.032519534
23546,2931,.176757435
19538,2424,.166443400
1502,2637,.022038899
314126,-122,1.839027701
28556,2992,.236817614
