iters,price,time
13025,19236,.108079538
679856,-273,3.465297830
10019,19743,.073999869
55109,19273,.270781470
651800,-221,3.269987599
654806,-364,3.369823857
641780,-329,3.183891210
6512,14219,.049631964
679856,-233,3.273682842
633764,-297,3.240670287
