iters,price,time
481961,-11,2.561071063
461921,-85,2.855479516
496991,-92,3.067051505
452402,-1,2.966868595
1502,1785,.017784090
3005,1726,.026166160
467933,0,2.664490205
8015,1522,.059650028
1001,1553,.011582782
537572,-11,3.050071062
