iters,price,time
477953,-35,2.201879959
481460,-105,2.098954206
492482,-4,2.220956066
495989,-105,2.127059084
475448,-9,2.036950786
430859,-108,2.074884641
472943,-99,2.305996635
499496,-105,2.116284318
483965,-7,2.411609439
475949,-2,2.060812878
