iters,price,time
629255,-379,2.791205817
661319,-436,2.941350749
669836,-503,2.849479738
634265,-436,2.878156591
617231,-440,2.769784579
644786,-383,3.140257220
609215,-436,3.167530172
632261,-436,2.909560350
622241,-436,2.733968641
620237,-436,2.815606981
