iters,price,time
588173,-76,2.708023127
569135,-76,3.241845399
16532,8254,.128606605
8516,5735,.069741243
600698,-3,3.320748793
396791,-1,2.260765690
597692,-33,3.148361182
1001,6832,.014413939
568634,-33,2.706187025
11021,6408,.080778336
