iters,price,time
546590,0,3.144741323
473945,0,2.811766704
472442,-11,2.890825050
462923,-1,2.642113219
496991,-6,2.710200468
476951,-1,2.422518177
546089,-1,2.841732292
491981,0,2.844909681
472943,0,2.834583983
467933,-1,2.713027445
