iters,price,time
667331,-780,3.752320008
688373,-396,3.950524856
697892,-325,4.035552487
657311,-620,3.757899005
665828,-132,3.749730499
685868,-780,3.760383898
671840,-78,3.883420258
663323,-726,3.537035912
669836,-5,3.547406841
646790,-780,3.397657522
