iters,price,time
31562,7344,.211568192
15530,6838,.103811111
568133,0,2.812167938
7013,6844,.055783242
537572,-32,2.465034489
470939,-28,1.978847141
19037,6900,.137016798
1502,7098,.018007217
528554,-4,2.433255412
514025,-55,2.442249086
