iters,price,time
571640,-30,3.100845356
556610,-123,2.826985292
577151,-123,2.957980200
581159,-123,2.434454902
1502,5389,.020561217
592181,-119,2.568681401
15530,6860,.098298572
566630,-123,2.887239802
580658,-123,2.806283936
571640,-43,2.428129711
