iters,price,time
11522,14907,.081830419
368234,-587,2.220678505
2504,14604,.025689308
5510,16089,.058214583
336671,-274,2.278530138
336170,-979,1.884730945
351200,-465,2.166030095
362222,-682,2.169730995
3506,20104,.033189450
350699,-397,2.096159971
