iters,price,time
476951,-163,2.664243483
488975,-165,2.893562953
473444,-101,2.669317368
488975,-164,3.303129914
470939,-165,2.775055292
477452,-164,2.901724786
468434,-167,2.551865633
462923,-138,2.808077438
482963,-165,2.642112813
502001,-162,2.731110182
