iters,price,time
1502,5345,.025276368
1502,6668,.019071583
6011,7980,.050117051
2003,7171,.023758484
1001,5695,.015477062
1001,6641,.014302414
10520,8318,.082373418
1001,6488,.014461554
8015,8236,.056193767
11021,8576,.082954269
