iters,price,time
677351,-639,3.377405596
8516,15956,.059436089
680357,-1,3.407338872
668834,-375,3.379171023
673343,-752,3.146874078
688874,-752,3.430733810
1001,11559,.012891511
683363,-599,3.275977723
4007,18063,.033462568
657812,-1353,3.114379391
