iters,price,time
667832,-2214,3.672535654
670337,-1496,3.835718908
693884,-2369,3.468228201
648293,-1567,3.802757844
684866,-764,3.686883775
684866,-765,3.786131935
673343,-1412,3.169460905
657311,-1451,3.573894822
663323,-708,3.563294679
684866,-2098,3.151299132
