iters,price,time
1001,14737,.028754176
1001,16944,.013187808
1502,21397,.017207557
1001,15107,.012825890
1001,12621,.014267393
2504,17262,.022619927
1001,13943,.014056941
1001,18032,.013455360
4007,16109,.033902369
7514,16998,.059304522
