iters,price,time
2504,2068,.037156323
1001,1985,.013385621
2504,3302,.023244035
18035,3381,.124403800
6512,3131,.053247160
483965,0,2.473154357
6011,2241,.041843800
8516,2903,.054490699
1001,2046,.012484613
4007,3162,.033845220
