iters,price,time
585167,0,3.476989481
17033,8363,.168210045
567131,0,3.214747793
610718,0,2.834387222
595187,0,3.252539387
609716,0,3.427587161
595688,0,3.341731047
601199,0,3.537309971
580658,0,3.474978229
617231,0,3.641044502
