iters,price,time
628253,-3,3.038128742
641279,0,3.281513523
675848,0,3.599123508
574646,0,2.974983517
729956,0,3.965100594
544085,-2,2.756799449
640778,0,3.582276255
591179,0,2.999106093
585668,-24,2.984742040
619235,-12,3.112502185
