iters,price,time
4007,2404,.035623757
7013,2468,.057336964
457913,0,2.357579371
476450,-6,2.321605960
20039,2183,.146413108
3506,2834,.031475081
468434,0,2.309389776
23045,2649,.127656146
482963,0,2.427157557
2003,2846,.020118030
