iters,price,time
2003,18153,.039123082
9518,18079,.061488917
13025,20057,.094814833
10019,19268,.066355606
650798,0,3.154042641
11021,19804,.080767966
23546,18255,.167345551
631760,0,2.673548829
14027,19716,.102734989
2003,17066,.021906507
