iters,price,time
11021,5329,.130466498
597191,-24,3.090306005
587672,-20,3.075332270
598694,-20,2.766069372
598694,-20,3.127134977
559115,-21,2.385087709
577151,-21,2.782207650
567632,-21,2.708440190
593183,-20,2.927379488
589676,-20,3.002505266
