iters,price,time
19538,23125,.156047498
384767,-1287,1.822190688
4007,16573,.044387651
408815,-1051,2.099988404
380258,-1239,1.624714914
405809,-100,2.015470845
399797,-651,1.996722676
353204,-700,1.694538022
407312,-1239,2.292663750
418334,-858,2.028114291
