iters,price,time
618233,-759,2.632715956
685367,-758,3.002960476
669836,-751,2.850507153
670838,-124,2.902845124
671339,-680,2.934916440
611219,-752,2.539972186
675347,-758,3.035966391
635267,-751,2.837642785
655808,-751,2.937794611
17534,21567,.107354099
