iters,price,time
483965,-20,2.480734347
468935,-6,2.093222547
497993,-1,2.618322607
486470,-3,2.652431332
464927,-10,2.460448582
480959,-2,2.532902723
483464,-2,2.519041517
490478,-2,2.340979245
487973,-6,2.354820523
485468,-3,2.610032640
