iters,price,time
8516,13101,.071146075
6011,17140,.054870155
23546,17422,.172620382
587171,0,3.003841056
4007,14416,.040863205
2003,16591,.026692802
2003,16336,.024763913
1502,15848,.020428254
2504,11053,.025158627
29558,16729,.214306340
