iters,price,time
2504,6316,.061965131
4007,5320,.059342985
1001,7425,.023353694
2504,7150,.035144831
7514,6557,.074687704
2504,6875,.032455997
4508,6789,.038253417
567131,0,3.124219275
13526,6718,.102896182
1001,5767,.016661808
