iters,price,time
665828,0,3.593302187
650798,0,3.534333798
670838,0,3.527404928
677351,0,3.731661064
685367,0,3.585211997
656309,0,3.732277282
688874,0,3.761341536
675848,0,3.681726405
669335,0,3.658002182
680357,0,3.685110539
