iters,price,time
4508,17509,.054313090
2003,19122,.020640008
562622,0,3.201661089
589175,0,3.853444250
5009,13149,.043990667
2003,16900,.019524665
11021,13626,.080033907
4508,16279,.043514617
508514,0,3.112785552
554606,0,3.061816651
