iters,price,time
649796,-1003,3.310857727
660317,-65,3.410713518
676349,-1,3.730148344
659315,-872,3.559765558
612221,-677,3.372419953
666329,-309,3.777895769
636770,-1015,3.199926575
686369,-981,3.797345511
650297,-912,3.593284268
661319,-1051,3.436259325
