iters,price,time
4007,2620,.050752663
4508,2877,.038028918
4508,2124,.035653734
18035,2538,.131894103
6011,2815,.050651795
1001,2227,.013162499
466931,-11,2.556903806
3506,2451,.029870240
1502,1978,.017441806
1502,2614,.017010626
