iters,price,time
2003,19840,.022341879
630758,-303,3.765531631
1502,21416,.022785187
1502,22378,.021709720
3005,20048,.033439047
1001,13422,.015324450
19538,18926,.141906051
18035,22377,.134801886
4007,22378,.043109421
631760,-2,3.267659501
