iters,price,time
14027,6223,.117509922
559115,-8,2.480325605
1001,7062,.014740654
11021,5969,.084138398
541580,-8,2.892061635
583664,-28,3.211369224
559616,-3,2.870772195
16532,5877,.093737316
3506,5556,.027408010
548093,-8,2.753768100
