iters,price,time
360719,-160,1.697563857
317132,-224,1.415371809
21041,3259,.157106504
339677,-154,1.647487897
337673,-218,1.484314834
340679,-297,1.617041676
327152,-22,1.515239136
320138,-54,1.603558993
314126,-219,1.319808685
355208,-218,1.726309049
