iters,price,time
393785,-2,2.221482948
393785,-2,2.273089952
410819,-2,2.301506411
40079,17873,.237055363
5009,15615,.041491160
2003,15876,.019449612
351200,-974,1.920823238
389777,-2,2.064380352
442382,-25,2.417243046
397292,-2,2.234420818
