iters,price,time
3506,12384,.035235028
415829,-2203,1.744333516
3506,16105,.031001514
23546,19698,.166744446
392282,-2152,1.708838694
6512,21193,.052507149
403304,-2218,1.716846257
4007,18115,.031921670
5510,17065,.042780678
1001,11912,.013781213
