iters,price,time
477452,-6,2.237888302
496490,-9,2.450751536
526550,-12,2.385587945
468935,-7,2.156895676
483965,-10,2.371999997
503003,-6,2.352323847
478454,-8,2.324975076
471440,-8,2.340980995
485969,-13,2.384385460
506510,-6,2.484990669
