iters,price,time
1001,2257,.028097490
23045,2043,.163956262
19037,2077,.129885887
13025,2287,.103658806
41081,1989,.224116942
30560,2064,.175227474
6512,2328,.041322213
475448,-160,2.226160401
468434,-57,2.085795299
8015,2666,.062112248
