iters,price,time
551600,0,2.685714672
574646,0,2.755513229
504005,0,2.771774867
545087,0,2.512163160
504506,0,2.724187494
497492,0,2.619374099
479957,0,2.364806216
502001,0,2.562065671
8015,20214,.059386780
545087,0,2.573687262
