iters,price,time
371741,-43,1.702298549
392783,-33,1.732055157
17534,1542,.109073348
403805,-63,1.856574018
377252,-42,1.658389292
441881,-6,2.149747071
388775,-64,1.673725495
460418,-6,1.904408223
466931,-7,2.106256886
403805,-61,1.805061480
