1 20 75381 1436 59 1715 164 8080 791 5945 622 1086 66 2160 184 5851 554 6012 581 604 74 8557 855 2687 328 9503 952 9769 978 290 83 5467 548 6593 658 7303 715 4853 497 890 71 5426 505
2 20 67601 7018 703 2962 323 317 62 9354 936 3334 284 298 99 6704 649 5711 576 3499 310 6011 640 6396 661 1660 239 586 122 8287 814 3531 327 6539 671 1620 226 5295 505 1966 225 3414 315
3 20 89738 5489 589 6281 662 9551 953 5872 618 5348 566 1982 153 9507 950 5915 557 3449 289 2697 292 6336 649 7004 686 860 171 4770 489 7425 741 7816 793 6907 679 7073 726 460 36 7431 726
4 20 74974 5422 560 7800 779 8667 873 5383 523 1978 217 3500 403 3154 271 7679 750 3293 281 4710 479 3042 330 8180 827 1012 182 6657 636 3215 387 3789 416 2188 157 6421 635 2605 325 5023 484
5 20 74741 9262 927 4367 457 6377 670 9656 964 2014 214 8001 811 7739 785 679 132 2275 246 4838 443 7758 788 1373 204 7723 791 959 162 6385 632 5528 525 2597 247 1601 182 1617 205 2678 251
6 20 77653 7906 803 6048 571 988 95 1876 254 5573 583 6338 648 4749 514 3987 431 1314 172 7697 774 626 41 9480 946 1244 149 4535 428 7959 787 4342 454 432 118 6446 647 9184 914 6343 645
7 20 88237 3237 264 6594 637 5748 582 8082 815 2419 218 1139 132 5014 538 9798 981 6412 667 5858 570 6977 718 4710 458 4296 412 2801 331 1669 180 9328 929 9896 990 2646 268 3973 398 9700 973
8 20 81824 9920 992 9108 918 5528 546 1843 141 2256 195 4629 433 4334 484 2178 261 4074 378 9422 938 9082 905 6627 691 8585 850 799 44 3863 411 968 40 7094 710 2803 327 3781 395 5387 571
9 20 84997 9248 923 100 71 1034 114 3316 313 5332 508 4479 463 1569 123 5282 501 9809 980 4499 482 836 15 7841 770 4897 521 8224 808 4796 433 8095 822 4013 398 4533 493 8444 833 9900 991
10 20 71967 8129 818 4439 417 2366 216 2965 284 2429 308 8891 899 6693 670 3119 267 619 11 3835 341 1188 121 8058 821 3252 325 4225 456 4398 463 8009 797 7181 695 2738 219 4427 498 2998 310
11 20 72533 2626 278 4006 369 8787 876 9400 939 9612 963 4612 462 419 73 72 93 2422 208 3291 309 6765 703 2952 261 9931 993 3165 262 36 93 5671 580 3194 379 1697 111 2829 295 9180 924
12 20 82036 2883 334 921 12 336 126 3130 298 5983 560 2760 232 7456 761 8950 906 3240 258 7872 785 8973 895 2600 217 6318 603 9629 962 6596 626 3320 323 7734 765 3234 389 8545 840 2066 275
13 20 85328 4888 445 1491 155 7055 723 8385 841 3477 292 9629 964 1195 168 5567 526 6317 661 8746 874 3852 358 8360 836 5008 473 3202 357 7295 713 1402 166 8661 879 5917 623 1741 190 4473 409
14 20 92355 6526 681 4728 452 9549 954 9989 999 6342 633 6578 630 6726 690 5900 563 9561 954 2274 189 5240 493 4940 541 4730 437 4200 382 4399 398 5046 514 2907 250 3849 436 4288 420 7672 750
15 20 98553 3613 397 9202 924 6328 662 7990 786 8978 889 8501 859 4146 404 999 78 6942 691 8976 903 3925 350 7359 754 5358 571 1623 239 1153 187 7972 777 7503 766 4160 459 9318 926 9146 912
16 20 76541 7104 685 4123 464 9341 939 5945 558 1999 174 8191 813 6876 711 104 82 33 59 1992 264 7868 773 1972 223 4492 481 9255 921 3939 362 4108 363 4114 388 587 114 4084 399 9550 953
17 20 91889 158 75 9783 978 7536 736 1350 123 2726 291 8687 877 9090 910 4648 492 2984 332 3574 363 9668 966 6126 577 4594 499 3154 365 5756 537 1328 145 9326 932 8566 868 6877 686 8931 896
18 20 72845 1820 174 190 62 5262 539 4936 512 4505 406 6190 621 4107 384 9242 925 1177 165 2407 170 7237 702 5241 495 7786 782 421 134 5664 568 9077 917 1408 162 1434 145 3643 366 9310 929
19 20 79170 5922 566 1285 172 3554 328 2156 220 1338 54 8683 868 8486 854 9250 930 4563 482 8329 847 1413 190 6939 695 2607 221 3195 314 3066 309 8828 893 360 42 9129 911 2298 163 7562 760
20 20 81932 8117 820 2355 199 4358 394 6646 656 9056 901 5572 518 3805 319 4711 423 8752 873 3637 365 4641 476 4281 392 7702 771 2668 197 1590 186 8785 887 664 20 1161 176 9727 972 4188 462
21 20 92917 9471 948 8977 900 1219 56 4637 437 5395 539 3311 272 6732 661 1653 129 5695 613 6869 671 1568 220 7422 768 6550 686 5990 566 6517 654 6929 672 4277 427 7335 711 8459 839 7141 738
22 20 62012 8813 879 2931 360 2284 301 5300 568 5946 592 804 52 6520 666 791 112 558 82 26 13 237 28 7567 750 194 74 185 81 6930 698 7076 716 9672 964 6522 685 2482 191 2678 284
23 20 67183 7533 778 820 58 5730 615 3745 430 6478 648 81 12 1000 172 2878 322 4563 503 743 97 4840 530 2801 314 8690 875 4888 516 237 6 7213 727 2996 287 5767 610 7677 751 5299 513
24 20 83382 9787 978 7760 759 6299 639 3857 402 9301 933 7407 722 4681 508 9068 908 1215 121 3255 362 1295 185 9756 976 4931 457 4055 417 365 84 3109 352 1183 182 2365 220 5303 514 9236 929
25 20 83137 6815 685 4252 475 2962 250 9652 965 3684 331 9961 996 3803 423 4494 431 4796 486 5419 585 5398 545 2875 237 200 28 8668 875 2410 316 1335 100 4473 488 9714 970 8361 823 4650 481
26 20 79223 836 143 5119 552 3887 442 1541 239 8276 838 7890 806 9778 978 3638 348 884 155 7618 744 4464 435 149 74 2177 146 9416 945 8701 862 2555 205 9316 931 232 30 4997 517 7555 732
27 20 82549 2883 308 3862 414 4590 443 3977 364 8567 843 7651 788 4104 406 8995 910 5800 578 1785 226 7158 740 1405 211 1635 190 8335 819 8477 843 8883 893 2169 205 2921 244 4954 465 5036 533
28 20 79407 3241 297 6575 667 896 163 835 56 3404 328 4388 431 806 119 8510 840 6779 707 558 134 4663 492 1982 264 4831 444 9455 946 8704 860 9276 930 3001 359 8945 887 8392 836 4018 443
29 20 77608 6646 662 1397 141 8355 850 9650 963 3544 313 5193 472 6724 678 1010 51 7357 726 8631 852 9562 957 1378 209 7030 701 3444 300 2215 219 4250 377 1486 137 4522 499 1276 128 3340 371
30 20 85228 3569 360 6035 610 2979 304 6945 684 7054 713 9480 954 3893 442 1071 171 4576 483 2710 272 4861 485 5080 495 7869 769 9758 974 6770 687 1808 220 8021 803 5557 564 3810 364 4689 484
31 20 73946 9677 967 4218 433 7502 735 202 60 3335 393 6143 585 9915 992 8400 829 2731 325 2251 165 1155 155 1100 165 6455 669 3710 433 4386 459 5155 522 7540 760 307 49 357 47 7894 804
32 20 82408 6941 685 3216 333 5963 637 7661 743 3815 435 7511 756 7797 768 519 33 109 38 1541 189 9189 915 7827 788 8950 896 2164 177 6330 664 5856 585 241 53 6478 626 9112 905 1791 221
33 20 83587 458 8 5477 591 6696 643 5122 474 9784 978 1676 100 8378 831 7837 773 2621 218 7590 770 7046 723 7483 755 1809 129 2540 235 4829 532 3913 452 9975 998 3143 367 5902 595 2205 160
34 20 76021 1877 113 6805 706 5160 473 3516 381 9060 904 5422 560 4718 495 8499 850 4735 475 815 26 7572 763 9485 951 3150 254 7711 789 3147 301 794 82 5374 565 79 28 3656 387 3452 389
35 20 68863 1250 83 9886 989 7240 722 1796 229 7090 685 2082 168 9774 979 532 60 2440 265 1247 106 5166 548 3635 373 399 49 34 32 2592 272 3051 270 7996 783 7560 767 5546 539 6763 696
36 20 77384 9686 967 9176 925 1453 122 4666 436 2072 172 7361 762 211 55 5782 616 3776 362 4550 421 4466 400 1968 191 6353 668 8223 813 7037 692 1323 137 6277 639 7403 734 2394 180 2554 263
37 20 73911 158 37 6534 623 4897 464 3838 351 8735 878 7021 702 1692 211 1867 253 4679 516 9309 936 5665 570 8789 882 179 97 9955 996 1629 149 1022 14 3550 416 1741 253 9580 959 1549 234
38 20 96053 4891 521 3719 318 9377 932 6292 648 5488 525 5395 569 4213 370 8453 850 8763 875 8002 794 6244 659 3493 290 1470 109 9593 962 6311 614 6423 672 4262 432 9515 951 371 20 7792 781
39 20 70748 3006 272 2558 199 7057 687 3674 414 330 32 2045 150 5939 623 2427 299 8790 879 6911 683 2266 295 3916 382 9179 919 5413 542 7891 804 380 69 3968 396 7363 715 1961 182 3361 387
40 20 80204 2748 338 9169 909 5522 551 3280 268 6386 655 217 31 8085 796 4062 413 4530 422 1318 79 492 4 3222 346 1796 191 5180 529 9160 925 8858 883 1516 174 6880 671 8004 798 9830 982
41 20 84307 3784 371 6378 612 4970 519 3334 350 6306 648 1394 90 7180 733 9815 982 8059 789 8034 812 6611 645 6498 631 2501 238 83 20 3978 375 145 38 8793 891 8129 802 6359 650 3033 248
42 20 76684 9785 978 3852 393 6826 665 2010 158 5686 578 9260 927 2832 273 1535 229 7448 771 4624 512 7747 754 3683 415 4063 353 4904 517 3784 389 8239 807 3815 410 444 40 320 14 4999 508
43 20 95246 7438 743 4485 476 2113 188 5082 551 3420 358 1784 170 3719 412 9064 908 9407 939 8406 832 6988 715 7026 675 8978 896 7591 765 8539 842 5370 536 5959 609 1301 78 3997 362 8391 837
44 20 68424 4691 520 616 112 1505 78 7166 719 2521 316 4511 481 3320 389 9381 935 232 82 2557 203 9971 998 7681 786 8273 816 3666 329 432 113 1619 151 3309 327 6009 610 46 75 8025 820
45 20 73848 6472 616 498 36 8835 890 1898 247 4251 414 3669 346 2718 200 6529 622 3408 284 5855 613 6047 617 3144 317 3396 312 3209 339 8159 798 4470 436 4742 506 5391 516 5886 597 3734 346
46 20 64852 2789 265 8976 890 220 79 5055 517 6400 636 4944 536 1541 132 972 150 7122 699 7777 793 395 6 4428 456 3374 315 990 184 4189 457 6625 654 650 75 6148 631 7260 749 1210 165
47 20 86689 3865 358 8641 863 616 149 8447 830 2791 289 9034 904 5106 472 9268 931 3199 258 932 183 4358 403 6370 609 8945 897 2695 204 6146 589 5777 595 9715 970 8392 842 2155 270 1910 228
48 20 80824 3444 367 6279 603 1493 233 6511 670 3726 326 9610 960 7008 682 1070 57 8437 849 7652 747 9580 957 5401 495 4731 512 5061 545 5969 599 1860 164 7792 761 807 73 3214 339 1385 130
49 20 69754 63 10 1734 209 9148 917 3016 310 9110 912 4275 392 4740 497 715 112 4630 433 5334 528 504 86 4468 480 5339 548 5499 506 5440 514 5046 496 6632 657 7103 685 114 84 4283 457
50 20 74654 2472 181 1245 186 746 47 1664 200 7981 794 8897 897 9829 984 736 159 6474 659 6739 655 318 103 8089 801 2114 289 2171 240 5861 575 7620 777 3014 245 2563 241 7355 759 7430 767
51 20 84288 9366 932 2573 274 366 102 915 130 1026 137 7067 713 6255 594 6708 666 8029 797 4063 430 9528 954 4735 509 8091 809 2321 207 8436 836 4134 412 8520 857 2926 233 8052 817 2250 292
52 20 87776 1053 52 6392 629 5558 577 3961 377 2782 232 4618 480 6675 689 8432 837 4401 459 6670 663 5856 592 2586 185 9328 940 8881 885 8413 852 5653 589 332 46 8611 858 1226 132 8293 813
53 20 87837 3564 367 3819 390 7504 755 1204 128 8730 883 5593 598 7105 731 8141 796 2017 145 5450 529 7743 779 4017 380 4257 413 8128 795 9999 1000 6972 676 2057 217 1603 196 3119 350 8775 883
54 20 73305 7421 751 6801 678 1483 149 3586 399 3867 351 7460 741 7052 723 1177 30 8570 859 5178 543 4925 538 4783 457 1498 87 5970 615 6953 687 561 130 1264 46 6757 670 875 130 5451 586
55 20 74149 1399 85 5575 559 6192 611 5484 590 6588 684 2487 259 189 4 3311 348 8581 861 6934 705 1258 47 7950 788 1493 187 1842 158 8838 874 9729 972 8866 878 1572 178 1443 77 2956 260
56 20 67362 9841 986 3864 350 31 100 924 22 641 30 1778 203 4041 447 3284 302 6216 614 7437 728 1721 163 8763 868 5111 491 3340 268 6662 678 4774 478 4448 495 1491 122 5010 479 4826 471
57 20 79796 3597 315 3602 365 8575 853 2194 297 3886 429 5281 551 4926 479 9178 910 4467 482 364 103 7631 771 3760 402 6949 701 7136 718 2167 185 3775 316 1552 205 3635 373 8530 860 8541 851
58 20 81092 9190 917 2800 286 9737 975 1756 200 4408 487 9350 941 4984 462 834 33 4557 448 3421 293 1235 92 9958 996 7147 710 6113 595 6272 640 4965 536 2503 288 5791 609 1628 134 4716 490
59 20 84088 4922 452 1210 106 9027 911 9954 996 2977 301 230 16 2377 241 7729 789 3011 323 4777 464 9023 910 6040 582 7640 778 4302 382 8207 814 8938 888 1566 155 1409 130 9635 963 2136 252
60 20 79564 8179 817 4688 442 1832 152 5841 617 727 91 66 34 3034 325 5437 579 4031 384 7170 703 9044 907 2365 209 9229 931 4248 401 5349 492 3032 324 7574 747 3 66 9815 983 7792 765
61 20 82932 545 145 7542 764 7683 763 7107 710 4259 463 8577 851 3960 425 6422 654 3738 345 5709 602 1623 138 9456 945 2309 167 7799 760 9304 929 8889 879 1209 55 1213 97 3449 404 2873 358
62 20 72728 2327 225 9967 997 2386 244 7257 738 6417 608 765 107 1086 27 9574 955 1812 185 2310 290 5870 601 8509 845 9937 995 2296 286 7611 769 2568 304 4223 385 2214 201 2451 227 1330 124
63 20 76846 5686 574 4748 451 4199 418 6470 655 1160 127 5138 556 2748 207 8901 893 5793 603 194 17 7414 736 4215 444 3291 384 6585 678 6497 642 5516 524 6162 635 1833 126 4443 464 5065 549
64 20 59135 3109 336 3556 351 3888 445 1246 118 5965 573 5423 530 8776 885 2240 220 4433 488 5343 574 5904 607 120 22 2194 166 4741 483 5446 530 1828 149 1215 47 1531 169 3363 284 3598 393
65 20 75499 8316 826 2307 231 999 70 4343 402 1544 122 4524 487 8470 853 8376 829 8497 850 8239 811 980 82 4324 382 7826 790 6282 612 4227 437 338 68 1337 206 9017 895 3589 389 839 142
66 20 92629 7904 797 8150 831 699 57 1461 108 8821 871 3772 327 1222 139 2333 261 1851 256 8018 798 9726 975 7367 719 3694 386 7956 802 4590 504 6281 592 7468 761 6846 658 9973 998 7655 763
67 20 75700 6750 681 1752 137 8580 847 1372 182 4909 536 9892 989 1420 125 4975 483 972 158 6148 583 4684 521 8035 820 4792 464 3300 316 7231 736 1541 190 544 139 7584 775 7824 783 2321 171
68 20 67783 735 5 9709 971 2941 284 5949 582 8644 858 2028 277 4833 451 2709 268 3529 406 4830 438 6236 617 9604 958 3143 260 8078 820 1496 170 1035 157 2969 339 101 61 5544 599 616 131
69 20 75417 2943 347 908 80 2642 222 6353 672 9082 917 657 127 8757 866 8493 850 9503 955 9761 975 684 143 3183 354 3704 402 1138 34 6603 665 9553 959 1865 149 243 101 6246 637 1954 205
70 20 75256 5393 542 6357 600 7176 698 4870 471 8891 880 7623 756 3278 316 3933 432 2369 266 1336 159 466 26 9335 932 1059 58 2502 280 6670 692 3373 349 3744 420 3476 358 4217 477 8003 783
71 20 86024 5005 548 9601 963 7026 698 5363 509 5119 494 1353 59 2791 241 2801 315 69 101 6009 625 9526 956 4240 401 2769 309 6691 693 8331 839 8856 878 3789 386 9492 951 5811 552 2889 241
72 20 84922 9057 902 6367 606 1353 128 383 91 9426 947 6478 667 9642 967 5002 496 4847 490 5958 585 174 25 7704 793 1037 190 9403 942 6704 643 6577 651 2417 282 2153 265 9619 962 1852 143
73 20 69072 309 40 7108 691 5965 634 8628 867 5019 477 60 4 1304 214 7535 763 8561 849 2348 279 8098 821 2088 163 3374 379 132 21 2122 180 4522 494 5196 562 953 166 3676 383 9342 934
74 20 78838 9404 943 9029 894 5959 571 7079 716 9123 907 3811 370 1442 192 7878 774 1340 190 2948 311 7987 801 5362 535 1271 47 1326 145 4885 530 3272 356 3938 355 664 39 5636 599 6194 591
75 20 99468 1849 204 2866 238 9463 948 6982 729 6736 682 8075 812 5776 600 4798 521 959 72 6922 706 9294 929 8087 812 5920 620 4179 369 6282 625 3591 368 8836 887 7783 775 7844 790 8093 812
76 20 65195 1237 195 2074 210 8141 830 4077 443 1310 201 5444 563 2462 250 5647 559 146 16 3464 375 9533 954 224 12 8912 898 1171 159 3370 375 9687 969 2783 286 3596 387 5234 505 2982 251
77 20 87895 9318 931 9381 939 8086 819 9687 966 5564 571 1641 98 6954 674 7599 757 7854 774 429 21 2069 198 788 106 1222 190 7256 699 3983 387 8153 818 5450 528 8810 879 974 54 4651 472
78 20 75120 6147 637 1336 127 3867 354 3094 304 6005 613 4000 368 7000 696 1154 62 6110 605 5573 537 4587 465 8235 812 8451 841 9547 951 6219 657 4507 405 821 151 2573 270 666 143 4009 422
79 20 65965 8014 800 1272 178 2831 255 4010 353 1392 217 238 53 1901 194 6903 716 8655 873 7224 713 3163 270 1122 186 316 24 6967 720 7291 714 3415 341 4087 426 2305 197 6628 676 4723 487
80 20 73281 7102 725 1717 144 4241 442 2512 250 3825 365 9557 954 2773 344 2852 281 3182 358 6396 609 3950 432 4742 500 6933 678 22 22 7598 742 7852 786 3089 325 2307 300 7278 730 3674 320
81 20 90598 6093 585 9783 981 8653 853 8390 842 9042 914 6945 682 7729 787 7998 817 3101 261 4683 486 1285 170 6360 604 1414 193 7592 771 1128 56 7916 775 9991 999 1132 72 423 6 3590 402
82 20 69548 584 89 6689 676 9555 958 75 7 1796 137 9850 986 4103 378 4590 445 1122 66 3486 284 1247 45 7471 724 2588 190 626 116 6035 639 5773 559 9993 1000 3967 441 3054 317 4331 452
83 20 71574 4248 436 2380 279 9634 965 3078 246 1215 85 7962 809 9278 931 6078 622 8219 831 1556 208 7789 771 2170 176 5163 522 1612 112 5029 458 6494 663 2506 258 2693 233 326 47 2038 151
84 20 89226 3151 350 4000 455 9957 996 9745 976 883 164 7645 757 3838 428 9153 922 7283 712 500 81 9539 952 3186 365 1964 118 7645 758 795 25 5650 585 8235 822 5664 550 5134 499 7566 770
85 20 88328 6216 612 6134 601 1756 222 4055 454 9017 906 9731 972 8197 829 7255 723 7131 741 929 171 2354 240 8013 806 2026 257 6721 661 9183 923 6350 666 1098 47 6792 655 4643 498 2809 348
86 20 87651 568 97 8730 874 8147 818 8793 891 6957 724 6342 606 4546 474 2142 271 747 12 8925 889 844 173 9200 914 9367 936 7014 708 824 112 6373 648 5369 538 1089 111 8609 867 4978 536
87 20 76092 1060 119 8651 866 8666 879 5881 571 3765 381 8165 818 1766 220 5559 563 7303 747 4545 481 1546 80 7655 780 2462 248 36 41 7665 751 6766 648 308 95 9091 918 2551 188 1674 86
88 20 74695 821 75 4195 435 7374 720 8377 823 7467 767 5880 564 2579 280 2772 271 4210 372 5337 522 1038 144 8515 843 2557 243 4030 389 2023 199 5440 558 7515 758 3537 315 1654 135 8048 810
89 20 69559 4345 386 4843 527 2606 204 8288 820 5051 461 533 141 2394 200 1600 188 3202 381 929 88 1829 217 2162 279 2109 154 6050 633 2961 279 9059 913 9475 949 2918 242 8581 849 8014 800
90 20 91792 8987 901 6614 635 8135 826 7122 736 7108 701 589 8 6316 664 6947 687 7985 785 7878 805 8757 877 844 103 4827 513 8415 831 5654 588 6524 648 4404 484 2036 278 4097 373 1502 201
91 20 91557 4581 496 7328 738 4713 490 7479 772 800 70 4245 389 5699 539 2205 290 4070 413 3930 407 9276 925 6981 686 7052 734 8836 879 8705 869 8716 883 89 96 3984 378 6145 650 9613 964
92 20 81392 6316 641 1885 216 7708 785 7421 767 1472 130 3762 439 3774 405 1991 201 9087 905 2729 257 6636 635 644 95 9779 979 1157 189 9792 981 227 68 7482 733 8001 814 2354 193 9523 956
93 20 71628 5325 570 1509 170 2716 317 5161 536 2370 218 4469 442 8027 809 8817 871 9401 945 5610 588 623 84 1607 131 1837 110 1560 219 9335 935 3277 329 6886 677 512 7 1355 99 9139 907
94 20 91946 5861 595 7470 746 9402 938 7986 799 4441 460 2246 175 6205 637 8353 835 4710 482 6641 634 7685 749 9579 961 5949 573 1671 196 4205 400 1578 237 4233 416 9973 998 4115 357 2630 224
95 20 91038 2814 323 7718 759 7563 755 5772 620 3024 281 7803 800 8161 812 4930 502 2708 329 173 92 8046 817 4001 452 6059 625 1720 104 5251 514 9038 905 6835 708 5339 532 9183 912 7660 776
96 20 82798 453 64 7959 783 2728 313 2617 229 5171 541 2506 311 878 108 8884 887 7111 703 7013 677 3532 305 8141 816 9878 988 746 46 6837 699 518 88 8443 831 8610 850 6127 582 5346 512
97 20 91660 8759 884 4636 461 6479 671 4456 465 1053 130 779 103 9725 971 2535 198 767 73 2465 308 6239 649 6560 670 3587 404 9531 953 8255 833 8065 803 9851 984 5436 564 8793 889 6604 672
98 20 65381 1663 154 2283 277 5011 515 6113 616 413 128 20 76 7325 749 2902 223 9107 917 2931 310 3788 336 3949 410 120 12 4338 447 3706 402 4366 462 1824 204 9465 950 2662 277 9741 976
99 20 73290 9999 1000 5328 529 472 128 1214 122 1802 115 4934 478 534 112 7803 795 1184 182 4479 411 6439 663 6182 655 3996 427 2752 271 6798 688 8343 831 9375 935 2298 176 3738 352 3943 393
100 20 83955 5555 559 8008 796 7577 736 9199 914 791 8 8938 890 8336 835 651 135 988 172 7586 743 8251 832 8713 884 3311 305 1717 183 3171 263 9278 935 216 97 3608 391 6380 649 2670 266
101 20 58618 1536 82 5022 482 1678 223 1430 121 2270 282 1784 137 6557 642 3687 419 2839 241 2999 300 1871 201 7901 805 5686 582 8128 801 804 20 1967 180 9103 907 3655 373 3202 377 1154 136
102 20 67282 876 108 962 96 7866 780 6859 708 3530 346 1301 192 947 17 2766 307 7677 751 9030 911 2580 251 883 92 3410 313 4243 401 4080 387 8394 836 4905 452 3304 352 6935 666 3555 391
103 20 83640 1297 55 7722 791 9262 933 1394 65 1677 187 8541 844 5573 558 3581 374 1185 130 9168 923 6500 641 7575 773 5122 499 8868 878 9773 980 2162 146 7423 721 1092 37 5521 593 1114 74
104 20 82468 4064 459 6474 630 8202 811 749 131 9409 944 5796 584 7130 697 5364 542 7773 758 3801 438 6235 614 3599 377 3889 443 6357 627 5691 542 2641 255 4711 500 6506 678 3375 286 1320 141
105 20 60802 7575 773 5764 614 90 37 4488 453 890 15 2953 239 2045 149 4312 439 8355 841 9949 996 5233 542 1772 234 845 32 669 9 3482 311 4766 515 1440 204 1597 230 1280 69 8498 840
106 20 64780 2561 204 1166 173 2157 165 4242 398 862 143 3781 367 2362 219 2527 273 9181 912 2978 338 7068 710 9756 976 2637 313 1410 173 1164 171 6152 584 3763 403 7826 805 3783 374 5599 522
107 20 79938 2004 162 2148 228 8094 824 9010 901 6033 579 7774 769 7818 794 6412 612 5673 578 914 80 43 65 6026 599 8870 878 8654 858 300 16 6051 616 1700 233 6183 639 1031 118 5185 521
108 20 78314 6896 660 689 15 3450 308 8277 823 697 44 6502 673 2360 251 5706 577 7255 750 2294 252 1912 261 9014 902 8579 849 5295 505 841 142 9562 958 7447 762 2182 146 4197 429 4738 458
109 20 85208 1330 83 9305 929 4640 518 2629 313 2733 344 897 13 7314 757 8545 863 5514 562 4483 461 4209 395 8045 801 1210 115 6621 691 6433 636 3458 365 8939 901 6476 661 6751 657 6979 701
110 20 71916 3370 365 2492 214 9833 983 4606 417 3281 326 1341 117 1332 112 5836 605 3610 398 6450 676 3074 358 6801 672 3946 452 9705 971 5059 470 745 141 9668 967 6287 600 2408 207 52 75
111 20 70904 2612 289 9183 913 4671 445 977 174 7466 724 9423 938 1333 63 5266 573 6511 662 366 3 3562 303 3434 331 9160 921 3105 377 9260 925 135 10 4058 389 7265 706 803 50 41 15
112 20 95387 2983 252 6084 630 6688 668 4662 477 9566 955 6812 665 3445 295 3122 283 9982 999 5875 620 2125 258 7820 765 8301 838 4533 428 3697 331 5707 604 5396 544 8447 843 8457 850 5532 549
113 20 73905 2954 258 3594 329 7135 707 9473 946 7553 751 2177 220 6587 670 308 111 321 45 9341 941 1822 182 4387 431 1755 218 9805 983 2516 250 5524 524 9722 970 4119 382 659 112 2630 237
114 20 104973 2466 250 9691 970 3263 366 8726 870 9911 992 8154 804 9857 985 5355 509 7034 698 7286 727 1292 113 9898 991 8771 876 6276 652 4425 435 1505 184 6100 645 2001 169 9443 950 9763 977
115 20 72004 598 2 9722 971 5320 568 3238 329 7698 774 3126 337 7624 761 3446 387 490 84 4755 488 2680 275 3906 347 4624 472 136 96 6899 684 6432 618 2805 212 56 66 7667 776 8783 886
116 20 77228 9486 945 1459 115 5774 583 9087 912 700 126 741 82 1412 224 6488 626 5048 495 235 81 8420 827 8007 804 3182 288 3341 306 4842 508 8911 898 2943 236 9317 932 5801 619 1341 68
117 20 79199 7145 730 368 127 4365 456 6867 710 972 48 4936 447 6655 639 3395 357 5536 564 5737 584 7989 789 7314 756 7985 789 5963 617 4884 442 262 92 8095 793 3043 299 3490 330 3998 388
118 20 75221 6556 671 290 21 5142 475 7018 720 501 64 9160 917 599 4 9857 986 5926 630 3764 399 2718 314 2517 190 6535 683 3141 273 9768 978 6168 612 107 85 8659 872 396 31 5205 518
119 20 79294 9742 976 6833 677 6696 643 8084 822 512 104 8013 796 2441 280 1732 102 2361 250 3163 323 7593 777 6182 591 5502 572 9643 966 1103 79 5840 597 3780 329 1598 231 2114 247 6186 638
120 20 81825 5502 528 9109 914 2660 222 4887 443 7104 732 4692 505 4277 474 854 106 1442 202 8911 902 7067 695 4075 411 1785 181 2248 160 9609 961 633 137 6579 669 9673 970 2057 259 9118 905
121 20 88860 2180 205 643 151 9572 960 9185 915 6117 611 5983 635 4415 465 8319 832 1338 58 5128 492 5909 619 9915 993 1243 94 3227 268 9582 958 8156 830 8370 829 4814 520 2191 273 4788 498
122 20 81201 5511 575 236 74 4703 450 436 36 2004 198 912 112 5757 564 3966 440 4453 466 5042 519 9012 902 5949 629 4657 459 1309 141 6902 680 6527 653 5164 560 9504 954 9532 956 9926 993
123 20 61896 9637 968 1930 123 1629 190 503 53 4038 348 4012 346 9279 930 8812 893 1425 172 2094 195 760 12 1080 152 1457 84 469 134 7676 747 9835 983 6454 626 1628 160 2060 166 2593 324
124 20 81640 6166 589 7433 739 1037 28 797 157 9849 984 2952 308 3214 269 743 153 6307 598 2854 226 2294 306 1819 199 8901 881 4198 466 6752 673 9623 961 8082 810 4974 542 6870 704 7186 737
125 20 69894 9140 922 467 136 5100 510 8459 841 7803 798 3892 361 3651 405 1405 188 4070 390 5045 482 174 48 948 74 7573 751 8600 862 9648 965 1603 201 4769 435 4494 448 123 44 404 134
126 20 86523 2359 221 5443 577 9420 940 6116 635 6496 637 2685 336 4893 451 3411 296 8859 896 5416 559 1530 221 5488 561 7028 679 3037 350 6790 678 4232 479 3709 375 2690 314 9494 948 9058 899
127 20 70652 513 39 3016 309 264 67 7688 764 4887 522 7398 766 1082 29 6943 667 93 63 6200 630 9090 913 1592 175 8351 821 9673 965 225 51 5231 506 5793 599 6820 666 2022 277 1434 120
128 20 75821 7588 761 9043 901 1145 128 2948 345 398 6 4016 374 1637 111 4757 462 1073 59 8605 874 2617 238 7068 678 9371 931 5134 492 7841 786 1215 47 5490 521 2635 330 5237 496 6959 721
129 20 89044 9393 935 814 117 9742 974 8420 857 4816 495 8348 824 9745 973 1567 122 3842 424 4125 358 3278 276 7168 699 2729 312 4443 433 1820 138 9911 991 5301 551 2471 308 4019 423 9354 932
130 20 81816 5771 555 9315 926 4678 485 442 57 8932 883 5316 521 4002 431 7117 720 5305 523 8145 822 4678 517 1108 30 1422 192 1453 138 3670 400 8942 893 6253 605 4672 477 8414 850 2636 249
131 20 78395 1529 200 7725 773 2714 293 1700 219 6220 623 3266 358 8407 851 9656 967 291 36 5543 563 1990 152 3681 324 8721 877 1094 51 9455 946 8207 839 6834 660 6318 648 1702 104 2941 351
132 20 70304 696 92 1096 115 7427 756 8825 880 5921 574 1754 220 8522 861 9901 990 7746 780 301 34 5598 562 514 141 1791 152 2341 207 3333 338 9499 946 3792 320 821 17 5093 498 2909 324
133 20 65424 1433 179 4513 497 682 67 1049 127 4880 453 3692 381 7653 774 1070 193 3611 382 5250 486 9224 924 2405 290 3941 435 5321 516 1287 191 9948 995 5274 509 3761 376 4416 482 2370 251
134 20 79498 9104 913 2009 127 407 92 6210 632 853 131 4695 417 1134 159 8231 841 4904 541 7488 724 5321 567 1389 78 3600 319 1792 161 1283 103 5783 607 9287 931 9191 919 6774 662 9918 993
135 20 95024 8101 800 5767 576 7548 738 5271 536 7205 738 3382 291 6520 681 4316 469 8833 894 8005 791 4913 448 3011 260 2067 219 8361 822 5247 535 8871 885 8892 893 8772 869 1911 229 1787 226
136 20 77932 5130 491 8461 833 147 49 7552 749 3731 360 4903 491 6151 616 3821 386 2696 340 2904 251 3935 450 3687 337 8241 840 4958 534 1328 127 9598 959 4142 379 7269 748 5195 516 3566 321
137 20 85991 7189 699 1854 159 4394 461 1557 148 3913 366 8902 891 7625 760 3111 274 9138 907 199 110 7741 763 4346 488 5762 538 8953 891 1623 219 6460 653 4978 510 5510 567 4296 402 9938 994
138 20 63504 4777 462 8068 796 2375 198 6844 658 1400 121 1876 166 5169 483 246 51 1749 221 5639 546 4182 400 4976 497 9070 900 1669 225 2367 197 5476 523 1331 150 5598 526 2040 178 4528 445
139 20 69176 1335 59 9818 984 4652 451 5891 575 7030 688 3242 357 2524 272 3489 381 8695 862 7023 730 7973 810 6704 649 4017 407 828 126 783 119 4936 479 4583 489 494 145 1168 107 1285 58
140 20 88224 8397 833 5375 580 7051 734 536 97 9408 936 6331 654 6801 711 5717 537 6425 673 3780 386 1833 238 6018 624 6875 667 1630 97 3548 315 587 97 8015 816 5971 635 8264 820 7719 779
141 20 82980 8430 837 4993 527 3121 327 4327 422 9407 944 8076 790 2535 249 6370 623 5422 525 3111 310 2225 270 9264 932 9899 990 8504 852 496 94 1231 150 5612 590 5548 513 3097 271 2057 273
142 20 73724 5974 559 322 47 9990 999 4086 404 8236 812 4662 512 9667 968 3825 344 3415 285 6718 658 4496 405 4370 481 1191 142 1566 130 146 64 9262 924 1604 181 2618 281 4940 537 5067 552
143 20 80801 5643 604 5471 590 4058 445 1684 227 1375 112 8344 826 4592 448 4531 454 8680 874 5298 533 9459 946 3168 289 4390 395 7990 783 2023 214 2638 239 6983 685 1603 177 3736 413 9336 935
144 20 78732 287 47 388 57 6886 720 1113 153 6566 643 9855 986 4991 497 1562 192 9787 978 7343 716 2786 215 6659 672 5692 578 4955 448 1380 61 5345 572 5490 539 3771 403 5392 502 8168 823
145 20 69707 7837 778 9484 945 3652 314 1663 198 760 16 9260 930 1918 261 1649 184 1421 93 4670 462 3121 381 7521 754 1714 100 630 144 8162 809 500 65 5681 546 4273 376 3233 364 9985 999
146 20 75456 392 75 4823 434 5851 572 5830 542 2371 278 4760 437 9808 980 621 18 1017 119 2095 248 1535 216 4963 476 7620 784 7791 796 7851 781 4560 468 4882 480 9571 960 1143 51 6837 679
147 20 75082 5726 580 3899 338 6586 668 6922 694 2816 303 9415 940 6188 604 4832 512 4997 475 967 161 3861 331 2011 259 8704 862 6185 610 8104 794 7204 730 1558 87 377 94 964 39 2537 321
148 20 72996 4783 464 1848 257 9755 975 1767 222 8274 820 7092 693 936 149 8905 898 5781 598 902 149 1147 67 4358 425 4216 467 9481 947 3849 433 697 15 7558 755 4973 462 2680 289 2244 218
149 20 93081 3328 386 6564 625 7641 768 4227 475 384 69 8739 863 5337 536 4589 431 8128 796 7712 791 9031 898 5407 568 6643 692 5179 492 7506 730 4145 466 6936 718 6487 643 799 2 7570 780
150 20 79732 8453 846 8707 870 8992 901 5475 558 8424 843 6325 609 3491 357 4311 441 1997 146 42 36 8792 873 148 11 8325 849 1921 195 4996 530 3768 341 4487 452 1094 109 2958 237 6959 707
151 20 71680 2690 290 1383 208 4885 450 5773 595 9190 917 2387 265 2677 258 7538 758 409 33 1812 100 6864 664 1535 104 4991 507 1018 126 5018 525 7631 755 8277 844 6683 648 7581 782 1258 45
152 20 72042 9319 933 4379 401 7109 740 2436 294 8073 792 6333 615 2313 303 4548 429 6294 622 6607 638 1759 226 2191 146 4485 492 7282 731 3436 314 4776 514 217 81 5986 581 1314 157 1196 32
153 20 80961 7689 787 5449 525 9995 1000 5550 514 1657 131 5165 505 8765 866 8962 898 6035 637 5628 572 3697 353 828 3 7099 692 4407 460 846 152 2494 294 4944 517 4463 496 2410 278 5119 514
154 20 84774 76 46 7619 771 305 99 5854 590 9923 993 3422 299 8646 853 436 119 4897 457 6407 606 8950 889 1582 161 5007 471 6027 581 5559 526 4379 390 5752 553 3570 418 9656 967 7901 784
155 20 68275 3011 329 8316 820 138 18 3611 379 2244 174 8147 828 9585 960 488 116 87 96 2820 236 9402 940 4904 450 3379 288 7599 758 5465 520 3479 289 4744 433 2685 207 2279 302 2961 295
156 20 78297 3124 329 9751 977 4309 440 9800 979 7390 763 2833 265 2253 153 1728 189 2674 326 736 125 2767 264 1965 214 8185 811 9648 963 4150 358 8410 843 4817 481 6114 643 3693 418 3525 402
157 20 69492 5245 490 672 114 3185 341 8224 834 5260 485 9929 994 2745 347 305 109 6145 643 1979 159 5220 491 8650 877 5033 519 4675 498 4594 480 5679 600 1427 120 3060 301 2242 298 2596 259
158 20 77948 7474 762 3552 407 1392 185 3256 350 2468 287 3705 376 1549 214 1325 73 5276 564 8206 826 1530 113 8968 895 3488 410 7145 715 4776 485 3571 355 5224 515 7218 745 7547 732 9765 978
159 20 84068 1413 101 1108 90 9231 927 7098 733 5339 544 4133 373 289 12 4626 498 7913 794 5005 482 6625 690 8440 844 2358 245 8957 890 4054 417 3927 450 7065 722 8725 873 967 159 7812 764
160 20 81041 8305 845 6869 706 3327 367 865 6 4680 515 9609 964 5877 611 2036 273 2331 293 3581 388 5675 611 3784 341 8440 835 1391 194 6868 706 8493 839 125 6 5013 514 8822 876 5211 529
161 20 73588 4298 404 361 132 4919 514 9309 937 7672 763 6517 623 961 84 1033 55 470 86 6871 695 2822 302 7195 699 5776 595 5712 530 1200 87 9738 973 8405 850 907 85 345 29 7475 763
162 20 66611 3544 383 9996 1000 1462 94 2072 213 2203 161 3954 434 2741 202 767 136 9579 960 6611 650 9164 922 3350 269 2304 196 3059 356 521 30 2341 220 7943 804 2196 231 7947 813 1510 69
163 20 89569 3464 308 1980 128 2651 195 6573 672 9228 917 1398 94 7647 743 9637 968 6440 618 4418 419 4503 485 6886 662 5075 529 8154 808 46 10 985 162 6700 666 7554 743 8668 864 9955 996
164 20 72820 959 124 9211 920 4216 471 6157 627 3280 329 2240 208 5968 610 1697 206 4495 395 1189 113 4461 488 7200 695 1407 129 2102 191 5668 584 7286 707 3016 340 9373 944 4967 546 6134 628
165 20 86657 4704 425 8984 902 845 105 8278 836 3788 432 2674 228 9554 957 112 109 4495 474 2535 196 9274 928 7264 753 739 135 4792 468 7096 718 1792 236 9186 911 8660 875 4848 486 8702 860
166 20 70087 597 100 2017 280 9591 956 4658 495 8000 807 9181 915 710 103 3115 266 3996 433 6283 610 615 113 8307 832 1610 154 1674 88 2749 320 6255 632 3223 291 3040 368 1997 234 9991 1000
167 20 77218 2450 211 6306 621 973 159 9431 939 8647 870 3438 380 1566 234 8221 826 9167 924 3427 324 2339 259 523 127 9687 969 4096 424 7209 718 3067 335 7696 753 1324 145 592 49 6364 646
168 20 68000 5174 547 5083 490 5540 571 2482 223 7878 781 699 135 8703 863 5167 543 5480 585 1826 240 5335 510 8979 902 5438 552 4949 531 1297 175 1607 172 269 18 5099 476 1744 247 2251 228
169 20 65574 8537 849 8855 876 3947 453 6706 699 1254 57 165 33 255 57 3831 431 172 109 3131 277 1899 257 7444 734 5467 533 3496 335 6711 655 4133 441 8194 804 3649 404 1538 220 2584 210
170 20 73052 8094 807 1631 96 7886 776 7566 744 2763 240 8523 866 5608 587 7955 800 697 25 6283 593 2235 269 3769 342 9123 915 1137 84 3722 424 4149 423 1681 161 33 73 824 73 7637 774
171 20 91913 6001 563 9002 905 6483 635 9752 978 8869 890 1708 251 8550 859 5594 568 5660 578 5266 543 696 107 5544 542 3257 394 294 10 5522 562 7114 736 9571 955 8488 840 3174 283 4347 484
172 20 50500 158 43 3333 316 2066 243 2108 221 5600 530 1848 130 7137 702 2476 211 1704 182 1950 138 745 154 7816 784 1206 199 1371 203 4283 459 1874 140 6975 705 7441 726 1074 187 1961 135
173 20 66744 995 162 1418 200 9046 906 3300 367 3164 355 9229 924 6401 651 6138 641 5314 551 6147 620 1984 167 231 31 4149 464 8853 896 4328 440 615 73 3250 392 1524 124 4005 459 3340 368
174 20 77048 5393 545 8268 833 7276 716 5296 576 6543 636 8339 840 2157 288 193 116 6217 594 170 38 8971 906 2021 124 8846 890 3416 313 7979 805 1665 95 1850 255 9571 959 1119 74 1020 123
175 20 67449 2032 234 3858 420 9962 997 3557 345 3713 384 803 84 4359 465 8672 873 7530 765 7152 707 3515 287 9645 962 2473 234 4123 392 1116 159 4093 452 2184 211 1833 116 3482 335 210 29
176 20 68087 9384 938 9766 976 3640 402 8597 874 421 100 836 99 8509 843 56 44 5775 603 4284 466 4999 476 1477 76 737 138 6393 676 2765 245 4797 524 6723 672 919 13 215 70 4816 487
177 20 77672 9380 941 5191 484 621 14 3757 393 8853 883 8304 817 8362 821 1781 147 6228 592 5431 584 3019 306 9897 991 8394 828 888 22 2025 244 5028 512 1241 121 847 158 1495 99 6349 634
178 20 76714 7508 771 4581 478 8833 880 2452 263 2050 265 6281 636 8147 808 205 76 5718 602 6677 647 411 96 4714 442 1381 100 6334 598 985 144 1289 86 2800 337 6087 605 9971 998 9469 946
179 20 68558 3232 350 1771 156 3896 446 5126 514 8921 886 6066 583 4369 461 6938 671 9127 914 449 90 578 15 7736 772 6240 633 5243 551 3258 383 2972 237 5165 547 776 51 758 56 3077 304
180 20 80241 1567 142 6181 646 5562 553 7594 754 7347 736 9770 976 1632 159 4928 480 1770 163 3615 354 4664 460 1865 212 415 75 8572 871 5756 552 5808 571 982 170 6435 644 9756 974 6083 621
181 20 83291 5777 581 5944 633 9645 967 785 34 6577 655 8044 795 9850 985 950 18 1233 48 3305 302 9276 924 4446 492 8621 859 8512 851 699 24 5392 532 4196 439 1028 137 6814 675 3020 294
182 20 60070 7814 782 2741 332 9726 972 7445 739 747 59 9532 955 621 138 491 66 261 22 330 93 1615 167 1950 274 449 46 8356 851 5256 522 7736 754 4918 533 1261 183 3657 421 182 95
183 20 96968 9762 976 7240 711 9181 911 6984 684 3657 425 9828 982 6316 646 4235 470 5275 506 1393 56 4427 472 4525 505 8193 809 7547 741 5529 533 5472 580 607 19 9331 936 8293 827 3415 378
184 20 86269 8531 859 2071 188 3137 273 3666 349 5977 575 7678 749 5933 574 2536 254 8615 868 8995 906 3620 357 8127 805 5259 530 5580 585 1009 165 681 27 3754 368 9073 900 7129 725 6466 647
185 20 92911 2146 201 2154 257 9187 914 8239 813 1261 80 6695 657 9050 905 6098 572 7867 779 7103 692 785 18 8620 861 7985 802 7659 755 5519 552 3343 329 4064 456 6653 637 8722 878 2989 348
186 20 66329 3389 362 884 88 2539 218 4672 416 8177 834 1208 135 1759 238 8330 837 7055 735 1553 176 6472 621 1423 117 2574 211 3177 355 5200 485 714 43 6434 618 3951 406 5580 588 7821 767
187 20 81037 5341 529 4487 492 9234 921 757 105 5208 563 4357 403 7978 795 6693 702 6142 622 5541 523 5367 568 5177 545 9669 967 397 62 1748 163 5427 552 3571 321 2455 245 5978 625 5770 551
188 20 70377 7286 706 8441 852 2691 214 1388 167 2032 273 943 41 3008 240 733 104 2960 337 326 11 3181 320 7410 725 7575 769 5840 544 6145 582 4127 361 9387 938 6356 655 3803 349 4340 475
189 20 83220 7448 736 4012 369 4011 439 5354 531 8339 845 3614 397 6950 692 2190 270 6483 663 2317 199 4819 507 5275 506 7709 792 3822 338 4461 444 7740 796 2046 257 7563 773 4918 506 4955 482
190 20 86752 8701 873 3740 427 5467 507 5939 613 4925 500 7032 678 4042 405 8307 843 944 160 3583 314 6433 611 9591 959 6071 627 1158 63 3769 318 7250 701 1220 198 7902 796 9591 958 2776 306
191 20 71985 8974 892 3770 388 6023 607 4619 428 3383 291 2435 170 4603 443 2016 128 3033 362 1356 114 6001 574 1071 194 5220 516 9864 986 4567 446 4144 381 8266 824 5754 540 728 30 4155 390
192 20 88307 5916 615 5392 500 9013 899 9074 903 8575 851 9184 925 5283 550 8795 891 4214 372 6178 620 5828 567 5830 616 6434 614 4677 500 1741 162 1427 137 6125 649 4571 417 474 100 1653 156
193 20 75508 8480 837 2232 146 2050 171 3727 360 2997 330 6745 666 9197 923 1170 205 3029 265 3954 404 3654 406 8580 851 6414 633 1669 186 4707 468 2065 173 9659 964 3627 425 1604 234 8826 883
194 20 81138 4698 492 3540 386 5122 508 8141 819 1174 75 63 4 8069 808 6105 626 8088 821 2396 253 6845 680 6259 598 3097 308 8335 820 3447 382 1590 169 9306 930 8864 894 640 43 5644 536
195 20 79587 8188 833 645 114 5060 530 8162 825 6938 683 4760 428 3415 361 715 115 261 120 7327 736 9280 923 4173 442 6174 639 7012 720 4686 419 7610 739 4244 463 3511 367 2804 222 4519 468
196 20 85330 9869 987 7490 743 4416 476 5127 503 6965 701 5906 626 3728 389 627 7 6790 682 6322 616 7151 725 1145 67 4990 492 4647 449 3080 270 3675 332 8754 887 9254 932 2094 209 4633 461
197 20 83865 8928 883 7389 742 6511 632 7568 773 4457 451 2903 270 5178 499 1066 116 9401 940 4216 403 4576 419 3336 282 7885 770 4323 464 1065 128 1901 175 1683 156 8048 804 9475 951 4923 506
198 20 82488 1511 187 9155 917 4995 484 4151 435 537 52 4838 464 5100 554 7701 793 1758 244 3544 299 4280 394 4814 530 7912 809 9403 942 3050 282 8849 882 2246 222 7130 732 4533 508 7603 782
199 20 83276 5654 596 3855 331 9521 950 2978 303 6821 702 1099 66 6318 636 4535 415 3563 366 7026 715 6590 644 7676 788 6906 711 4997 509 1096 47 4273 405 8262 810 2572 281 2125 239 8228 837
200 20 81551 6934 697 1515 111 4375 461 2542 281 5675 567 1738 191 5595 550 4659 426 7367 728 7244 701 4118 463 9608 958 6160 641 6024 590 3979 444 5696 606 4568 430 3233 318 8563 852 2346 193
201 20 75042 1717 228 603 118 3225 296 5565 543 6587 657 372 96 9575 958 9484 944 9802 979 1 68 4435 394 9693 971 5166 546 4411 430 3798 428 7952 778 5069 508 398 130 3576 301 2374 278
202 20 87926 7889 791 8800 875 9042 908 8950 902 5839 623 902 150 5940 602 5439 521 5870 608 712 5 3510 320 9659 968 1839 119 5288 515 6144 625 4890 509 9374 939 450 2 8864 896 507 88
203 20 86300 218 79 9196 921 8125 798 1702 117 1925 262 7238 734 6092 581 9941 994 7255 748 8959 903 5893 575 873 133 6550 649 8333 826 9177 911 6780 702 1286 190 6768 681 325 94 1240 197
204 20 77336 1079 152 7995 786 2753 339 7561 735 9440 939 6812 677 6083 608 5557 515 6460 680 2815 273 5472 528 4460 462 617 152 7883 777 6668 698 235 5 7019 683 840 145 5019 479 1902 209
205 20 94632 1768 132 7970 792 4487 442 2574 213 8125 799 7784 765 6985 723 8996 899 5490 554 833 162 6778 648 295 45 9144 919 7913 777 9778 977 6990 699 3708 324 4351 484 9734 975 4587 471
206 20 67732 2374 227 9385 939 1045 46 2782 309 3435 323 5448 558 5854 547 4122 355 8164 818 10 63 57 76 4206 464 6526 635 9504 951 6953 716 1084 140 6449 663 2588 272 4528 411 151 89
207 20 83784 58 49 6602 680 8483 863 9330 937 216 92 6867 660 5606 538 500 42 193 102 6259 659 6379 642 2439 288 9018 909 2697 228 7136 729 9855 986 9932 993 6842 689 4256 472 2062 137
208 20 84828 2574 225 5356 518 5931 576 9772 977 5548 526 8486 842 9180 912 9906 992 6656 637 6522 680 6038 608 1913 271 6072 626 778 162 1986 181 8409 852 6834 653 2421 237 427 27 1226 60
209 20 86524 1035 73 6895 701 8688 859 1769 137 3752 321 8875 896 6265 614 3403 289 4325 477 3032 330 3847 440 4866 488 5051 520 9707 972 3082 289 9330 931 7120 740 679 20 9805 979 6629 676
210 20 84098 4061 368 9895 990 9265 927 6076 614 9113 914 3302 334 2404 301 7369 722 9025 895 4009 413 6755 683 2799 324 3168 295 274 59 2841 306 5171 492 3453 358 3957 372 4389 414 7797 795
211 20 79007 3935 389 5341 501 9661 965 6604 651 2301 233 1587 138 1736 96 9085 909 2153 167 934 8 125 50 8103 796 5900 582 867 25 9585 957 7661 753 6146 606 4766 527 9089 907 3180 271
212 20 76215 3564 354 7378 717 6279 622 7728 779 4375 399 8788 868 2156 197 4297 385 3695 428 3621 394 9950 995 1863 157 2645 202 4500 402 1078 180 1892 245 3120 245 8481 850 7756 780 2103 160
213 20 82223 1952 249 3989 448 4109 392 5016 527 4431 471 6878 692 8739 876 7825 777 3200 376 4544 423 8556 849 2519 179 7121 685 6139 614 8855 875 1018 33 5858 596 20 15 2681 305 9329 939
214 20 91047 4759 482 2516 220 2919 311 24 60 1077 101 6563 664 5211 533 8059 817 6920 677 8110 797 9625 961 9027 902 3834 410 5288 528 6182 620 6326 628 8155 802 5330 526 5551 530 8333 837
215 20 77241 8284 819 2634 300 563 49 4920 477 675 56 8084 791 6724 700 1455 108 8048 804 5108 465 6862 688 7109 692 5904 569 4372 418 6474 619 2026 254 1324 136 8663 858 5163 475 2160 252
216 20 76482 1455 145 2855 331 1677 140 4080 459 4465 451 6170 616 7915 796 6027 639 2392 276 7228 724 3767 405 9838 986 3622 397 6420 628 2634 276 5152 506 7575 755 7131 724 29 39 5171 475
217 20 73320 9816 983 544 52 9166 915 4518 506 2599 249 6444 618 7920 795 3240 301 6803 659 104 108 454 106 5778 542 9988 999 233 104 1944 239 9494 954 3169 372 6831 684 1445 91 1160 119
218 20 81581 24 27 7515 773 6402 628 9860 987 7057 692 8264 841 5127 469 6722 652 2863 243 4526 472 6346 635 5124 485 4734 467 316 84 749 96 9541 957 3723 390 5 62 9849 987 3230 360
219 20 112791 7042 693 4752 470 9159 915 9562 953 7213 736 8142 804 7437 743 7398 736 5710 598 8295 817 5041 457 7578 735 7645 788 8639 864 3160 381 2770 241 9411 946 6738 669 6057 587 9240 930
220 20 73973 4480 472 985 154 2372 212 7429 762 7233 733 8320 831 6815 703 5743 562 2001 256 7601 779 5012 481 1521 155 5775 600 3643 351 5740 549 723 81 552 76 9822 983 276 64 6424 637
221 20 89716 9738 975 7928 773 3455 302 8313 829 4135 361 8413 850 6259 621 6169 584 5333 500 1121 56 1208 138 5121 524 3118 280 8542 860 6565 637 855 104 8041 810 8414 853 5995 633 3423 313
222 20 79256 93 108 7173 717 4914 449 1484 71 7948 775 4253 434 4096 443 449 50 6594 642 8315 822 5249 532 9832 985 5236 497 7534 740 1505 135 6264 661 1471 152 8692 863 1380 142 6588 667
223 20 75753 8024 806 5984 621 8035 788 9809 982 1987 216 2175 268 3993 417 3424 324 5006 469 4993 488 1536 102 6026 610 4759 483 901 27 1233 75 4913 462 1133 39 3213 258 8807 873 8741 884
224 20 72576 1691 175 627 124 7878 804 3490 334 4915 454 79 57 5472 509 9964 997 2070 147 2295 244 2777 267 9004 901 2591 247 5457 566 3300 298 386 16 2032 182 8959 906 8982 898 8752 876
225 20 76555 749 55 3645 360 6037 615 1682 154 2721 339 6301 619 5689 555 7959 816 4500 464 4881 538 1849 130 3625 364 7865 803 7416 739 7316 722 7403 715 8278 844 3882 373 2863 293 1033 91
226 20 86383 4919 461 7916 790 8031 815 5347 511 4699 519 5524 597 1395 212 7523 756 8789 869 3187 283 8526 853 3181 318 6947 695 5354 553 5220 534 643 114 434 68 6645 633 7133 722 6566 636
227 20 78356 4656 505 3821 342 9084 911 3941 384 3249 297 3641 417 6225 628 5628 595 5395 508 6428 625 7046 692 8997 899 5183 561 2075 156 2433 207 3574 396 2642 318 2516 260 7607 785 3805 419
228 20 78837 8651 877 7943 812 227 73 6943 721 3901 415 7497 732 436 79 5 23 2700 248 6885 663 9967 997 7483 773 363 42 14 5 4319 422 3744 325 3087 377 8175 803 8847 876 7360 750
229 20 79521 6084 588 337 14 9258 933 6030 631 1975 197 6622 679 9602 960 7896 801 230 70 6255 616 5635 592 7465 741 1980 249 5964 597 1267 41 7656 783 1943 175 2250 278 9644 967 1309 145
230 20 77400 6099 627 5469 550 2399 266 7102 719 4174 375 1992 218 5406 557 4195 380 3562 384 8594 851 4334 403 5609 561 3878 390 9546 953 4874 520 6335 601 2541 222 7227 731 951 164 2464 252
231 20 96951 6659 691 7048 712 9735 975 4214 399 4363 412 5631 522 6855 671 2325 305 9212 916 5195 532 8332 835 868 128 9566 958 5680 593 843 87 8917 899 576 94 7622 740 9148 911 8400 837
232 20 69301 509 62 814 87 8161 808 1581 217 9395 941 4378 410 8917 895 7656 776 134 98 6459 665 1904 195 1176 137 4273 472 5908 615 6327 645 418 11 8137 809 3190 253 4984 510 2306 306
233 20 90153 8731 862 9792 980 2050 169 6392 625 9044 906 240 87 7077 725 553 118 6700 677 9364 940 5135 481 7882 777 3778 342 9321 926 7325 741 6409 637 3199 311 2245 223 2608 306 4847 438
234 20 78177 5204 485 264 1 7795 792 1142 146 9928 994 1906 211 5071 517 6622 655 7945 805 3939 371 2467 227 8332 832 4677 477 280 32 1331 145 8254 809 8149 828 142 101 9371 936 4903 517
235 20 64884 3912 372 4822 529 8930 895 635 33 1289 139 6467 648 91 69 3858 430 8399 834 7856 774 2902 271 3050 306 7961 780 5967 636 4645 457 3288 366 112 89 2133 234 4102 386 686 95
236 20 102575 7473 754 8158 834 9818 983 4470 495 6067 581 4630 435 5749 609 7194 704 950 66 1948 136 9067 916 6144 605 7370 749 6461 627 8758 865 5804 573 4960 479 9088 905 5665 549 8445 836
237 20 70751 1996 229 7189 723 1756 220 7640 756 8607 848 3131 299 1708 142 654 18 5396 557 160 65 2941 244 5294 571 2768 238 1878 133 5588 561 6634 657 6751 685 7777 786 5833 574 4738 468
238 20 63209 7457 759 7194 695 2661 307 59 79 155 105 3897 334 716 60 7720 776 3118 247 4926 490 6972 685 1537 193 2898 361 6545 647 20 75 5760 598 6087 573 181 28 4416 386 6693 679
239 20 78804 1267 168 4438 456 9118 905 9947 995 7492 745 5311 488 1886 136 9095 916 3741 375 7818 764 4696 520 3361 347 6095 571 1694 99 6955 673 485 7 2318 289 3428 315 2838 288 6523 647
240 20 91340 9899 990 3734 402 3305 363 9593 957 9820 981 4738 458 3193 372 5892 605 2370 243 7874 796 9350 932 4123 454 250 38 6868 688 5176 488 9735 971 4957 529 2761 252 3631 401 6906 704
241 20 75112 662 68 4833 476 7873 794 6544 655 5656 590 8093 812 9494 947 8081 791 3046 372 2180 214 9741 976 724 111 3224 286 7693 786 752 65 1956 116 4352 426 2915 227 3067 351 3004 339
242 20 80552 3545 400 5381 493 3940 450 9768 978 2859 306 10 1 3542 403 5233 549 6092 596 7271 748 2816 353 4951 529 9938 994 266 40 5515 583 9060 901 195 21 3900 408 8117 814 8291 825
243 20 83955 5049 493 9245 927 4456 437 4569 486 7422 753 6426 663 6318 664 6782 708 1019 151 92 18 2800 253 3031 289 1208 72 5846 607 6552 670 5340 539 9741 973 6213 640 3419 333 9416 944
244 20 94227 9585 956 9463 947 5119 477 8476 844 7343 725 9643 962 5628 546 5025 523 9244 922 3595 298 4301 468 792 135 9771 977 3334 291 990 60 408 24 3330 268 4549 442 8508 850 8680 880
245 20 86608 1808 158 1814 133 9427 940 7230 707 4553 480 5693 578 6648 695 6583 628 9511 948 5773 545 5371 502 9660 969 4706 455 4760 447 4758 466 3741 402 8771 883 2589 307 4666 496 198 87
246 20 65686 675 80 3072 372 9805 980 2403 206 5831 561 2690 314 2403 254 9770 976 2403 297 1280 55 4752 491 8212 829 1014 157 2164 281 4520 445 515 140 7367 745 8792 875 1566 114 2874 273
247 20 87202 533 85 7120 695 9758 975 9651 967 7449 732 3510 344 9311 926 3065 291 7084 736 1107 168 6962 667 407 8 8345 832 1994 164 6416 666 9079 901 3759 397 1916 243 9348 941 2189 213
248 20 80760 1535 166 2159 181 4327 459 5936 595 4054 419 6957 691 683 147 7698 749 6721 684 3382 317 9052 899 6677 678 2197 192 5797 552 3090 311 693 143 5085 540 7759 775 8675 877 8474 854
249 20 83457 4734 467 7021 678 6894 691 7704 788 955 162 7731 781 685 1 8868 896 5107 516 5541 592 1980 224 5873 579 3396 319 6455 618 5932 621 5632 591 8189 829 9662 964 181 81 1782 223
250 20 88532 2239 287 3235 273 6040 576 38 69 8334 823 7716 784 8860 877 4357 462 3457 325 7608 783 9853 986 5403 507 4541 479 4304 411 3013 325 7431 762 7733 774 7844 764 3183 303 5477 584
251 20 83175 8137 832 3231 298 6261 647 4447 480 2229 245 3813 371 1668 168 4155 424 5114 517 4148 462 517 91 9630 965 8412 837 9931 993 5270 486 3356 382 6798 676 6117 592 3130 268 7605 771
252 20 88058 9829 983 7378 758 6344 625 9259 923 3780 353 4145 398 4581 509 4015 354 8114 795 5668 542 6485 633 314 29 9880 988 7 22 1258 211 3412 333 9199 916 4078 397 8938 892 3389 303
253 20 58764 8657 862 4531 486 1557 88 1255 154 6597 657 5054 474 859 21 2538 291 6659 663 4784 491 4612 471 73 38 6763 667 5429 532 1123 31 935 97 4602 481 3463 325 3557 354 407 128
254 20 71833 2202 157 9594 958 5516 587 4553 404 1873 108 4506 487 4042 444 1305 194 5120 489 6756 661 3583 323 831 121 8986 904 4589 488 7192 705 5374 532 283 76 5985 636 4700 483 2802 230
255 20 91353 3352 300 2143 221 2012 209 9871 989 7838 774 6713 690 7593 761 9523 955 7405 750 1063 87 6753 660 7826 788 3220 335 4911 521 1296 132 8836 882 5605 584 5045 484 6257 659 6930 693
256 20 78267 5189 487 502 67 9784 979 3258 326 6194 645 6525 631 5250 488 1022 146 8069 802 3905 410 3658 385 4375 435 8897 886 6261 607 4938 446 1281 178 2407 187 6775 649 9198 914 346 85
257 20 73826 3393 277 1259 128 7684 787 632 5 7795 781 1949 252 7364 740 2530 300 6489 628 213 44 766 39 9701 973 9654 963 2211 279 9710 970 678 100 9136 918 1903 229 5278 518 3938 368
258 20 73506 6000 638 7809 770 6869 685 917 179 9770 976 7335 728 1530 152 8677 864 1078 107 6606 636 6581 644 2947 351 6956 701 1861 262 479 109 1683 171 4710 455 1096 138 1244 76 7735 777
259 20 78717 3107 299 792 33 753 96 7043 685 9378 938 3673 319 8314 821 1205 99 1297 216 3166 303 3456 346 9268 923 2604 260 8812 871 1237 66 9138 914 6989 694 7664 786 8415 850 2086 266
260 20 80554 2279 164 9784 980 4075 447 865 6 5512 557 7399 759 7811 790 6688 697 8277 819 5774 544 3563 404 5850 588 2171 229 4818 500 547 117 1930 119 6649 647 8405 833 1193 51 7103 707
261 20 92126 5471 587 8980 904 9715 973 4518 401 5727 537 3467 398 7844 775 720 24 8142 823 5925 606 6966 716 6058 620 1515 101 8132 830 9240 931 1719 141 2051 221 3676 401 5470 545 9822 982
262 20 77243 5385 565 4246 468 4121 469 507 94 3498 371 1602 125 5383 505 8664 862 3313 384 5440 514 1790 119 9335 933 6656 662 5635 522 827 168 2671 226 6128 602 4990 485 8645 878 7718 779
263 20 82450 7568 781 6457 651 2591 278 2790 307 7993 812 9093 912 4608 473 3231 333 4806 434 8006 812 3602 382 6633 694 8909 897 8167 833 6698 653 129 53 1391 62 1029 23 5806 587 3556 399
264 20 82854 4945 500 774 100 4514 442 4182 450 7397 761 6764 699 7051 681 3259 305 6288 646 5372 493 2224 260 5754 554 2280 212 8509 847 7565 768 3578 303 5305 512 8381 851 6329 612 3097 361
265 20 102475 7129 725 9074 903 3544 330 8643 872 5419 577 3989 413 1005 45 5567 535 8060 795 7412 732 9707 974 3294 339 5409 499 8381 851 6471 625 6893 688 7915 800 5868 552 6876 715 7438 760
266 20 78779 4877 504 5992 576 524 63 5540 566 5216 500 9614 964 7916 799 8726 865 3190 386 2111 223 3621 380 3635 392 7862 807 5289 505 2648 292 3598 341 1047 28 6565 654 2498 216 8005 795
267 20 98196 1924 255 8529 863 6674 683 8772 885 9519 956 5945 619 3019 287 1648 194 8270 819 7948 775 5090 484 4081 365 8861 894 9548 953 5196 562 4630 472 52 1 9672 971 7990 790 5378 571
268 20 77119 518 103 672 158 3051 343 6418 614 4320 435 8442 856 8807 871 6133 642 7281 714 4763 471 8120 803 372 80 7672 770 59 64 2682 312 7184 720 6522 666 5807 574 1035 105 6541 644
269 20 80150 6688 694 6435 645 6838 705 8556 842 241 39 3619 372 9857 987 8649 863 6889 669 3412 384 3760 345 3801 395 122 106 7010 703 9895 990 1549 159 1276 144 1490 220 4898 529 5203 521
270 20 77333 9918 992 6627 681 5404 524 3906 445 6391 670 2103 206 6686 665 8324 839 4988 463 2157 189 1009 99 9959 996 7056 720 274 121 3078 260 742 6 5624 585 636 105 6991 677 4794 455
271 20 102789 4445 412 9356 941 3936 359 7078 685 2570 277 5457 541 7654 754 6701 690 6364 649 6234 644 5797 600 5729 613 9089 908 4942 451 4757 502 4845 476 9075 916 8445 851 7081 683 8932 901
272 20 82700 6488 682 9199 922 1357 133 9580 955 8437 840 6662 643 3126 302 2694 271 2565 279 8499 859 1686 160 7614 739 1618 235 7444 731 4298 411 986 160 8331 828 4552 498 1499 106 6741 672
273 20 65891 8692 875 8460 858 1239 57 4116 359 2104 143 4183 467 1775 202 5931 565 5389 507 5408 510 8339 830 7016 676 492 133 1972 190 4400 455 3264 371 2041 176 1400 134 4633 500 1510 195
274 20 81660 5629 597 2517 263 3780 347 8043 789 7887 788 2645 218 1618 245 6899 719 7931 799 4825 524 7706 769 9544 954 6673 691 3100 304 3389 399 7609 746 6985 674 2997 342 1973 147 326 32
275 20 88943 9625 966 989 30 9049 901 709 147 8449 851 8170 804 9575 956 4540 435 8232 839 2293 236 8162 799 1054 190 1500 99 1488 161 6497 625 3235 285 5337 570 7382 754 9576 958 5317 510
276 20 82602 9702 971 2500 192 3106 297 3022 261 8237 840 3272 283 2698 294 9193 925 7895 783 276 34 7618 770 6168 637 8134 799 2356 234 5238 519 3603 326 3883 437 9108 912 971 69 6273 663
277 20 69646 6846 700 1653 220 39 65 1799 256 7688 770 4286 398 1587 133 55 63 5417 529 359 33 2271 162 3547 304 3397 379 3642 373 5717 554 76 28 9669 968 9900 991 9293 931 9817 983
278 20 86144 4824 527 8185 827 9018 896 3435 306 1411 223 3791 349 3773 406 5604 576 1232 39 4882 503 9969 997 1131 92 5590 599 6569 658 8611 862 121 63 6689 698 8211 805 8268 836 6367 613
279 20 88232 2547 328 5381 560 1133 56 1653 208 3105 359 9770 976 9549 957 3616 399 6021 584 6683 686 7934 781 1498 174 9086 907 7903 776 82 46 6509 653 6539 648 9064 900 3723 385 8495 836
280 20 57654 1423 188 5874 564 6617 691 3666 306 6302 599 2086 271 441 64 7946 777 826 1 7295 731 3247 273 3268 299 7296 704 248 67 896 163 689 143 6837 700 312 114 2550 196 4249 478
281 20 85964 5020 511 6324 665 8268 828 8107 804 5788 575 7540 775 3301 319 9555 960 4245 424 6854 670 4696 465 1014 191 4143 417 87 87 2017 262 8617 865 9687 968 2975 311 5448 571 3770 421
282 20 90473 3668 325 7623 741 4811 474 6966 712 9425 943 1260 70 5754 558 2361 226 5202 476 5194 537 6758 700 6406 631 8245 825 8049 810 9976 998 8364 845 921 151 9521 952 1256 110 1332 127
283 20 68913 594 52 3784 349 5696 529 1543 94 1848 131 270 70 5167 531 5811 552 5032 485 1717 185 5996 560 8131 821 6196 626 1834 149 7898 779 124 111 9574 954 4203 393 2487 313 8237 832
284 20 87856 288 61 4604 453 4294 396 6494 669 4676 423 9116 917 5905 584 9729 972 4687 503 8223 822 8552 851 6456 652 8677 865 5694 600 8107 826 1152 78 5826 614 1587 184 949 138 4804 465
285 20 82956 9632 962 6989 726 6634 651 1170 96 4665 481 4413 442 7523 767 6119 594 2815 262 8805 879 189 105 3651 305 1808 152 2175 148 6907 678 7992 799 930 72 9110 918 7144 729 5024 474
286 20 58753 741 161 3879 439 7146 699 6594 637 1978 237 4017 408 2052 175 1553 152 1966 227 2347 194 8389 846 9149 921 1718 187 7795 796 636 55 387 47 10 8 2001 125 4770 468 6314 615
287 20 83264 6126 612 2805 321 3599 313 9902 991 4994 507 9356 936 3544 301 4571 493 8862 885 2675 260 1902 241 1666 142 7373 762 4820 524 5557 528 5513 561 7917 802 6558 668 3128 300 3212 339
288 20 73241 1148 197 8958 899 1411 78 1583 96 3483 406 877 33 9656 965 34 65 455 137 3110 294 22 81 2988 330 4331 451 5442 568 9861 986 8113 812 8249 824 9767 979 7845 782 4219 433
289 20 82267 3839 353 5721 571 8764 875 7573 742 1725 135 6648 688 1518 136 7740 765 7333 754 8441 844 5052 533 5001 549 3309 298 2591 237 7884 796 7253 748 5475 545 1846 176 3815 377 1306 157
290 20 87340 7758 792 8483 841 759 119 7547 761 912 95 8694 880 4241 376 7265 750 5822 619 9587 961 2376 171 3268 274 7842 799 2536 316 4485 487 3376 296 7893 793 8389 848 3616 373 4327 481
291 20 78432 2021 245 3892 358 1863 182 9271 921 1080 126 1291 77 8413 844 4100 395 9316 938 5816 558 4476 422 2349 307 2013 207 5379 543 7942 807 487 83 9515 948 6412 630 4300 431 8104 800
292 20 100315 7628 777 2785 208 7134 700 9901 990 6876 703 9536 951 7635 758 5654 555 8296 840 9425 946 9696 970 4335 395 6055 569 9859 985 781 110 387 46 7336 727 367 14 3761 394 7947 797
293 20 76332 7545 770 3383 363 7375 741 1721 158 8604 859 4884 447 1748 144 696 45 5883 618 920 111 6432 670 256 102 8761 875 364 15 6849 693 968 144 9992 1000 9806 980 9211 916 17 96
294 20 82414 7870 773 2713 254 1259 73 1149 52 1304 86 6306 617 3931 394 3335 314 4948 522 9083 901 3014 350 9205 916 7658 771 5877 553 1532 152 8815 883 5921 618 8901 900 7085 702 3112 337
295 20 48812 1162 122 507 52 1408 180 4291 390 6194 627 1674 244 688 130 9927 993 2238 218 2727 290 1609 181 4976 520 4113 358 671 22 2370 280 684 90 1532 212 42 62 7188 715 7014 689
296 20 74713 1653 225 1388 156 3984 369 3456 307 4379 387 4947 525 3985 412 7114 733 8906 880 5548 533 884 109 2384 295 6977 709 1407 116 7721 771 9730 972 5402 545 4370 486 5009 459 4148 397
297 20 86188 869 18 1655 163 9993 1000 1451 74 3958 450 8677 870 7929 794 5641 584 4498 487 5344 545 8574 847 9208 914 4155 443 8142 822 2604 285 4662 466 1082 83 1591 240 8405 836 9297 930
298 20 80692 1241 146 4154 438 7800 787 4302 436 7800 778 665 54 1155 157 8549 845 3279 312 5582 555 5464 551 7750 782 5388 564 5154 513 3063 240 8257 817 3565 414 9538 953 2076 222 6084 618
299 20 76417 1379 99 8586 864 6742 655 2792 294 7268 717 1338 216 4990 515 325 53 2100 155 2967 291 7432 725 4294 407 271 112 3390 367 3420 390 9868 988 5137 486 7777 787 6209 632 9237 929
300 20 99688 2260 283 9362 937 9564 954 9418 940 3884 345 7790 777 6306 605 872 56 7513 733 9987 999 4970 477 7355 760 3177 320 6389 647 3532 298 3901 439 58 81 8476 853 9957 996 9839 985
301 20 74601 3143 355 2005 196 7641 766 6879 703 7267 738 295 34 9576 959 6118 582 2373 166 3359 336 679 134 4871 534 8357 828 1215 112 7130 710 6332 609 8422 857 5051 481 1480 76 1059 120
302 20 87745 5432 534 2422 185 9162 916 2774 350 8036 820 7341 713 2208 197 3260 305 9847 985 412 26 2876 269 8417 843 3915 433 3185 376 3389 347 1146 121 8426 842 9958 996 9327 928 8149 801
303 20 75860 1904 148 2246 291 2461 261 7971 794 4675 445 2513 253 3562 350 2479 237 2412 315 5210 522 5858 562 3955 375 996 66 7882 777 6437 624 9433 946 9451 945 2885 220 7198 724 5297 484
304 20 84381 5660 549 2454 216 9676 967 9636 963 3461 318 2374 284 5071 510 9767 975 8537 842 2314 200 7402 740 9112 915 1527 230 6193 624 13 48 967 131 9594 960 4863 510 5012 498 1844 265
305 20 88242 1324 60 9839 984 2905 260 4715 428 2995 245 9132 917 8738 877 2960 291 9800 981 3064 367 5143 474 2458 241 7413 742 7333 718 8281 823 3334 336 5859 595 3046 319 3014 332 8950 896
306 20 86081 1851 119 417 6 6420 668 2115 272 1151 204 2933 364 8872 882 5277 481 9246 927 8355 820 7163 730 1355 62 5372 571 9343 933 6687 681 9777 980 3316 329 6559 659 5586 528 5807 543
307 20 88126 5974 610 9613 964 9446 946 4862 496 396 29 7181 710 2089 215 301 49 7521 750 7016 686 1676 106 6666 681 3092 286 9819 981 6100 589 5235 487 5052 489 2761 343 6666 680 8692 871
308 20 68570 6656 646 6985 688 5649 563 4953 476 2267 181 7057 718 1577 89 6643 684 6652 657 7246 724 1966 154 5092 511 7385 725 3982 426 204 61 41 68 1661 95 661 59 5288 513 3748 424
309 20 87928 8116 815 4981 472 5897 611 9530 952 8947 901 6561 679 879 128 3387 349 3521 381 6732 643 2119 245 7552 767 934 75 1133 50 7185 740 3675 373 9094 915 9218 922 7318 749 3131 320
310 20 69109 7217 696 2404 216 1556 158 4999 452 8165 831 7487 770 4529 452 762 146 454 55 8136 810 1670 88 2672 215 3626 395 9528 949 9211 914 5159 560 562 8 4611 483 522 72 3117 297
311 20 75092 5749 593 2035 221 5100 469 9909 991 4927 443 6516 662 5586 589 4199 438 5696 574 9553 959 3590 342 2701 234 4035 419 7062 720 4498 443 265 45 4020 405 331 100 3482 386 4612 414
312 20 81384 384 20 9552 955 5851 575 8858 896 1000 150 6733 652 5578 565 7295 747 7793 761 4311 392 8331 844 641 55 6993 674 4484 492 2456 238 7163 708 1311 102 38 1 6909 710 6049 612
313 20 76824 9242 927 7766 764 811 27 9932 993 978 95 5935 600 5598 602 2358 163 8171 812 6212 599 5349 494 2221 270 2744 304 3356 364 8883 897 7984 792 2588 227 1765 174 3176 315 961 43
314 20 87985 5228 526 7485 745 7122 690 5222 505 3068 282 6372 652 8091 800 2156 259 2017 263 4038 383 9409 938 989 76 8950 898 8078 823 3668 361 2608 224 5236 500 4241 472 8103 797 7901 803
315 20 69462 2404 184 9700 970 3395 398 1684 189 3326 313 4304 485 4789 530 520 2 416 79 4728 425 9739 975 8381 835 1676 130 5523 533 8446 854 5606 597 4371 450 2309 268 531 26 4980 503
316 20 84560 3011 270 9777 978 3626 414 2245 246 4161 384 3307 285 5528 544 9395 935 6597 631 6562 655 8722 876 455 17 6639 687 1875 266 1322 52 7717 768 2940 306 9609 958 5853 591 6359 667
317 20 69656 2093 230 2867 252 1383 124 4676 517 532 45 4240 444 8855 888 6951 707 7081 696 4808 527 6840 678 6153 651 1382 88 1689 111 7059 707 2780 235 1997 135 2414 301 9779 979 3492 395
318 20 72403 3602 365 8289 840 3280 283 3180 282 6515 675 2533 247 2676 333 8708 874 3883 413 7080 681 7555 740 632 140 448 80 1366 203 4520 449 3501 331 1338 131 4880 533 7775 783 8743 883
319 20 95552 6299 648 3621 340 9190 916 6813 654 9109 916 5575 539 5828 558 8224 822 3640 354 5339 505 2218 171 4748 512 3455 287 5001 484 7734 753 7901 809 8303 828 7248 706 4600 507 4594 432
320 20 81284 2012 206 3042 322 8736 869 7600 749 9542 955 8114 816 7203 748 9808 980 1398 106 2376 286 2846 228 526 113 1350 75 8460 852 9940 995 1822 255 638 29 1489 161 7003 721 7700 778
321 20 73070 7951 779 5308 503 5616 590 8236 818 7348 735 2451 215 6004 624 937 54 7643 761 5027 510 306 91 7897 803 149 29 7509 767 1238 86 4909 528 1182 169 8257 838 122 56 3248 339
322 20 75084 2695 203 9951 996 2635 228 2621 235 4894 534 4384 397 5548 588 2172 212 5324 533 607 19 4352 388 7744 781 4531 489 9614 966 2814 235 3860 432 7349 758 581 126 6016 612 6163 606
323 20 79292 2602 232 9940 994 6101 637 5975 564 1788 163 535 25 7377 733 8169 833 6553 652 3095 253 5087 487 6151 618 2207 160 7134 739 1485 128 3459 362 3184 385 5888 613 6975 669 5410 577
324 20 80927 81 22 9325 938 7714 756 7132 701 4139 406 5591 577 8084 797 3577 408 7090 737 4690 449 2266 245 5200 566 1118 188 3660 429 7267 754 1004 75 7988 806 4118 372 3925 369 7190 745
325 20 68588 2433 173 4602 414 531 101 3892 430 1539 166 4361 421 2224 284 1611 178 6336 624 3490 339 7352 716 7740 775 9809 982 177 80 5759 608 7118 694 3731 330 2962 349 9893 989 175 33
326 20 77824 1222 203 7280 737 7373 727 5842 558 5070 459 9013 904 869 69 4439 404 1836 181 4112 377 9445 945 2539 195 611 71 262 64 859 110 4278 393 9404 941 8769 880 8611 856 5447 543
327 20 86984 4556 492 4122 407 912 171 7854 785 5674 530 6559 637 7665 772 4878 497 9438 941 391 43 290 121 2594 236 9854 985 6667 663 9643 968 8180 830 261 35 4729 489 8693 878 5771 618
328 20 90253 9250 923 5106 487 1167 154 185 4 6605 659 9842 984 9326 934 5084 474 9862 986 9181 920 1597 93 7037 685 5555 550 3319 283 2310 165 4884 527 7076 729 1347 60 5468 571 8616 868
329 20 97580 9873 988 7354 753 8441 837 2800 221 3496 372 4683 519 1477 72 9567 958 3140 324 707 81 7014 679 9947 995 2151 222 5999 586 9868 987 7254 732 8669 879 5039 485 9163 918 5333 559
330 20 77503 7986 797 626 5 2126 138 9492 948 6259 648 9088 900 8423 834 9541 950 1433 128 404 102 1170 155 5804 580 3276 352 279 24 4426 476 3568 309 2350 162 5299 558 7706 761 7623 766
331 20 76761 4330 454 5852 601 5502 533 2969 348 1411 148 7914 799 1697 200 7471 730 5693 604 4001 398 5368 562 1836 221 6116 587 8809 883 4039 429 3666 430 6845 690 1677 127 4158 396 6598 639
332 20 72236 8805 878 6296 610 4328 382 4932 506 221 18 1412 115 7643 747 906 178 8076 816 6270 618 1202 153 3839 326 6371 665 49 7 2703 279 3431 325 9166 914 7076 701 7169 712 400 89
333 20 93343 606 86 8649 854 8712 883 7358 735 8680 864 5311 573 4358 484 7467 764 7178 708 9590 959 4307 470 54 44 5810 596 6220 608 9921 992 4979 478 3528 399 8337 851 5179 487 435 25
334 20 95195 1995 193 6976 715 7582 781 1856 264 7616 771 1149 156 6800 701 2019 195 9226 923 9888 989 3894 371 9600 964 8538 864 8183 836 3517 325 6798 690 2751 344 3394 399 9951 995 7261 727
335 20 76160 682 19 7683 762 9768 976 3793 371 6032 625 8940 891 6453 651 9550 958 8609 851 6183 638 2080 184 2455 317 1634 87 4360 453 6938 684 1880 265 2318 159 2373 176 3146 379 324 60
336 20 82318 6694 654 2751 302 5305 548 7770 764 6324 642 4888 504 5333 490 7671 773 9660 968 2103 248 979 129 4514 494 4969 541 563 123 5717 539 5418 538 994 130 6707 663 6349 606 8189 833
337 20 80156 7203 744 6359 602 2081 276 1493 207 7501 773 9002 898 2180 285 3837 393 9074 905 1466 72 5146 496 2502 195 486 38 9464 943 1821 227 4883 447 9266 922 9627 965 3117 320 3687 330
338 20 72624 2386 279 4102 458 3527 346 1780 128 2686 213 6275 614 1540 213 9939 994 7043 685 1281 91 3338 323 4931 515 7119 697 3495 343 7044 686 9320 932 6371 636 228 74 3278 376 5098 477
339 20 89760 7867 784 2066 145 5986 600 7897 810 4711 492 1666 246 4886 476 4946 524 497 66 8972 906 8296 838 7069 726 341 107 8751 879 8928 903 8378 845 4333 473 8182 833 1427 171 7002 693
340 20 58664 749 16 5172 528 2277 165 2962 356 5447 547 5329 558 275 18 926 68 4666 471 3752 351 6258 604 3543 382 9245 924 1626 149 5943 570 3422 361 1810 213 7233 750 2570 234 126 112
341 20 89716 9929 993 8153 800 2235 229 7502 749 4487 490 989 135 3753 384 2028 182 5311 537 7879 803 9937 995 4723 437 1969 256 8098 809 9845 983 2953 285 6798 675 4528 479 9880 988 1149 124
342 20 92366 8085 792 8448 853 3221 259 5929 606 4933 465 5960 576 4174 434 1268 128 3580 337 6130 594 8245 825 9899 990 1724 173 7230 729 2636 218 7113 709 7236 707 9575 962 5888 619 4184 377
343 20 85953 3882 365 4746 446 9578 956 6560 683 6097 601 2564 214 4818 454 8629 862 9003 905 1498 221 8277 812 4851 452 1643 120 4960 537 1201 49 8237 822 3925 434 6183 584 3271 333 7519 770
344 20 80768 2341 193 7206 713 8453 849 3379 338 3181 257 5489 515 9635 963 5876 608 750 25 2026 152 7953 792 2917 357 3343 375 247 60 3192 363 3518 375 9791 979 9233 924 7582 746 4849 536
345 20 82132 3645 402 6420 643 3384 274 1423 79 6003 598 2628 260 6972 722 7535 758 1356 164 4270 435 9098 906 4571 432 182 32 8966 889 7910 792 8252 833 9117 906 7413 719 2202 219 1319 106
346 20 70224 5028 484 4099 440 669 27 2678 206 5384 570 4343 436 7078 708 1153 144 1971 167 2672 234 3904 430 3013 270 3305 391 9351 933 9803 981 4667 483 9921 993 279 30 3049 277 5413 518
347 20 80742 2552 242 99 98 6373 647 6796 655 158 110 9165 912 7384 718 7243 745 8042 822 7891 774 583 1 2286 266 9164 920 7130 688 1440 179 6977 679 1767 168 4929 527 2857 287 8092 792
348 20 75328 657 67 7268 710 8284 828 8633 872 2278 202 2256 261 490 78 7291 727 715 70 6978 706 9248 925 307 83 3704 339 9387 938 3723 345 8527 866 4778 463 1596 84 7838 788 202 39
349 20 75626 1963 270 7427 722 2201 283 4667 442 1550 234 126 30 5170 550 5980 592 4016 417 4428 446 8275 815 8073 791 7852 780 45 12 4708 488 9908 991 976 38 661 120 6750 656 9757 974
350 20 78665 4218 380 5605 555 4512 447 3909 382 1949 225 2059 213 9458 943 7882 809 881 84 206 4 1598 98 6649 638 3774 411 2083 178 6486 680 3286 336 6433 643 9624 961 8821 893 8899 886
351 20 99054 9351 933 4531 424 8266 840 9486 952 6964 710 7474 731 8111 801 9398 936 2547 188 7855 771 4779 443 7006 703 3624 366 5606 587 8007 804 3603 305 2345 238 4256 414 1926 209 8683 858
352 20 76422 7476 751 4168 455 1616 167 8506 844 7440 740 8700 871 38 59 4389 468 6094 609 5794 619 1426 192 8967 890 946 142 6162 610 6092 633 3723 372 504 117 5171 560 5758 581 2558 190
353 20 79610 1189 108 3496 379 7709 767 5836 551 6081 620 9660 966 8697 866 5861 589 110 42 572 42 4047 419 4910 469 2599 252 5920 596 4046 458 7843 806 1278 161 3292 269 9811 982 6556 643
354 20 85743 9292 934 8371 826 9703 970 6276 631 1078 85 7099 722 7812 771 4244 376 6634 661 1916 114 2595 220 6072 618 3516 394 4499 461 3109 372 6786 685 4414 397 1948 174 3299 367 8516 839
355 20 78541 4913 529 5956 634 1475 125 3307 299 4146 396 8623 870 3432 288 7476 752 349 129 2413 279 8513 848 5192 487 43 75 7101 720 6473 652 2719 223 3987 419 8508 848 6459 681 7092 694
356 20 83478 1563 190 4490 435 5063 549 8648 873 4393 446 5354 501 6111 587 8102 829 9416 938 5609 596 1624 83 5872 627 793 109 4548 506 285 22 9326 926 4920 539 4146 387 8537 849 5548 573
357 20 69223 6338 628 3369 302 7945 804 6256 657 8058 800 2287 279 7526 751 8526 846 713 21 1536 156 437 120 3890 382 4953 489 2486 205 532 45 7043 727 3288 324 3352 324 7359 726 635 127
358 20 82920 6656 665 1604 122 2598 278 7329 746 3359 333 8026 817 3343 319 4596 430 8191 824 3980 340 7808 802 2226 266 1190 157 4828 443 8140 826 6632 667 5803 587 1676 228 6731 685 8934 888
359 20 85827 2582 322 8768 875 9998 1000 7414 732 2803 249 3004 325 4345 385 6368 640 8082 798 2927 327 6999 725 1407 114 5425 505 7880 810 891 109 5284 519 6300 631 8380 844 2487 221 5940 596
360 20 80205 7330 727 2765 348 3067 311 9910 991 3029 296 3630 357 7520 747 6424 612 2436 234 4711 475 1968 240 4667 459 7189 702 8330 817 9455 945 3141 323 2966 232 5347 499 873 98 5499 541
361 20 72559 6069 604 892 47 5033 490 8190 820 7294 746 7754 797 4637 482 4524 414 4671 481 6067 570 6052 632 2571 314 6187 617 4437 422 662 79 2132 186 8456 851 428 40 3444 370 1199 207
362 20 81737 7993 795 1966 202 9176 926 5453 564 3728 380 5783 556 2469 248 1142 85 728 50 1936 124 8039 800 5079 544 580 78 8092 809 3335 359 9434 941 196 20 9529 953 8965 903 8549 845
363 20 70228 8219 809 2543 187 3760 342 9158 912 2924 251 6350 615 684 42 462 39 1136 106 6876 709 9332 932 6149 603 6915 696 2777 328 4414 406 132 18 6488 674 7621 758 389 67 1457 90
364 20 78134 446 24 9154 911 9956 996 5029 491 4517 428 322 86 5883 556 6865 665 9398 939 1330 148 6492 658 8605 852 5189 554 4323 400 3312 283 470 39 800 157 6712 662 4090 467 4775 446
365 20 88208 5433 566 5681 555 3301 327 4205 425 3666 359 5910 553 5579 535 3802 374 9574 958 7331 758 7170 720 968 132 3086 289 7133 702 9993 1000 3170 290 9411 944 4890 464 6787 660 3170 310
366 20 80050 1766 145 5347 542 2770 298 9591 960 6252 589 7887 791 9965 997 1930 243 4365 414 4667 505 2605 227 6072 622 1620 237 3825 416 9724 972 9132 914 2740 231 9210 915 23 31 572 2
367 20 65812 1005 41 9765 977 1997 208 6756 681 2354 200 672 135 7 18 3598 387 4970 476 7693 784 2412 248 3906 420 5725 613 375 62 1135 180 4811 447 4021 369 7027 716 8047 792 5989 602
368 20 82021 8627 852 9500 953 4207 444 8377 827 5510 594 1344 185 6667 680 2043 133 3092 277 348 129 7367 756 3758 375 5695 532 3056 264 1728 96 1741 94 9211 921 9975 998 7832 798 2449 274
369 20 84194 4085 407 3244 354 5284 490 4642 479 2351 169 2985 269 8402 854 8397 842 6990 715 8916 901 2908 331 2568 214 5140 487 7642 748 5033 535 8575 859 8182 837 2767 255 6488 628 644 75
370 20 93667 5347 561 1037 123 1004 34 8927 895 7817 769 8525 860 3778 398 7089 688 1355 166 6968 692 2442 259 3230 357 6214 615 8162 805 9510 949 9005 910 8938 884 5439 557 9505 948 2792 345
371 20 80528 4415 449 175 72 2909 296 4068 457 1034 176 3168 382 9093 912 3666 368 5026 492 2928 301 937 63 5202 488 9564 955 6169 618 2376 241 6076 611 9169 922 9494 949 8621 861 6570 633
372 20 71323 9567 957 8531 868 1320 205 9983 999 2323 239 5 65 2704 268 1715 191 5732 583 2877 239 1571 119 7236 744 5758 563 3718 358 4668 456 6373 635 6764 706 2051 267 4118 464 2140 255
373 20 75605 7322 748 5667 539 407 46 3213 362 2548 219 9934 994 2475 300 7182 716 3422 288 6870 707 6190 647 2861 236 8192 822 5830 584 7989 784 2882 245 3112 269 2852 296 4576 475 983 147
374 20 91874 6426 624 2945 303 4665 435 4540 491 1749 204 7593 756 4084 364 3951 398 3906 442 9281 934 4504 409 8840 881 9643 964 7128 723 7512 736 6376 639 457 27 8204 810 9763 976 3276 368
375 20 83410 823 4 3562 316 737 25 8780 879 9195 920 3137 256 2221 202 5476 540 9356 935 1602 197 9589 962 5792 620 5768 573 3225 311 7195 736 9066 912 8858 879 7218 697 34 46 2629 260
376 20 71537 2703 258 42 10 5094 544 3517 342 8136 826 7006 682 3364 281 7073 709 2371 253 1022 148 5322 496 4237 376 1970 131 6494 652 6820 667 8433 830 3657 316 3475 319 2486 184 6200 634
377 20 87132 5625 583 8106 793 6183 586 382 37 679 27 1572 174 7575 764 8472 851 6028 587 281 45 211 111 4638 470 6723 667 6188 591 9654 967 2277 234 8937 893 9746 973 8622 861 7016 720
378 20 88945 8683 867 8913 901 4236 409 5882 556 8754 865 4042 429 5037 464 6966 686 2292 193 3009 329 7736 781 574 89 8585 873 8489 852 2559 258 1807 107 4764 452 8448 838 3299 339 7107 717
379 20 75201 3516 407 3675 312 1020 48 6397 645 2443 271 2569 244 8012 792 6462 620 9214 925 7498 743 5930 603 6104 612 2107 206 2947 349 5211 524 1595 152 9463 947 323 61 4391 476 5125 533
380 20 88789 8841 883 2775 303 4064 437 2557 243 8767 870 9375 944 2687 227 8419 842 7630 785 62 85 3323 342 9596 962 6787 648 8951 887 1627 232 3335 285 6517 680 9785 979 1848 117 4041 441
381 20 85972 7300 755 5499 520 6650 632 5061 540 4901 484 2168 199 7165 744 4492 434 5827 600 5502 536 4473 455 4813 464 8265 840 4682 492 7487 730 9627 962 5193 508 1162 129 2099 185 5100 474
382 20 86275 3773 359 282 61 5361 570 5190 548 9337 931 6969 686 8671 863 6716 678 4589 496 2573 313 3334 393 5916 627 3116 275 3523 347 8710 874 5825 554 9801 979 1414 122 8134 809 4610 440
383 20 89581 7240 737 3114 256 8650 876 2879 307 3897 370 8424 843 8419 852 9715 969 9555 959 1584 202 7306 744 3177 384 5825 608 1038 93 2220 171 9840 985 9267 933 1649 196 3549 311 4629 449
384 20 71241 8695 875 3017 334 590 151 3375 327 1286 46 7563 767 2373 314 7116 690 6851 658 3321 323 1724 249 7128 719 2507 304 4778 467 959 184 1455 135 6286 623 8151 833 3416 398 8461 859
385 20 93204 6601 651 1480 122 2999 296 7158 703 3325 308 1326 71 9038 897 7263 702 6188 600 7994 794 8634 866 6298 652 5707 595 6622 649 8875 889 8058 808 3916 433 8999 900 2815 353 3210 273
386 20 96800 3076 258 9858 987 7546 738 9070 916 6134 635 1586 220 4103 404 3408 305 5511 594 7851 772 5243 553 4614 470 2743 260 9320 932 4379 459 8596 867 8738 866 6408 643 5216 544 7600 783
387 20 85499 1363 137 8075 821 9699 972 2772 249 2920 311 6306 652 4254 410 2133 275 8776 886 9609 962 4022 415 8663 868 3938 350 6521 656 5329 488 1598 197 7496 760 3340 400 7888 799 2172 197
388 20 74026 6877 695 2761 206 7073 687 6930 678 790 23 1227 140 9577 959 3042 362 9307 926 1910 258 6796 685 7411 749 8544 853 4791 514 1018 140 5172 546 4416 472 645 158 3762 427 484 112
389 20 66804 2106 136 4565 440 6508 677 2728 336 4963 454 5883 588 2568 232 4851 476 7032 677 9468 947 6546 677 3013 354 7906 788 272 105 1812 152 297 122 3741 369 1670 97 4069 439 3508 295
390 20 98977 2680 294 7527 759 8243 837 9092 906 4271 438 9318 926 8347 821 3020 253 4906 511 8194 814 4600 429 2693 332 1648 190 7192 748 7147 729 8595 871 5106 493 8469 845 9935 994 2739 238
391 20 77509 1260 64 8133 801 2534 236 2619 321 3231 294 7770 756 4015 364 6341 602 9363 933 6578 634 3152 287 8000 807 6434 635 8581 845 1238 187 2309 204 4973 488 3596 344 741 44 6019 572
392 20 73428 9859 986 7347 744 3519 363 3860 342 4778 516 8028 819 6850 697 5189 482 1518 217 6509 684 1205 91 1193 119 5424 514 7030 700 2330 164 2573 291 391 58 194 61 5136 522 8852 896
393 20 70080 4248 432 2318 256 7365 739 1422 116 4781 435 1054 96 6361 648 5967 596 4621 418 6368 618 5514 512 2714 342 5252 532 9766 977 2662 292 3018 339 2579 311 716 45 6540 689 4335 457
394 20 88939 7098 725 1842 115 1664 143 9195 926 9022 894 7055 684 5058 470 6955 726 3334 390 4449 432 4640 446 4932 459 3303 375 4947 452 4439 451 6926 712 7793 761 3052 303 9592 956 5878 587
395 20 85096 786 138 9239 920 1178 132 8882 899 4373 408 2583 290 4304 452 7387 721 9199 916 5135 541 459 105 7822 781 7083 729 9395 942 7701 752 1169 53 9845 986 369 17 405 112 9057 910
396 20 91844 6922 676 9043 898 8627 858 7979 783 5377 582 1502 163 5695 555 8513 840 4230 457 7387 745 681 13 4853 507 5633 524 1507 101 2205 184 6842 658 6715 671 4494 477 8682 877 7919 801
397 20 111878 9526 952 1425 179 6925 699 9940 995 9546 953 3207 316 9101 915 5266 546 7309 710 8766 867 9207 925 3157 362 7122 689 9785 981 5593 601 9057 902 8025 821 7789 779 8178 831 924 63
398 20 87025 6979 724 7207 741 8688 858 4732 489 239 32 7033 691 5920 560 7235 713 1728 243 3447 309 7322 716 9012 893 8307 826 1258 127 7300 707 2605 260 7535 761 1963 148 9473 951 799 88
399 20 91028 2626 294 5335 511 5504 565 3890 411 4154 439 4663 469 8770 889 2679 224 2487 206 9714 971 9244 920 7020 704 3993 456 9505 951 7819 775 4236 400 9688 971 4406 407 2254 208 5799 617
400 20 70380 9102 910 1968 139 8919 885 6514 632 5517 565 3022 307 4412 459 2333 222 2253 232 414 35 3466 372 8455 839 553 41 6221 656 3436 329 1538 182 1431 188 8411 841 4875 481 5136 470
401 20 61033 5038 515 8710 873 6314 642 7592 774 7997 799 5758 570 4673 448 3777 398 2604 189 3105 334 1524 188 2808 226 88 64 555 4 1006 152 9182 914 351 107 1663 200 3000 238 547 114
402 20 84742 1216 46 6958 709 7591 768 9010 894 9012 903 600 32 1307 213 4579 426 6760 650 7531 778 5866 615 1833 263 9276 927 9814 981 4844 482 1421 192 4293 437 9640 962 3925 449 452 29
403 20 82005 4551 508 7548 736 1759 212 1911 185 2745 223 4230 461 1678 148 7273 745 6645 652 3553 351 6562 687 6789 707 8743 874 7969 785 1617 130 307 62 6545 688 2702 218 9826 983 9554 951
404 20 66401 1618 83 6959 701 2767 214 5114 539 4223 480 4136 387 4834 527 2821 346 1884 243 6461 680 2199 218 5892 577 499 28 1628 218 8551 855 7000 721 869 175 1004 173 9243 925 5300 558
405 20 70917 5997 602 2104 156 188 42 6512 676 2447 277 5235 555 2033 181 4337 425 7269 701 7181 738 5490 518 6490 684 5521 541 764 126 5177 543 135 47 2778 344 4594 474 4658 417 9737 976
406 20 83652 870 48 5539 575 9819 984 3393 339 5638 560 6445 626 2527 180 8333 828 2429 179 9924 993 3101 282 7590 777 212 18 1745 235 6766 688 7325 751 4794 468 9380 937 2169 206 6566 665
407 20 91663 7008 676 4901 447 6153 653 7282 710 4079 396 4476 463 3004 340 5091 553 7978 813 3783 410 6960 696 7490 757 8339 820 2070 178 1731 174 9602 957 8681 864 7219 720 6038 639 2694 281
408 20 87382 4026 424 5303 531 7077 695 1591 88 9582 957 6914 690 4054 358 853 46 7152 734 4008 446 1602 158 8268 820 6329 636 34 54 9086 901 6881 675 8706 883 7637 751 7511 742 2614 251
409 20 58456 3931 419 3371 349 5 74 6256 596 2587 225 4756 495 8504 841 8683 870 232 4 1136 150 2363 188 1711 230 1344 56 674 21 5487 527 4527 443 6311 639 731 123 4637 479 5825 581
410 20 82150 2462 254 9337 929 2979 359 4225 391 1238 98 6691 645 5319 508 8239 830 4725 459 2861 331 1301 83 229 1 3470 380 6230 587 8273 825 4492 443 5467 506 9723 970 7870 767 7557 740
411 20 81453 2030 241 9029 905 2614 241 2101 275 9475 952 4324 480 7382 740 6261 663 9608 963 7126 736 5685 526 2666 331 9739 973 36 56 3586 315 2692 277 4761 505 3003 310 596 56 9103 911
412 20 80499 3352 335 277 48 7853 778 1608 118 2024 239 4789 435 9227 926 2941 279 8818 884 4849 497 6836 712 9093 907 6164 604 5119 479 2727 286 5676 571 8979 900 5836 587 2611 249 1845 206
413 20 75700 1842 177 4743 505 8146 826 8368 840 5861 589 9150 922 3628 422 7026 728 3107 320 746 110 3443 296 917 76 1546 176 58 11 3418 386 6260 597 4560 457 3458 324 9600 960 8749 873
414 20 57344 2795 247 6914 677 1668 133 5715 584 268 50 2674 252 62 43 4110 423 249 6 3458 313 126 39 4597 493 9433 944 4255 384 2398 197 6867 685 2361 173 6844 682 4966 466 1921 242
415 20 71782 558 85 532 46 3520 359 8761 881 1341 58 6326 657 3090 369 3705 324 3958 392 8060 812 2604 227 2320 306 1491 68 4695 431 7563 755 7968 788 5403 561 6219 605 9118 907 2496 176
416 20 102227 8944 891 4941 513 5064 478 1707 130 9885 988 3002 260 9912 991 2784 292 7950 790 7825 786 9972 998 8754 865 144 12 7526 745 5263 523 3849 372 9767 978 9168 922 2077 160 9250 928
417 20 71431 254 120 7469 757 1800 247 5722 598 9140 916 2491 273 3618 386 802 24 718 68 3145 252 7588 735 5748 615 8335 830 5001 540 3387 312 7535 768 2353 232 9548 951 2571 289 2064 128
418 20 79172 1337 95 9919 992 8013 793 2496 310 7680 751 2851 226 7217 724 2691 230 5676 540 2253 282 6106 573 4816 515 5258 556 1308 166 8631 865 1234 68 4250 479 6423 641 7016 698 3791 344
419 20 80901 5068 474 4155 450 2736 299 1645 102 3522 332 8586 849 1335 157 7514 769 6648 667 3009 233 8001 791 7263 729 913 23 5747 586 7395 757 7943 779 9493 951 402 58 7336 713 2416 214
420 20 79881 874 131 7194 709 6376 608 6370 641 25 40 2816 347 3356 319 6274 621 9177 921 1632 146 7086 721 4510 423 6410 653 2048 129 9999 1000 7691 789 7935 783 6925 684 2624 336 530 48
421 20 73697 7624 770 965 94 6301 596 1524 86 4735 476 8574 872 5147 481 2042 240 6099 631 482 111 4348 463 4177 454 4001 396 2227 188 8789 874 8953 902 3854 431 2761 249 409 110 9110 904
422 20 63581 29 28 2669 301 5595 534 390 60 6948 705 6388 632 472 87 7069 701 3838 407 8240 826 206 57 7496 731 219 87 4511 465 9425 943 5275 541 530 128 5180 539 2340 212 2657 319
423 20 83355 1019 117 9879 990 9341 933 1620 166 9781 980 3831 403 6448 671 6531 655 1224 47 5569 569 7856 790 7307 754 5592 536 5204 533 846 98 8875 877 7831 788 2733 204 2566 308 141 24
424 20 91649 4744 425 8942 890 7945 801 3346 317 943 96 3149 325 6498 623 9132 907 4508 484 5524 510 9854 985 6540 677 5421 501 5638 544 6200 657 9570 955 3839 416 3582 365 3954 355 5233 512
425 20 79836 9550 952 4760 457 110 46 248 113 2202 194 212 42 2226 202 8611 866 9896 991 5418 521 7480 761 8673 880 5435 537 9225 925 5836 586 2599 286 3422 388 3405 329 8924 884 1564 162
426 20 81474 9269 922 8279 830 8574 846 9540 954 7806 782 5337 555 91 95 3502 308 2394 193 2652 336 3058 286 4003 441 8907 889 7713 768 5877 602 5288 565 2790 348 1119 139 2147 225 3497 303
427 20 68302 1187 152 5713 553 8095 819 8096 812 6723 662 1908 235 1811 144 6099 623 1232 138 1818 214 7447 743 3499 342 964 11 2584 258 202 33 8225 820 6898 661 9803 980 2831 324 243 20
428 20 78090 5457 513 461 123 3298 367 2426 296 4179 427 7213 738 1710 172 1885 259 1314 69 284 55 2143 163 8819 884 7632 742 7731 785 4134 363 8588 867 6480 622 7891 808 9716 969 6252 654
429 20 78599 1258 54 9103 912 4483 492 6700 678 9273 929 9247 928 2266 304 5214 533 2417 220 416 92 6715 663 5534 532 2890 239 5509 564 1824 231 9684 970 6589 669 1946 270 7083 691 98 85
430 20 71301 3857 369 1764 167 1716 222 4804 499 7358 732 7709 791 9350 939 2514 223 7118 713 8750 870 4797 485 1453 149 9713 970 6282 613 2704 288 1195 62 801 95 372 80 3954 375 2916 315
431 20 75465 7392 719 3701 360 1308 105 9435 943 1864 181 8432 845 5616 555 963 127 6105 644 9750 973 6292 620 7573 738 767 131 4165 445 1908 134 677 111 7179 702 6431 627 3233 355 1541 77
432 20 69588 5917 601 6313 657 2275 195 348 91 623 85 2926 319 2731 325 2977 258 4261 443 6139 577 4661 513 4524 420 6878 663 9625 965 9628 961 7892 788 3527 394 4506 503 1221 69 13 21
433 20 79304 3458 337 7446 747 5999 621 6458 638 9603 963 1791 159 5347 507 3865 350 875 45 3515 304 9480 951 3493 319 9449 949 8145 802 324 63 9605 960 447 118 6950 694 2426 315 455 33
434 20 84237 5765 565 2882 299 6475 648 5608 564 3238 323 3588 376 8445 840 6333 636 2209 146 8457 855 3822 420 4751 440 6029 627 7325 718 8748 867 5904 576 3880 449 9039 913 83 41 2716 261
435 20 81687 4032 355 7241 748 9427 945 942 128 5891 555 7598 741 9925 992 4781 486 5073 470 1893 173 8098 808 1772 155 5300 523 6466 638 3711 386 7292 733 1502 199 8314 840 2524 304 327 7
436 20 75568 5846 555 9599 958 51 51 8960 893 4368 403 1076 113 5401 535 9744 976 8933 893 7182 716 9507 949 22 61 9623 965 301 23 5206 515 2239 205 988 174 3741 394 1322 128 351 85
437 20 58766 465 72 1741 164 153 23 2573 239 6919 702 932 36 361 1 45 68 851 148 2285 209 3670 428 7148 718 7453 762 4826 479 7621 780 7712 791 1734 127 6487 620 4170 396 6312 611
438 20 69981 3941 369 7789 758 3228 383 1219 114 4936 542 3846 432 449 50 3275 308 7974 779 2192 196 1949 169 7016 684 6936 689 7607 762 9190 922 3465 328 6811 674 256 107 3440 303 1958 170
439 20 92632 7347 752 3523 368 2870 239 9719 974 9780 979 9419 948 6117 648 6420 654 1219 193 1684 247 7054 717 4494 489 7919 804 6555 667 2089 159 4364 478 6300 601 5902 623 5057 497 7958 793
440 20 85347 3181 292 659 102 7882 804 9117 905 4707 442 5157 494 7635 770 5011 549 6914 688 7283 751 4355 431 4272 381 6957 702 2481 299 2393 286 5447 590 5638 525 2764 282 7961 780 6870 696
441 20 65729 6755 683 6904 721 1041 127 7863 808 4076 400 1458 108 136 66 721 148 3792 442 7957 786 908 116 6436 615 2477 302 1144 143 5178 537 1859 215 3990 363 7821 761 7624 770 4022 363
442 20 78953 6034 587 1544 118 9685 971 1784 232 4073 416 4132 365 7531 770 8746 871 3186 365 1003 170 3150 354 9425 947 5262 493 1583 114 6974 691 5807 588 2529 208 6822 674 7562 745 1860 258
443 20 78977 3987 345 1865 148 4287 433 1253 157 6315 641 9145 911 8286 837 3667 338 1620 201 7437 735 2577 276 8124 818 723 129 8759 874 1232 75 8392 836 4593 497 7328 737 742 160 8390 826
444 20 90564 2693 286 7967 789 9181 925 7175 696 9640 965 1149 178 7255 731 9302 924 7444 743 1917 177 4909 480 4218 460 9252 927 1957 127 7448 740 2052 163 5225 549 8842 880 4534 447 1045 169
445 20 95397 4771 523 956 101 7816 776 4512 482 4035 373 6842 676 2394 287 4768 519 5505 524 9741 973 8538 851 1442 123 7862 806 5493 508 7888 789 9352 936 5747 596 8619 859 4814 501 8152 833
446 20 62968 1531 226 1904 163 9072 908 4391 411 8538 865 3853 325 1594 188 819 97 8089 812 3429 390 7742 761 221 78 202 40 4273 461 4261 381 2709 268 3046 350 9438 947 1640 114 1959 246
447 20 71381 5234 570 3988 457 372 130 7902 772 1547 201 6351 604 4372 430 9983 999 762 152 2822 328 1276 164 1402 55 3364 401 6663 675 1326 192 6824 672 2729 284 8186 834 5363 547 8761 886
448 20 86997 8100 828 5244 483 1878 242 904 51 1456 121 5937 580 8683 866 163 106 7440 765 8252 814 6525 666 6472 656 1100 142 4263 469 7921 806 1019 66 6743 656 8881 877 8602 863 9164 910
449 20 78245 5827 585 8917 890 5649 570 4972 527 3745 351 159 8 6699 689 124 77 2813 291 3867 348 1453 94 8983 895 5573 521 9 33 4327 460 9058 902 9842 986 8864 883 2168 198 4758 516
450 20 63848 550 11 1455 200 7611 766 9632 966 483 129 4161 373 8809 881 1244 39 5165 517 689 62 402 56 6837 659 3238 313 1266 176 3955 351 7180 729 3183 365 9035 899 1245 193 3670 367
451 20 73801 1259 178 6788 681 1313 211 388 110 9373 935 4736 429 7343 760 4653 467 7241 700 1149 143 115 106 4406 486 9425 939 7653 752 8924 886 5129 471 2700 240 4746 434 1705 213 3206 376
452 20 92402 3476 359 3988 429 2904 244 3862 348 8972 895 3524 301 980 56 3749 361 9582 956 3947 421 8934 893 7111 686 6836 700 7465 752 8780 868 7712 772 6946 671 9145 907 1741 212 5849 585
453 20 81950 8192 804 4749 439 3949 448 5703 553 1353 127 7966 795 766 86 3358 325 9983 999 8931 887 1055 163 1520 208 9365 932 3933 343 7859 787 5053 493 5345 513 7852 776 840 144 4666 420
454 20 74950 6560 676 863 151 120 98 1487 70 6580 689 6194 624 5836 608 3929 356 2999 325 3808 438 9663 966 7967 787 1969 240 1588 77 2689 240 4830 468 6023 610 9615 959 4565 507 6403 634
455 20 86797 5621 528 4490 499 6447 641 9202 917 1887 246 116 38 867 33 2245 298 6833 712 4492 473 8547 841 4841 536 8443 846 7923 794 7525 751 5373 500 8679 875 6499 670 5364 542 3103 369
456 20 85683 7651 765 4580 499 3530 376 544 64 6521 670 5317 570 9400 943 7080 722 2081 155 7168 738 5532 577 3691 392 7496 749 9110 917 6161 618 9853 986 9996 1000 426 58 307 93 660 2
457 20 70221 8906 887 4595 436 3838 328 2679 251 8391 852 3914 416 9023 901 9672 970 1368 153 7761 761 7978 811 3577 357 266 58 2229 270 531 82 1113 118 242 64 1404 119 8809 889 1481 202
458 20 85619 9862 985 896 68 81 51 2575 203 1170 32 6329 599 9142 909 4740 511 7123 733 6618 660 8688 864 1907 236 3977 452 3204 378 6563 640 8588 850 1326 139 9006 903 7792 768 7437 725
459 20 92528 8989 894 2463 203 4179 471 9917 992 5743 559 8356 852 8038 815 8067 805 3722 311 6291 614 9324 934 1949 194 2671 308 6531 623 3552 374 8599 864 9645 968 1704 216 722 3 5198 527
460 20 83578 3712 399 2945 335 7247 719 9271 923 6108 649 4270 447 1597 89 6389 648 5388 583 9250 928 9166 923 6834 693 2416 192 1017 23 4152 406 8148 831 1372 104 6060 568 4529 461 4602 508
461 20 69024 2547 325 7841 790 470 125 3697 337 1657 130 1813 175 1944 197 9215 914 3769 348 6001 631 1037 153 3638 322 251 111 3243 362 8448 843 2085 147 6179 591 4738 489 8610 875 9098 901
462 20 88304 9956 996 4862 452 9727 976 9044 901 2070 250 6309 666 1709 175 1313 208 8025 797 2717 333 9344 931 2806 227 4285 480 9189 924 4775 452 4895 456 6511 644 5889 578 4243 415 2711 335
463 20 76636 6244 658 2419 240 7889 788 564 9 6892 671 6075 642 6195 632 4192 369 8109 823 2852 273 2731 319 28 24 398 119 3539 366 7747 792 7711 777 2751 316 7427 718 5642 536 6390 653
464 20 82396 4001 395 2914 340 5213 532 9734 975 9557 958 5390 497 7241 718 5500 575 4137 418 4472 470 3160 323 5611 572 2690 336 680 43 9207 918 9829 983 4697 465 6512 652 720 131 1731 137
465 20 74876 1703 218 6314 656 211 55 4561 470 6170 616 5849 547 1998 228 4533 464 4273 390 8237 823 1650 95 3854 422 7681 771 991 32 2845 228 7602 763 8106 807 1520 140 7569 768 7929 814
466 20 79892 934 88 5626 569 2976 324 2234 165 3600 385 6714 641 8813 877 2783 349 3370 347 6954 715 1875 150 8352 835 6322 651 3789 397 2999 260 7834 790 2137 139 9804 983 3017 361 9733 972
467 20 69614 2547 204 2203 257 8584 851 6364 635 4635 498 3351 396 7335 710 1852 213 2351 202 929 118 3850 412 9076 908 8103 802 4629 515 2218 165 6380 666 2808 274 5473 506 816 156 3514 328
468 20 81680 7997 812 3121 351 6280 660 4005 351 4396 386 8569 860 9061 905 5801 594 7462 764 1652 207 1444 220 5228 553 5895 609 3886 432 1356 221 7679 746 43 54 8080 799 9026 912 1119 126
469 20 88594 7574 778 4109 436 8095 812 8159 827 72 15 8512 858 6306 667 6598 630 8428 859 4351 452 6536 641 8482 854 4998 466 2775 305 8370 843 7602 781 107 92 14 96 186 17 9469 945
470 20 72828 3800 350 6686 646 7171 725 1387 182 6789 658 2256 175 3648 419 2204 260 6337 640 4900 494 209 12 6243 650 904 1 5587 561 5052 502 9789 979 3872 425 3034 363 3047 344 8120 801
471 20 75948 384 46 6180 649 4266 467 3274 383 7377 758 5488 573 2884 235 918 72 3267 268 2148 221 8306 842 3773 417 2806 350 6904 698 3464 327 6880 687 8815 892 3295 316 6714 702 7793 791
472 20 102652 3832 386 9681 968 4185 459 7541 742 8186 829 1807 179 9116 916 5850 556 8333 845 8801 875 8734 881 4764 449 3192 315 4325 397 6935 711 3290 283 8821 877 9688 968 9482 949 1753 187
473 20 66888 1520 119 6955 682 8481 849 3008 254 826 161 2628 334 860 121 3678 357 5825 589 9662 968 4537 498 1889 153 9730 973 2377 208 1273 107 3463 344 5048 511 5677 555 5215 516 959 50
474 20 87304 2699 218 3018 346 8421 849 6399 606 6027 598 5480 514 474 84 5387 564 20 49 7400 754 837 164 2764 339 8533 843 9793 980 962 154 8533 845 7649 783 9091 916 7205 728 8438 847
475 20 70690 909 122 4388 387 952 39 8923 892 3061 321 6810 704 2763 293 2339 183 674 66 4068 373 7697 751 5416 572 9836 984 4490 423 3991 420 1994 146 2377 304 6285 611 2400 211 8990 909
476 20 94284 1034 183 9950 996 9442 943 2503 246 3430 285 9650 968 5487 560 3074 283 2884 230 2355 187 7079 703 509 108 9388 936 5894 609 6068 574 9139 907 3379 279 8641 862 9277 930 8673 872
477 20 82570 1449 209 9902 990 7915 804 5860 623 2419 306 6202 652 1468 172 4262 461 2165 272 4210 468 7915 798 6833 708 6534 661 7562 761 8939 892 1424 152 8787 884 7848 769 855 136 664 22
478 20 79879 5969 624 148 59 3879 346 9681 967 7228 717 1448 183 6326 614 8507 841 706 97 1338 203 8987 898 8750 876 1540 70 6060 628 2109 161 7762 773 3657 425 3236 336 4588 439 7930 790
479 20 69523 4590 488 2150 169 1724 128 6889 661 6700 645 5783 618 327 85 5562 521 2431 238 6039 598 1866 212 5960 631 1672 243 724 99 835 45 4653 497 1673 160 9098 911 9436 942 8792 877
480 20 75212 7143 716 5421 527 5605 536 3187 337 4597 455 1382 183 5459 515 3262 270 8454 844 5870 573 7016 714 8230 817 1594 185 292 123 7998 782 2097 272 500 130 1051 34 8761 887 6097 583
481 20 81321 7620 752 4604 469 4418 464 5075 473 6744 680 7462 744 251 50 1237 199 9521 949 7815 773 2741 219 7956 809 8718 881 24 52 68 15 4571 425 3004 251 7518 727 9158 919 3147 303
482 20 75881 7024 688 4097 435 9202 924 957 61 1454 189 1863 184 4661 501 3727 334 7864 776 2893 295 3991 348 4184 466 9533 950 2754 234 8434 849 7021 692 9533 957 1390 94 63 26 4207 381
483 20 82537 2443 270 1477 90 1279 204 2423 248 6385 615 2716 282 8050 798 9243 918 7493 775 3679 360 5564 524 4198 470 8582 856 6930 709 8469 833 9115 907 124 81 6466 657 1513 138 7023 714
484 20 69680 473 139 879 120 8719 861 6910 663 852 171 1620 243 869 123 8694 859 4042 455 3414 335 8982 903 462 128 9428 945 6524 634 3136 365 933 65 1732 159 8471 837 8823 884 2138 226
485 20 78532 53 1 3656 349 4822 530 3822 431 3608 417 6131 617 4100 466 8075 820 4737 496 6139 634 3122 327 7543 778 6876 680 4319 462 5063 458 1193 44 6682 664 2683 232 5823 579 9718 973
486 20 72403 7308 705 2283 195 7553 779 6831 698 335 51 3044 318 7179 692 7726 754 1390 95 6811 702 9113 910 4212 387 909 145 5210 499 539 9 5747 616 2407 166 7697 759 2434 280 1776 178
487 20 79596 6 100 2624 297 5931 575 3920 362 2510 321 8032 789 6563 649 8121 804 4909 518 4871 490 2802 257 9055 905 7538 764 9596 958 4957 450 7879 775 1889 211 702 48 3091 345 4500 445
488 20 75072 424 67 645 46 7560 760 9570 960 7309 754 8520 864 2131 213 84 105 6946 697 7507 772 7077 726 2384 209 5925 554 5764 610 7601 775 2910 274 607 68 4001 458 850 66 6025 597
489 20 93391 7702 773 1346 116 4899 442 7831 780 7439 768 9617 966 8707 875 4223 376 4298 408 1106 121 7652 748 7219 713 7859 792 7059 725 5989 590 3980 361 5706 582 5882 590 5868 561 2357 303
490 20 84028 9106 911 9140 923 7318 741 988 153 4303 481 5265 482 3734 404 2950 279 2918 315 7607 747 4863 461 4493 405 6579 649 3693 377 5555 519 8996 895 7307 745 1249 160 408 127 8563 866
491 20 91180 8764 882 4952 532 1401 151 1226 204 8206 836 9939 995 7599 763 5042 475 4987 476 7067 705 7655 780 6994 688 1131 108 1781 110 7817 798 7572 769 4578 505 6692 651 6141 611 4432 409
492 20 97280 5135 561 7466 754 5367 534 2910 259 5485 551 4418 450 6465 676 8482 856 6644 678 7577 735 7048 678 4109 436 9225 929 5275 490 1768 159 7895 801 2918 351 6317 617 8695 869 8402 855
493 20 90239 4527 496 9784 978 512 110 5699 602 9497 951 8760 872 2801 229 7586 757 7418 757 8129 797 891 100 5749 562 8932 884 2917 248 8393 836 4322 454 8278 828 6374 642 2151 200 79 61
494 20 75249 515 90 2576 266 205 57 6747 650 7329 716 1812 217 3464 364 7605 748 2086 154 7865 766 9848 984 8263 844 889 15 3728 426 6898 686 5720 538 1706 231 6786 711 3188 336 6832 704
495 20 77112 7626 766 1159 61 7258 749 3459 296 2263 260 8244 838 9592 957 8 70 3630 384 2806 260 6090 571 7366 748 1292 111 1509 224 7938 808 7898 800 1703 124 9547 959 4554 446 2449 207
496 20 70835 5447 527 9054 915 1723 252 1231 61 7018 684 646 134 4539 449 1701 194 2824 253 8184 806 6210 651 1647 148 4914 530 5218 505 4951 530 794 113 2745 220 8098 807 6230 653 5370 539
497 20 84482 2829 289 5681 594 3673 318 3467 311 8138 818 7421 718 4602 412 8622 874 203 99 5822 546 3019 351 4341 472 2587 247 6639 648 7497 758 9292 923 3285 304 8806 889 6531 657 3148 308
498 20 78768 3417 345 6755 664 4031 429 7213 708 1321 163 3068 330 7083 712 7689 783 7768 776 8466 860 2199 147 3936 445 5864 593 81 78 3936 339 8061 818 1179 188 6226 626 3166 309 7002 729
499 20 82198 9542 952 866 164 7851 769 2723 280 4888 481 9839 985 2584 254 2134 228 722 34 1842 238 9547 951 8954 890 9942 994 5100 484 7389 720 3190 319 3224 372 7765 769 640 122 4006 346
500 20 73821 5339 564 9201 928 9540 952 2294 275 700 28 1038 150 1088 160 3280 309 5209 540 4443 416 4550 411 7826 797 2483 188 7843 767 9358 934 5421 521 1526 174 4688 427 2738 325 3712 406
