iters,price,time
501,38099,.018955366
501,42639,.013978120
501,38139,.013328642
752,41743,.013669625
501,41354,.013654616
501,41440,.012935460
1003,43329,.016672354
501,36689,.012705656
501,42936,.013131150
501,36177,.015517445
