iters,price,time
501,38732,.017354533
501,37371,.014183042
501,39009,.012079107
501,36862,.012950974
752,34844,.014646148
501,35141,.013339193
752,38354,.014105224
501,40189,.011958160
501,39078,.013056492
501,34248,.012684214
