iters,price,time
501,51121,.020581316
501,49845,.013275926
501,51634,.013774290
501,48521,.012705916
501,46696,.013546079
752,51420,.015799660
501,49059,.013492916
501,48104,.012550158
501,47327,.014490776
501,48612,.013382435
