iters,price,time
501,38784,.026290917
501,38539,.018885297
752,40576,.015710097
501,35880,.013353546
501,42292,.012790077
501,36510,.014116445
501,42202,.014348574
501,38339,.011789413
501,39096,.013493447
501,40644,.012574595
