iters,price,time
501,51290,.017967186
501,48388,.013171020
501,54156,.013284573
501,47832,.012695782
501,50148,.013194216
501,53401,.015164825
501,50470,.014726732
501,51545,.012061243
501,51088,.012472961
501,50287,.012949261
