iters,price,time
501,33233,.018071686
752,37010,.014976881
501,36638,.012625498
501,38141,.012010585
501,38177,.012984298
501,37209,.012743363
501,37156,.012526748
501,36862,.013856417
501,36231,.013449878
501,36050,.012310665
