iters,price,time
501,33597,.029956075
501,34800,.013437655
1003,37607,.017445247
752,32784,.015126551
501,35129,.012967667
501,36059,.012621770
501,34198,.012763120
752,35137,.014183532
501,35087,.012463833
501,37219,.013467127
