iters,price,time
501,38300,.019276816
501,33243,.014602284
752,36230,.013663086
501,32945,.013856418
501,35596,.013150321
501,34884,.013094184
501,37578,.013600578
752,36114,.014065847
501,32255,.012648802
752,36075,.015213218
