iters,price,time
501,36516,.018326885
752,38853,.014892008
752,40896,.017239203
752,39900,.015258478
501,41032,.013017202
501,42151,.013824481
1003,38981,.023182578
501,41751,.019863939
501,38863,.022178506
752,42739,.024564671
