iters,price,time
501,35817,.020567541
752,35577,.013602932
501,31262,.013867533
752,36716,.014656303
501,34623,.013431148
501,35407,.012697635
501,38261,.013002153
752,36727,.014993472
501,36545,.012613027
501,35280,.011396672
