iters,price,time
501,37363,.018613748
501,36776,.013755929
501,39301,.011606468
501,38518,.014059355
501,37737,.012753823
501,37282,.014414354
501,40052,.012623613
752,35845,.014866965
501,39210,.013390355
501,33220,.012104216
