iters,price,time
501,45373,.026834974
501,43357,.012518001
501,43572,.012377317
752,46477,.016969456
501,44656,.013928189
752,45580,.015926301
501,46126,.017232515
1254,46675,.030986496
501,44269,.019141217
752,43173,.023615445
