iters,price,time
501,42536,.030260687
501,43928,.011498741
501,44755,.012673254
501,44412,.013724275
501,44735,.014172651
501,46035,.013611593
501,43158,.019537741
501,44498,.018238310
501,37351,.017883275
1003,46303,.023383206
