iters,price,time
501,35629,.018905125
501,32833,.012266391
752,33452,.014118773
752,33124,.013739964
752,36117,.015204657
752,35911,.014297716
501,32593,.013429004
501,34492,.013189471
501,35459,.013426529
752,34421,.015659661
