iters,price,time
752,45662,.023251108
501,41539,.015098443
752,44100,.014968810
501,44214,.014032333
501,39992,.011853249
501,44822,.012959932
501,41161,.014402381
501,40477,.011889269
501,43779,.012033901
501,44225,.014163294
