iters,price,time
501,39919,.019467210
501,40437,.013861247
752,39884,.015122227
1003,38724,.016412968
752,39574,.014605389
501,39539,.013244156
752,41225,.014808673
501,37762,.014249529
501,40376,.012582399
752,37700,.013522643
