iters,price,time
501,35477,.019087158
501,42383,.012906109
1254,38604,.016767341
501,39148,.013813489
501,38579,.014489858
501,37229,.012051039
501,38947,.012217100
501,39593,.013978836
501,38535,.011791726
501,39417,.012336815
