iters,price,time
501,37979,.027450391
501,35845,.013954590
501,38846,.016769434
501,38619,.016138001
752,36048,.017112941
501,40851,.013643049
501,39491,.013656871
501,38852,.012511134
501,39420,.013841268
501,40456,.013039534
