iters,price,time
501,46097,.018250408
501,47846,.014048765
501,46003,.012999000
501,44407,.012800072
501,47798,.014018066
501,43387,.012501571
501,42308,.012274742
501,44555,.012891155
501,49173,.014716827
501,45620,.013365117
