iters,price,time
501,41628,.027818842
501,42547,.012928707
501,36719,.013301971
752,40259,.015013665
752,40536,.016371824
501,42666,.012982945
501,35497,.019640196
501,38009,.018417322
501,41134,.019542404
501,41260,.018806592
