iters,price,time
501,43782,.018955175
501,43537,.014097047
501,44803,.012352721
501,41657,.014459881
752,46426,.014806895
501,42438,.013418098
501,43670,.013522909
501,39929,.012556055
501,43923,.013242507
501,39096,.012488835
