iters,price,time
501,41077,.028559032
752,40142,.015135564
501,41435,.012819007
501,40329,.014076708
501,40626,.012376331
752,38230,.013946840
752,38052,.014866504
752,39018,.015910436
501,40368,.012437522
501,40635,.013121516
