iters,price,time
501,42388,.019710150
501,45219,.014271851
501,44455,.014549132
501,43561,.015585159
501,41724,.013693130
501,43535,.013245478
752,41498,.015807790
501,47197,.014417750
501,43125,.013536524
501,43110,.012231729
