iters,price,time
501,35568,.029403643
501,40371,.012816468
501,37397,.012881892
501,37843,.012021076
752,39116,.013575218
501,40007,.013037611
501,39660,.013856737
752,39739,.014213074
501,36632,.012697845
501,31066,.011602245
