iters,price,time
501,35981,.029162517
501,37317,.013264965
501,36689,.013976882
501,36647,.013230625
501,36883,.011832881
501,35638,.013382515
501,32606,.015060791
1003,34313,.018742379
501,35810,.012446240
501,35057,.013313834
