file,opt
data/A/wuf20-91-A1/wuf20-01-A.mwcnf,-9223372036854775808
data/A/wuf20-91-A1/wuf20-0100-A.mwcnf,-9223372036854775808
data/A/wuf20-91-A1/wuf20-0104-A.mwcnf,-9223372036854775808
data/A/wuf20-91-A1/wuf20-0108-A.mwcnf,-9223372036854775808
data/A/wuf20-91-A1/wuf20-0109-A.mwcnf,-9223372036854775808
data/A/wuf20-91-A1/wuf20-0114-A.mwcnf,-9223372036854775808
data/A/wuf20-91-A1/wuf20-0115-A.mwcnf,-9223372036854775808
data/A/wuf20-91-A1/wuf20-0116-A.mwcnf,-9223372036854775808
data/A/wuf20-91-A1/wuf20-0117-A.mwcnf,-9223372036854775808
data/A/wuf20-91-A1/wuf20-0121-A.mwcnf,-9223372036854775808
data/A/wuf20-91-A1/wuf20-0123-A.mwcnf,-9223372036854775808
data/A/wuf20-91-A1/wuf20-0125-A.mwcnf,-9223372036854775808
data/A/wuf20-91-A1/wuf20-0126-A.mwcnf,-9223372036854775808
data/A/wuf20-91-A1/wuf20-0129-A.mwcnf,-9223372036854775808
data/A/wuf20-91-A1/wuf20-0133-A.mwcnf,-9223372036854775808
data/A/wuf20-91-A1/wuf20-0135-A.mwcnf,-9223372036854775808
data/A/wuf20-91-A1/wuf20-0136-A.mwcnf,-9223372036854775808
data/A/wuf20-91-A1/wuf20-0138-A.mwcnf,-9223372036854775808
data/A/wuf20-91-A1/wuf20-0139-A.mwcnf,-9223372036854775808
data/A/wuf20-91-A1/wuf20-0140-A.mwcnf,-9223372036854775808
data/A/wuf20-91-A1/wuf20-0146-A.mwcnf,-9223372036854775808
data/A/wuf20-91-A1/wuf20-0147-A.mwcnf,-9223372036854775808
data/A/wuf20-91-A1/wuf20-0148-A.mwcnf,-9223372036854775808
data/A/wuf20-91-A1/wuf20-0150-A.mwcnf,-9223372036854775808
data/A/wuf20-91-A1/wuf20-0152-A.mwcnf,-9223372036854775808
data/A/wuf20-91-A1/wuf20-0155-A.mwcnf,-9223372036854775808
data/A/wuf20-91-A1/wuf20-0159-A.mwcnf,-9223372036854775808
data/A/wuf20-91-A1/wuf20-016-A.mwcnf,-9223372036854775808
data/A/wuf20-91-A1/wuf20-0160-A.mwcnf,-9223372036854775808
data/A/wuf20-91-A1/wuf20-0165-A.mwcnf,-9223372036854775808
data/A/wuf20-91-A1/wuf20-0167-A.mwcnf,-9223372036854775808
data/A/wuf20-91-A1/wuf20-0173-A.mwcnf,-9223372036854775808
data/A/wuf20-91-A1/wuf20-0180-A.mwcnf,-9223372036854775808
data/A/wuf20-91-A1/wuf20-0182-A.mwcnf,-9223372036854775808
data/A/wuf20-91-A1/wuf20-0183-A.mwcnf,-9223372036854775808
data/A/wuf20-91-A1/wuf20-0186-A.mwcnf,-9223372036854775808
data/A/wuf20-91-A1/wuf20-0188-A.mwcnf,-9223372036854775808
data/A/wuf20-91-A1/wuf20-019-A.mwcnf,-9223372036854775808
data/A/wuf20-91-A1/wuf20-0191-A.mwcnf,-9223372036854775808
data/A/wuf20-91-A1/wuf20-0192-A.mwcnf,-9223372036854775808
data/A/wuf20-91-A1/wuf20-0193-A.mwcnf,-9223372036854775808
data/A/wuf20-91-A1/wuf20-0196-A.mwcnf,-9223372036854775808
data/A/wuf20-91-A1/wuf20-020-A.mwcnf,-9223372036854775808
data/A/wuf20-91-A1/wuf20-0200-A.mwcnf,-9223372036854775808
data/A/wuf20-91-A1/wuf20-0202-A.mwcnf,-9223372036854775808
data/A/wuf20-91-A1/wuf20-0203-A.mwcnf,-9223372036854775808
data/A/wuf20-91-A1/wuf20-0204-A.mwcnf,-9223372036854775808
data/A/wuf20-91-A1/wuf20-0205-A.mwcnf,-9223372036854775808
data/A/wuf20-91-A1/wuf20-0206-A.mwcnf,-9223372036854775808
data/A/wuf20-91-A1/wuf20-0207-A.mwcnf,-9223372036854775808
data/A/wuf20-91-A1/wuf20-0209-A.mwcnf,-9223372036854775808
data/A/wuf20-91-A1/wuf20-021-A.mwcnf,-9223372036854775808
data/A/wuf20-91-A1/wuf20-0211-A.mwcnf,-9223372036854775808
data/A/wuf20-91-A1/wuf20-0213-A.mwcnf,-9223372036854775808
data/A/wuf20-91-A1/wuf20-022-A.mwcnf,-9223372036854775808
data/A/wuf20-91-A1/wuf20-0220-A.mwcnf,-9223372036854775808
data/A/wuf20-91-A1/wuf20-0222-A.mwcnf,-9223372036854775808
data/A/wuf20-91-A1/wuf20-0224-A.mwcnf,-9223372036854775808
data/A/wuf20-91-A1/wuf20-0226-A.mwcnf,-9223372036854775808
data/A/wuf20-91-A1/wuf20-0228-A.mwcnf,-9223372036854775808
data/A/wuf20-91-A1/wuf20-0232-A.mwcnf,-9223372036854775808
data/A/wuf20-91-A1/wuf20-0233-A.mwcnf,-9223372036854775808
data/A/wuf20-91-A1/wuf20-0236-A.mwcnf,-9223372036854775808
data/A/wuf20-91-A1/wuf20-024-A.mwcnf,-9223372036854775808
data/A/wuf20-91-A1/wuf20-0241-A.mwcnf,-9223372036854775808
data/A/wuf20-91-A1/wuf20-0245-A.mwcnf,-9223372036854775808
data/A/wuf20-91-A1/wuf20-0246-A.mwcnf,-9223372036854775808
data/A/wuf20-91-A1/wuf20-0249-A.mwcnf,-9223372036854775808
data/A/wuf20-91-A1/wuf20-0250-A.mwcnf,-9223372036854775808
data/A/wuf20-91-A1/wuf20-026-A.mwcnf,-9223372036854775808
data/A/wuf20-91-A1/wuf20-0262-A.mwcnf,-9223372036854775808
data/A/wuf20-91-A1/wuf20-0263-A.mwcnf,-9223372036854775808
data/A/wuf20-91-A1/wuf20-0266-A.mwcnf,-9223372036854775808
data/A/wuf20-91-A1/wuf20-0267-A.mwcnf,-9223372036854775808
data/A/wuf20-91-A1/wuf20-027-A.mwcnf,-9223372036854775808
data/A/wuf20-91-A1/wuf20-0272-A.mwcnf,-9223372036854775808
data/A/wuf20-91-A1/wuf20-0278-A.mwcnf,-9223372036854775808
data/A/wuf20-91-A1/wuf20-0280-A.mwcnf,-9223372036854775808
data/A/wuf20-91-A1/wuf20-0284-A.mwcnf,-9223372036854775808
data/A/wuf20-91-A1/wuf20-0285-A.mwcnf,-9223372036854775808
data/A/wuf20-91-A1/wuf20-0286-A.mwcnf,-9223372036854775808
data/A/wuf20-91-A1/wuf20-0287-A.mwcnf,-9223372036854775808
data/A/wuf20-91-A1/wuf20-0289-A.mwcnf,-9223372036854775808
data/A/wuf20-91-A1/wuf20-0292-A.mwcnf,-9223372036854775808
data/A/wuf20-91-A1/wuf20-0293-A.mwcnf,-9223372036854775808
data/A/wuf20-91-A1/wuf20-0295-A.mwcnf,-9223372036854775808
data/A/wuf20-91-A1/wuf20-0297-A.mwcnf,-9223372036854775808
data/A/wuf20-91-A1/wuf20-0298-A.mwcnf,-9223372036854775808
data/A/wuf20-91-A1/wuf20-0299-A.mwcnf,-9223372036854775808
data/A/wuf20-91-A1/wuf20-030-A.mwcnf,-9223372036854775808
data/A/wuf20-91-A1/wuf20-0300-A.mwcnf,-9223372036854775808
data/A/wuf20-91-A1/wuf20-0304-A.mwcnf,-9223372036854775808
data/A/wuf20-91-A1/wuf20-0305-A.mwcnf,-9223372036854775808
data/A/wuf20-91-A1/wuf20-0306-A.mwcnf,-9223372036854775808
data/A/wuf20-91-A1/wuf20-0308-A.mwcnf,-9223372036854775808
data/A/wuf20-91-A1/wuf20-0313-A.mwcnf,-9223372036854775808
data/A/wuf20-91-A1/wuf20-0317-A.mwcnf,-9223372036854775808
data/A/wuf20-91-A1/wuf20-0318-A.mwcnf,-9223372036854775808
data/A/wuf20-91-A1/wuf20-0325-A.mwcnf,-9223372036854775808
data/A/wuf20-91-A1/wuf20-0327-A.mwcnf,-9223372036854775808
data/A/wuf20-91-A1/wuf20-0330-A.mwcnf,-9223372036854775808
data/A/wuf20-91-A1/wuf20-0338-A.mwcnf,-9223372036854775808
data/A/wuf20-91-A1/wuf20-0339-A.mwcnf,-9223372036854775808
data/A/wuf20-91-A1/wuf20-0340-A.mwcnf,-9223372036854775808
data/A/wuf20-91-A1/wuf20-0343-A.mwcnf,-9223372036854775808
data/A/wuf20-91-A1/wuf20-0345-A.mwcnf,-9223372036854775808
data/A/wuf20-91-A1/wuf20-0346-A.mwcnf,-9223372036854775808
data/A/wuf20-91-A1/wuf20-0348-A.mwcnf,-9223372036854775808
data/A/wuf20-91-A1/wuf20-0349-A.mwcnf,-9223372036854775808
data/A/wuf20-91-A1/wuf20-035-A.mwcnf,-9223372036854775808
data/A/wuf20-91-A1/wuf20-0353-A.mwcnf,-9223372036854775808
data/A/wuf20-91-A1/wuf20-0357-A.mwcnf,-9223372036854775808
data/A/wuf20-91-A1/wuf20-0358-A.mwcnf,-9223372036854775808
data/A/wuf20-91-A1/wuf20-036-A.mwcnf,-9223372036854775808
data/A/wuf20-91-A1/wuf20-0363-A.mwcnf,-9223372036854775808
data/A/wuf20-91-A1/wuf20-0368-A.mwcnf,-9223372036854775808
data/A/wuf20-91-A1/wuf20-0369-A.mwcnf,-9223372036854775808
data/A/wuf20-91-A1/wuf20-0371-A.mwcnf,-9223372036854775808
data/A/wuf20-91-A1/wuf20-0373-A.mwcnf,-9223372036854775808
data/A/wuf20-91-A1/wuf20-0374-A.mwcnf,-9223372036854775808
data/A/wuf20-91-A1/wuf20-0376-A.mwcnf,-9223372036854775808
data/A/wuf20-91-A1/wuf20-0378-A.mwcnf,-9223372036854775808
data/A/wuf20-91-A1/wuf20-0379-A.mwcnf,-9223372036854775808
data/A/wuf20-91-A1/wuf20-0380-A.mwcnf,-9223372036854775808
data/A/wuf20-91-A1/wuf20-0381-A.mwcnf,-9223372036854775808
data/A/wuf20-91-A1/wuf20-0384-A.mwcnf,-9223372036854775808
data/A/wuf20-91-A1/wuf20-0386-A.mwcnf,-9223372036854775808
data/A/wuf20-91-A1/wuf20-0387-A.mwcnf,-9223372036854775808
data/A/wuf20-91-A1/wuf20-039-A.mwcnf,-9223372036854775808
data/A/wuf20-91-A1/wuf20-0390-A.mwcnf,-9223372036854775808
data/A/wuf20-91-A1/wuf20-0392-A.mwcnf,-9223372036854775808
data/A/wuf20-91-A1/wuf20-0394-A.mwcnf,-9223372036854775808
data/A/wuf20-91-A1/wuf20-0395-A.mwcnf,-9223372036854775808
data/A/wuf20-91-A1/wuf20-0411-A.mwcnf,-9223372036854775808
data/A/wuf20-91-A1/wuf20-0412-A.mwcnf,-9223372036854775808
data/A/wuf20-91-A1/wuf20-0414-A.mwcnf,-9223372036854775808
data/A/wuf20-91-A1/wuf20-0415-A.mwcnf,-9223372036854775808
data/A/wuf20-91-A1/wuf20-0417-A.mwcnf,-9223372036854775808
data/A/wuf20-91-A1/wuf20-0418-A.mwcnf,-9223372036854775808
data/A/wuf20-91-A1/wuf20-0420-A.mwcnf,-9223372036854775808
data/A/wuf20-91-A1/wuf20-0425-A.mwcnf,-9223372036854775808
data/A/wuf20-91-A1/wuf20-0426-A.mwcnf,-9223372036854775808
data/A/wuf20-91-A1/wuf20-0427-A.mwcnf,-9223372036854775808
data/A/wuf20-91-A1/wuf20-0428-A.mwcnf,-9223372036854775808
data/A/wuf20-91-A1/wuf20-043-A.mwcnf,-9223372036854775808
data/A/wuf20-91-A1/wuf20-0430-A.mwcnf,-9223372036854775808
data/A/wuf20-91-A1/wuf20-0434-A.mwcnf,-9223372036854775808
data/A/wuf20-91-A1/wuf20-0435-A.mwcnf,-9223372036854775808
data/A/wuf20-91-A1/wuf20-0437-A.mwcnf,-9223372036854775808
data/A/wuf20-91-A1/wuf20-0439-A.mwcnf,-9223372036854775808
data/A/wuf20-91-A1/wuf20-0440-A.mwcnf,-9223372036854775808
data/A/wuf20-91-A1/wuf20-0446-A.mwcnf,-9223372036854775808
data/A/wuf20-91-A1/wuf20-0447-A.mwcnf,-9223372036854775808
data/A/wuf20-91-A1/wuf20-045-A.mwcnf,-9223372036854775808
data/A/wuf20-91-A1/wuf20-0452-A.mwcnf,-9223372036854775808
data/A/wuf20-91-A1/wuf20-0457-A.mwcnf,-9223372036854775808
data/A/wuf20-91-A1/wuf20-0460-A.mwcnf,-9223372036854775808
data/A/wuf20-91-A1/wuf20-0462-A.mwcnf,-9223372036854775808
data/A/wuf20-91-A1/wuf20-0466-A.mwcnf,-9223372036854775808
data/A/wuf20-91-A1/wuf20-0472-A.mwcnf,-9223372036854775808
data/A/wuf20-91-A1/wuf20-0475-A.mwcnf,-9223372036854775808
data/A/wuf20-91-A1/wuf20-0476-A.mwcnf,-9223372036854775808
data/A/wuf20-91-A1/wuf20-0481-A.mwcnf,-9223372036854775808
data/A/wuf20-91-A1/wuf20-0483-A.mwcnf,-9223372036854775808
data/A/wuf20-91-A1/wuf20-0488-A.mwcnf,-9223372036854775808
data/A/wuf20-91-A1/wuf20-049-A.mwcnf,-9223372036854775808
data/A/wuf20-91-A1/wuf20-0491-A.mwcnf,-9223372036854775808
data/A/wuf20-91-A1/wuf20-0496-A.mwcnf,-9223372036854775808
data/A/wuf20-91-A1/wuf20-0497-A.mwcnf,-9223372036854775808
data/A/wuf20-91-A1/wuf20-0498-A.mwcnf,-9223372036854775808
data/A/wuf20-91-A1/wuf20-0499-A.mwcnf,-9223372036854775808
data/A/wuf20-91-A1/wuf20-05-A.mwcnf,-9223372036854775808
data/A/wuf20-91-A1/wuf20-0500-A.mwcnf,-9223372036854775808
data/A/wuf20-91-A1/wuf20-0501-A.mwcnf,-9223372036854775808
data/A/wuf20-91-A1/wuf20-0503-A.mwcnf,-9223372036854775808
data/A/wuf20-91-A1/wuf20-0505-A.mwcnf,-9223372036854775808
data/A/wuf20-91-A1/wuf20-0508-A.mwcnf,-9223372036854775808
data/A/wuf20-91-A1/wuf20-0511-A.mwcnf,-9223372036854775808
data/A/wuf20-91-A1/wuf20-0513-A.mwcnf,-9223372036854775808
data/A/wuf20-91-A1/wuf20-052-A.mwcnf,-9223372036854775808
data/A/wuf20-91-A1/wuf20-0523-A.mwcnf,-9223372036854775808
data/A/wuf20-91-A1/wuf20-0526-A.mwcnf,-9223372036854775808
data/A/wuf20-91-A1/wuf20-053-A.mwcnf,-9223372036854775808
data/A/wuf20-91-A1/wuf20-0530-A.mwcnf,-9223372036854775808
data/A/wuf20-91-A1/wuf20-0532-A.mwcnf,-9223372036854775808
data/A/wuf20-91-A1/wuf20-0534-A.mwcnf,-9223372036854775808
data/A/wuf20-91-A1/wuf20-0539-A.mwcnf,-9223372036854775808
data/A/wuf20-91-A1/wuf20-0540-A.mwcnf,-9223372036854775808
data/A/wuf20-91-A1/wuf20-0542-A.mwcnf,-9223372036854775808
data/A/wuf20-91-A1/wuf20-0543-A.mwcnf,-9223372036854775808
data/A/wuf20-91-A1/wuf20-0545-A.mwcnf,-9223372036854775808
data/A/wuf20-91-A1/wuf20-0547-A.mwcnf,-9223372036854775808
data/A/wuf20-91-A1/wuf20-0548-A.mwcnf,-9223372036854775808
data/A/wuf20-91-A1/wuf20-0552-A.mwcnf,-9223372036854775808
data/A/wuf20-91-A1/wuf20-0553-A.mwcnf,-9223372036854775808
data/A/wuf20-91-A1/wuf20-057-A.mwcnf,-9223372036854775808
data/A/wuf20-91-A1/wuf20-0572-A.mwcnf,-9223372036854775808
data/A/wuf20-91-A1/wuf20-0574-A.mwcnf,-9223372036854775808
data/A/wuf20-91-A1/wuf20-0575-A.mwcnf,-9223372036854775808
data/A/wuf20-91-A1/wuf20-0578-A.mwcnf,-9223372036854775808
data/A/wuf20-91-A1/wuf20-058-A.mwcnf,-9223372036854775808
data/A/wuf20-91-A1/wuf20-0580-A.mwcnf,-9223372036854775808
data/A/wuf20-91-A1/wuf20-0581-A.mwcnf,-9223372036854775808
data/A/wuf20-91-A1/wuf20-0584-A.mwcnf,-9223372036854775808
data/A/wuf20-91-A1/wuf20-0587-A.mwcnf,-9223372036854775808
data/A/wuf20-91-A1/wuf20-0588-A.mwcnf,-9223372036854775808
data/A/wuf20-91-A1/wuf20-0589-A.mwcnf,-9223372036854775808
data/A/wuf20-91-A1/wuf20-0591-A.mwcnf,-9223372036854775808
data/A/wuf20-91-A1/wuf20-0593-A.mwcnf,-9223372036854775808
data/A/wuf20-91-A1/wuf20-0595-A.mwcnf,-9223372036854775808
data/A/wuf20-91-A1/wuf20-0596-A.mwcnf,-9223372036854775808
data/A/wuf20-91-A1/wuf20-0597-A.mwcnf,-9223372036854775808
data/A/wuf20-91-A1/wuf20-0598-A.mwcnf,-9223372036854775808
data/A/wuf20-91-A1/wuf20-0599-A.mwcnf,-9223372036854775808
data/A/wuf20-91-A1/wuf20-060-A.mwcnf,-9223372036854775808
data/A/wuf20-91-A1/wuf20-0609-A.mwcnf,-9223372036854775808
data/A/wuf20-91-A1/wuf20-0610-A.mwcnf,-9223372036854775808
data/A/wuf20-91-A1/wuf20-0611-A.mwcnf,-9223372036854775808
data/A/wuf20-91-A1/wuf20-0612-A.mwcnf,-9223372036854775808
data/A/wuf20-91-A1/wuf20-0618-A.mwcnf,-9223372036854775808
data/A/wuf20-91-A1/wuf20-0622-A.mwcnf,-9223372036854775808
data/A/wuf20-91-A1/wuf20-0628-A.mwcnf,-9223372036854775808
data/A/wuf20-91-A1/wuf20-0633-A.mwcnf,-9223372036854775808
data/A/wuf20-91-A1/wuf20-0634-A.mwcnf,-9223372036854775808
data/A/wuf20-91-A1/wuf20-0636-A.mwcnf,-9223372036854775808
data/A/wuf20-91-A1/wuf20-0641-A.mwcnf,-9223372036854775808
data/A/wuf20-91-A1/wuf20-0644-A.mwcnf,-9223372036854775808
data/A/wuf20-91-A1/wuf20-0645-A.mwcnf,-9223372036854775808
data/A/wuf20-91-A1/wuf20-0646-A.mwcnf,-9223372036854775808
data/A/wuf20-91-A1/wuf20-0647-A.mwcnf,-9223372036854775808
data/A/wuf20-91-A1/wuf20-0648-A.mwcnf,-9223372036854775808
data/A/wuf20-91-A1/wuf20-065-A.mwcnf,-9223372036854775808
data/A/wuf20-91-A1/wuf20-0652-A.mwcnf,-9223372036854775808
data/A/wuf20-91-A1/wuf20-0653-A.mwcnf,-9223372036854775808
data/A/wuf20-91-A1/wuf20-0655-A.mwcnf,-9223372036854775808
data/A/wuf20-91-A1/wuf20-0656-A.mwcnf,-9223372036854775808
data/A/wuf20-91-A1/wuf20-0659-A.mwcnf,-9223372036854775808
data/A/wuf20-91-A1/wuf20-0660-A.mwcnf,-9223372036854775808
data/A/wuf20-91-A1/wuf20-0661-A.mwcnf,-9223372036854775808
data/A/wuf20-91-A1/wuf20-0665-A.mwcnf,-9223372036854775808
data/A/wuf20-91-A1/wuf20-0668-A.mwcnf,-9223372036854775808
data/A/wuf20-91-A1/wuf20-0669-A.mwcnf,-9223372036854775808
data/A/wuf20-91-A1/wuf20-0670-A.mwcnf,-9223372036854775808
data/A/wuf20-91-A1/wuf20-0671-A.mwcnf,-9223372036854775808
data/A/wuf20-91-A1/wuf20-0672-A.mwcnf,-9223372036854775808
data/A/wuf20-91-A1/wuf20-0673-A.mwcnf,-9223372036854775808
data/A/wuf20-91-A1/wuf20-0675-A.mwcnf,-9223372036854775808
data/A/wuf20-91-A1/wuf20-0676-A.mwcnf,-9223372036854775808
data/A/wuf20-91-A1/wuf20-068-A.mwcnf,-9223372036854775808
data/A/wuf20-91-A1/wuf20-0680-A.mwcnf,-9223372036854775808
data/A/wuf20-91-A1/wuf20-0681-A.mwcnf,-9223372036854775808
data/A/wuf20-91-A1/wuf20-0682-A.mwcnf,-9223372036854775808
data/A/wuf20-91-A1/wuf20-0687-A.mwcnf,-9223372036854775808
data/A/wuf20-91-A1/wuf20-0688-A.mwcnf,-9223372036854775808
data/A/wuf20-91-A1/wuf20-069-A.mwcnf,-9223372036854775808
data/A/wuf20-91-A1/wuf20-0693-A.mwcnf,-9223372036854775808
data/A/wuf20-91-A1/wuf20-0694-A.mwcnf,-9223372036854775808
data/A/wuf20-91-A1/wuf20-0695-A.mwcnf,-9223372036854775808
data/A/wuf20-91-A1/wuf20-0699-A.mwcnf,-9223372036854775808
data/A/wuf20-91-A1/wuf20-07-A.mwcnf,-9223372036854775808
data/A/wuf20-91-A1/wuf20-0703-A.mwcnf,-9223372036854775808
data/A/wuf20-91-A1/wuf20-0704-A.mwcnf,-9223372036854775808
data/A/wuf20-91-A1/wuf20-0705-A.mwcnf,-9223372036854775808
data/A/wuf20-91-A1/wuf20-0707-A.mwcnf,-9223372036854775808
data/A/wuf20-91-A1/wuf20-0709-A.mwcnf,-9223372036854775808
data/A/wuf20-91-A1/wuf20-0714-A.mwcnf,-9223372036854775808
data/A/wuf20-91-A1/wuf20-0717-A.mwcnf,-9223372036854775808
data/A/wuf20-91-A1/wuf20-0719-A.mwcnf,-9223372036854775808
data/A/wuf20-91-A1/wuf20-0722-A.mwcnf,-9223372036854775808
data/A/wuf20-91-A1/wuf20-0726-A.mwcnf,-9223372036854775808
data/A/wuf20-91-A1/wuf20-0727-A.mwcnf,-9223372036854775808
data/A/wuf20-91-A1/wuf20-073-A.mwcnf,-9223372036854775808
data/A/wuf20-91-A1/wuf20-0736-A.mwcnf,-9223372036854775808
data/A/wuf20-91-A1/wuf20-0737-A.mwcnf,-9223372036854775808
data/A/wuf20-91-A1/wuf20-0738-A.mwcnf,-9223372036854775808
data/A/wuf20-91-A1/wuf20-0740-A.mwcnf,-9223372036854775808
data/A/wuf20-91-A1/wuf20-0745-A.mwcnf,-9223372036854775808
data/A/wuf20-91-A1/wuf20-075-A.mwcnf,-9223372036854775808
data/A/wuf20-91-A1/wuf20-0750-A.mwcnf,-9223372036854775808
data/A/wuf20-91-A1/wuf20-0753-A.mwcnf,-9223372036854775808
data/A/wuf20-91-A1/wuf20-0754-A.mwcnf,-9223372036854775808
data/A/wuf20-91-A1/wuf20-0765-A.mwcnf,-9223372036854775808
data/A/wuf20-91-A1/wuf20-0768-A.mwcnf,-9223372036854775808
data/A/wuf20-91-A1/wuf20-077-A.mwcnf,-9223372036854775808
data/A/wuf20-91-A1/wuf20-0771-A.mwcnf,-9223372036854775808
data/A/wuf20-91-A1/wuf20-0772-A.mwcnf,-9223372036854775808
data/A/wuf20-91-A1/wuf20-0773-A.mwcnf,-9223372036854775808
data/A/wuf20-91-A1/wuf20-0777-A.mwcnf,-9223372036854775808
data/A/wuf20-91-A1/wuf20-0778-A.mwcnf,-9223372036854775808
data/A/wuf20-91-A1/wuf20-0779-A.mwcnf,-9223372036854775808
data/A/wuf20-91-A1/wuf20-0781-A.mwcnf,-9223372036854775808
data/A/wuf20-91-A1/wuf20-0783-A.mwcnf,-9223372036854775808
data/A/wuf20-91-A1/wuf20-0784-A.mwcnf,-9223372036854775808
data/A/wuf20-91-A1/wuf20-0787-A.mwcnf,-9223372036854775808
data/A/wuf20-91-A1/wuf20-0788-A.mwcnf,-9223372036854775808
data/A/wuf20-91-A1/wuf20-079-A.mwcnf,-9223372036854775808
data/A/wuf20-91-A1/wuf20-0793-A.mwcnf,-9223372036854775808
data/A/wuf20-91-A1/wuf20-0794-A.mwcnf,-9223372036854775808
data/A/wuf20-91-A1/wuf20-0795-A.mwcnf,-9223372036854775808
data/A/wuf20-91-A1/wuf20-0798-A.mwcnf,-9223372036854775808
data/A/wuf20-91-A1/wuf20-0799-A.mwcnf,-9223372036854775808
data/A/wuf20-91-A1/wuf20-0801-A.mwcnf,-9223372036854775808
data/A/wuf20-91-A1/wuf20-0806-A.mwcnf,-9223372036854775808
data/A/wuf20-91-A1/wuf20-0807-A.mwcnf,-9223372036854775808
data/A/wuf20-91-A1/wuf20-081-A.mwcnf,-9223372036854775808
data/A/wuf20-91-A1/wuf20-0810-A.mwcnf,-9223372036854775808
data/A/wuf20-91-A1/wuf20-0811-A.mwcnf,-9223372036854775808
data/A/wuf20-91-A1/wuf20-0814-A.mwcnf,-9223372036854775808
data/A/wuf20-91-A1/wuf20-0817-A.mwcnf,-9223372036854775808
data/A/wuf20-91-A1/wuf20-082-A.mwcnf,-9223372036854775808
data/A/wuf20-91-A1/wuf20-0830-A.mwcnf,-9223372036854775808
data/A/wuf20-91-A1/wuf20-0831-A.mwcnf,-9223372036854775808
data/A/wuf20-91-A1/wuf20-0833-A.mwcnf,-9223372036854775808
data/A/wuf20-91-A1/wuf20-0834-A.mwcnf,-9223372036854775808
data/A/wuf20-91-A1/wuf20-0836-A.mwcnf,-9223372036854775808
data/A/wuf20-91-A1/wuf20-0838-A.mwcnf,-9223372036854775808
data/A/wuf20-91-A1/wuf20-0839-A.mwcnf,-9223372036854775808
data/A/wuf20-91-A1/wuf20-0846-A.mwcnf,-9223372036854775808
data/A/wuf20-91-A1/wuf20-0848-A.mwcnf,-9223372036854775808
data/A/wuf20-91-A1/wuf20-085-A.mwcnf,-9223372036854775808
data/A/wuf20-91-A1/wuf20-0852-A.mwcnf,-9223372036854775808
data/A/wuf20-91-A1/wuf20-0853-A.mwcnf,-9223372036854775808
data/A/wuf20-91-A1/wuf20-0854-A.mwcnf,-9223372036854775808
data/A/wuf20-91-A1/wuf20-0855-A.mwcnf,-9223372036854775808
data/A/wuf20-91-A1/wuf20-0857-A.mwcnf,-9223372036854775808
data/A/wuf20-91-A1/wuf20-0859-A.mwcnf,-9223372036854775808
data/A/wuf20-91-A1/wuf20-086-A.mwcnf,-9223372036854775808
data/A/wuf20-91-A1/wuf20-0864-A.mwcnf,-9223372036854775808
data/A/wuf20-91-A1/wuf20-0869-A.mwcnf,-9223372036854775808
data/A/wuf20-91-A1/wuf20-0870-A.mwcnf,-9223372036854775808
data/A/wuf20-91-A1/wuf20-0872-A.mwcnf,-9223372036854775808
data/A/wuf20-91-A1/wuf20-0874-A.mwcnf,-9223372036854775808
data/A/wuf20-91-A1/wuf20-0877-A.mwcnf,-9223372036854775808
data/A/wuf20-91-A1/wuf20-0882-A.mwcnf,-9223372036854775808
data/A/wuf20-91-A1/wuf20-0886-A.mwcnf,-9223372036854775808
data/A/wuf20-91-A1/wuf20-0888-A.mwcnf,-9223372036854775808
data/A/wuf20-91-A1/wuf20-089-A.mwcnf,-9223372036854775808
data/A/wuf20-91-A1/wuf20-0890-A.mwcnf,-9223372036854775808
data/A/wuf20-91-A1/wuf20-0891-A.mwcnf,-9223372036854775808
data/A/wuf20-91-A1/wuf20-0898-A.mwcnf,-9223372036854775808
data/A/wuf20-91-A1/wuf20-0900-A.mwcnf,-9223372036854775808
data/A/wuf20-91-A1/wuf20-0901-A.mwcnf,-9223372036854775808
data/A/wuf20-91-A1/wuf20-0906-A.mwcnf,-9223372036854775808
data/A/wuf20-91-A1/wuf20-0908-A.mwcnf,-9223372036854775808
data/A/wuf20-91-A1/wuf20-0913-A.mwcnf,-9223372036854775808
data/A/wuf20-91-A1/wuf20-0914-A.mwcnf,-9223372036854775808
data/A/wuf20-91-A1/wuf20-0918-A.mwcnf,-9223372036854775808
data/A/wuf20-91-A1/wuf20-0919-A.mwcnf,-9223372036854775808
data/A/wuf20-91-A1/wuf20-0920-A.mwcnf,-9223372036854775808
data/A/wuf20-91-A1/wuf20-0921-A.mwcnf,-9223372036854775808
data/A/wuf20-91-A1/wuf20-0923-A.mwcnf,-9223372036854775808
data/A/wuf20-91-A1/wuf20-0925-A.mwcnf,-9223372036854775808
data/A/wuf20-91-A1/wuf20-0926-A.mwcnf,-9223372036854775808
data/A/wuf20-91-A1/wuf20-0928-A.mwcnf,-9223372036854775808
data/A/wuf20-91-A1/wuf20-093-A.mwcnf,-9223372036854775808
data/A/wuf20-91-A1/wuf20-0930-A.mwcnf,-9223372036854775808
data/A/wuf20-91-A1/wuf20-0931-A.mwcnf,-9223372036854775808
data/A/wuf20-91-A1/wuf20-0933-A.mwcnf,-9223372036854775808
data/A/wuf20-91-A1/wuf20-094-A.mwcnf,-9223372036854775808
data/A/wuf20-91-A1/wuf20-0941-A.mwcnf,-9223372036854775808
data/A/wuf20-91-A1/wuf20-0944-A.mwcnf,-9223372036854775808
data/A/wuf20-91-A1/wuf20-0945-A.mwcnf,-9223372036854775808
data/A/wuf20-91-A1/wuf20-0946-A.mwcnf,-9223372036854775808
data/A/wuf20-91-A1/wuf20-0948-A.mwcnf,-9223372036854775808
data/A/wuf20-91-A1/wuf20-0949-A.mwcnf,-9223372036854775808
data/A/wuf20-91-A1/wuf20-0952-A.mwcnf,-9223372036854775808
data/A/wuf20-91-A1/wuf20-0955-A.mwcnf,-9223372036854775808
data/A/wuf20-91-A1/wuf20-0956-A.mwcnf,-9223372036854775808
data/A/wuf20-91-A1/wuf20-0957-A.mwcnf,-9223372036854775808
data/A/wuf20-91-A1/wuf20-0961-A.mwcnf,-9223372036854775808
data/A/wuf20-91-A1/wuf20-0967-A.mwcnf,-9223372036854775808
data/A/wuf20-91-A1/wuf20-0968-A.mwcnf,-9223372036854775808
data/A/wuf20-91-A1/wuf20-0973-A.mwcnf,-9223372036854775808
data/A/wuf20-91-A1/wuf20-0974-A.mwcnf,-9223372036854775808
data/A/wuf20-91-A1/wuf20-0976-A.mwcnf,-9223372036854775808
data/A/wuf20-91-A1/wuf20-0977-A.mwcnf,-9223372036854775808
data/A/wuf20-91-A1/wuf20-098-A.mwcnf,-9223372036854775808
data/A/wuf20-91-A1/wuf20-0981-A.mwcnf,-9223372036854775808
data/A/wuf20-91-A1/wuf20-0982-A.mwcnf,-9223372036854775808
data/A/wuf20-91-A1/wuf20-0985-A.mwcnf,-9223372036854775808
data/A/wuf20-91-A1/wuf20-0988-A.mwcnf,-9223372036854775808
data/A/wuf20-91-A1/wuf20-0989-A.mwcnf,-9223372036854775808
data/A/wuf20-91-A1/wuf20-099-A.mwcnf,-9223372036854775808
data/A/wuf20-91-A1/wuf20-0993-A.mwcnf,-9223372036854775808
data/A/wuf20-91-A1/wuf20-0994-A.mwcnf,-9223372036854775808
data/A/wuf20-91-A1/wuf20-0998-A.mwcnf,-9223372036854775808
