iters,price,time
3764,1103,.041778305
11545,1103,.059816462
10290,1103,.057226782
6525,1103,.038474175
501,968,.010154621
32629,1022,.110101079
3513,1103,.019294119
11043,1022,.040230540
752,856,.010596351
12298,1103,.044198560
