iters,price,time
87096,9146,.284459856
70530,9146,.206970742
62498,9146,.203304554
78311,9146,.150857490
82578,9146,.238556500
13051,9146,.050073234
64004,9146,.123793238
61745,9146,.172845022
72538,9146,.213007070
42167,9146,.141612695
