iters,price,time
3513,1294,.025037921
13553,1300,.038613472
37649,1300,.079852694
9035,1294,.032417388
25852,1300,.057811381
17318,1300,.061872390
33131,1300,.097717420
6274,1207,.025699432
5521,1195,.021742228
15059,1300,.049531051
