iters,price,time
5521,1179,.039499817
8282,1158,.034279160
501,1158,.010210187
1003,1158,.012773289
9788,1179,.037296176
4768,1158,.023036192
752,1179,.011238268
3011,1158,.017897598
10541,1179,.037609205
6023,1158,.027219273
