iters,price,time
9286,8068,.039708036
2760,7431,.016528789
16063,8166,.052044569
15561,8166,.052453356
17318,8166,.036876178
11043,8166,.037915260
3513,8166,.019140300
17067,7455,.043023076
3262,7782,.014632721
4768,8166,.020790616
