iters,price,time
26605,1284,.088434211
1003,1284,.010212150
29115,1284,.086164535
2760,1170,.014380078
12800,1284,.044044781
34135,1284,.102233904
2258,1170,.014802962
28613,1284,.089825052
43422,1284,.127078536
1756,1172,.014370174
