iters,price,time
4768,11321,.035518771
5270,11321,.023640524
29115,11321,.089525604
22840,11321,.071486632
48693,11321,.139581995
35892,11321,.081972815
9537,11321,.041477760
9788,11321,.037241241
15310,11321,.061154666
20581,11321,.040166472
