iters,price,time
501,1398,.014942805
752,1398,.010884222
7278,1120,.034621149
4768,1398,.018228916
501,1398,.009616245
2509,1120,.016627413
1003,1398,.012024062
2509,1398,.015057710
1003,1120,.012327597
4768,1120,.019814876
