iters,price,time
9788,7489,.059580290
2007,6735,.013948688
9035,7489,.034742421
32127,7489,.076599337
23593,7489,.075825461
5521,7489,.025159954
16816,7489,.041266827
3262,7273,.017992464
10290,7489,.039995836
14306,7489,.044453704
