iters,price,time
8784,9432,.049711972
74797,9432,.142673940
57227,9432,.174343637
84586,9432,.165029095
80821,9432,.224231677
81574,9432,.201094992
59486,9432,.149177662
76805,9432,.169941912
59486,9432,.182523055
71785,9432,.226537127
