iters,price,time
50701,8162,.121115710
69275,8162,.212907528
59988,8162,.154775905
59737,8162,.188831813
56725,8162,.161869966
36896,8162,.119482551
33131,8162,.106797564
51203,8162,.126806200
38653,8162,.122014445
53211,8162,.102042354
