iters,price,time
19075,5231,.073620774
56976,5231,.169075440
31123,5231,.098730843
33382,5231,.103484256
9286,5231,.036704920
52709,5231,.160098893
22087,5231,.075581068
57980,5231,.110915768
21083,5231,.070548632
51454,5231,.138334684
