iters,price,time
5521,7806,.024391670
60992,8035,.102678695
29115,8035,.091941842
21334,8035,.073922135
40410,8035,.125399680
501,5111,.008987824
501,7742,.010614134
14055,8035,.051676230
41665,8035,.103978503
6023,8035,.026644390
