iters,price,time
752,5768,.033682653
20832,5768,.094799628
17318,5768,.075251339
1756,5323,.015748606
7278,5768,.029759979
22087,5768,.056353582
752,5014,.012633999
6525,5768,.028245868
11043,5768,.044154366
3262,5768,.018702763
