iters,price,time
16565,7847,.071537528
2007,7767,.013430096
17569,7847,.055056506
15059,7847,.063742643
20330,7847,.082576445
32880,7847,.089058305
20581,7847,.071791665
2007,6952,.015087852
15812,7847,.052605032
11294,7847,.038855664
