iters,price,time
8533,7379,.038365066
50450,7379,.142926077
7027,7379,.029901910
42669,7379,.070503777
24848,7379,.088365475
18071,6431,.059189518
50450,7379,.123305624
4768,7379,.022038083
35641,7379,.061029067
24848,7379,.078213194
