iters,price,time
3011,4186,.032969855
32378,4186,.075498426
43924,4186,.143334790
74295,4186,.144288905
1254,4186,.012500117
57227,4186,.130847316
3513,4186,.021389537
19326,4186,.065631601
26856,4186,.091809178
17569,4186,.063165057
