iters,price,time
66263,5343,.179086611
27358,5343,.055622048
30872,5343,.058063593
7278,5343,.019692741
29868,5343,.094914558
36645,5343,.112195901
32127,5343,.085028491
39908,5343,.100922651
40912,5343,.129998132
56474,5343,.103936471
