iters,price,time
42669,7623,.126721508
38904,7623,.090049196
2007,7154,.014339086
29366,7623,.057211454
12298,7623,.045350318
9537,7623,.037622245
34637,7623,.089733582
26103,7623,.058718466
36896,7623,.093108969
37398,7623,.128433669
