iters,price,time
74295,5563,.207357507
41414,5563,.129609734
52960,5563,.128023705
45681,5563,.140464299
69275,5563,.182907891
52207,5563,.123021546
87849,5563,.253949986
80068,5563,.189124008
11294,5563,.041315506
7278,5563,.030707797
