iters,price,time
13553,5974,.065397578
6023,5974,.027612552
12549,5974,.046892678
32629,5974,.109879440
4517,5645,.020935059
12800,5645,.040861406
22589,5974,.070086423
27358,5974,.079415304
10541,5974,.038919862
7529,5974,.019307976
