iters,price,time
40410,8182,.143032281
15310,8095,.051599102
26856,8182,.081625306
65510,8182,.196219786
19326,8182,.054645625
44928,8182,.138755669
51454,8182,.158695223
48191,8182,.144376773
16063,8182,.055703319
38151,8182,.114413394
