iters,price,time
6776,11003,.033663968
752,11003,.010945890
9537,9545,.036247299
2258,11003,.015655904
24095,11003,.088063768
2258,10049,.014387677
41665,11003,.113880339
16314,9089,.051071152
14055,10049,.049667402
9035,11003,.035724665
