iters,price,time
18071,1265,.073838129
70279,1265,.145405385
51454,1265,.112204828
69275,1265,.208597179
30872,1265,.094814476
23844,1265,.072118249
46685,1265,.112673701
63000,1265,.157910141
30119,1265,.090963169
20330,1265,.070477966
