iters,price,time
1003,5322,.015707187
14808,5322,.045135162
14557,5389,.050502024
23844,5322,.073238117
14808,5322,.046254703
3513,5168,.018940463
18071,5389,.044535614
1756,5389,.014895133
2258,5322,.014115752
26856,5322,.080275699
