iters,price,time
35641,1206,.109429684
501,907,.010077943
25099,1206,.078036531
501,991,.010755941
24346,1206,.072127147
44677,1206,.131681867
8533,1206,.031936293
6525,1206,.029203751
45932,1206,.134253637
39657,1206,.118546946
