iters,price,time
2258,4613,.020664485
13804,5289,.045446151
6776,4754,.026856215
13051,5306,.031017330
1505,5306,.012395958
7529,5306,.030100481
5772,5306,.025233115
18322,5306,.055677530
6776,4902,.027204576
13302,5289,.041772704
