iters,price,time
35139,9702,.108963167
16816,9702,.058739326
1756,9192,.015272055
11043,9702,.042560301
5019,9192,.023644080
46434,9702,.146599594
48442,9702,.138972424
1003,8062,.011362316
10541,9702,.039346177
8031,9702,.034468120
