iters,price,time
66765,1244,.147558038
21334,1244,.070027805
40661,1244,.130283348
51956,1244,.162056568
46936,1244,.147745246
60992,1244,.138134882
21334,1214,.073262764
43924,1244,.146032931
57729,1244,.202716133
24346,1244,.081161820
