iters,price,time
82829,5355,.215697887
81825,5355,.196735308
50450,5355,.157391233
43422,5355,.137368861
79566,5355,.264572984
54968,5355,.172165856
18824,5355,.064085363
27860,5355,.093142348
76303,5355,.208081718
40912,5355,.128481109
