iters,price,time
40410,8515,.111183224
32629,8515,.104452268
60741,8515,.124274503
8282,8278,.031247450
46685,8515,.146818639
15310,8314,.053324839
25099,8515,.076655359
31123,8515,.104040435
501,8515,.009426102
78562,8515,.154287577
