iters,price,time
10792,8701,.043147559
28613,8701,.080674187
46183,8701,.138610457
19326,8701,.064876105
10039,8701,.036591223
30872,8701,.055503646
752,6513,.011661278
23844,8701,.047508337
50199,8701,.099263402
32127,8701,.099290710
