iters,price,time
6023,1277,.041916550
27609,1277,.086200123
1254,1015,.011415172
21083,1277,.065806015
31876,1277,.095749816
27609,1277,.083589960
35892,1277,.106216588
2007,1160,.014397722
16063,1277,.053576024
4768,1241,.021117988
