iters,price,time
16816,6015,.064054680
37900,6015,.070357321
4517,5271,.020965156
14055,6015,.044980521
2258,4847,.017014768
3764,5859,.021198708
13302,6015,.044312612
17569,6015,.045523199
31625,6015,.094790476
9537,5859,.033884841
