iters,price,time
41916,1281,.110869088
64255,1281,.170035356
40912,1281,.085116435
60992,1281,.188394823
57980,1281,.117828807
54717,1281,.175506493
51203,1281,.157454475
14306,1208,.053999930
30119,1281,.095301263
63753,1281,.205420923
