iters,price,time
41163,6271,.099605491
30119,6271,.093827218
34637,6271,.106988636
49446,6271,.156987722
3513,6271,.018447575
30621,6271,.108867234
8784,6048,.039473722
17820,6271,.062702652
12298,6271,.048673997
1505,6271,.013278977
