iters,price,time
13302,5333,.056470611
89355,5799,.170775557
45932,5799,.141328090
58231,5799,.122213374
5521,5799,.023781193
5772,5333,.026235092
31625,5799,.087008384
76805,5799,.144632581
45430,5799,.139122270
26103,5799,.078701954
