iters,price,time
7027,4709,.036882770
6023,4709,.024235392
46183,4709,.152032022
17318,4709,.063229555
8784,4709,.035126961
2007,4583,.016029103
4768,4601,.022920025
20079,4709,.054335116
8031,4709,.034040028
35892,4709,.096779576
