iters,price,time
5521,5764,.044475791
29617,5764,.120134062
2760,4898,.015886470
25852,5764,.086716255
13804,5349,.043490891
70530,5764,.187799573
26103,5764,.058803394
14808,5764,.052243955
73291,5764,.123926442
31876,5764,.112406193
