iters,price,time
2258,1351,.031180663
19577,1351,.073426202
30370,1351,.101858236
43171,1351,.110291974
49697,1351,.122597515
13804,1351,.045449388
47187,1351,.088041906
33633,1351,.115251712
10792,1351,.040093453
11294,1243,.042354623
