iters,price,time
37398,4540,.130163583
44677,4540,.130689429
33633,4540,.099610877
75048,4540,.212164137
60992,4540,.173043386
53211,4540,.125676343
73542,4540,.157750035
20832,4540,.056990527
74295,4540,.199489155
58231,4540,.171322754
