iters,price,time
9286,7200,.049429807
7780,7200,.030123108
20832,7200,.068967678
25350,7200,.077078909
6274,7200,.024788058
41163,7200,.070445545
3262,7200,.020336268
23593,7200,.076452420
23091,7200,.074023489
20832,7200,.070992411
