iters,price,time
35892,1267,.113422107
28864,1267,.089310593
56725,1267,.086130545
9537,1243,.036143487
36645,1267,.105923954
18322,1267,.061854240
48442,1267,.157645885
17569,1267,.058156768
38904,1267,.120913312
20581,1267,.061604812
