iters,price,time
17067,6069,.075732679
19828,6069,.064481555
9035,6069,.025527925
15310,5232,.053856876
73542,6069,.198958294
27107,5579,.081458517
14306,6069,.049885854
1756,4685,.015344453
15059,5579,.052210406
55721,6069,.178170158
