iters,price,time
48191,4551,.113498629
39908,4551,.133656229
67518,4551,.192598518
43673,4551,.128322575
78311,4551,.216814834
53211,4551,.133200127
59988,4551,.156294821
15812,4551,.053414179
1254,4543,.011632507
22087,4551,.071339150
