iters,price,time
9286,1291,.040859447
9788,1291,.040922523
6776,1291,.029044376
1756,1242,.015108442
752,1020,.011412390
1254,1291,.012933757
4768,1242,.020899319
7529,1291,.030318353
7780,1291,.030894009
15561,1291,.053005672
