iters,price,time
32880,1375,.108425028
43673,1375,.132597505
15059,1375,.049027237
13051,1375,.031008098
25350,1331,.081391744
43422,1375,.141583985
27358,1331,.055743255
49697,1375,.106750971
10290,1375,.033763362
12298,1375,.031886157
