iters,price,time
2258,7569,.032292570
15561,7569,.057524822
24095,7569,.081625166
10039,7569,.037494726
20079,7569,.071263856
23593,7569,.072895121
5019,7569,.019105328
5019,7486,.024506295
5019,6625,.022293582
5521,7569,.024841500
