iters,price,time
501,6203,.016637006
22087,8154,.074201004
3513,8154,.015934722
16816,8154,.059536982
6776,8154,.029396845
6776,8154,.027087908
2007,8154,.014893405
3011,8154,.018880332
31876,8154,.057513666
19326,8154,.069174352
