iters,price,time
1254,1089,.028344868
58984,1234,.124359195
19577,1234,.067036940
65008,1234,.130095509
40159,1234,.128975270
31374,1234,.095481544
23844,1234,.075075106
48944,1234,.114831644
12549,1234,.048936018
5270,1047,.024839402
