iters,price,time
26354,5167,.103286879
26856,5167,.085411209
9788,5167,.035957465
5019,5167,.021633630
3764,4551,.023046161
22338,5167,.074156479
22589,5167,.057361596
18824,5167,.067874652
55470,5167,.165834099
49697,5167,.141056476
