iters,price,time
3513,7278,.035666004
5270,7278,.027186407
501,7278,.010968342
26856,7278,.085261426
66514,7278,.182429842
26103,7278,.079760088
50701,7278,.149894603
33382,7278,.115058799
15561,7278,.051428250
12047,7278,.042172725
