iters,price,time
6023,8630,.029933442
2760,8630,.016466706
2258,8630,.014894257
7780,8630,.029971149
23593,8630,.082859311
4517,8625,.020275015
4517,8630,.023020216
7278,7986,.029612382
12047,8630,.038370281
1756,7672,.012146676
