iters,price,time
65761,1435,.114436162
32629,1435,.095014665
80821,1435,.143940462
44426,1435,.085612113
72789,1435,.187991912
65008,1435,.139534935
73291,1435,.180435447
70530,1435,.170776369
106172,1435,.208934218
70279,1435,.189154795
