iters,price,time
36896,1211,.127436682
55219,1211,.158445015
4015,1211,.019888462
11796,1020,.039978152
1003,1211,.012984484
13302,1020,.043445410
1254,1211,.010142938
13553,1020,.044187168
10039,1211,.025862784
501,1209,.011238408
