iters,price,time
44426,5352,.161943813
67518,5352,.143425072
14306,5352,.051870296
47187,5352,.146419249
7780,5045,.034690688
57478,5352,.109834049
59737,5352,.183729006
76554,5352,.189909855
41665,5352,.095674272
9788,5352,.035249371
