iters,price,time
1003,1550,.029224820
17067,1550,.060368568
8533,1550,.034065487
1254,1407,.011633439
5270,1153,.023567549
1003,1464,.012326150
4768,1464,.023243449
27860,1550,.099690994
17318,1550,.050524221
11294,1550,.040235424
