iters,price,time
14055,9147,.058292541
8533,8493,.031048265
16063,9078,.058914004
41163,9147,.083204142
3262,9078,.016849312
14306,9147,.051101370
8784,9078,.031033561
13553,9147,.049136696
50450,9147,.113320979
2760,9147,.015036805
