iters,price,time
14306,8381,.065782295
32378,8804,.099785540
15310,8804,.057180028
7027,8381,.029508600
38653,8804,.132698983
14808,8381,.054434536
42669,8804,.146647626
29868,8381,.100002821
53964,8381,.163816946
2007,8804,.015643526
