iters,price,time
43673,5533,.145032973
37147,5533,.122858429
1003,5308,.010503242
33884,5533,.103958939
26103,5533,.083424017
17569,5533,.060564307
15561,5533,.034386415
22338,5533,.073534123
5772,5308,.026549052
1003,5533,.011823929
