iters,price,time
7027,9709,.034685607
38151,8270,.065478608
4015,6902,.021643028
752,9709,.009797759
16565,7040,.047873144
10541,8270,.024355060
4768,7040,.021263640
29366,8270,.079954806
22589,8270,.076030439
501,9709,.009664227
