iters,price,time
34637,8668,.127856189
56223,8668,.164408602
45681,8668,.145627039
48442,8668,.150384234
66514,8668,.191240867
60992,8668,.184691338
83080,8668,.163763664
85339,8668,.182184582
59988,8668,.170978550
102909,8668,.216570456
