iters,price,time
15812,11010,.069216208
15310,11010,.051993211
1756,11010,.012936828
33382,11010,.098529975
2509,10845,.015514003
9035,11010,.034928928
32629,11010,.081015469
3764,11010,.019738739
10541,11010,.039206961
19828,11010,.072701715
