iters,price,time
752,4414,.028092971
2760,4414,.015024347
28362,4686,.081694980
25852,4755,.072206579
23844,4755,.076671439
7278,4414,.027794344
71283,4755,.200297061
11796,4755,.042956804
50701,4755,.098764467
501,4055,.009443645
