iters,price,time
7529,6536,.044537549
35892,6536,.158259029
6023,5777,.029064315
33382,6237,.129191443
8282,5777,.035358620
21083,6536,.079408185
34386,6237,.096119278
10039,6077,.029537384
6274,6536,.026843391
6525,6536,.029432347
