iters,price,time
5772,1302,.044425384
14055,1302,.049546501
24346,1302,.083758627
30872,1302,.098767734
30872,1302,.107034653
3513,1302,.018284622
38653,1302,.096791173
6274,1302,.027282752
12800,1302,.044787457
61494,1302,.143652748
