iters,price,time
30370,1084,.066646477
42167,1084,.124801766
21083,1084,.066005461
48693,1084,.141010137
41414,1084,.126076470
18824,1084,.065716148
12549,1084,.043905364
43924,1084,.130501454
28362,1084,.103741559
46434,1084,.138626693
