iters,price,time
42669,5290,.090101802
19075,5290,.063337452
33884,5290,.100576589
52709,5290,.107571585
34135,5290,.092794026
15561,5290,.052070294
26605,5290,.081001703
39155,5290,.119984461
5772,5209,.022724667
45430,5290,.128711390
