iters,price,time
35390,1279,.112427259
13051,1279,.044892022
56474,1279,.167437376
18322,1279,.061145775
43924,1279,.133308414
7780,1279,.028833943
20079,1279,.052056908
21083,1279,.069262116
3513,1206,.018849739
33633,1279,.103799876
