iters,price,time
752,4427,.017338543
7780,4021,.030394173
3764,4360,.018809852
6776,4778,.027064539
9286,4756,.038769599
1254,4427,.014888587
4768,4427,.023641881
752,4756,.009574772
13302,4778,.050828373
501,4286,.009491101
