iters,price,time
51705,5424,.172310373
75801,5424,.152038484
59988,5424,.171115647
60239,5424,.167240305
76052,5424,.158307501
64757,5424,.163859757
29115,5424,.081614761
50701,5424,.129612528
43673,5424,.133664591
2760,5424,.016896097
