iters,price,time
11043,6018,.053388300
2509,6018,.017221319
16063,6018,.063514752
26103,6018,.097486432
1756,6018,.017569740
71283,6018,.256909969
24848,6018,.113687209
26605,6018,.109522768
3011,6018,.024757219
6525,6018,.032905768
