iters,price,time
28111,8338,.080895751
50952,8421,.103588351
41665,8421,.119616427
36896,8421,.068400207
20330,8421,.071723425
19075,8421,.059459047
44175,8421,.145511682
37900,8421,.120187063
32378,8338,.057632914
29617,8421,.094424580
