iters,price,time
752,8616,.025288716
6525,11862,.028697311
9286,11862,.025529938
5521,11862,.026703693
9035,11862,.038296144
6525,11059,.029679586
1003,8616,.012802942
10039,11862,.037849820
7278,8749,.030137126
6776,11862,.030180023
