iters,price,time
25350,9174,.083465101
78060,9174,.230668330
55721,9174,.159862901
64004,9174,.137227531
48944,9174,.142733985
65761,9174,.181805402
51203,9174,.129137771
20581,9174,.059154084
44928,9174,.078056960
21083,9174,.066993716
