iters,price,time
752,4577,.027328223
23091,5082,.073304093
15059,5082,.054782712
26856,5082,.094626678
1756,5008,.014029343
11043,5008,.037990104
4517,5008,.019775630
15812,5082,.052298265
13051,5082,.045407597
14808,5082,.035528324
