iters,price,time
5019,1178,.039993541
17318,1178,.051487248
2007,1178,.012467030
20079,1178,.064657242
14055,1178,.050644777
25099,1178,.072131444
34637,1178,.098101740
6776,1178,.027113222
7780,1169,.036397051
2509,1178,.016520688
