iters,price,time
12047,1166,.056355612
2509,1124,.014201778
27860,1166,.064143644
8031,1166,.032464108
12298,1166,.044703532
9286,1166,.035020503
42669,1166,.104499054
36645,1166,.099746121
48944,1166,.135004284
67267,1166,.119271011
