iters,price,time
25601,4680,.125817389
6525,4680,.029112726
501,2440,.010091119
55721,4680,.083971740
51203,4680,.156685754
6776,4680,.027001172
35390,4680,.061509180
25601,4680,.082223165
16063,4680,.046145180
6274,4680,.026072350
