iters,price,time
7027,4512,.041686856
13553,4978,.050386022
4015,4732,.020698475
1756,4732,.013167629
7027,4732,.019067691
19828,4978,.064295014
20832,4978,.069054825
20832,4978,.068344690
4517,4732,.018487436
12800,4978,.044456629
