iters,price,time
27358,7534,.092125477
49948,7534,.144094602
31123,7534,.089825778
49195,7534,.139187260
13051,7534,.046575462
45179,7534,.103305610
13804,7534,.046807275
25350,7534,.087742247
27107,7534,.089991485
29617,7534,.118251440
