iters,price,time
9286,8426,.033335139
12800,8221,.041441390
12549,8426,.039187689
35641,8426,.068747757
21585,8227,.074205632
752,8221,.010656706
35139,8227,.065149684
38151,8426,.091887197
30119,8426,.072477287
3764,7903,.018045425
