iters,price,time
3513,1099,.033417266
9035,1140,.036085324
27860,1140,.050583935
37900,1142,.122385970
4517,1142,.024467786
2760,1000,.016984346
3011,1056,.016651359
16063,1142,.058634170
22338,1142,.079394103
16063,1142,.056213609
