iters,price,time
52960,4905,.149525467
53462,4905,.133386744
5270,4905,.028299551
17569,4905,.045038884
14306,4905,.075124932
18322,4905,.060194706
28111,4905,.113005926
1756,4865,.015210928
26605,4905,.091190133
7529,4360,.033141990
