iters,price,time
8533,4914,.039534823
20330,5018,.045814807
20832,5018,.065025401
18824,5018,.063187555
23844,5018,.048531950
48944,5018,.160916147
12800,5018,.042212015
3513,4914,.016604629
82076,5018,.148740265
25350,4914,.077429114
