iters,price,time
6525,9139,.033356855
14557,9139,.054229554
752,8463,.010299402
10541,9139,.039969985
501,4500,.010068500
8282,9139,.033283265
1505,8463,.011870277
752,6868,.010661034
6274,9139,.028150156
17067,9139,.039364162
