iters,price,time
6525,5862,.032661154
501,6526,.011141654
25852,6938,.085598287
14306,5862,.048458610
23091,5862,.059563713
5521,4828,.024009409
42167,6938,.091154380
8784,6938,.034990416
2509,6612,.016290773
1254,6938,.013786162
