iters,price,time
3011,4184,.022650179
22338,4184,.076484913
30872,4184,.102854407
34888,4184,.071372097
13553,4184,.031781702
14055,4118,.050763333
16063,4184,.057030898
35139,4184,.116647146
30370,4184,.097008008
43924,4184,.083251592
