iters,price,time
5270,1113,.029232545
52207,1113,.107910137
79064,1113,.145581953
45681,1113,.081877264
10290,1113,.044223218
12549,1098,.046323384
19828,1091,.067996916
19828,1113,.069816117
18824,1113,.062453878
6023,1107,.027154180
