iters,price,time
20079,1067,.086147142
40410,1067,.137326726
52458,1067,.127435449
31123,1067,.091590444
1756,1003,.014071634
26856,1067,.092652670
7780,1067,.031351480
54215,1067,.102190211
73040,1067,.153980735
36896,1067,.107433983
