iters,price,time
4768,4822,.039330213
17820,4999,.053556011
32127,4999,.073170683
14557,4999,.052729820
17820,4999,.056282692
33131,4999,.107507978
15310,4999,.051922151
19828,4999,.098397035
1505,4999,.018193419
6525,4999,.038738266
