iters,price,time
17820,7825,.071571203
9537,7797,.024198015
9788,8196,.038281887
6274,7797,.023789649
16816,8196,.056960643
9788,8220,.035948788
16063,8196,.054034542
35641,8220,.101981311
501,7176,.008871957
4266,8220,.020003366
