iters,price,time
27609,1213,.081704464
53462,1213,.152814959
50450,1213,.142074443
32378,1213,.071823715
33884,1213,.108190149
43171,1213,.075910084
16314,1213,.051606441
7529,1213,.026686746
19075,1213,.059316741
49446,1213,.149690538
