iters,price,time
2509,4735,.023525724
26103,5208,.053560560
17067,4412,.048457503
4266,5208,.021012136
4266,4735,.022328388
1003,5208,.012638271
4517,4412,.023947812
9286,4412,.042012448
752,5208,.011093126
752,2905,.010645450
