iters,price,time
74295,1199,.170793868
68773,1199,.199782622
96383,1199,.243093022
57980,1199,.180290849
83582,1199,.173878895
16063,1199,.050912013
80570,1199,.186493771
93120,1199,.251694472
46183,1199,.143467403
49195,1199,.149479109
