iters,price,time
51705,3995,.148186566
41665,3995,.122784857
60490,3995,.175709056
18071,3995,.061335683
16565,3995,.053845099
1756,3995,.015237780
51454,3995,.128468616
3513,3621,.017367949
10792,3995,.039487243
33633,3995,.097286936
