iters,price,time
23844,4674,.079439129
9537,4980,.037246722
5772,4341,.023835642
3262,4674,.015808305
28362,4980,.057509378
35892,4980,.102317445
2760,4674,.014171836
17318,4980,.054356923
4266,4980,.018271297
71032,4980,.208991758
