iters,price,time
3011,5175,.033971872
5772,5146,.023125262
5521,5175,.024320850
752,5003,.010474262
1756,5175,.013712261
2007,5146,.015111918
6023,5175,.028072392
3764,4737,.023340329
752,4974,.011547876
1254,4626,.011366079
