iters,price,time
27609,10119,.100631283
46936,10119,.145614165
21836,10119,.068228949
66263,10119,.173210791
22338,10119,.074275897
7529,10119,.037796729
45430,10119,.132028636
71032,10119,.175560180
62749,10119,.137802906
37398,10119,.083381115
