iters,price,time
41163,10034,.149548331
21083,10034,.078943025
42167,10034,.162290620
70530,10034,.183919612
34135,10034,.108785648
43422,10034,.109409672
13553,10034,.050940087
29868,10034,.095127986
38904,10034,.121069957
54215,10034,.096355224
