iters,price,time
15310,1212,.084387696
8282,1291,.039166569
20330,1291,.083600054
2258,1291,.016163590
37649,1291,.069225460
33131,1291,.099324644
2258,1119,.014910388
21585,1291,.065490962
20581,1119,.062516026
3513,1291,.017493429
