iters,price,time
57980,6586,.167472999
32127,6586,.091444114
19577,6586,.071372062
44928,6586,.139561802
62749,6586,.179181869
12800,6586,.048511756
3011,6075,.013209359
30621,6586,.071085869
68020,6586,.131942721
40661,6586,.128141314
