iters,price,time
4015,6261,.034245265
50701,6261,.156323827
8282,6261,.031774613
4015,6261,.018224803
16816,6261,.055486594
3764,6014,.018672078
36645,6261,.114255091
18824,5969,.065121089
3011,5969,.014815636
13051,6261,.047055916
