iters,price,time
10039,1229,.040744408
24597,1229,.054969128
3764,1152,.020843688
28613,1229,.077573405
35139,1229,.097479424
40159,1229,.082052768
14306,1229,.043748118
19828,1229,.056020004
37147,1152,.108852556
27107,1229,.079265597
