iters,price,time
54968,4474,.181560453
44426,4474,.132597693
27107,4474,.088403143
23342,4474,.075675058
39155,4474,.124508956
35641,4474,.095716347
66765,4474,.114942685
48442,4474,.146386832
23342,4474,.082609464
45681,4474,.154955660
