iters,price,time
49697,9737,.166642396
46434,9737,.131976802
13804,9737,.047175675
44677,9737,.131058941
6023,9737,.024498184
19828,9236,.061646622
41414,9737,.115844962
49948,9737,.143361841
89355,9737,.214404323
12800,9737,.044893280
