iters,price,time
46434,8565,.146733521
30872,8422,.093534648
32880,8565,.080930492
16314,8565,.053100103
9788,8565,.037370534
34135,8565,.081503112
43673,8565,.085944935
501,7083,.011261007
7027,8422,.027623263
18824,8565,.065478894
