iters,price,time
31876,7057,.112467175
11796,7057,.044028706
25601,7057,.087119220
43171,7057,.132235436
5521,7057,.023883849
86092,7057,.184734120
17820,7057,.059065495
1756,6804,.013556057
33633,7057,.112165749
46685,7057,.105379493
