iters,price,time
37398,1336,.131511557
7529,1336,.030937738
4517,1289,.022429913
1505,1336,.013704841
27609,1336,.085742346
19075,1336,.068596412
23091,1336,.044359738
17318,1336,.059042531
752,1336,.010988971
32629,1336,.105610589
