iters,price,time
48191,1017,.109798255
32880,1017,.098515822
40159,1017,.125247138
41414,1017,.114475177
50199,1017,.106930760
46183,1017,.136835186
38402,1017,.117993372
5772,992,.025875003
47187,1017,.108304342
48693,1017,.109948017
