iters,price,time
1505,7878,.019699575
501,7165,.011328671
14557,7878,.064283206
10792,7983,.038560745
3011,7983,.016236906
1756,7349,.013532383
1505,7983,.011214709
11294,7983,.038078262
4266,7349,.019238823
22338,7983,.068998757
