iters,price,time
48191,5767,.117577357
55219,5767,.167651616
20832,5767,.066546471
7529,5411,.025234368
35641,5767,.081986066
22087,5411,.078156361
14306,5767,.054902576
17318,5767,.033478248
13302,5411,.044041424
19577,5767,.061896265
