iters,price,time
19075,7813,.068204051
26605,7813,.082336076
26103,7813,.079875118
11796,7813,.039937138
3011,7813,.016080627
7027,7319,.027866047
33633,7813,.105621856
17820,7813,.055990157
15561,7813,.052794298
14808,7319,.050051161
