iters,price,time
7529,1454,.035156408
3011,1317,.017970211
35641,1454,.080438134
5019,1123,.021562007
41414,1454,.136319284
26354,1454,.088233172
20581,1454,.073355997
4517,1289,.022291197
16565,1454,.054878461
13302,1454,.050449417
