iters,price,time
62498,6801,.122562668
63000,6801,.147983883
42920,6801,.080565874
47187,6801,.098233767
52207,6801,.149435961
50199,6801,.105190550
28613,6801,.096695545
63251,6801,.155004654
58231,6801,.171933813
40912,6801,.085849983
