iters,price,time
58482,9122,.123466727
59988,9122,.129814570
61996,9122,.174878191
11796,9122,.040749929
59737,9122,.120484223
53713,9122,.101407604
25852,9122,.079674089
46183,9122,.129118880
57227,9122,.173845210
52960,9122,.123203128
