iters,price,time
45179,6548,.093318204
32127,6548,.117452512
24597,6548,.080363212
51203,6548,.177699232
31625,6548,.129729122
20330,6548,.069109354
36896,6548,.101635835
28613,6548,.101969785
36394,6548,.122598987
22840,6548,.071113683
