iters,price,time
4517,5881,.038117828
8282,5881,.032945859
23844,5881,.051224636
32378,5881,.080417205
2007,5881,.012596506
18322,5881,.063702316
21083,5881,.067558668
15059,5881,.052604471
27609,5881,.088785669
45430,5881,.147984904
