iters,price,time
21836,1258,.081954165
10290,1258,.038002798
7529,1258,.029553950
1003,1076,.011323291
4768,1190,.022699624
14808,1258,.050073670
8031,1258,.030856177
6274,1191,.024552833
15310,1258,.055491628
9286,1191,.033880843
