iters,price,time
22840,9128,.062997171
13804,11303,.054331018
19326,11303,.075485756
501,11303,.008637789
9286,11303,.036240853
2007,10611,.017140044
6023,10611,.026171305
2760,11303,.019149503
35139,11303,.110989985
10039,11303,.039592764
