iters,price,time
48191,5306,.204733428
28362,5306,.123233165
40912,5306,.114013931
48944,5306,.158829986
31123,5306,.085121965
27609,5306,.089533114
31123,5306,.100297796
39155,5306,.122409690
14557,5306,.050442464
54968,5306,.099427756
