iters,price,time
501,8491,.025157339
6525,8845,.027814402
18573,8845,.063961596
6274,8845,.026924461
27609,8845,.065731026
20832,8845,.072968992
18322,8845,.036476223
12800,8845,.051221084
8282,8491,.036022665
3011,7966,.020067449
