iters,price,time
36645,5570,.139287342
40410,5570,.079507972
1756,5570,.014241589
29868,5570,.103878140
5772,5570,.027222635
13553,5570,.050086774
17318,5570,.064906217
1756,5560,.055232744
23844,5570,.133781544
8784,5570,.041216350
