iters,price,time
5772,5656,.040095692
71534,5656,.196995495
55721,5656,.151291961
21083,5656,.048666592
33131,5656,.091335016
36645,5656,.097974677
37398,5656,.098506860
24848,5656,.078033681
21334,5656,.063482315
38653,5656,.111452033
