iters,price,time
45681,4266,.149643462
10039,4266,.037403502
20079,4266,.072273517
30621,4266,.092636746
20079,4266,.057236261
9537,4074,.039598265
5019,4266,.026431623
63502,4266,.092022943
35139,4266,.106584622
36896,4266,.109159803
