iters,price,time
63251,1069,.212576966
15812,1069,.057024576
32629,1069,.111996866
1756,1069,.014464656
25852,1069,.094142587
9035,1069,.036127280
11796,1069,.047038954
1003,974,.012579424
16063,1069,.058621200
8031,1069,.035013955
