iters,price,time
9286,1077,.049604231
2509,1071,.014951086
4015,1071,.020358240
20330,1077,.047899604
13553,1077,.038924626
27107,1077,.052499890
3764,1077,.019295873
11545,1077,.033086519
501,954,.009383896
501,810,.010713880
