iters,price,time
20832,8705,.056534995
54717,8705,.171017911
501,8656,.010117279
45179,8705,.082086278
60239,8705,.180152249
10792,8705,.039382843
35390,8705,.111776764
35390,8705,.094973998
42167,8705,.133547952
12800,8705,.047682790
