iters,price,time
2258,4164,.030856698
5772,6036,.025304631
3262,4975,.018860634
14808,6036,.052955641
8282,6036,.033099393
20581,5146,.071014117
26103,6036,.086229574
15561,6036,.053782879
6525,6036,.025546244
7027,5076,.026748724
