iters,price,time
26856,8036,.103980821
55972,8036,.137879399
65008,8036,.127184674
5019,8036,.025308103
32127,8036,.102371317
43171,8036,.132995009
7027,7538,.031553520
52709,8036,.105701798
25601,8036,.087102214
90108,8036,.245957242
