iters,price,time
1505,7041,.029955894
53964,8075,.144316172
25601,8075,.078011033
34637,8075,.098183817
5019,8075,.023774024
17569,8075,.054134948
87096,8075,.183960721
61745,8075,.153513470
70530,8075,.196810696
59737,8075,.176064194
