iters,price,time
69526,1228,.205667479
93873,1228,.224369260
107427,1228,.199908297
64004,1228,.132447477
26354,1228,.083899226
63502,1228,.171058653
79566,1228,.164393404
38653,1228,.117917257
42167,1228,.130290967
56976,1228,.171267929
