iters,price,time
3262,7693,.021487019
6525,7693,.027847757
11294,7693,.038739418
1756,5057,.013291396
752,7693,.010362663
3262,4845,.018265040
4266,7693,.020667646
7027,6710,.028955395
8533,7168,.034946686
8282,7693,.032594732
