iters,price,time
28864,4775,.096164530
3011,4694,.016326777
39406,4775,.118654251
26605,4775,.086449985
60239,4775,.184617216
3764,4775,.018852415
36394,4775,.110725660
42167,4775,.127885951
1003,4694,.013522804
17569,4694,.062093382
