iters,price,time
8533,4959,.052860054
2258,5898,.017458367
11294,5898,.051109932
752,4384,.011142120
1756,5898,.014601889
19577,5898,.062205301
752,5898,.010361527
7780,5898,.030402023
2760,4959,.016458364
17820,5898,.061583191
