iters,price,time
1003,1885,.028075813
501,1885,.009955685
18824,1386,.058982916
12549,1386,.043862442
1505,1885,.012949858
3011,1802,.016474315
15812,1885,.058353874
12298,1885,.046241112
5772,1885,.023339582
3011,1885,.016354205
