iters,price,time
29366,9672,.065777486
35892,9672,.104224452
32629,9672,.104367557
6274,9672,.026153776
14808,9672,.060945376
8282,9672,.028775692
4517,9672,.021710291
12800,9624,.045414025
12800,9672,.041998742
47438,9672,.144624171
