iters,price,time
15561,5000,.063346425
5772,5000,.025001958
26605,5000,.084640725
22087,4934,.069068476
7780,5000,.030155026
34135,5000,.109420106
24848,5000,.080010773
24346,5000,.076287736
10290,5000,.037334595
66765,5000,.110678379
