iters,price,time
9537,5118,.050659645
3764,5324,.022209560
23342,5324,.077929637
9286,5324,.041497950
2509,5324,.019392953
6776,5473,.031144328
5772,5473,.028189691
38904,5473,.120595229
25099,5473,.083217272
23593,5118,.074759376
