iters,price,time
9286,5238,.047841058
29366,5238,.078235021
752,2707,.009651638
23844,5238,.073546256
10792,5238,.036960680
9537,5011,.033132837
1003,2707,.013056682
8031,4503,.035408701
42418,5238,.111267931
4768,5238,.021999579
