iters,price,time
40661,5769,.107224406
26856,5769,.087345082
46685,5769,.147566238
46183,5769,.149095849
46685,5769,.145918692
44175,5769,.092613993
14808,5769,.053780180
37147,5769,.072724519
54968,5769,.179043393
10039,5769,.038731763
