iters,price,time
30119,4488,.090593241
17067,4488,.060187622
36896,4488,.113705199
23342,4488,.079148779
38653,4488,.118283032
40410,4488,.115358802
9788,4488,.037267095
42669,4488,.107395313
58984,4488,.170554839
32629,4488,.110474327
