iters,price,time
58231,1270,.108436119
50701,1270,.139458714
47187,1270,.134221460
20330,1270,.045108486
82578,1270,.132825059
35892,1270,.107890025
30621,1270,.100781151
39908,1270,.121311028
7780,1270,.028738466
37900,1270,.099809472
