iters,price,time
16063,5483,.060888943
16565,5483,.053656934
33633,5483,.097881669
70781,5483,.217659990
32629,5483,.130444941
36143,5483,.129025792
65510,5483,.149386601
16314,5483,.054058131
2007,5040,.014513809
60741,5483,.177329149
