iters,price,time
6776,1394,.039591577
501,1757,.010698542
19828,1394,.066242970
1254,1870,.012514910
1756,1321,.015351803
2007,1208,.014178784
1003,1915,.013497996
1003,1915,.012284680
501,1394,.010645636
6525,1789,.028302151
