iters,price,time
8533,1292,.051683449
9788,1292,.035777597
22589,1292,.078927335
11043,1163,.041474665
28613,1292,.066256617
43171,1292,.160612140
21334,1292,.096016390
28864,1292,.128908042
13051,1292,.048908250
41163,1292,.101399208
