iters,price,time
36143,8429,.074552657
19828,8429,.065457673
38653,8429,.105649749
27609,8429,.066834347
42920,8429,.138351446
35641,8429,.093795317
40912,8429,.079639557
31374,8429,.094843482
65761,8429,.182877062
1254,8429,.012022128
