iters,price,time
4517,4881,.027399735
21083,4488,.063805988
4768,4881,.022310324
9788,4881,.036549814
16063,4881,.059267417
33633,4488,.103809819
501,4881,.010292544
30370,4488,.093117691
6274,4881,.027511829
18071,4488,.054451930
