iters,price,time
45681,5336,.136404131
15561,5336,.050506216
24095,5336,.078054866
46936,5336,.135888449
63000,5336,.165834881
58984,5336,.133712055
37147,5336,.105169285
35641,5336,.095003418
33633,5336,.096357754
22087,5336,.058613757
