iters,price,time
19828,4784,.064742495
4768,4403,.020675362
13553,4551,.050754066
3011,4316,.018287468
34888,4551,.097388731
7780,4784,.032709843
59737,4784,.134274191
43924,4784,.121256068
31123,4784,.099944250
38904,4784,.092856842
