iters,price,time
752,9168,.026676606
8533,9908,.032689454
15812,9908,.052002368
15059,9908,.057482281
58231,9908,.122090985
13553,9908,.051022945
9286,9403,.039789040
13804,9403,.049718881
26354,9908,.091563653
29115,9908,.097308637
