iters,price,time
26354,6185,.075480557
15812,6185,.058432489
44928,6185,.173126535
6776,6185,.034346834
13302,6185,.054796950
10541,5787,.042729971
7780,5836,.034113789
39908,6185,.118103241
31625,6185,.104794433
64255,6185,.220207232
