iters,price,time
42418,1174,.080867321
9286,1704,.046465216
1254,1438,.018829030
5270,1704,.031735719
2760,1704,.027571093
12298,1174,.052008164
37900,1174,.100747126
8533,1496,.051915021
2509,1593,.021766058
16816,1704,.061382242
