iters,price,time
56725,1398,.107401795
10792,1398,.039330884
57980,1398,.171029739
28613,1398,.088344515
501,1229,.011179491
40159,1398,.119271421
10290,1398,.040651685
31374,1398,.072254115
13804,1398,.047151971
4517,1398,.021170488
