iters,price,time
14306,1874,.066687481
9286,2036,.032236417
13051,2036,.049293200
16565,2036,.055276161
13302,2036,.050892135
5019,1464,.021976275
4517,1834,.019441411
11043,2036,.033597240
501,1032,.010579373
3764,1712,.019843996
