iters,price,time
55721,1197,.180000208
106423,1197,.220551728
88351,1197,.181547955
73542,1197,.193849466
54968,1197,.159535561
42920,1197,.134207478
92618,1197,.233968793
79817,1197,.211197538
75801,1197,.216896776
88602,1197,.207150121
