iters,price,time
12047,5502,.043906307
69526,5502,.217747562
45932,5502,.145077217
46936,5502,.152688221
43673,5502,.139213395
2007,4717,.014366082
45430,5502,.098701722
45681,5502,.141259939
62498,5502,.175433808
21585,5502,.071029827
