iters,price,time
5772,5773,.045389598
20581,5424,.069215601
26605,5763,.084606049
7529,5773,.031183002
7780,5773,.024117180
26354,5773,.092602470
7780,5773,.027173121
17067,5763,.058492409
29617,5773,.095052657
15561,5773,.051902152
