iters,price,time
2007,1254,.031245646
25601,1489,.062733833
1254,1489,.012732412
44175,1489,.105550629
1756,1453,.014079884
7278,1489,.029382122
4517,1489,.022695877
16063,1489,.043038818
752,1182,.010701351
1003,1182,.011608998
