iters,price,time
11294,4700,.047024306
30119,4700,.100516284
12800,4700,.041096296
41916,4700,.132139352
7027,4700,.028998648
5019,4700,.025758750
28111,4700,.092197716
27107,4700,.081859188
2007,4700,.014445239
44677,4700,.103153088
