iters,price,time
11043,5234,.046873788
4266,5245,.021303233
1756,5709,.012966900
1003,5709,.012353802
18824,5709,.058805603
19075,5709,.061334240
46434,5709,.081078485
38402,5709,.119131615
13302,5709,.045146759
53964,5709,.161425290
