iters,price,time
1756,4672,.020207396
42920,4994,.084764787
8282,4994,.022187744
43422,4994,.143896449
1505,4661,.013557650
12800,4994,.041295632
7027,4994,.026630674
16314,4994,.052414628
28362,4994,.087174973
9537,4672,.036490715
