iters,price,time
17569,5484,.080893010
4517,5417,.023279062
14055,5484,.051010261
14557,5484,.053182496
19577,5417,.066893345
6525,5484,.029032448
18824,5417,.062973426
9286,5417,.036440815
4266,5484,.020140093
25350,5484,.087271190
