iters,price,time
21334,4874,.081883450
8282,5802,.033039048
41414,5802,.073776642
7529,4874,.021117342
752,5802,.011245281
16565,5484,.037742064
16314,4812,.055702431
1505,4874,.012884608
5772,5802,.025267251
19075,4874,.060703028
