iters,price,time
73291,10621,.144937666
51454,10621,.145453452
2760,10621,.016178459
24848,10621,.075530838
8533,10621,.033532246
4266,10621,.017644875
36645,10621,.116908672
19577,10621,.060684588
19577,10621,.060498747
15310,10621,.040016579
