iters,price,time
19326,4954,.064961519
15059,4531,.050221141
50952,4954,.115325598
4768,4954,.019799285
7529,4954,.030565622
9286,4840,.032538580
21334,4954,.066731120
20079,4954,.062179358
30119,4954,.089725632
41916,4954,.132445994
