iters,price,time
97136,9707,.174706737
50450,9707,.104419531
52207,9707,.152685461
78311,9707,.225548451
52960,9707,.124900209
20581,9707,.069172805
33633,9707,.101917925
59737,9707,.178084483
74797,9707,.214861132
69275,9707,.236861322
