iters,price,time
41163,6141,.145582800
14055,5942,.054521699
42920,6141,.107934796
50952,6141,.102675310
33884,6141,.104243804
35390,6141,.076474579
78562,6141,.145932419
20330,6141,.067443387
501,5156,.010276900
49195,6141,.094713314
