iters,price,time
16816,1209,.067258403
4015,1085,.018285945
34386,1209,.109071069
33131,1209,.104049899
34637,1209,.106012949
40912,1209,.125835584
3011,1143,.018000860
27107,1209,.067230990
7027,1209,.019139949
33633,1209,.108343442
