iters,price,time
35641,10661,.115236498
17318,9879,.053645392
32629,10661,.095423016
84084,10661,.182660102
68020,10661,.123137491
33633,10661,.097946438
11043,10661,.036893607
66765,10661,.174335573
83582,10661,.138210081
1254,10661,.012042972
