iters,price,time
61243,1256,.157911303
86343,1256,.206543641
18322,1256,.065752923
44928,1256,.077807733
65510,1256,.185055669
71785,1256,.175250603
53713,1256,.130489090
72789,1256,.171737918
5019,1256,.023963436
20079,1256,.063919806
