iters,price,time
2509,5157,.022205934
25350,5157,.085144413
47689,5157,.152765184
80570,5157,.194271941
18824,5157,.063108970
4768,4822,.022929147
65008,5157,.115704123
44426,5157,.132162953
29868,5157,.095848154
68522,5157,.142010576
