iters,price,time
6776,5185,.045705844
33382,5684,.107536658
1505,5653,.017323128
20581,5684,.069663900
43924,5684,.110722037
45681,5684,.138146398
20832,5653,.054847767
5521,5196,.028419115
22840,5684,.053095165
52207,5684,.157360449
