iters,price,time
85590,9608,.170751201
67518,9608,.195250918
74044,9608,.204429546
37649,9608,.110636278
57227,9608,.133738106
19828,9608,.066507627
34888,9608,.112265014
22087,9608,.068328555
60490,9608,.181320204
63753,9608,.183679141
