iters,price,time
78311,5297,.212619398
18824,5297,.058678946
32127,5297,.104139796
25099,5297,.077737314
72287,5297,.175578240
72538,5297,.197386914
21083,5297,.066336640
30119,5297,.089870298
10792,5271,.039574093
2007,5297,.013660202
