iters,price,time
30872,6715,.105637536
44426,6715,.142863237
38904,6715,.125572566
32629,6715,.110603526
17067,6447,.056955659
46434,6715,.109692573
57980,6715,.120720909
18071,6715,.061158233
29366,6715,.091671254
48442,6715,.147317483
