iters,price,time
72287,9078,.143681342
13051,9078,.041556140
74295,9078,.180852940
63502,9078,.158083883
56223,9078,.169949337
57227,9078,.171530286
99897,9078,.229547776
67769,9078,.129407382
43422,9078,.138307853
73542,9078,.153319013
