iters,price,time
82829,5422,.214452715
94626,5422,.188429254
58231,5422,.111540177
37398,5422,.088486456
73793,5422,.215648667
91614,5422,.181913609
56474,5422,.137509945
76303,5422,.219933138
96634,5422,.264033200
85339,5422,.285298951
