iters,price,time
43422,1439,.137929935
54215,1439,.139416153
58482,1439,.161740369
72538,1439,.198884064
25852,1439,.067653749
67267,1439,.169027103
27860,1439,.076077167
13804,1439,.044692355
64757,1439,.230365235
6274,1439,.045742163
