iters,price,time
2007,4503,.020856614
2760,5069,.016510533
4517,7330,.022350511
12800,7330,.051544217
6274,7330,.036379703
2258,7330,.025818736
1756,4605,.023307511
7529,5696,.039889998
4768,7330,.027263625
7027,5368,.034104776
