iters,price,time
46434,5728,.140536802
36896,5728,.119092164
76805,5728,.208583002
1505,5580,.014037769
34386,5728,.116617285
30872,5728,.103688217
7780,5728,.032763030
42167,5728,.128184868
17820,5728,.060731082
63000,5728,.126760774
