iters,price,time
56474,1263,.164739616
31123,1263,.095741229
3262,1263,.018800264
6274,1263,.027340030
4517,1263,.023273591
50701,1263,.159867285
23091,1263,.077358935
57478,1263,.086229023
27860,1263,.092777139
37147,1263,.136624618
