iters,price,time
60741,6779,.125515972
85841,6779,.193254930
68020,6779,.192294507
27860,6779,.095563424
47187,6779,.107358538
34637,6779,.114166732
76554,6779,.192854704
31625,6779,.105834292
47438,6779,.151099804
46685,6779,.125682045
