iters,price,time
18573,8595,.065243750
8533,8555,.035495943
35139,8595,.111036469
8031,8595,.031507643
35641,8595,.116503607
7278,8595,.029646237
46434,8595,.153415694
17820,8595,.061221505
15812,8555,.055709496
1756,8555,.014363161
