iters,price,time
53211,5410,.185398896
16314,5410,.057268928
60741,5410,.182866427
35641,5314,.122959953
8282,5314,.036335108
10290,5229,.037011792
26354,5410,.086260047
26605,5410,.061419028
47187,5410,.135172340
27358,5410,.099138073
