iters,price,time
13051,1368,.035963191
29115,1368,.078621731
22840,1368,.075193758
8533,1296,.032213357
1003,1263,.010569269
9537,1368,.036205605
10290,1368,.038222599
2007,1263,.014963470
5521,1368,.023944811
31876,1368,.099380411
