iters,price,time
16063,5352,.070219261
43924,5352,.131602841
47438,5352,.116759201
49195,5352,.143155306
74546,5352,.141022486
77809,5352,.161343449
56725,5352,.168562624
74295,5352,.163289582
33131,5352,.096418655
13302,5352,.045953442
