iters,price,time
48442,1082,.146505525
8784,1082,.043395143
32629,1082,.112071027
16314,1082,.057633220
22840,1082,.074972305
25350,1082,.085518905
8282,1082,.033429755
2007,990,.013785261
18573,1082,.069891825
22589,1082,.078867386
