iters,price,time
4015,4010,.033202790
1756,4010,.015888414
31625,4384,.112742326
10290,4010,.041988482
3011,4384,.020551409
8282,4384,.035803340
4768,4384,.023761680
7027,4052,.028288746
2007,4087,.015024847
1505,4384,.016298929
