iters,price,time
19075,1292,.075070893
43924,1292,.136648745
1003,1292,.011833492
11796,1292,.038907984
6776,1292,.029657138
18322,1292,.059618749
44175,1292,.139207820
501,722,.011263132
9035,1292,.038496488
20581,1292,.048794152
