iters,price,time
29868,1174,.114225655
42669,1174,.132349610
9788,1130,.039626373
15059,1174,.058354285
29115,1174,.102786431
58231,1174,.165456688
12047,1174,.042570931
19326,1174,.065052107
10039,1174,.039988557
44928,1174,.149396274
