iters,price,time
53713,8909,.158392469
752,8667,.011290077
7278,8619,.029888767
32127,8667,.094991079
4266,8667,.020554455
56474,8909,.151373302
47187,8909,.101975215
24848,8909,.077703489
20079,8909,.064293708
34386,8909,.102252365
