iters,price,time
38402,968,.131166832
11545,968,.042005525
36143,968,.114115899
34888,968,.107624678
48693,968,.099210571
10792,968,.037887362
12298,968,.041041441
1254,857,.011237773
6023,968,.023446447
43673,968,.083123057
