iters,price,time
21585,5384,.070634130
35892,5384,.095796925
9035,5384,.033485837
18071,5384,.057288050
501,5031,.010728152
19577,5384,.063517721
18824,5384,.040133489
26856,5031,.088897578
4517,4827,.015555557
32629,5384,.103422053
