iters,price,time
20832,7923,.050369005
26856,7923,.083683904
12047,7923,.047025418
5772,7849,.025298189
24346,7923,.087640779
4266,7821,.024243817
4517,7821,.020882633
41665,7923,.129016844
17820,7923,.058145300
43422,7923,.103952527
