iters,price,time
39908,8376,.079804529
752,9461,.010753531
21334,9461,.079526822
11796,9461,.046042508
1505,9461,.013765077
26354,9461,.086453222
24095,8376,.078438140
32629,9461,.114386402
5772,9461,.025802359
56474,9341,.159751093
