iters,price,time
32629,10852,.118507491
49948,10852,.129916816
40912,10852,.124786287
14306,10852,.046778024
23342,10852,.072450726
35892,10852,.113619204
22589,10852,.093687730
4015,10852,.021070031
49948,10852,.108511173
58733,10852,.215570078
