iters,price,time
63753,8993,.189832087
61996,8993,.175665331
55219,8993,.108912746
60741,8993,.180536559
71534,8993,.173795700
62749,8993,.179157146
20832,8993,.068830104
59235,8993,.143789734
77558,8993,.174021997
49195,8993,.150056523
