iters,price,time
22589,8830,.098809018
33633,8830,.098364502
18071,8830,.057741702
54717,8830,.125195659
65761,8830,.141499588
26605,8830,.090714574
10541,8830,.039589514
18322,8830,.057283962
40410,8830,.122318015
6525,8830,.027381871
