iters,price,time
55219,5121,.179086836
10792,5121,.040725596
23342,5121,.044707669
2007,4551,.015943549
4768,5121,.021270114
19828,5121,.067469557
3262,4375,.018323212
48442,5121,.123291898
29115,5121,.086012810
16314,5121,.057016506
