iters,price,time
18573,5577,.065670054
15561,5577,.054330127
4517,5577,.022432818
9788,5577,.035030733
4015,5577,.018848922
3011,5577,.017128773
35641,5577,.114471169
5019,5577,.022625081
27358,5577,.086490668
3764,5577,.020112239
