iters,price,time
17067,8596,.072178605
48191,8596,.155228978
40159,8596,.127365921
7278,8596,.030081094
46685,8596,.127330072
22087,8596,.076765310
40661,8596,.177659651
18322,8596,.085591693
40410,8596,.148217991
33633,8596,.120724266
