iter,eps,bestPrice,currPrice
0,0.178629,19524,19524
1,0.143668,20355,20355
2,0.119478,20930,20930
3,0.154649,20930,20094
4,0.154565,20930,20096
5,0.173202,20930,19653
6,0.259361,20930,17605
7,0.137526,20930,20501
8,0.127976,20930,20728
9,0.154144,20930,20106
10,0.171477,20930,19694
11,0.141228,20930,20413
12,0.117669,20973,20973
13,0.131005,20973,20656
14,0.186075,20973,19347
15,0.169626,20973,19738
16,0.150021,20973,20204
17,0.108708,21186,21186
18,0.11321,21186,21079
19,0.11321,21186,21079
20,0.134876,21186,20564
21,0.115692,21186,21020
22,0.125242,21186,20793
23,0.125242,21186,20793
24,0.125242,21186,20793
25,0.138326,21186,20482
26,0.116239,21186,21007
27,0.0971393,21461,21461
28,0.0971393,21461,21461
29,0.106184,21461,21246
30,0.0890198,21654,21654
31,0.0890198,21654,21654
32,0.102524,21654,21333
33,0.0916702,21654,21591
34,0.122592,21654,20856
35,0.122592,21654,20856
36,0.122592,21654,20856
37,0.122592,21654,20856
38,0.122592,21654,20856
39,0.122592,21654,20856
40,0.122592,21654,20856
41,0.122592,21654,20856
42,0.122592,21654,20856
43,0.122592,21654,20856
44,0.165461,21654,19837
45,0.165461,21654,19837
46,0.165461,21654,19837
47,0.189104,21654,19275
48,0.0976441,21654,21449
49,0.0976441,21654,21449
50,0.0976441,21654,21449
51,0.157425,21654,20028
52,0.157425,21654,20028
53,0.13761,21654,20499
54,0.207657,21654,18834
55,0.143668,21654,20355
56,0.143668,21654,20355
57,0.135381,21654,20552
58,0.130837,21654,20660
59,0.130837,21654,20660
60,0.130837,21654,20660
61,0.130837,21654,20660
62,0.152419,21654,20147
63,0.149979,21654,20205
64,0.153681,21654,20117
65,0.153681,21654,20117
66,0.150905,21654,20183
67,0.150905,21654,20183
68,0.150905,21654,20183
69,0.161969,21654,19920
70,0.122381,21654,20861
71,0.11077,21654,21137
72,0.117838,21654,20969
73,0.117838,21654,20969
74,0.140766,21654,20424
75,0.0959192,21654,21490
76,0.0959192,21654,21490
77,0.109844,21654,21159
78,0.109844,21654,21159
79,0.109844,21654,21159
80,0.109844,21654,21159
81,0.109844,21654,21159
82,0.109844,21654,21159
83,0.102608,21654,21331
84,0.102608,21654,21331
85,0.104796,21654,21279
86,0.104796,21654,21279
87,0.104796,21654,21279
88,0.109634,21654,21164
89,0.15406,21654,20108
90,0.15406,21654,20108
91,0.129912,21654,20682
92,0.157762,21654,20020
93,0.116576,21654,20999
94,0.120951,21654,20895
95,0.107867,21654,21206
96,0.13862,21654,20475
97,0.14308,21654,20369
98,0.14085,21654,20422
99,0.113673,21654,21068
100,0.113673,21654,21068
101,0.113673,21654,21068
102,0.106857,21654,21230
103,0.106857,21654,21230
104,0.106857,21654,21230
105,0.106857,21654,21230
106,0.106857,21654,21230
107,0.106857,21654,21230
108,0.106857,21654,21230
109,0.106857,21654,21230
110,0.106857,21654,21230
111,0.116786,21654,20994
112,0.116786,21654,20994
113,0.0785444,21903,21903
114,0.0785444,21903,21903
115,0.0785444,21903,21903
116,0.0785444,21903,21903
117,0.0785444,21903,21903
118,0.0785444,21903,21903
119,0.0785444,21903,21903
120,0.0785444,21903,21903
121,0.0785444,21903,21903
122,0.117249,21903,20983
123,0.167985,21903,19777
124,0.159318,21903,19983
125,0.192091,21903,19204
126,0.221035,21903,18516
127,0.185149,21903,19369
128,0.191502,21903,19218
129,0.176231,21903,19581
130,0.149811,21903,20209
131,0.149811,21903,20209
132,0.181069,21903,19466
133,0.176693,21903,19570
134,0.101178,21903,21365
135,0.101178,21903,21365
136,0.103534,21903,21309
137,0.103534,21903,21309
138,0.107615,21903,21212
139,0.107615,21903,21212
140,0.111906,21903,21110
141,0.111906,21903,21110
142,0.141859,21903,20398
143,0.141859,21903,20398
144,0.141859,21903,20398
145,0.095162,21903,21508
146,0.095162,21903,21508
147,0.095162,21903,21508
148,0.095162,21903,21508
149,0.095162,21903,21508
150,0.095162,21903,21508
151,0.095162,21903,21508
152,0.095162,21903,21508
153,0.121329,21903,20886
154,0.121329,21903,20886
155,0.151325,21903,20173
156,0.107362,21903,21218
157,0.107362,21903,21218
158,0.107362,21903,21218
159,0.107362,21903,21218
160,0.121245,21903,20888
161,0.110181,21903,21151
162,0.110181,21903,21151
163,0.110181,21903,21151
164,0.110181,21903,21151
165,0.110181,21903,21151
166,0.110181,21903,21151
167,0.110181,21903,21151
168,0.110181,21903,21151
169,0.122549,21903,20857
170,0.137021,21903,20513
171,0.127934,21903,20729
172,0.127934,21903,20729
173,0.146698,21903,20283
174,0.146698,21903,20283
175,0.151956,21903,20158
176,0.0864956,21903,21714
177,0.114935,21903,21038
178,0.126336,21903,20767
179,0.126925,21903,20753
180,0.106521,21903,21238
181,0.114598,21903,21046
182,0.114598,21903,21046
183,0.114598,21903,21046
184,0.0973496,21903,21456
185,0.0973496,21903,21456
186,0.0973496,21903,21456
187,0.0973496,21903,21456
188,0.0973496,21903,21456
189,0.0973496,21903,21456
190,0.0973496,21903,21456
191,0.0973496,21903,21456
192,0.0973496,21903,21456
193,0.0973496,21903,21456
194,0.0973496,21903,21456
195,0.0973496,21903,21456
196,0.180395,21903,19482
197,0.119184,21903,20937
198,0.119184,21903,20937
199,0.132899,21903,20611
200,0.132899,21903,20611
201,0.132899,21903,20611
202,0.132899,21903,20611
203,0.132057,21903,20631
204,0.113799,21903,21065
205,0.129028,21903,20703
206,0.129028,21903,20703
207,0.176862,21903,19566
208,0.157425,21903,20028
209,0.100926,21903,21371
210,0.122381,21903,20861
211,0.136979,21903,20514
212,0.10976,21903,21161
213,0.10976,21903,21161
214,0.10976,21903,21161
215,0.120572,21903,20904
216,0.120572,21903,20904
217,0.120572,21903,20904
218,0.167143,21903,19797
219,0.12865,21903,20712
220,0.12865,21903,20712
221,0.12865,21903,20712
222,0.12865,21903,20712
223,0.12865,21903,20712
224,0.12865,21903,20712
225,0.12865,21903,20712
226,0.12865,21903,20712
227,0.12865,21903,20712
228,0.121498,21903,20882
229,0.130753,21903,20662
230,0.130753,21903,20662
231,0.130753,21903,20662
232,0.130753,21903,20662
233,0.130416,21903,20670
234,0.130416,21903,20670
235,0.108035,21903,21202
236,0.108035,21903,21202
237,0.075305,21980,21980
238,0.075305,21980,21980
239,0.075305,21980,21980
240,0.075305,21980,21980
241,0.075305,21980,21980
242,0.075305,21980,21980
243,0.075305,21980,21980
244,0.075305,21980,21980
245,0.075305,21980,21980
246,0.075305,21980,21980
247,0.075305,21980,21980
248,0.075305,21980,21980
249,0.075305,21980,21980
250,0.075305,21980,21980
251,0.057846,22395,22395
252,0.057846,22395,22395
253,0.057846,22395,22395
254,0.057846,22395,22395
255,0.057846,22395,22395
256,0.057846,22395,22395
257,0.057846,22395,22395
258,0.057846,22395,22395
259,0.057846,22395,22395
260,0.057846,22395,22395
261,0.057846,22395,22395
262,0.057846,22395,22395
263,0.057846,22395,22395
264,0.057846,22395,22395
265,0.057846,22395,22395
266,0.057846,22395,22395
267,0.057846,22395,22395
268,0.057846,22395,22395
269,0.057846,22395,22395
270,0.057846,22395,22395
271,0.057846,22395,22395
272,0.0871266,22395,21699
273,0.0871266,22395,21699
274,0.0871266,22395,21699
275,0.0871266,22395,21699
276,0.0871266,22395,21699
277,0.0871266,22395,21699
278,0.0871266,22395,21699
279,0.0871266,22395,21699
280,0.0871266,22395,21699
281,0.0871266,22395,21699
282,0.0871266,22395,21699
283,0.0871266,22395,21699
284,0.100757,22395,21375
285,0.116996,22395,20989
286,0.116996,22395,20989
287,0.116996,22395,20989
288,0.116996,22395,20989
289,0.116996,22395,20989
290,0.116996,22395,20989
291,0.116996,22395,20989
292,0.116996,22395,20989
293,0.116996,22395,20989
294,0.0989062,22395,21419
295,0.139167,22395,20462
296,0.154354,22395,20101
297,0.151914,22395,20159
298,0.11098,22395,21132
299,0.116828,22395,20993
300,0.111611,22395,21117
301,0.122297,22395,20863
302,0.122297,22395,20863
303,0.122297,22395,20863
304,0.122297,22395,20863
305,0.122297,22395,20863
306,0.122297,22395,20863
307,0.122297,22395,20863
308,0.118889,22395,20944
309,0.118889,22395,20944
310,0.145393,22395,20314
311,0.122634,22395,20855
312,0.151115,22395,20178
313,0.188641,22395,19286
314,0.165292,22395,19841
315,0.165292,22395,19841
316,0.165292,22395,19841
317,0.170004,22395,19729
318,0.166428,22395,19814
319,0.15305,22395,20132
320,0.15305,22395,20132
321,0.15305,22395,20132
322,0.15305,22395,20132
323,0.15305,22395,20132
324,0.161759,22395,19925
325,0.165419,22395,19838
326,0.195499,22395,19123
327,0.141817,22395,20399
328,0.142364,22395,20386
329,0.117459,22395,20978
330,0.117459,22395,20978
331,0.117459,22395,20978
332,0.117459,22395,20978
333,0.117459,22395,20978
334,0.117459,22395,20978
335,0.117459,22395,20978
336,0.117459,22395,20978
337,0.141228,22395,20413
338,0.141228,22395,20413
339,0.141228,22395,20413
340,0.141228,22395,20413
341,0.14228,22395,20388
342,0.14228,22395,20388
343,0.124527,22395,20810
344,0.112158,22395,21104
345,0.094573,22395,21522
346,0.126588,22395,20761
347,0.126588,22395,20761
348,0.107951,22395,21204
349,0.107951,22395,21204
350,0.126672,22395,20759
351,0.122549,22395,20857
352,0.122549,22395,20857
353,0.138368,22395,20481
354,0.184855,22395,19376
355,0.164451,22395,19861
356,0.120951,22395,20895
357,0.120951,22395,20895
358,0.0920909,22395,21581
359,0.0920909,22395,21581
360,0.0920909,22395,21581
361,0.0920909,22395,21581
362,0.0920909,22395,21581
363,0.0920909,22395,21581
364,0.0920909,22395,21581
365,0.0920909,22395,21581
366,0.0920909,22395,21581
367,0.0920909,22395,21581
368,0.0920909,22395,21581
369,0.0920909,22395,21581
370,0.0920909,22395,21581
371,0.0920909,22395,21581
372,0.0920909,22395,21581
373,0.0920909,22395,21581
374,0.0920909,22395,21581
375,0.0920909,22395,21581
376,0.0920909,22395,21581
377,0.103071,22395,21320
378,0.103071,22395,21320
379,0.140387,22395,20433
380,0.131342,22395,20648
381,0.131342,22395,20648
382,0.131342,22395,20648
383,0.0863694,22395,21717
384,0.0863694,22395,21717
385,0.0863694,22395,21717
386,0.0863694,22395,21717
387,0.0863694,22395,21717
388,0.0863694,22395,21717
389,0.0863694,22395,21717
390,0.0863694,22395,21717
391,0.0863694,22395,21717
392,0.0863694,22395,21717
393,0.0863694,22395,21717
394,0.143753,22395,20353
395,0.0990745,22395,21415
396,0.0990745,22395,21415
397,0.0990745,22395,21415
398,0.106521,22395,21238
399,0.101725,22395,21352
400,0.101725,22395,21352
401,0.101725,22395,21352
402,0.101725,22395,21352
403,0.101725,22395,21352
404,0.101725,22395,21352
405,0.101725,22395,21352
406,0.101725,22395,21352
407,0.101725,22395,21352
408,0.0962979,22395,21481
409,0.0962979,22395,21481
410,0.0962979,22395,21481
411,0.0962979,22395,21481
412,0.0962979,22395,21481
413,0.0962979,22395,21481
414,0.0962979,22395,21481
415,0.0962979,22395,21481
416,0.0962979,22395,21481
417,0.0962979,22395,21481
418,0.105259,22395,21268
419,0.105259,22395,21268
420,0.105259,22395,21268
421,0.105259,22395,21268
422,0.10244,22395,21335
423,0.10244,22395,21335
424,0.10244,22395,21335
425,0.10244,22395,21335
426,0.10244,22395,21335
427,0.10244,22395,21335
428,0.10244,22395,21335
429,0.10244,22395,21335
430,0.10244,22395,21335
431,0.10244,22395,21335
432,0.10244,22395,21335
433,0.10244,22395,21335
434,0.10244,22395,21335
435,0.10488,22395,21277
436,0.0986117,22395,21426
437,0.0892722,22395,21648
438,0.0892722,22395,21648
439,0.0892722,22395,21648
440,0.0892722,22395,21648
441,0.0892722,22395,21648
442,0.0892722,22395,21648
443,0.0892722,22395,21648
444,0.0892722,22395,21648
445,0.0892722,22395,21648
446,0.0892722,22395,21648
447,0.0892722,22395,21648
448,0.0892722,22395,21648
449,0.0892722,22395,21648
450,0.0892722,22395,21648
451,0.0892722,22395,21648
452,0.0892722,22395,21648
453,0.0892722,22395,21648
454,0.0892722,22395,21648
455,0.0892722,22395,21648
456,0.0892722,22395,21648
457,0.0892722,22395,21648
458,0.0892722,22395,21648
459,0.106521,22395,21238
460,0.0851073,22395,21747
461,0.0851073,22395,21747
462,0.118342,22395,20957
463,0.118342,22395,20957
464,0.118342,22395,20957
465,0.118342,22395,20957
466,0.115229,22395,21031
467,0.115229,22395,21031
468,0.125536,22395,20786
469,0.125536,22395,20786
470,0.110265,22395,21149
471,0.110265,22395,21149
472,0.110265,22395,21149
473,0.110265,22395,21149
474,0.110265,22395,21149
475,0.110265,22395,21149
476,0.110265,22395,21149
477,0.110265,22395,21149
478,0.110265,22395,21149
479,0.110265,22395,21149
480,0.110265,22395,21149
481,0.110265,22395,21149
482,0.0744215,22395,22001
483,0.0744215,22395,22001
484,0.0744215,22395,22001
485,0.0744215,22395,22001
486,0.0744215,22395,22001
487,0.0744215,22395,22001
488,0.0744215,22395,22001
489,0.0744215,22395,22001
490,0.0744215,22395,22001
491,0.0744215,22395,22001
492,0.0744215,22395,22001
493,0.0744215,22395,22001
494,0.0744215,22395,22001
495,0.0744215,22395,22001
496,0.0744215,22395,22001
497,0.0744215,22395,22001
498,0.0744215,22395,22001
499,0.0744215,22395,22001
500,0.0744215,22395,22001
501,0.0744215,22395,22001
502,0.0744215,22395,22001
503,0.0744215,22395,22001
504,0.0744215,22395,22001
505,0.0744215,22395,22001
506,0.0744215,22395,22001
507,0.0744215,22395,22001
508,0.0744215,22395,22001
509,0.0744215,22395,22001
510,0.0744215,22395,22001
511,0.0744215,22395,22001
512,0.0744215,22395,22001
513,0.0744215,22395,22001
514,0.0744215,22395,22001
515,0.0744215,22395,22001
516,0.0744215,22395,22001
517,0.0744215,22395,22001
518,0.0744215,22395,22001
519,0.0744215,22395,22001
520,0.0744215,22395,22001
521,0.0744215,22395,22001
522,0.0744215,22395,22001
523,0.0744215,22395,22001
524,0.0744215,22395,22001
525,0.0744215,22395,22001
526,0.0744215,22395,22001
527,0.0744215,22395,22001
528,0.0744215,22395,22001
529,0.0744215,22395,22001
530,0.0744215,22395,22001
531,0.0744215,22395,22001
532,0.0744215,22395,22001
533,0.0744215,22395,22001
534,0.0744215,22395,22001
535,0.0744215,22395,22001
536,0.0744215,22395,22001
537,0.0744215,22395,22001
538,0.0744215,22395,22001
539,0.0744215,22395,22001
540,0.0744215,22395,22001
541,0.0744215,22395,22001
542,0.0744215,22395,22001
543,0.0744215,22395,22001
544,0.0744215,22395,22001
545,0.0744215,22395,22001
546,0.0744215,22395,22001
547,0.0744215,22395,22001
548,0.0744215,22395,22001
549,0.0744215,22395,22001
550,0.0744215,22395,22001
551,0.0744215,22395,22001
552,0.0744215,22395,22001
553,0.0744215,22395,22001
554,0.0744215,22395,22001
555,0.0744215,22395,22001
556,0.0744215,22395,22001
557,0.0744215,22395,22001
558,0.0744215,22395,22001
559,0.0744215,22395,22001
560,0.0744215,22395,22001
561,0.0744215,22395,22001
562,0.0744215,22395,22001
563,0.0744215,22395,22001
564,0.0744215,22395,22001
565,0.0744215,22395,22001
566,0.0744215,22395,22001
567,0.111401,22395,21122
568,0.111401,22395,21122
569,0.11056,22395,21142
570,0.11056,22395,21142
571,0.10488,22395,21277
572,0.10488,22395,21277
573,0.10488,22395,21277
574,0.10488,22395,21277
575,0.10488,22395,21277
576,0.10488,22395,21277
577,0.11788,22395,20968
578,0.11788,22395,20968
579,0.11788,22395,20968
580,0.11788,22395,20968
581,0.11788,22395,20968
582,0.11788,22395,20968
583,0.11788,22395,20968
584,0.0681952,22395,22149
585,0.0681952,22395,22149
586,0.0681952,22395,22149
587,0.0681952,22395,22149
588,0.0681952,22395,22149
589,0.0681952,22395,22149
590,0.0681952,22395,22149
591,0.0681952,22395,22149
592,0.0681952,22395,22149
593,0.0681952,22395,22149
594,0.0681952,22395,22149
595,0.0681952,22395,22149
596,0.0681952,22395,22149
597,0.0681952,22395,22149
598,0.0681952,22395,22149
599,0.101767,22395,21351
600,0.101767,22395,21351
601,0.101767,22395,21351
602,0.101767,22395,21351
603,0.101767,22395,21351
604,0.101767,22395,21351
605,0.101767,22395,21351
606,0.101767,22395,21351
607,0.101767,22395,21351
608,0.101767,22395,21351
609,0.101767,22395,21351
610,0.101767,22395,21351
611,0.101767,22395,21351
612,0.101767,22395,21351
613,0.101767,22395,21351
614,0.101767,22395,21351
615,0.101767,22395,21351
616,0.101767,22395,21351
617,0.101767,22395,21351
618,0.101767,22395,21351
619,0.101767,22395,21351
620,0.101767,22395,21351
621,0.101767,22395,21351
622,0.101767,22395,21351
623,0.101767,22395,21351
624,0.101767,22395,21351
625,0.101767,22395,21351
626,0.101767,22395,21351
627,0.0945309,22395,21523
628,0.0945309,22395,21523
629,0.0945309,22395,21523
630,0.0945309,22395,21523
631,0.0945309,22395,21523
632,0.0945309,22395,21523
633,0.0945309,22395,21523
634,0.0945309,22395,21523
635,0.0945309,22395,21523
636,0.0945309,22395,21523
637,0.0945309,22395,21523
638,0.0945309,22395,21523
639,0.0945309,22395,21523
640,0.0945309,22395,21523
641,0.0945309,22395,21523
642,0.0945309,22395,21523
643,0.0945309,22395,21523
644,0.0945309,22395,21523
645,0.0945309,22395,21523
646,0.0945309,22395,21523
647,0.0945309,22395,21523
648,0.0945309,22395,21523
649,0.0945309,22395,21523
650,0.0945309,22395,21523
651,0.0945309,22395,21523
652,0.0945309,22395,21523
653,0.0945309,22395,21523
654,0.0945309,22395,21523
655,0.0945309,22395,21523
656,0.0945309,22395,21523
657,0.0945309,22395,21523
658,0.0945309,22395,21523
659,0.0945309,22395,21523
660,0.0945309,22395,21523
661,0.0945309,22395,21523
662,0.0945309,22395,21523
663,0.0945309,22395,21523
664,0.0945309,22395,21523
665,0.0945309,22395,21523
666,0.0945309,22395,21523
667,0.0945309,22395,21523
668,0.0945309,22395,21523
669,0.0945309,22395,21523
670,0.0945309,22395,21523
671,0.0945309,22395,21523
672,0.0945309,22395,21523
673,0.0945309,22395,21523
674,0.0945309,22395,21523
675,0.0945309,22395,21523
676,0.0945309,22395,21523
677,0.0945309,22395,21523
678,0.0945309,22395,21523
679,0.0945309,22395,21523
680,0.0945309,22395,21523
681,0.0945309,22395,21523
682,0.0945309,22395,21523
683,0.0945309,22395,21523
684,0.0945309,22395,21523
685,0.0945309,22395,21523
686,0.0945309,22395,21523
687,0.0945309,22395,21523
688,0.0945309,22395,21523
689,0.0945309,22395,21523
690,0.0945309,22395,21523
691,0.106942,22395,21228
692,0.0908288,22395,21611
693,0.0908288,22395,21611
694,0.0908288,22395,21611
695,0.0908288,22395,21611
696,0.0908288,22395,21611
697,0.0908288,22395,21611
698,0.0908288,22395,21611
699,0.0908288,22395,21611
700,0.0908288,22395,21611
701,0.0908288,22395,21611
702,0.0908288,22395,21611
703,0.0908288,22395,21611
704,0.0908288,22395,21611
705,0.0908288,22395,21611
706,0.0577619,22397,22397
707,0.0577619,22397,22397
708,0.0577619,22397,22397
709,0.0577619,22397,22397
710,0.0577619,22397,22397
711,0.0577619,22397,22397
712,0.0577619,22397,22397
713,0.0577619,22397,22397
714,0.0577619,22397,22397
715,0.0577619,22397,22397
716,0.0577619,22397,22397
717,0.0577619,22397,22397
718,0.0577619,22397,22397
719,0.0577619,22397,22397
720,0.0577619,22397,22397
721,0.0577619,22397,22397
722,0.0577619,22397,22397
723,0.0577619,22397,22397
724,0.0577619,22397,22397
725,0.0577619,22397,22397
726,0.0577619,22397,22397
727,0.0577619,22397,22397
728,0.0577619,22397,22397
729,0.0577619,22397,22397
730,0.0577619,22397,22397
731,0.0577619,22397,22397
732,0.0577619,22397,22397
733,0.0577619,22397,22397
734,0.0577619,22397,22397
735,0.0577619,22397,22397
736,0.0577619,22397,22397
737,0.0577619,22397,22397
738,0.0577619,22397,22397
739,0.0577619,22397,22397
740,0.0577619,22397,22397
741,0.0577619,22397,22397
742,0.0577619,22397,22397
743,0.0577619,22397,22397
744,0.0577619,22397,22397
745,0.0577619,22397,22397
746,0.0577619,22397,22397
747,0.0577619,22397,22397
748,0.0577619,22397,22397
749,0.0577619,22397,22397
750,0.0577619,22397,22397
751,0.0577619,22397,22397
752,0.0577619,22397,22397
753,0.0577619,22397,22397
754,0.0577619,22397,22397
755,0.0577619,22397,22397
756,0.0577619,22397,22397
757,0.0577619,22397,22397
758,0.0577619,22397,22397
759,0.0577619,22397,22397
760,0.0577619,22397,22397
761,0.0577619,22397,22397
762,0.0577619,22397,22397
763,0.0577619,22397,22397
764,0.0577619,22397,22397
765,0.0577619,22397,22397
766,0.0577619,22397,22397
767,0.0577619,22397,22397
768,0.0577619,22397,22397
769,0.0577619,22397,22397
770,0.0577619,22397,22397
771,0.0577619,22397,22397
772,0.0577619,22397,22397
773,0.0577619,22397,22397
774,0.0577619,22397,22397
775,0.0577619,22397,22397
776,0.0577619,22397,22397
777,0.0577619,22397,22397
778,0.0577619,22397,22397
779,0.0577619,22397,22397
780,0.0577619,22397,22397
781,0.0577619,22397,22397
782,0.0577619,22397,22397
783,0.0577619,22397,22397
784,0.0577619,22397,22397
785,0.0577619,22397,22397
786,0.0577619,22397,22397
787,0.0577619,22397,22397
788,0.0577619,22397,22397
789,0.0577619,22397,22397
790,0.0577619,22397,22397
791,0.0577619,22397,22397
792,0.0577619,22397,22397
793,0.0577619,22397,22397
794,0.0577619,22397,22397
795,0.0577619,22397,22397
796,0.0577619,22397,22397
797,0.0577619,22397,22397
798,0.0577619,22397,22397
799,0.0577619,22397,22397
