iters,price,time
237445,-5285,1.126830354
1254,45419,.015764678
283127,-4465,1.200113573
6274,47492,.047459759
10792,46225,.082464141
7027,47982,.055752593
18573,49317,.117812892
33382,45521,.238317057
1254,47486,.015967825
7780,38274,.061724922
