iters,price,time
292163,-5743,1.390047954
365455,-2925,1.579052518
331319,-10054,1.521019208
422934,-8188,1.939174398
17569,97632,.125677136
339602,-3030,1.727951627
2509,94349,.024738388
394571,-8597,1.854544369
407121,-8166,1.669700605
299442,-12156,1.306140006
