iters,price,time
327805,0,1.940261252
325797,0,1.919885564
326299,0,1.963881221
333578,0,1.890223908
310235,0,1.804429586
317263,0,1.828737361
318016,0,1.955553741
330566,0,1.913579811
324040,0,2.008083012
324291,0,1.744195767
