iters,price,time
3764,62019,.039156560
2509,58581,.025029616
5019,62019,.042928660
10792,60110,.083629300
232676,-898,1.198767883
10290,59862,.079882201
4517,52855,.037938329
4015,41237,.036396900
21083,60110,.153136770
3513,62019,.031046260
