iters,price,time
368718,-1,2.177228691
349642,-11,1.946267547
342865,-1874,1.751608792
370224,-1,1.993077914
333578,-114,1.817820061
6023,76064,.048744567
347885,-2341,1.858010840
372232,-6,2.181903299
386790,0,1.767179704
338849,-18,1.853433945
