iters,price,time
301199,-650,1.905224864
327303,-685,1.929595534
364702,-651,2.200643985
366710,-650,2.220078857
312996,-651,1.891011970
1756,35575,.018371729
46183,92060,.243981703
259533,-652,1.557182532
17318,93783,.135005140
306972,-651,1.890658444
