iters,price,time
207074,-520,1.124647103
252003,-852,1.151549061
199293,-1362,1.000150089
5270,111809,.044051399
230668,-447,1.195441651
217867,-890,1.231221666
208329,-967,1.062980742
219373,-890,1.280057261
202807,-1362,1.033591702
223640,-1362,1.070720939
