iters,price,time
250999,-6510,1.255172848
752,108799,.011520800
253509,-9520,1.350773614
6023,98224,.050395765
501,101454,.009194719
247485,-12363,1.183565076
3513,85149,.028878919
4517,111523,.037118767
208831,-10641,1.065701432
256772,-12919,1.311539241
