iters,price,time
1756,107597,.025761240
501,81241,.009397426
6274,97539,.043457948
1254,103669,.016034559
173189,-3043,.844053858
2509,103696,.025860415
7278,114401,.054744830
8282,106923,.064376069
2509,103247,.023720617
7278,124165,.056553760
