iters,price,time
11545,99122,.102616977
5270,81449,.050542446
6023,112536,.048060658
4517,112536,.032121779
1003,90309,.013214083
161643,0,.836615318
5521,112536,.046007761
501,51267,.009752516
8282,106536,.059014687
1756,89406,.018198599
