iters,price,time
222887,-9336,1.240206975
2258,127935,.022462009
1254,138861,.015197121
1254,141191,.015450155
2007,150688,.020697959
1254,146627,.014953290
224895,-195,1.081209719
273338,-195,1.389140464
501,58443,.008498853
251250,-13875,1.399901319
