iters,price,time
338598,-1671,1.490765403
331068,-1398,1.463592383
295677,-1957,1.165243056
332574,-2975,1.517256750
306219,-2295,1.342629014
324793,-2522,1.491462111
344371,-2298,1.577635522
299944,-2926,1.319431363
331068,-2929,1.616504678
319020,-1657,1.463192899
