iters,price,time
382272,-4509,2.060338941
230919,0,1.117424787
330315,-915,1.499144438
251752,0,1.270148676
287645,-273,1.543388585
247234,-273,1.136717472
274593,0,1.540040656
267816,-273,1.594020581
260035,-1023,1.489605665
287143,-3766,1.545524006
