iters,price,time
398587,-553,2.120182135
386790,-553,2.111784691
412392,-553,2.262182170
392312,-31,2.174017053
387543,-61,2.011832847
393316,-121,2.127566310
413396,-31,2.206595995
422934,-553,2.287511905
403105,-28,1.879756063
12298,96401,.093202262
