iters,price,time
352152,-3,1.567772254
341108,-223,1.886793511
358929,-322,1.851193589
366208,-1654,1.859294461
379762,-1002,1.790573575
398587,-2689,1.872362414
383025,-2030,1.780460399
360686,0,1.869580748
369722,-251,1.996133959
367212,0,1.796122931
