iters,price,time
219624,-3716,1.255153922
212345,-3716,1.130541613
250246,-5676,1.333773143
213851,-5676,.985053044
236190,-8468,1.309427862
289402,-2469,1.527485989
253760,-8251,1.348676022
255517,-6290,1.244574765
287896,-3932,1.583323178
223389,-3699,1.068376540
