iters,price,time
5772,52804,.087535777
501,52354,.010076391
4266,70598,.034354088
752,64945,.012261075
252254,-1241,1.142459622
1505,71869,.015895297
269322,-132,1.331968591
2760,70860,.024847959
5521,66910,.043905931
2258,51739,.023390991
