iters,price,time
1756,70106,.033426384
1756,60188,.020047961
4015,66590,.035147927
288398,0,1.399489616
10039,73604,.072940051
4517,82064,.037855026
246230,0,1.233868990
3764,68396,.034335944
3764,67090,.033819200
1003,67689,.012370319
