iters,price,time
179464,-8341,.978103431
186994,-10276,1.005200948
210588,-1881,1.030504366
185488,-6719,1.101759315
7278,110590,.058045499
1254,84327,.016884144
170177,-928,.973112608
213349,-6777,1.142984677
217114,-10932,1.213505350
195026,-8135,1.101049627
