iters,price,time
226150,-7109,1.195160342
1003,133387,.013504243
232676,-7287,1.217506434
2007,104908,.020868511
3262,109913,.030777707
10541,127412,.082023267
12298,135101,.097505019
224644,-2495,1.052878332
249242,-7109,1.418812485
241712,-1558,1.319406771
