iters,price,time
212847,-1962,1.107800917
217114,-1962,1.130976471
501,21784,.010327125
204062,-1962,1.084640552
216612,-1962,1.035677918
226652,0,1.178389059
14055,50815,.105922626
234684,-1472,1.114182600
227154,-1938,1.065389270
6525,60274,.056651612
