iters,price,time
376499,-3360,2.092193537
341359,-3375,2.060843291
359933,-3360,1.986935804
342614,-1814,1.917592533
368216,-3360,2.097039183
2509,72022,.024588211
752,54727,.011667354
358427,-3589,1.817909939
9286,84350,.072776920
378507,-3624,1.998558157
