iters,price,time
3262,82139,.036529230
1505,67637,.016713473
1003,81354,.014175938
8784,83832,.056242575
1003,76315,.013408049
4768,70513,.037138785
5521,85622,.044758937
2509,68641,.023967594
13804,88923,.098838279
1756,82607,.018692639
