iters,price,time
752,113007,.015998024
3764,100528,.027172441
319271,-10112,1.373005319
1003,108898,.012354079
2007,111296,.019373105
4015,119082,.025029356
501,129468,.009125347
752,101652,.011062949
1756,111543,.016109376
7278,118404,.055300103
