iters,price,time
5521,47189,.062642799
222887,-219,1.290201788
233429,-219,1.365941325
252756,-277,1.440626013
238700,-219,1.448017548
3262,36424,.029142684
244724,-248,1.416162361
5019,38012,.038001936
14808,29844,.085270064
203309,-248,1.216769270
