iters,price,time
420675,-11272,2.285508689
752,103434,.011362231
430464,-6513,1.895734284
398336,-11190,2.241204726
420675,-13509,2.086474768
426448,-11106,2.373355144
395324,-11654,2.510970709
412643,-16276,2.197334674
411639,-11190,2.235821924
17318,114558,.108096956
