iters,price,time
2509,67592,.038594024
752,65535,.010970406
3262,70325,.028471781
1003,67177,.012994267
752,81031,.012679250
227656,-219,1.396938106
7780,80645,.062625520
1756,70139,.015996160
1003,76566,.013268902
258780,0,1.504552342
