iters,price,time
386790,-60,1.960602705
1003,61133,.013099474
404109,-3224,2.214041769
405866,0,2.377351925
2258,75684,.023768138
392814,-2065,2.168561243
8031,57612,.061244733
4015,75956,.035974718
7027,69951,.067063170
309231,0,1.612089050
