iters,price,time
398838,-3532,2.320043752
381770,-2074,1.815080430
392814,-3627,1.805457764
390806,-3627,2.172681419
395826,-1001,1.983972791
387292,-3632,1.891031462
394571,-3633,2.075550871
403858,-3627,2.446606502
386539,-3727,2.152118824
377252,-3726,2.136610861
