iters,price,time
265306,0,1.366451425
234935,-700,1.301645890
245477,-21,1.249304493
242716,-2255,1.326667932
291159,-2207,1.385553643
1756,69188,.017858448
258278,-5961,1.359363227
286139,-2211,1.539291262
257023,0,1.369002736
273087,-2207,1.514926353
