iters,price,time
205819,-2174,1.223703259
3262,132359,.028938579
2760,153712,.025448578
204062,-2398,1.156554906
195779,-2866,1.189650212
1003,62334,.012930881
213600,-3109,1.223270310
206321,-3539,1.237405710
206572,-3348,1.265864833
752,43109,.012045217
