iters,price,time
234182,-6294,1.109055011
18824,87203,.136084390
205066,-3818,1.030905999
245226,-3880,1.223141148
1505,62872,.016051600
17067,87203,.108747015
247234,-4110,1.112737565
12549,54350,.094999039
6525,71341,.057203723
252756,-9547,1.215178771
