iters,price,time
281621,0,1.408615174
204815,0,1.043202012
4266,153458,.036891678
3513,139187,.031361398
260788,0,1.164211428
275346,0,1.495208995
289653,0,1.344202975
302956,0,1.723508488
275848,0,1.484595005
264804,0,1.362310769
