iters,price,time
243218,0,1.303110703
9537,88652,.073634065
198289,0,1.048453237
6525,90627,.058284982
6023,57501,.047510792
206572,0,1.046385221
2760,82334,.027205414
223389,0,1.112853792
191261,-949,.998524565
254262,0,1.158161079
