iters,price,time
224142,0,1.054574692
4517,113873,.035219102
239704,-1102,1.329140542
230166,0,1.291063397
3513,133396,.030959595
5270,97022,.042924929
222636,-199,1.330346442
501,91834,.009453885
1003,91864,.012712969
1254,102605,.013619178
