iters,price,time
379511,0,1.943782944
380013,0,1.977962423
390555,0,2.004578108
404109,0,2.167672140
403356,0,2.200918579
415404,0,2.355221266
15310,96340,.094433482
405615,0,2.100156446
395826,0,2.258177945
375244,0,2.119713212
