iters,price,time
258278,-1253,1.444992656
250748,0,1.386740533
261792,-283,1.562751194
242465,-2317,1.473523325
250999,-49,1.579958747
261541,-1094,1.514366031
266812,-380,1.345168702
256019,-234,1.474882725
272585,-1720,1.519555332
263549,0,1.314510464
