iters,price,time
250999,-13,1.272410339
246732,-5,1.263193508
232676,-21,1.052326446
241963,-5,1.188113171
245979,-13,1.271976760
259282,-9,1.305327287
248740,-13,1.194682148
246230,-13,1.105804548
244724,-13,1.252674165
249493,-9,1.292841047
