iters,price,time
441508,0,2.023949133
434982,0,2.153101903
433225,0,2.013842881
425444,0,2.156130427
425193,0,2.287012810
423185,0,2.140668760
413898,0,2.242345428
426699,0,1.928870312
437994,0,2.360192926
428958,0,2.107642132
