iters,price,time
436488,-2,2.076635952
435986,0,2.123880529
428456,-2,2.050946329
2258,115165,.027486656
426699,-4,2.115038169
4517,137388,.036529434
420173,0,2.060074405
430966,0,2.136525769
444018,-4,2.065250752
22087,118084,.123918417
