iters,price,time
344120,-102,1.683856013
359682,-102,1.870867791
343618,-102,1.788113805
501,107427,.012053669
340355,-102,1.870506118
359431,-102,1.639965152
368969,-102,1.982151497
362945,-102,2.045686872
339602,-102,1.726065459
367212,-102,2.081412865
