iters,price,time
445524,-5484,2.367660951
447281,-39,2.531971101
454560,0,2.507443091
470122,-37,2.333319267
455313,-498,2.474169454
432974,0,2.454200112
454560,-39,2.470264393
439249,0,2.552609867
458325,-452,2.346467729
450544,0,2.246827987
