iters,price,time
300948,-3155,1.403264183
324542,-2255,1.521623244
328056,-4330,1.380920409
306721,-4903,1.741433692
340355,-3750,1.437947926
306972,-3703,1.369820986
292163,-4164,1.163455978
268067,-3764,1.268545375
260788,-2921,1.205318109
296932,-3702,1.394110045
