iters,price,time
397081,0,2.017048313
410886,0,2.139213540
15059,54764,.115285536
430213,0,2.224318092
446779,0,2.382112563
422683,0,2.284435630
429460,-1,2.384820112
412392,0,2.146631010
418416,0,2.217590824
752,72030,.011195247
