iters,price,time
385535,0,2.303505119
326048,0,1.878490884
379762,0,2.247103706
387794,0,2.306665515
389049,0,2.305921837
344873,0,2.028451953
375997,0,2.082430031
1003,72007,.019111394
1756,72557,.024209357
313749,0,1.830319517
