iters,price,time
199544,-2216,1.251865577
202807,-2216,1.128050458
1756,35628,.018853906
191261,-2216,1.047192916
3011,49590,.028120397
4768,28218,.041522050
198791,-2216,1.033561639
193269,-2216,1.226838480
199042,-2216,.994164555
2760,52620,.040876850
