iters,price,time
387041,-2636,2.201531617
373236,-16,2.090890556
378758,-2636,2.165292990
376499,-2637,2.213541587
386539,-380,1.998070685
390053,-2428,2.327715533
377001,-1801,1.932968732
380013,-2637,2.087589190
402603,-1573,2.428856798
389049,-2637,1.978698562
