iters,price,time
383025,-3782,1.798058303
367714,-2494,1.673441842
333829,-3485,1.573731129
392312,-82,1.702977902
387041,-2592,1.647906069
391308,-3489,1.930850941
382523,-5257,1.816354498
387543,-2,1.863008255
402352,-33,2.024128262
392814,-3,2.015484141
