iters,price,time
2007,42755,.036482500
1003,44615,.014306382
2760,44845,.025310618
4768,38444,.039365585
1003,37901,.013484686
1756,43997,.018684743
7027,41056,.057917559
241461,-10,1.422578675
501,37875,.010635486
252505,-40,1.557211969
