iters,price,time
14055,93306,.102352526
297434,-542,1.593005500
3764,70826,.033570338
241210,-2,1.245488898
310235,-183,1.596867253
236943,-422,1.263098214
320275,-1578,1.291610959
2258,61403,.023761204
277103,-2,1.309864922
12800,51467,.098980551
