iters,price,time
354913,-266,1.642776640
374993,-11,1.689850577
363949,0,1.598700339
379009,-10,1.655194952
22087,135243,.172650659
363949,-23,1.510457770
317514,-10,1.325928482
362192,-1444,1.657520945
373487,-11,1.715730103
352152,0,1.593078133
