iters,price,time
1756,39051,.023255216
293669,-2492,1.752765165
296932,-2575,1.429419181
306219,-2575,1.731086424
311239,-2495,1.542339388
338598,-2575,1.789238706
314502,-2575,1.858295901
1254,26722,.014749956
294171,-2265,1.690988748
284382,-2575,1.610220707
