iters,price,time
3011,53895,.043414336
182727,0,.855471335
186743,0,.933470394
208831,-5230,1.044892705
181723,-1961,.785464313
166161,0,.847549085
186241,0,.891539182
2509,78851,.023259876
191010,-245,.862225449
208831,0,1.054917878
