iters,price,time
407121,-2,2.302772758
402603,-139,1.989024760
405113,-116,2.307948645
401348,-113,2.232585127
404109,-2,2.051697066
397834,-4,1.942194255
409882,-401,2.168400735
398587,-25,2.178618005
409129,-114,2.189425415
436990,-1,2.404803524
