iters,price,time
357172,-3191,1.633739087
1003,29016,.014308091
320275,-2949,1.704540844
373738,-4798,1.894403604
305466,-3171,1.566550588
335335,-4793,1.743359487
345626,-4600,1.678565298
376750,-2710,1.930533899
3262,42802,.030346817
310486,-4793,1.384305154
