iters,price,time
129766,-10301,.742971186
1003,108953,.013840622
2509,140586,.023856908
144826,-65,.716710365
126754,-14751,.715822542
107929,-13148,.638854325
122989,-13014,.696778340
17569,109138,.110465527
5521,118314,.045211434
10541,131125,.052539762
