iters,price,time
190006,-4568,.865992346
199795,-6563,.888382773
198791,-6402,.874910390
197536,-6995,.897293875
189253,-4775,.873847157
167165,-7412,.698146338
202807,-10307,.879158392
203811,-5510,.908732150
184233,-6570,.976587596
180970,-5093,.812492928
