iters,price,time
268820,-1,1.321741507
390304,-2,1.818734562
4517,30543,.040349317
304462,-1,1.337234104
357172,-104,1.735055387
337343,-1,1.574696069
362694,-104,1.825575879
376750,-1,1.667003591
357674,-1,1.729618901
277856,-124,1.198210627
