iters,price,time
432723,-7640,2.197749498
418416,-7290,2.143035392
501,126244,.011206583
425946,-12250,1.891539519
425946,-15582,2.215488050
429209,-13267,2.158591885
5019,124984,.042045491
421930,-1074,2.090090009
438245,0,2.144463439
446528,-10417,2.204960011
