iters,price,time
11043,41241,.103114665
8031,50218,.063241820
2760,56427,.027360925
281370,-2157,1.145311212
291912,-2157,1.213653940
290908,-2157,1.272494254
281370,-2157,1.223647933
8533,56749,.071192428
273338,-2157,1.175106509
293167,-2157,1.316484326
