iters,price,time
151101,-931,.812952834
109937,0,.534175237
136292,-931,.672220629
143069,-931,.680794851
8031,125129,.063632958
144073,0,.831303618
131523,-931,.719695601
151603,-931,.820882872
131523,-424,.639652231
130268,-931,.730768704
