iters,price,time
302956,0,1.706660267
305968,0,1.539461407
273338,0,1.566337219
265055,0,1.384256857
294171,0,1.558979224
2760,34000,.024991794
297685,0,1.566638906
8282,39444,.061852837
14557,49046,.107769178
6274,46421,.050095311
