iters,price,time
377001,0,2.192121967
8031,64072,.060424044
355917,0,1.921215568
358678,0,2.077036277
386037,0,2.006723592
501,68149,.010177785
368718,0,2.169770957
373236,0,1.814405355
369973,0,2.198754410
361439,0,2.018692999
