iters,price,time
14306,96811,.120526583
1756,105393,.018708089
2007,98637,.021722795
12298,104966,.092210921
2760,98279,.025055501
12549,100103,.092732174
409380,-2326,1.725076721
12800,105754,.093041254
422181,-5517,1.739071114
1756,97638,.020322516
