iters,price,time
1003,32102,.028964793
261039,-2860,1.405383422
21836,35348,.162879372
2258,31914,.026263461
501,27572,.010090869
261290,-3397,1.362182334
282625,-3397,1.211728121
273087,-1186,1.482477394
9035,35055,.071015925
301952,-1085,1.607073462
