iters,price,time
412392,-4925,1.830442724
5772,102562,.046913479
422683,-10047,1.850130065
398085,-5227,1.889044095
2509,98782,.025116678
401850,-3279,1.672021320
408376,-7575,2.020329224
7529,109651,.058564617
403356,-9988,1.657288561
9035,110486,.073190336
