iters,price,time
315506,-9369,1.761245482
304964,-9746,1.576434075
326048,-7132,1.570701519
315506,-9756,1.586082187
291159,-4731,1.387192247
283127,-9457,1.277262134
301701,-1152,1.738624665
312494,-9394,1.384287249
280617,-9392,1.269974313
312494,-9752,1.637833794
