iters,price,time
181974,-1852,.884438483
6023,139943,.049981844
3513,124714,.031530863
1505,129964,.016670295
11796,119832,.072280164
183229,-8954,.916632509
192767,-4009,1.017427997
186492,-7343,1.095286938
168671,-4265,.915713947
165408,-8966,.913440126
