iters,price,time
300195,-233,1.781475386
299442,-130,1.831439946
303960,0,1.826076161
306721,-5,1.881169708
309733,-3,1.845340092
316259,-8,1.890849499
312494,-8,1.648814180
307976,-6,1.838305950
305215,-3,1.784419042
340857,-28,2.056453399
