iters,price,time
389551,-3048,1.679684900
394571,-1717,1.605672692
388045,-3919,1.579975023
393065,-3533,1.687440541
11796,59753,.096114399
390555,-4582,1.624123528
391559,-3242,1.843132108
6023,59753,.048427024
379762,-2591,1.541909354
391559,-1265,1.596476335
