iters,price,time
343618,-375,1.993199321
374742,-18,2.101722421
361188,-41,2.005288426
354160,-7,1.917836785
380013,-11,2.156730790
358176,0,1.873881395
373487,0,1.855875175
374993,-23,2.046342216
368216,-24,2.080163240
381519,-673,1.761493331
