iters,price,time
1505,60637,.034180777
271581,-3739,1.205397065
267063,-3739,1.251170503
237947,-2238,1.176581997
1505,58956,.016512323
296681,-3739,1.351569777
278358,-3739,1.290852257
316510,-3739,1.324193643
9788,77266,.075750793
289904,-3739,1.433831281
