iters,price,time
140057,-1,.925951205
118220,-1,.769781448
118471,-1,.662711823
129766,-1,.777758718
99646,-1,.602087852
123240,0,.782431522
129013,0,.760246614
121985,-1,.764238480
138802,-1,.868080646
139555,-1,.860484375
