iters,price,time
154364,-3959,.734774806
178209,-3959,.858313482
151603,-3956,.713415412
162396,-3960,.762364480
18071,69357,.128313834
16565,71552,.125970617
159635,-3959,.756821716
201050,-3959,.923955578
6525,55594,.042564199
169926,-3959,.877497525
