iters,price,time
335335,-9089,1.522326268
7529,139223,.064063290
259784,-10017,1.304664715
501,51294,.009694025
360937,-10167,1.696882853
8031,126521,.061825862
373236,-10017,1.801524875
302956,-7326,1.525075017
344622,-10017,1.701342846
301199,-6057,1.548749922
