iters,price,time
320024,-2608,1.617208133
304211,-1,1.688922561
332574,-1359,1.703828089
304211,-22,1.679874011
332323,-2412,1.819392410
312745,0,1.396829417
501,44542,.010906218
360435,-14,1.990013742
5521,82420,.042304968
320777,-21,1.676707119
