iters,price,time
190006,-20,1.090446699
205066,-2,1.179690328
213349,-19,1.260477270
220628,-39,1.149429240
138300,-1,.763663079
230919,-19,1.398449398
203058,-1,1.144945734
215357,-1,1.070128722
199293,-20,1.070854364
143069,-19,.726658139
