iters,price,time
435233,-8258,2.057080448
427452,-1548,2.355603367
442763,-8261,2.468739597
447030,-5376,2.066534003
448285,-1541,2.297336333
420926,-1,2.190909808
435735,-1286,2.430516978
441759,-8404,2.437945078
414400,-1286,2.365051445
428707,-1289,2.317024702
