iters,price,time
388798,-1727,1.740104835
376248,-7,1.646904126
398085,-5,1.800642097
396077,-703,1.722763492
390053,-6,1.572212208
1003,45321,.013326754
390304,-3521,1.655192928
12800,42729,.076102777
392061,-3747,1.615018781
380766,-2117,1.774541662
