iters,price,time
456568,-361,2.507450796
423687,-361,2.459891760
440002,-361,2.523970526
418416,-361,2.407062600
432472,-361,2.029487068
427452,-210,2.418579346
425695,-361,2.442249086
424189,-361,2.453652515
427703,-362,2.089191816
436237,-361,2.524712296
