iters,price,time
3262,70346,.044410251
6776,51876,.051997484
203560,-5226,1.013118278
210086,-5227,1.104400683
191010,-5226,.959732408
1756,68744,.018475599
213600,-5768,1.015458324
8282,54066,.064859955
205317,-8506,1.014160090
193520,-5226,.958404542
