iters,price,time
437241,-1,1.997493812
501,108911,.009776698
429711,-1,1.831747524
434229,-1,1.960606623
434731,-1,1.955654619
1254,118763,.015979919
429962,-1,1.993725136
442261,-1,1.977321272
436488,-1,1.958445418
407372,-1,1.893351490
