iters,price,time
41665,80742,.280888299
1254,59724,.014136553
366208,0,2.097570098
357674,0,2.005853358
382272,0,2.161331076
381770,0,1.925890307
372734,0,1.962779654
3513,77220,.031080035
752,82890,.011886103
350395,0,1.944969258
