iters,price,time
752,173658,.027625387
1003,168376,.012803117
752,142615,.011704075
752,97703,.010857024
752,161519,.010965311
1254,110888,.014974500
4517,125017,.032712964
1756,134602,.019092628
752,114431,.012158373
2509,148718,.019861605
