iters,price,time
3513,71039,.033680245
230166,0,.998619792
2258,58444,.021641725
1003,52997,.013916963
9035,83097,.051374733
3011,54199,.027333333
1756,71938,.018522383
2760,62757,.025857559
10039,87485,.073246743
2007,72775,.019484719
