iters,price,time
2007,139866,.037264821
3262,130300,.021371277
2509,155395,.023801025
5772,155387,.045474135
3011,165587,.027615122
4517,165587,.054476226
4015,165587,.036598467
11545,150108,.083610794
1505,160300,.016650442
333578,-5279,1.607805186
