iters,price,time
287143,0,1.453460465
287394,0,1.561738934
281872,0,1.465121388
267816,0,1.418031261
297936,0,1.661545003
284131,0,1.440699218
300195,0,1.650131261
287394,0,1.499660390
289151,0,1.498354500
302454,0,1.558855683
