iters,price,time
3011,74923,.041651428
307474,0,1.348194425
2258,61014,.024248867
5270,78813,.044371010
6023,72595,.052995028
501,46100,.010821908
8784,78080,.067550928
297434,0,1.396154731
3011,90734,.029453418
2760,83867,.025610477
