iters,price,time
296932,-2478,1.647856603
5019,73615,.042556960
3513,58255,.032058516
298187,0,1.555711222
214855,0,1.049211829
281119,-338,1.374653797
2258,68202,.023665537
3011,64179,.021358598
1254,84101,.016160124
501,68712,.010978822
