iters,price,time
207576,-5103,1.289506007
233931,-3925,1.351227954
1756,57908,.017124259
212345,-5109,1.237661004
212345,-5103,1.282069421
242465,-5103,1.341861657
230919,-5103,1.219427119
30119,86711,.210299135
204815,-5246,1.201488568
215859,-5166,1.058783494
