iters,price,time
363196,-391,1.709451927
362192,-391,1.646266491
356168,-402,1.667493708
360686,-402,1.596734443
350646,-102,1.666111354
337343,-402,1.620968867
366208,-1032,1.602672287
360686,-400,1.524360925
372985,-399,1.684271028
21083,54016,.154427520
