iters,price,time
1756,106205,.036802998
752,84910,.011789904
2007,118925,.019363988
1254,115898,.014494081
108933,-5486,.533282214
161894,-1101,.790873992
5772,107022,.046119901
1756,111448,.018359280
3011,115950,.023043241
7780,103605,.045436157
