iters,price,time
8784,64848,.093091285
385786,-3460,2.103518172
398838,-3038,2.024941467
361941,-191,1.934965712
368467,-1794,2.130127003
358176,-193,2.078525126
361188,-1119,2.273145167
365204,-6,2.078254673
10039,69471,.073422199
365706,0,2.113443829
