iters,price,time
329311,0,1.736152851
329060,0,1.769524409
286641,0,1.613565050
281621,-1,1.528082720
339602,0,1.926051570
283127,-24,1.646217638
356670,0,2.144726712
306972,0,1.681104906
12047,28479,.103976714
292665,0,1.635283907
