iters,price,time
150097,0,.893919730
752,59819,.011169526
5772,81429,.047726524
178962,0,1.044054321
181472,0,1.029305417
164404,0,.963791521
174444,0,.993348138
163651,0,.960457153
157376,0,.908474502
6525,74548,.051176339
