iters,price,time
151101,0,.813383983
184986,0,1.141080515
2760,97057,.024289861
276099,0,1.549291652
210588,0,1.045047221
2760,91795,.022091420
201552,0,1.145328055
225899,0,1.250954039
1505,113131,.018015262
216110,-1,1.192437498
