iters,price,time
9035,47325,.086339709
267816,-229,1.226231240
291912,-8,1.381021547
284382,-221,1.373400689
285135,-221,1.411299554
283629,-244,1.502399684
288649,-8,1.521500433
296179,-224,1.468525234
284382,-33,1.458811201
4517,42500,.040126471
