iters,price,time
2258,103525,.025035227
111443,0,.662422850
109435,-745,.625170813
108180,-1502,.676806139
112196,-9165,.607232558
137798,0,.840528083
98893,0,.513211424
96383,-745,.485145620
4015,92767,.034908875
2007,97126,.016553897
