iters,price,time
142567,-3244,.801217825
1254,30693,.014383530
752,27353,.012125309
131021,-4209,.606221905
119224,-2051,.610993979
752,30815,.011193853
25852,46674,.186345015
501,30547,.009854296
752,29534,.012242645
2258,24196,.022849205
