iters,price,time
402603,-3439,1.777688447
405364,-3403,1.934753402
378256,-1936,1.665278084
394320,-4214,1.708858934
9537,81185,.071805792
412643,-3841,1.930727364
392814,-8557,1.786915062
752,75828,.010605528
384029,-3771,1.660224282
399089,-3395,1.843137654
