iters,price,time
212847,-616,1.047362456
12047,144041,.091441719
278358,-2946,1.446652152
2258,144041,.022510632
238951,-423,1.277723522
215608,-616,1.169020894
251752,-3736,1.201913110
752,144041,.011189530
263549,-616,1.406011837
6274,113762,.052096775
