iters,price,time
346379,-24,1.417296531
332323,-1746,1.572900715
28362,68850,.185607721
299442,-201,1.440778030
367965,-865,1.648401967
367965,-1065,1.683950354
304964,-24,1.487066002
356670,-23,1.723900603
15812,73719,.118337886
345124,-23,1.617412050
