iters,price,time
328307,-3021,1.612279415
332323,-3119,1.708063437
321781,-3119,1.589674382
10290,46572,.075226390
347634,-3117,1.853550789
331821,-3041,1.719795288
315004,-3068,1.558403317
303960,-3023,1.529576037
366710,-3119,1.936634730
318267,-3028,1.752201306
