iters,price,time
384782,0,2.009122141
373236,0,1.929228667
391559,0,2.029275047
384531,0,1.917666980
390555,0,2.077164779
376750,0,1.760134919
389300,0,1.764736265
407372,0,2.106264771
382774,0,1.832522937
385033,0,1.910405620
