iters,price,time
9286,99456,.083804545
2760,91782,.026198813
1756,101592,.018821139
1254,83485,.015237494
12549,98896,.097972863
501,58177,.010615177
1003,108528,.013639828
7027,92585,.042728318
4015,97339,.033854418
4517,101089,.037622480
