iters,price,time
14055,67983,.118104335
501,41074,.009494077
1254,56668,.015266379
6525,79600,.045779855
2258,83370,.024084758
501,32080,.010159225
1756,67959,.018505025
2007,84824,.020832988
294673,-6146,1.311637840
2509,80234,.022715609
