iters,price,time
106423,-8442,.540183921
9788,79126,.074597994
3011,75359,.026458654
1254,87174,.015265718
752,41022,.010215747
6023,70434,.037371696
501,54746,.009597945
2258,94060,.022035057
97638,-5362,.484063691
2007,60953,.018676658
