iters,price,time
216863,-120,1.003430284
233931,-72,1.087112250
228158,-151,1.067388604
216612,0,.925172365
233178,-302,1.074856320
238449,-7,1.079043825
211843,-373,1.003846566
215106,-1080,1.017555386
219624,-122,.937413442
221632,0,1.105618472
