iters,price,time
302203,0,1.636749957
301199,0,1.372158262
298940,-25,1.577149418
311741,0,1.702269944
310235,0,1.744609704
312996,0,1.708287902
305717,0,1.701897125
302705,-4665,1.476328722
304462,0,1.616581926
280366,-4734,1.426780122
