iters,price,time
262796,-3193,1.245228591
254011,-228,1.162238704
254513,-1324,1.196252016
268569,-33,1.201185623
217365,-428,.986433886
262796,-3385,1.231224907
265808,-1719,1.173948415
270326,-1467,1.226736291
287896,-226,1.439548282
245226,-3435,1.089823862
