iters,price,time
10039,52265,.080649910
1003,51433,.014463759
26856,47851,.131926967
3513,44692,.029142243
5772,47373,.046399094
1254,50755,.014660455
3262,51547,.028737244
501,43625,.009873278
10792,54068,.079513246
6274,48913,.048892835
