iters,price,time
752,43045,.026828568
3513,40385,.030977343
7529,44250,.047094370
6023,50011,.047556434
127758,-5487,.672002400
8533,56756,.063171390
86343,-3177,.511276944
161894,-3177,.871813052
1254,32757,.015576628
11796,48097,.077492616
