iters,price,time
2007,90639,.025206884
8533,133757,.061720338
752,128858,.011193082
169173,-1715,.827752594
1756,139453,.019372680
2258,119947,.022035378
2760,144208,.025531366
4266,121044,.037493418
752,135085,.012544909
170679,-1715,.850923259
