iters,price,time
174193,-358,.833507454
1505,32089,.016860914
6525,44679,.050749527
186994,-2324,.829538216
175197,-1108,.968648338
180719,-1998,.893488320
216110,-422,1.113100900
186994,-1182,.897282793
230919,-140,1.304303048
195779,-2042,.903587033
