iters,price,time
13804,97091,.140889842
402603,0,2.442384845
5521,59614,.046314648
416659,-1,2.597672265
7027,67490,.049851038
2760,63383,.025533880
411388,-5262,2.328778391
752,62864,.011637542
2509,93707,.025153758
16565,101367,.112500269
