iters,price,time
374240,0,1.687782430
380013,0,1.702178509
385284,0,1.731165556
384280,0,1.852674367
393316,0,1.685115728
403607,0,2.073903154
384029,0,1.773692608
402854,0,1.903560180
395073,0,1.696366271
396077,0,1.935175133
