iters,price,time
1254,57811,.032112079
5019,45665,.039115292
3262,52494,.030480168
217114,-1555,.953926867
12298,56615,.093513331
1003,40039,.013329724
2258,53060,.030639712
11796,57328,.095084173
230668,0,1.029053676
4768,48315,.040401101
