iters,price,time
1254,117801,.020069682
261039,-2118,1.122322717
5019,125674,.045598228
2509,132447,.023684688
243971,-3340,1.012285383
1003,111800,.014319252
2007,126512,.020238420
1756,114481,.018193073
2007,120845,.022491580
256521,-3111,1.123421563
