iters,price,time
119475,-1448,.588401856
3513,59856,.029308301
105921,-2679,.532354814
114455,-3606,.538515435
501,52827,.009126068
113200,-2879,.612893828
107176,-2350,.565483703
96383,-2744,.491120104
107929,-4423,.580865555
2258,51049,.022027181
