iters,price,time
8282,57504,.068198536
261039,-10804,1.182313176
30872,104242,.180800220
9286,84061,.069717572
355415,-7191,1.542379319
339853,0,1.518823393
6525,92971,.049791184
23593,104242,.163697202
2258,104064,.021965269
8282,95568,.062303054
