iters,price,time
501,106967,.024191909
10290,124619,.077672304
221632,-4911,1.108519681
206572,-176,1.006099782
193269,-4911,.946218681
501,97660,.009920637
196281,-973,.918887242
214855,-4911,.930291518
196030,-8880,.960710773
208831,-4911,.911555958
