iters,price,time
259031,0,1.192795027
294422,0,1.606044051
288398,-6546,1.408917085
9788,93119,.074080203
2760,109195,.026707451
272836,0,1.505537787
283127,-3505,1.294668192
1505,103941,.019357925
302705,0,1.427913745
16565,98432,.121729048
