iters,price,time
309231,0,1.794518838
223640,0,1.291498263
305717,0,1.665649450
190759,0,1.138421478
304713,0,1.588847537
274091,0,1.508923469
290908,0,1.530730520
245728,-17,1.315279421
1003,31509,.014445199
1003,28925,.013040391
