iters,price,time
427452,-12,1.900713133
434731,0,1.989468574
2509,99067,.021788797
436488,-1,2.009633614
2509,105368,.024067796
445022,-1,2.169056249
16314,107702,.122109176
429711,0,2.012352489
444269,0,2.047865926
430715,0,1.792505746
