iters,price,time
255517,-4386,1.319013198
258780,-126,1.164010439
4015,71161,.034194277
248238,-251,1.181634107
246732,-2050,1.160345317
267816,0,1.216700272
1505,62252,.015371349
262294,-5380,1.359643753
262294,0,1.416855050
269071,-276,1.275475803
