iters,price,time
7780,52433,.067203077
12549,65546,.093499451
1003,76189,.014041420
752,63954,.011903210
2258,72307,.023533419
752,70417,.013148236
14557,70119,.107486688
20079,79777,.140739159
12549,60914,.088470721
12298,76143,.087627258
