iters,price,time
320526,-1068,1.552086113
2509,68125,.023453085
312494,-122,1.508220104
320777,-5,1.527315136
2007,68162,.021427380
1505,73659,.018618125
1505,57447,.017110262
5521,51959,.045371604
313749,0,1.558140940
2007,78729,.021778260
