iters,price,time
156874,-4393,.707664831
176201,-5447,.900448780
160890,-1978,.725128670
19326,105832,.153859442
163651,-5447,.716190390
9788,136163,.073519445
6274,99299,.051386030
152607,-1054,.709678784
11043,138060,.081255513
10792,124895,.068548165
