iters,price,time
176703,-1586,.842776906
186241,-1476,.981415581
211592,-1632,1.100072212
205568,-2323,1.083297407
180970,-2192,.950768369
176954,-1140,.955523140
204815,-1620,1.111330413
212094,-2253,1.125814751
185739,-1666,.924958471
207576,-2495,1.079637877
