iters,price,time
3764,35952,.037808983
2509,44647,.025873490
1756,36019,.019468288
501,39683,.011010193
501,43489,.010869166
1003,37976,.013833309
1003,47193,.014404164
5772,44318,.046396705
4768,45688,.040045972
4768,43215,.041084202
