iters,price,time
468114,-4520,2.181755266
436488,-4387,2.110116128
431719,-4388,2.050380236
33884,77840,.226550583
451297,-4388,1.874598597
368216,-2509,1.509244949
454058,-3159,2.103738468
2509,96247,.022283643
434480,-5210,2.005212141
226150,-4387,1.024730637
