iters,price,time
2258,43630,.037029360
219624,0,1.072790188
195026,-1296,1.080284464
1003,33595,.013739783
201803,-100,.961245772
12047,42950,.081202057
4517,48410,.038116922
241210,0,1.306632489
3764,50156,.031359539
4015,40052,.034505988
