iters,price,time
264553,-485,1.505309641
3262,37083,.029822029
274844,-126,1.465491786
2509,46318,.024309653
249493,-1214,1.507876091
269573,-28,1.808782122
6525,33238,.056457832
268569,-769,1.560084749
280868,-337,1.640931836
4266,43201,.037006107
