iters,price,time
298438,0,1.461497846
233680,0,1.364575998
21083,89074,.148974012
256772,-1220,1.470687250
248740,-759,1.451059518
267565,-1,2.120322361
257776,-88,1.449482546
237696,0,1.335644082
10792,86474,.075727995
752,78204,.011993529
