iters,price,time
392061,-1816,1.639699584
374993,-2917,1.774852721
391559,-66,1.662937562
380013,-2785,1.663389451
388045,-3827,1.595120496
395575,-1813,1.839237483
402854,-2249,1.836518311
420173,-1813,1.881082120
377503,-1813,1.968577610
385786,-2368,1.713510852
