iters,price,time
369220,-1008,1.675645136
362443,-3675,1.767908748
379009,-3949,2.043967824
378005,-3676,2.044386626
382272,-3735,2.071902748
380013,-3675,2.084876211
382523,-105,1.579979672
388045,-1919,2.100631645
378507,-2149,2.093649804
359933,-3102,1.876536023
