iters,price,time
183731,-2569,.974926833
752,33810,.010830564
1003,47659,.012495623
10541,57709,.079567124
14055,53147,.103785953
1003,51631,.013076345
14306,52256,.081106073
5019,52006,.039642304
4015,38071,.029592975
4517,51300,.038390891
