iters,price,time
136292,-43,.675361977
176201,-1842,.851150474
147587,-23,.786554665
237696,-913,1.030294064
163149,-1625,.756471502
155368,-2214,.703391336
163902,-893,.848157263
230417,-78,1.112488158
164404,-1771,.776671594
147587,-1806,.712780362
