iters,price,time
298187,0,1.702688295
322534,0,1.536418772
12800,85579,.096188334
289653,0,1.572392103
265306,0,1.493185553
299693,0,1.388210666
294171,0,1.509407795
313247,0,1.676343172
305215,0,1.665967618
1003,81984,.013093126
