iters,price,time
313247,-1222,1.385318277
2509,67697,.032872879
12800,61807,.089244786
334331,-4736,1.541787336
3764,74848,.032270717
334833,-6446,1.468189016
12298,85969,.090226905
346128,-577,1.574219468
1505,70860,.017015125
346630,-428,1.559540278
