iters,price,time
4266,140179,.041768412
1003,105793,.012242736
7027,135168,.055542235
2509,157019,.024067631
7027,157019,.056417469
243218,-7705,1.038387993
292414,-2891,1.386273324
282374,-253,1.339568360
9286,93427,.071193931
270075,-6206,1.227246511
