iters,price,time
314251,0,1.512680271
8031,72257,.064079974
329813,0,1.592912742
752,57124,.011551076
1003,85739,.013048201
4015,52326,.034869755
3262,76221,.029430118
1254,80245,.012775153
317263,0,1.401442999
10792,88529,.085259723
