iters,price,time
362443,0,2.019927826
325797,0,1.717899097
315255,0,1.729637512
330566,0,1.832631551
331570,0,1.762750070
7780,39053,.059826386
360686,0,1.887957201
10792,29465,.080005999
335837,-4,1.772424927
342865,0,1.657480288
