iters,price,time
752,123333,.028631406
14055,107658,.102194575
2007,124279,.020255267
1505,102143,.016177091
1505,121666,.016387163
4768,88006,.034704869
752,115613,.011480723
5772,101316,.046601958
4015,106569,.026341686
3513,105785,.031164812
