iters,price,time
440002,-5466,2.364961833
447030,-5466,2.209967155
414902,-5466,2.002459806
440253,-5466,2.383992579
446779,-5466,2.347571227
413647,-5466,2.269054792
445775,-5466,2.287417790
439249,-5466,2.416834144
445775,-5466,2.139512403
2007,69788,.021755734
