iters,price,time
233429,-4771,1.100383402
212847,-5591,.956317219
188249,-5202,.911679765
197285,-7362,.994383989
237194,-49,1.205546300
217867,0,1.070759127
1003,38834,.012292376
216110,-1899,1.093522678
1505,42175,.017661781
214855,-1759,1.116202067
