iters,price,time
8533,52597,.067360007
2509,51007,.024007300
1505,37437,.016718491
1505,50980,.017788684
3011,51219,.028010824
1003,49495,.013265967
752,45777,.012476828
1254,40765,.015245795
1003,51748,.013535613
501,47110,.010819728
