iters,price,time
331319,-5993,2.007370400
5270,91840,.042353581
323789,-6731,1.831925494
38402,96735,.287825269
336841,-9592,2.047377967
325044,-4783,1.966633286
752,94400,.012048799
320526,-10758,1.971583285
319522,-7133,1.880085874
5019,76818,.041725715
