iters,price,time
12298,74787,.091449279
245477,0,1.338472132
7780,74947,.064779361
3262,64053,.030462654
5019,88883,.034879373
273840,-652,1.345290966
6023,65746,.048835330
298689,0,1.482633268
268820,0,1.472120717
313498,0,1.597874560
