iters,price,time
1003,46927,.029222301
2760,46564,.024315755
6274,48535,.051725359
193018,-2598,1.107240480
1505,47039,.017650895
1254,40073,.015501424
4015,46739,.034656963
3513,44494,.031595431
5521,44993,.045880432
8533,53062,.067031444
