iters,price,time
37147,48280,.263443297
142818,-964,.857615672
2760,33672,.026205926
1254,63698,.016398210
20581,57962,.137503775
189002,-2633,1.164554328
6776,41471,.054700441
131523,-1335,.755406560
8282,49394,.064151579
173691,-964,1.046639071
