iters,price,time
2007,39462,.038082199
384531,-12,2.063307861
1505,33870,.017403338
377503,-12,2.074426901
390304,-2,2.161477927
385033,-12,2.138984658
389300,0,2.163955641
5521,42670,.046185557
378005,-1,1.951402911
377503,-12,2.189141767
