iters,price,time
293920,-4266,1.660953568
9788,36400,.068653015
326550,-1441,1.728156118
353658,-1826,1.650233579
1003,31592,.013458486
309231,-4020,1.712982852
308478,-2981,1.672942442
332574,-3919,1.776143156
1003,42449,.013607641
1003,29112,.013645508
