iters,price,time
2760,76964,.030215676
186492,-4955,.911178840
194022,-2581,.997478270
169424,-5881,.770777093
178209,-7057,.771511407
194273,-1555,.980024254
177707,-4557,.881120191
179464,-1139,.918376560
1505,51918,.017003813
183731,-889,.916721059
