iters,price,time
161392,-765,.881255899
152858,-6794,.727004728
134535,-765,.717234228
132527,-17835,.645182981
128511,-17261,.608409605
135790,-6552,.636700575
135037,-12265,.664869761
146834,-6937,.773965353
149344,-8769,.760917927
501,68727,.009904867
