iters,price,time
5019,120955,.059084752
1505,123398,.016219628
12047,123491,.074064287
501,106516,.009487434
4517,120863,.039893485
2007,103042,.019496957
10541,114963,.070742358
3262,113866,.024796996
1003,126997,.012887228
15561,122928,.091816912
