iters,price,time
752,115160,.015766540
2509,123316,.034599407
1505,126639,.016649490
501,101588,.010196531
501,120640,.009752166
501,110262,.010126106
752,102714,.011019736
3262,125966,.029131688
752,124207,.011140596
501,104916,.009550721
