iters,price,time
257525,0,1.288203029
268067,-94,1.414481360
272836,-4,1.478082746
3262,106726,.030044314
286390,0,1.404387580
315255,0,1.700056941
3262,104880,.031713628
265055,0,1.537708023
261039,0,1.423221019
5772,148375,.047047966
