iters,price,time
290657,-3236,1.405288259
273338,0,1.339358323
7278,74266,.062636511
752,68917,.012509008
273840,-5485,1.480283933
1003,78379,.012067494
277605,-2438,1.528957539
2760,62587,.026498411
3262,69256,.025687118
3262,69701,.029895955
