iters,price,time
501,56815,.025776205
501,62481,.009839774
2760,65019,.024588362
222134,-5564,1.081816354
2258,71154,.021799838
6525,80936,.053404902
2509,87405,.023394152
25852,81986,.184786920
7027,82244,.049495924
8784,86158,.051629080
