iters,price,time
216612,-3898,.952584628
13051,44573,.081474062
186241,-1038,.800043613
17569,46525,.127384756
12800,47737,.093451940
21083,47295,.139702240
10290,41817,.079335366
205819,-4294,.982737800
2258,44440,.021874341
16565,47070,.099726834
