iters,price,time
2760,121163,.030483569
430966,-12501,2.033670280
435735,-12501,2.102956216
423687,-6908,2.019909912
433978,-12500,2.088240507
444269,-13067,2.150964244
439500,-11267,2.141761460
435986,-12502,2.007293438
3262,75020,.027715509
448536,-12501,2.106032085
