iters,price,time
404862,-418,1.961192538
405615,-176,1.938380809
398336,-176,1.683679881
396579,-1231,1.944004232
396579,-1666,1.839889831
407623,-13,1.888525985
370977,-174,1.739630708
372734,-1084,1.676371787
408878,-887,1.753290584
402854,-177,1.959784160
