iters,price,time
382523,-57,1.997336640
377754,-58,1.788015887
376750,-1,1.815116955
25350,42002,.175552150
33382,50724,.221078284
372483,-58,1.801013596
401348,-57,2.164142659
382272,-57,1.767182073
9035,42632,.069854068
390053,-40,1.998723798
