iters,price,time
376499,-1304,1.598325268
419922,-1968,1.853860115
441257,-1306,1.834556258
372232,-1972,1.588799509
338347,-674,1.338077016
407372,-1968,1.686454284
432974,-2262,1.950524551
423436,-1327,1.753672505
420926,-1199,1.781476853
273589,-1218,1.271449400
