iters,price,time
302203,-15,1.725058892
196030,-15,1.052195701
305215,-15,1.659793668
293920,-15,1.388541683
233429,-4,1.182933914
287143,-16,1.696144542
307474,-15,1.824720447
287645,-15,1.428979003
295677,-15,1.762828836
275848,-15,1.668964001
