iters,price,time
150348,-8759,.680489480
148842,-3279,.700259800
132025,-11919,.669861330
3513,67808,.030576166
171432,-8406,.851309117
167667,-10996,.820365784
189253,-13279,1.077311872
173691,-10232,1.107190209
156874,-7786,.747978245
501,43460,.009004706
