iters,price,time
164906,-3367,.816470208
196030,-3243,.869975977
501,49791,.010178822
187496,-2858,.845117093
8031,37300,.062300068
31625,54389,.206143415
2509,43948,.023330761
185990,-3243,.852245845
186743,-3331,.814705176
188249,-3316,.859618043
