iters,price,time
274091,0,1.434290780
752,35709,.012888556
283378,0,1.399637364
4266,34354,.035457996
251501,0,1.260434730
293669,0,1.518665185
253509,0,1.305736445
752,38352,.015321324
308227,0,1.572430646
326299,-1,1.580312975
