iters,price,time
378256,-3306,2.068247792
442763,-378,2.329025409
404360,-132,2.041394421
417663,-1837,2.281872608
405364,-1619,2.125204096
411890,-273,2.305395852
382021,-973,1.992953966
400344,-3306,2.092994049
413647,-3306,1.976528741
411639,-803,2.109887531
