iters,price,time
275597,-2747,1.470728589
36394,55863,.232396791
2258,58256,.022709212
240457,-3867,1.160659502
287143,-5883,1.509217506
1003,40555,.015078289
232927,-5036,1.198825217
3513,46649,.030616097
255517,-4922,1.149171197
265306,-3364,1.323633497
