iters,price,time
1505,77209,.020511988
29115,103453,.200917984
1756,90224,.019087775
2007,92534,.022441063
1254,104695,.015762162
2007,100629,.020732420
7780,102293,.072977703
5270,91910,.045790852
752,101893,.011957369
1505,85342,.016878217
