iters,price,time
256772,-2377,1.406517391
256772,-5675,1.286330357
15812,89311,.108681528
255266,-7267,1.198386433
245226,-5815,1.197786575
248991,-5844,1.162198037
249242,-3200,1.310281606
232174,-2346,1.064261022
265557,-7037,1.214212508
284131,-7267,1.465221965
