iters,price,time
250497,-284,1.375579387
240457,-1714,1.116563555
204815,-128,1.157437855
242967,-299,1.444409907
219624,-284,1.260145026
254764,-432,1.482190466
240457,-1837,1.325049902
245477,-1129,1.412196916
236943,-285,1.356652305
226652,-31,1.066924994
