iters,price,time
244222,0,1.200784727
232174,0,1.414742084
180719,-145,.848510003
170679,-12,.922961265
210086,0,1.211375125
212596,0,1.289797821
245226,0,1.398644564
501,32253,.009364164
253007,0,1.540774575
6525,32893,.053885241
