iters,price,time
64757,7280,.224475523
77307,7280,.245286038
77809,7280,.242534294
77558,7280,.223902106
131523,7280,.349104951
102658,7280,.277043289
90359,7280,.245282872
89606,7280,.194206064
65761,7280,.217808935
58733,7280,.212527056
