iters,price,time
5019,3308,.023627549
13553,3308,.040390506
26605,3308,.084954399
47689,3308,.133025166
5270,3308,.027234578
8784,3308,.035074762
41414,3308,.128996185
32378,3308,.105135109
1003,3275,.015352620
23844,3308,.076531396
