iters,price,time
2007,3231,.017307734
19577,3231,.061843941
51956,3231,.150672631
10290,3231,.040791492
51956,3231,.148058320
80319,3231,.181762115
36143,3231,.110497963
96132,3231,.182494139
40410,3231,.104770578
51705,3231,.152099731
