iters,price,time
110439,3821,.269428136
81574,3821,.175719214
51203,3821,.119061891
93371,3821,.212248197
85339,3821,.153926060
15310,3821,.057360048
78060,3821,.223725899
32127,3821,.106403305
61996,3821,.132232125
44426,3821,.139259167
