iters,price,time
27107,2797,.089802394
41665,2797,.136320701
28362,2797,.095561184
75550,2797,.127244123
43422,2797,.079047244
52709,2797,.157801298
52458,2797,.147612607
41414,2797,.129715411
49948,2797,.161147073
14808,2797,.055673110
