iters,price,time
89355,3553,.198519360
105168,3553,.194311486
62247,3553,.171226540
76303,3553,.179942123
76554,3553,.156110093
85088,3553,.170707968
13302,3553,.047615542
48944,3553,.139026072
71283,3553,.130416733
91865,3553,.185300929
