iters,price,time
40159,3384,.114411786
17820,3384,.059850928
37649,3384,.097242882
7278,3384,.034222366
9537,3384,.038553225
752,2596,.014343804
16816,3384,.058439938
14055,3384,.048971791
26103,3384,.080238122
75550,3384,.174279040
