iters,price,time
54968,2476,.129157734
45430,2476,.132754364
70279,2476,.175221577
37900,2476,.111513592
93371,2476,.148851036
48442,2476,.133741572
64506,2476,.137433224
45681,2476,.086360574
33633,2476,.101670201
73793,2476,.191621651
