iters,price,time
35892,3282,.064894005
24848,3282,.091292990
74797,3282,.137777188
61996,3282,.182183410
66514,3282,.180613312
33884,3282,.108369277
69275,3282,.198043912
59235,3282,.137614010
60239,3282,.120675287
41163,3282,.109541027
