iters,price,time
29366,5570,.091132723
8031,5570,.033668126
12800,5570,.044873932
17820,5570,.037101309
28111,5570,.089216608
7027,5570,.029627571
26856,5570,.082449292
30119,5570,.064325903
3262,5570,.016944510
24346,5570,.078434623
