iters,price,time
78311,2955,.192943178
56474,2955,.158745670
36645,2955,.108046038
28111,2955,.084711204
51705,2955,.117497343
87598,2955,.200406470
70781,2955,.189615778
74797,2955,.178091322
76303,2955,.183451195
43673,2955,.121012663
