iters,price,time
78311,6589,.197668723
752,2304,.016111460
51956,6589,.086888314
48442,6589,.142195204
42920,6589,.127176915
45179,6589,.122645456
25852,6589,.086752960
6023,6589,.029317878
36645,6589,.111456372
46434,6589,.145422658
