iters,price,time
115710,5384,.295116016
91865,5384,.226639433
68773,5384,.190854037
9286,5384,.039049977
63000,5384,.190720892
60239,5384,.158830737
15310,5384,.059072082
9286,5384,.039721931
53211,5384,.114175724
24848,5384,.064429380
