iters,price,time
60741,2866,.170469287
49195,2866,.139763853
6023,2866,.028676733
45430,2866,.073473969
61243,2866,.167387325
55721,2866,.100422765
60239,2866,.169477915
1254,1701,.017529850
41414,2866,.112635754
72287,2866,.127528336
