iters,price,time
27358,3251,.089356055
3011,3251,.021558982
28362,3251,.085110573
17820,3251,.058220849
1756,3195,.018663393
32127,3251,.085228599
59988,3251,.123913532
87347,3251,.190295838
2509,3195,.019788840
59737,3251,.104373273
