iters,price,time
33633,5327,.101235209
14306,5327,.050269799
15059,5327,.049045677
45179,5327,.087883263
14557,5327,.052879978
48693,5327,.107880968
59235,5327,.168291515
38402,5327,.111992442
38904,5327,.111344337
33382,5327,.103038774
