iters,price,time
68020,2651,.174312574
24848,2651,.076518407
36143,2651,.105021512
20581,2651,.064291182
33633,2651,.103872790
23091,2651,.072196960
11545,2651,.043122862
16314,2651,.052060770
47689,2651,.080735078
35390,2651,.094827958
