iters,price,time
65259,6560,.170545818
76303,6560,.171182630
71032,6560,.130508799
78060,6560,.148986034
18322,6560,.061134182
62498,6560,.165078760
59235,6560,.101190944
71283,6560,.204657972
66765,6560,.194246356
82076,6560,.207521962
