iters,price,time
89606,3729,.150999011
55219,3729,.141517212
107176,3729,.268465609
46183,3729,.132638523
26103,3729,.076722848
56474,3729,.116498843
95128,3729,.182364627
49697,3729,.138122743
103662,3729,.157881732
71785,3729,.156815091
