iters,price,time
48191,2707,.103884592
25099,2707,.074332215
27609,2707,.085950200
45932,2707,.091660087
71785,2707,.178453500
72538,2707,.161585933
36143,2707,.081239358
55972,2707,.150947481
48944,2707,.131467733
33131,2707,.095962879
