iters,price,time
55721,4094,.168004045
65259,4094,.147821873
93371,4094,.164381661
99144,4094,.258520185
49446,4094,.167626217
82578,4094,.165547917
78813,4094,.167577509
82076,4094,.150083113
94626,4094,.238408471
73542,4094,.206043698
