iters,price,time
25601,3608,.047740295
23593,3608,.074411160
30370,3608,.067004588
38402,3608,.114871089
36394,3608,.089449503
56725,3608,.113831826
6525,3608,.031814009
55219,3608,.130805366
1254,3411,.017392642
33633,3608,.104033547
