iters,price,time
62247,3334,.127509156
77056,3334,.222466660
26103,3334,.081685536
58231,3334,.103651932
36645,3334,.110052767
75299,3334,.178447684
79817,3334,.180202706
54968,3334,.096340776
15561,3334,.058194744
52709,3334,.112366282
