iters,price,time
30872,3594,.095368311
73291,3594,.175187121
51956,3594,.153083749
22087,3594,.057623361
4517,3594,.024314463
44175,3594,.129614408
89355,3594,.239213522
51454,3594,.090837409
93622,3594,.151429374
83080,3594,.191043400
