iters,price,time
35892,2544,.093874839
20079,2544,.068037438
40410,2544,.117811914
30370,2544,.096056392
46685,2544,.135440222
8282,2544,.038326697
7027,2544,.031932636
56976,2544,.160660577
6776,2544,.026836568
26103,2544,.080981625
