iters,price,time
20832,3490,.071135349
79315,3490,.196368320
29868,3490,.073782167
10792,3490,.041462482
40661,3490,.128798246
14808,3490,.041773141
40912,3490,.086409093
24848,3490,.076809274
57980,3490,.160069913
83080,3490,.199388628
