iters,price,time
90861,3657,.154514065
91363,3657,.150544586
91363,3657,.201125902
38653,3657,.111061402
77307,3657,.219891971
66514,3657,.212937031
69777,3657,.190282794
50450,3657,.153350644
4266,3657,.025572199
71785,3657,.119074431
