iters,price,time
55721,3731,.108116864
22589,3731,.078405802
87849,3731,.260508087
94626,3731,.230960178
31374,3731,.100082023
30370,3731,.097725370
72036,3731,.186705576
43924,3731,.111243119
75801,3731,.149372233
69024,3731,.162479608
