iters,price,time
6776,4259,.032410810
28111,4259,.085524861
26103,4259,.093668109
12047,4259,.047985685
14557,4259,.052928135
16314,4259,.048555014
12298,4259,.039165787
22840,4259,.070040761
8282,4259,.038144594
33633,4259,.112549463
