iters,price,time
89606,2707,.231753791
92367,2707,.182943219
50701,2707,.091897597
91865,2707,.231308874
76554,2707,.191773130
66765,2707,.172763190
90861,2707,.169355225
88602,2707,.160683016
44426,2707,.136988694
80068,2707,.183691855
