iters,price,time
58231,2937,.166690428
31876,2937,.066700144
57980,2937,.126497591
109435,2937,.268709622
74295,2937,.119110304
71032,2937,.195276251
74044,2937,.187204906
14557,2937,.051583883
85088,2937,.234315507
69024,2937,.152887760
