iters,price,time
96132,2757,.189254678
73542,2757,.141715396
77056,2757,.218350491
66765,2757,.122890391
66263,2757,.183845800
83582,2757,.197166152
15812,2757,.060623195
58231,2757,.183237641
1003,2666,.021680680
93873,2757,.222541629
