iters,price,time
14808,2338,.051422099
64004,2338,.168125778
26856,2338,.068796736
78813,2338,.199358029
8282,2338,.039745548
2509,2338,.023447855
1756,2330,.019679506
44426,2338,.102230028
33633,2338,.089411160
64004,2338,.176770370
