iters,price,time
38904,2528,.118212972
56725,2528,.112062377
52709,2528,.149337347
46434,2528,.085197058
36143,2528,.076168893
37900,2528,.111158787
46936,2528,.140615889
40912,2528,.087122948
66012,2528,.169706448
72538,2528,.155817689
