iters,price,time
115961,3665,.252333705
16063,3665,.060265476
82829,3665,.206044435
61243,3665,.177863527
39155,3665,.120052206
67769,3665,.138874617
47689,3665,.140532588
104164,3665,.247206066
104164,3665,.253511061
57980,3665,.129030781
