iters,price,time
92618,2517,.270360063
65510,2517,.139706879
82829,2517,.164331149
25099,2517,.056341975
96634,2517,.207125223
71032,2517,.142053227
88100,2517,.189074994
99144,2517,.209434611
87598,2517,.181934614
75550,2517,.212619303
