iters,price,time
60239,2308,.161065757
18824,2308,.059142989
11545,2308,.041337859
9788,2308,.037152095
3513,2308,.022253956
3764,2308,.022315474
74797,2308,.200966306
36394,2308,.103903168
36896,2308,.108688913
36394,2308,.069803342
