iters,price,time
72789,3199,.219816155
41163,3199,.130941466
42418,3199,.125233547
51705,3199,.146606042
37398,3199,.078407030
6274,3199,.027962406
58984,3199,.158255713
49948,3199,.117969220
44677,3199,.136293134
45932,3199,.136322705
