iters,price,time
4015,3350,.023603873
79817,3350,.204754443
64004,3350,.154366297
76554,3350,.207512478
80319,3350,.185490737
69777,3350,.121640083
45179,3350,.089668061
100399,3350,.224911392
64255,3350,.182176307
81574,3350,.193126654
