iters,price,time
103913,4206,.282897257
121985,4206,.274012996
141814,4206,.242513865
126001,4206,.275764818
106172,4206,.231127513
96383,4206,.206345796
100148,4206,.233645791
101403,4206,.187906333
105921,4206,.186394681
92367,4206,.211889352
