iters,price,time
41665,6451,.120872364
18071,6451,.060825662
65510,6451,.114541850
87598,6451,.231453597
64255,6451,.162175305
32378,6451,.064445692
41665,6451,.086426180
67016,6451,.190186965
59486,6451,.171013522
40410,6451,.123478014
