iters,price,time
48442,2809,.082435085
50450,2809,.095703548
63502,2809,.160272550
41665,2809,.120610724
55972,2809,.127028791
60992,2809,.129346811
74797,2809,.161016028
23844,2809,.071846510
23844,2809,.070285453
13804,2809,.037788963
