iters,price,time
89857,3429,.165681382
26605,3429,.060005278
78060,3429,.204160246
54717,3429,.164777237
83582,3429,.154838185
47187,3429,.145999451
78813,3429,.139944729
25350,3429,.087072296
83331,3429,.139717690
22338,3429,.075000399
