iters,price,time
54968,3089,.159746253
30119,3089,.078363512
38653,3089,.098681258
9788,3089,.037529518
12549,3089,.045948719
41665,3089,.113396128
44175,3089,.131726908
18071,3089,.063302195
23593,3089,.086399394
5270,3089,.036027364
