iters,price,time
36896,6936,.114239010
66263,6936,.192278306
71785,6936,.169702048
31625,6936,.099761184
96383,6936,.184586878
77307,6936,.173602525
81323,6936,.133008490
22840,6936,.074191596
48191,6936,.119816449
55721,6936,.169207523
