iters,price,time
71283,6778,.190013884
80319,6778,.190639902
77558,6778,.167815305
54717,6778,.157393829
94877,6778,.172053137
90359,6778,.226582208
68271,6778,.129176646
66263,6778,.197779531
66765,6778,.125391018
72036,6778,.180121626
