iters,price,time
20581,2461,.066855468
49446,2461,.143695389
48944,2461,.137710195
14557,2461,.050574758
45681,2461,.090236058
58984,2461,.169514199
43924,2461,.114419706
78562,2461,.202296842
34135,2461,.100549833
36645,2461,.107108825
