iters,price,time
93622,3225,.230998446
87598,3225,.137715199
51956,3225,.146341104
67016,3225,.168468118
100901,3225,.211546270
75048,3225,.180360914
90861,3225,.160533659
87347,3225,.145363074
53211,3225,.146019635
85841,3225,.136942041
