iters,price,time
45932,3699,.089140492
24597,3699,.083037272
81574,3699,.184211675
63753,3699,.229256283
15059,3699,.055565951
61494,3699,.182707172
72789,3699,.177371875
29115,3699,.063154928
42167,3699,.105486025
53964,3699,.103911574
