iters,price,time
103913,3530,.180026674
77056,3530,.179627501
54466,3530,.093052937
75801,3530,.141433561
56725,3530,.120974410
100901,3530,.240414489
80319,3530,.222332688
69024,3530,.172387486
53713,3530,.103615558
87598,3530,.138938494
