iters,price,time
87096,7707,.165922043
75299,7707,.221522579
69275,7707,.188726812
17318,7707,.061322036
64255,7707,.161424334
15059,7707,.055639055
63251,7707,.181725714
92618,7707,.215426016
77809,7707,.190698980
53211,7707,.147589984
