iters,price,time
41414,5746,.121926917
5270,5746,.026778816
57729,5746,.169395137
47438,5746,.135215347
18071,5746,.058928583
52960,5746,.122874475
56725,5746,.164324161
43924,5746,.091028124
72789,5746,.193726622
49697,5746,.139975708
