iters,price,time
42167,5675,.141734874
49195,5675,.187075007
82829,5675,.212662070
19326,5675,.100757961
87598,5675,.239102945
55470,5675,.238385547
20832,5675,.094241431
81825,5675,.220180552
31123,5675,.075329768
7780,5675,.042945763
