iters,price,time
65008,4347,.176280182
77056,4347,.143123760
74546,4347,.169867910
70028,4347,.167161003
103913,4347,.242782444
54968,4347,.168367371
92869,4347,.197199775
68020,4347,.125700691
77558,4347,.161325545
60741,4347,.172276704
