iters,price,time
62247,2542,.109053861
63000,2542,.161110934
89857,2542,.225422244
33382,2542,.099686852
49697,2542,.136951884
70530,2542,.195648198
27860,2542,.066396560
68773,2542,.177360419
25852,2542,.081003897
38653,2438,.120010220
