iters,price,time
47940,3030,.142445854
4517,3030,.025909665
10792,3030,.041438446
25601,3030,.063016549
15812,2980,.053933989
18573,3030,.064445437
70028,3030,.172710324
47438,3030,.118578902
87598,3030,.215214708
19828,3030,.065096362
