iters,price,time
81825,3013,.202424931
63000,3013,.170832802
59235,3013,.170827171
63753,3013,.161678706
68020,3013,.132808402
86845,3013,.152298030
30370,3013,.091127499
96383,3013,.192800926
29617,3013,.093888008
65510,3013,.158353319
