iters,price,time
108682,3884,.204867329
81072,3884,.216416577
107929,3884,.198457101
59737,3884,.108445793
110690,3884,.220896627
91614,3884,.232857067
93622,3884,.169070566
75801,3884,.207011786
96885,3884,.165663017
92618,3884,.217461396
