iters,price,time
70028,2498,.125061858
30621,2498,.072907569
68773,2498,.196222085
63251,2498,.133420744
64255,2498,.129430526
66263,2498,.173190572
68020,2498,.192767422
54968,2498,.161591428
71032,2498,.131358444
18573,2498,.056962587
