iters,price,time
94124,3053,.160264550
114455,3053,.215000688
60741,3053,.098489312
87096,3053,.210258532
89857,3053,.203254638
91865,3053,.256441609
113200,3053,.184496555
121483,3053,.223928081
106172,3053,.220303762
100650,3053,.206024847
