iters,price,time
18071,3919,.061992585
76052,3919,.211037717
71534,3919,.195773913
87096,3919,.163694100
96885,3919,.229871175
81825,3919,.153329399
69024,3919,.144594149
21334,3919,.073594113
50952,3919,.141199946
73793,3919,.124857889
