iters,price,time
107176,6990,.189063105
102909,6990,.170545457
88853,6990,.165627845
77307,6990,.144279266
85088,6990,.183166116
36645,6990,.121050275
74044,6990,.149865141
35390,6990,.108830459
70028,6990,.117433947
103662,6990,.244320531
