iters,price,time
70781,3464,.204837490
50952,3464,.135476767
53713,3464,.104101487
58733,3464,.094917774
81072,3464,.199537503
62498,3464,.108598018
80319,3464,.154927992
59235,3464,.105875592
64506,3464,.187599445
82327,3464,.184273624
