iters,price,time
89104,3894,.202491178
59988,3894,.114580963
93120,3894,.191438465
28111,3894,.082105986
110941,3894,.209559530
94877,3894,.207012717
83080,3894,.172039119
94375,3894,.233620833
77307,3894,.186236518
30370,3894,.099971933
