iters,price,time
34386,2134,.100783821
53964,2134,.155185183
46183,2134,.110479443
54215,2134,.125839175
57478,2134,.161869941
51705,2134,.124160384
72538,2134,.150483870
72538,2134,.131450786
36896,2134,.107334562
75299,2134,.225579405
