iters,price,time
8282,7105,.046371618
81072,7105,.241134661
69275,7105,.214981927
23091,7105,.096880123
71534,7105,.158660843
33633,7105,.127215127
62498,7105,.180103010
59737,7105,.186480060
33633,7105,.128520185
78813,7105,.249945838
