iters,price,time
49697,4641,.111533740
76303,4641,.222471188
32629,4641,.075128828
59486,4641,.137254533
33382,4641,.098615763
53713,4641,.150809699
76303,4641,.212145602
71032,4641,.164257548
25350,4641,.107912703
46936,4641,.145708104
