iters,price,time
62247,2306,.144160869
40159,2306,.117682777
55470,2306,.154911384
51956,2306,.143778873
63502,2306,.122741179
80821,2306,.131778297
40912,2306,.116446754
48442,2306,.135740031
77056,2306,.166972141
105419,2306,.228507677
