iters,price,time
97638,3488,.265873381
63000,3488,.180686422
65008,3488,.138483092
100148,3488,.205537065
83582,3488,.202872157
78060,3488,.129584730
98893,3488,.194495262
68271,3488,.140075294
57980,3488,.127242225
90861,3488,.217678491
