iters,price,time
39908,3983,.083293727
47689,3983,.137011668
78562,3983,.130371230
9537,3983,.039849907
85088,3983,.226202557
45179,3983,.138515550
54968,3983,.112014389
64506,3983,.134824328
104415,3983,.214840057
54717,3983,.129031808
