iters,price,time
63000,3207,.109133774
25350,3207,.078755616
43171,3207,.124986619
78060,3207,.197232618
63000,3207,.169677517
76805,3207,.164200179
47689,3207,.138986787
64255,3207,.176779151
44677,3207,.095535035
6274,3207,.029135540
