iters,price,time
14557,2480,.048919497
75048,2480,.158196775
2258,2480,.019844477
53462,2480,.092959618
12800,2480,.043321227
48191,2480,.137804394
9286,2480,.037863987
36896,2480,.104533418
27107,2480,.050935583
34386,2480,.104537386
