iters,price,time
67016,5135,.128376604
64506,5135,.169426121
56223,5135,.162689238
70781,5135,.126902795
30872,5135,.074253925
57729,5135,.123457915
63251,5135,.175098888
27358,5135,.074261880
91614,5135,.228630132
81574,5135,.148955105
