iters,price,time
56223,3738,.112189720
49697,3738,.123973451
26103,3738,.085911265
36645,3738,.116499650
27860,3738,.090223469
70781,3738,.155406783
67016,3738,.117773777
50952,3738,.115898079
89857,3738,.210826944
68271,3738,.147954291
