iters,price,time
80821,2198,.138320843
91865,2198,.208679366
51956,2198,.139443901
31123,2198,.098649152
57980,2198,.122083165
53713,2198,.135218648
16565,2198,.056614706
53462,2198,.113389069
90108,2198,.228376771
44928,2198,.097563200
