iters,price,time
99144,8047,.171359354
89857,8047,.217184686
74797,8047,.193728916
110439,8047,.234087636
87598,8047,.225361573
104917,8047,.211733093
82578,8047,.183714544
119224,8047,.279028130
118471,8047,.218575541
98140,8047,.172314025
