iters,price,time
99897,7948,.190314941
82327,7948,.163975790
47438,7948,.178771208
78311,7948,.182765649
104164,7948,.218016964
78311,7948,.178585071
115961,7948,.266215435
106423,7948,.264317104
92618,7948,.175882353
48944,7948,.141702993
