iters,price,time
34135,2843,.076801954
35139,2843,.103051584
73040,2843,.114103872
54717,2843,.157337697
58984,2843,.112877591
94626,2843,.213556300
53211,2843,.138097070
31625,2843,.088471958
92367,2843,.258666860
39155,2843,.082612980
