iters,price,time
74295,4192,.178542134
104917,4192,.187719511
92869,4192,.150675326
48191,4192,.138255608
45932,4192,.134118614
102658,4192,.175643600
71534,4192,.164530646
65259,4192,.116213071
73793,4192,.180055339
50701,4192,.110359594
