iters,price,time
41665,4098,.126539871
80319,4098,.208437608
76554,4098,.196387581
50450,4098,.110151896
47689,4098,.125911479
39155,4098,.111023399
51454,4098,.109276772
41665,4098,.104381578
32880,4098,.100422710
51705,4098,.154960494
