iters,price,time
92116,3194,.180168956
86343,3194,.218196486
68522,3194,.191957061
59737,3194,.149938838
59737,3194,.173021483
116212,3194,.253382621
58733,3194,.176163094
94877,3194,.183177417
72287,3194,.181665685
99144,3194,.214041389
