iters,price,time
89606,3664,.222326007
30872,3664,.101526958
53964,3664,.121537331
54215,3664,.161160920
36645,3664,.114795294
70279,3664,.209806336
22589,3664,.075093662
78813,3664,.162554176
69526,3664,.171798925
76805,3664,.139445815
