iters,price,time
73542,3007,.148250778
74044,3007,.138698815
62749,3007,.184053428
75801,3007,.202323036
85339,3007,.132489492
81072,3007,.190274759
52207,3007,.132992269
87849,3007,.217071058
71534,3007,.131927136
79566,3007,.218179013
