iters,price,time
86845,3296,.195012672
88351,3296,.151941269
74044,3296,.122062711
107427,3296,.246563707
109435,3296,.250264948
81072,3296,.174493585
52960,3296,.091921783
67518,3296,.196166264
22087,3296,.073478802
34135,3296,.103987534
