iters,price,time
3513,3342,.022452606
86845,3342,.210481649
48944,3342,.111369841
55219,3342,.143835833
53964,3342,.135237479
56474,3342,.152093685
54968,3342,.124690193
50952,3342,.113012258
61494,3342,.165108036
78060,3342,.171612513
