iters,price,time
36645,2608,.086800316
29115,2608,.088764292
39908,2608,.089671268
2007,2516,.015934316
59486,2608,.147299463
23844,2608,.077011615
73040,2608,.197447350
45932,2608,.130920737
44426,2608,.084090081
61494,2608,.108280517
