iters,price,time
51203,3353,.150915977
14808,3353,.055770568
19326,3353,.067036909
25601,3353,.082742599
33633,3353,.103407274
49948,3353,.146704806
36645,3353,.113420344
49446,3353,.149897208
59235,3353,.172945358
85339,3353,.227014049
