iters,price,time
67016,2646,.158540923
7027,2611,.030997321
21585,2646,.064757358
29115,2646,.097769750
2509,2646,.019806775
35139,2646,.074807104
36645,2646,.090211746
13553,2646,.047451513
6274,2646,.028174161
22087,2646,.052549782
