iters,price,time
37900,4279,.078364634
26605,4279,.085723361
84084,4279,.225926609
56725,4279,.117519942
37649,4279,.096199215
17067,4279,.038664904
59486,4279,.128533314
78311,4279,.137484036
100901,4279,.218613545
49195,4279,.142133371
