iters,price,time
22840,7361,.082238063
80821,7361,.158303293
125248,7361,.265037592
64757,7361,.191215964
36896,7361,.121302146
30119,7361,.101150186
44426,7361,.150888514
48944,7361,.132692917
45179,7361,.148372892
84837,7361,.163244731
