iters,price,time
52960,3829,.125355616
124997,3829,.264084018
93622,3829,.193052932
69024,3829,.128461862
91363,3829,.235455623
102156,3829,.229798792
92367,3829,.230527180
104917,3829,.226442065
82076,3829,.189964580
93120,3829,.192492872
