iters,price,time
57980,3627,.152664361
48693,3627,.124952605
83331,3627,.172084196
62498,3627,.177420313
18573,3627,.061752931
32880,3627,.063198016
59737,3627,.125783028
67016,3627,.197889240
39908,3627,.117485134
77056,3627,.187197968
