iters,price,time
52709,3032,.129447909
17820,3032,.060143116
57980,3032,.143709180
69526,3032,.176823001
82327,3032,.129602660
54717,3032,.159455903
77307,3032,.200011965
97889,3032,.189505117
22087,3032,.042746778
64255,3032,.126216969
