iters,price,time
94124,6983,.221342385
94626,6983,.227274477
100148,6983,.266518900
70028,6983,.150433068
69275,6983,.186852547
75801,6983,.169246833
52960,6983,.168956798
88602,6983,.244166186
51956,6983,.154219622
74044,6983,.116254966
