iters,price,time
95128,3997,.222738837
44677,3997,.142036887
77056,3997,.175364621
71283,3997,.177460124
109686,3997,.248461798
80570,3997,.151362701
86845,3997,.159268053
101152,3997,.233585836
67518,3997,.185556172
66514,3997,.175529962
