iters,price,time
16565,3207,.057314060
33633,3207,.100367980
44175,3207,.126547846
54466,3207,.130593265
45681,3207,.133935188
14808,3207,.049724771
15310,3207,.035194476
28111,3207,.086746162
41665,3207,.122003013
61243,3207,.115948064
