iters,price,time
85841,3300,.233948234
106674,3300,.241547321
62247,3300,.208489432
66012,3300,.221774527
26605,3300,.093287971
61745,3300,.131695274
81825,3300,.190982482
47187,3300,.152326800
86845,3300,.241312391
94375,3300,.221875440
