iters,price,time
82829,3740,.250497071
88853,3740,.198022399
83080,3740,.156403624
84335,3740,.214901154
85088,3740,.194916969
65008,3740,.129458990
76303,3740,.196776090
59486,3740,.108107060
81825,3740,.215218114
50701,3740,.155499821
