iters,price,time
40661,2952,.119247766
63251,2952,.186047767
23844,2952,.077463179
89104,2952,.184564159
38151,2952,.121909213
49195,2952,.121743461
35892,2952,.090180557
37900,2952,.116504298
31876,2952,.092664209
63753,2952,.168594100
