iters,price,time
13051,7156,.036829474
79817,7156,.209632544
24346,7156,.081227485
12800,7156,.047945768
21585,7156,.071381014
27609,7156,.070043520
62247,7156,.160352287
53211,7156,.096682465
92618,7156,.215177787
42418,7156,.130172991
