iters,price,time
54466,2450,.154702069
40912,2450,.122181874
47940,2450,.134442673
34637,2450,.091662436
83582,2450,.219524963
48693,2450,.136305487
93873,2450,.235514140
82578,2450,.205801901
34135,2450,.106135182
87598,2450,.237524004
