iters,price,time
42920,3620,.124182446
102658,3620,.219543208
73793,3620,.175385932
80068,3620,.211912781
17569,3620,.062619339
38402,3620,.087979897
46685,3620,.093520411
56474,3620,.182097796
98893,3620,.223166784
34135,3620,.108527770
