iters,price,time
64255,1818,.172274199
25099,1818,.062405574
1254,1738,.015805946
1505,1818,.015281112
9788,1818,.036907747
50450,1818,.128130814
47689,1818,.137939923
73291,1818,.209595653
2007,1818,.018543763
9537,1818,.035850746
