iters,price,time
64757,4034,.212652882
71283,4034,.176042181
66765,4034,.168843881
113953,4034,.312343161
78813,4034,.241975516
104415,4034,.245357540
47940,4034,.155172625
97387,4034,.250424473
123240,4034,.228789556
84837,4034,.255291794
