iters,price,time
74295,2973,.116666414
86845,2973,.183455504
47940,2973,.143464357
38653,2973,.094784890
18071,2973,.063064890
18071,2973,.060968671
44175,2973,.126816917
4768,2973,.025501713
63753,2973,.122998672
32629,2973,.088448448
