iters,price,time
40159,8227,.133473479
65008,8227,.169099151
22338,8227,.061501991
44175,8227,.140910060
68271,8227,.209305283
93622,8227,.200034763
59988,8227,.124862061
65008,8227,.185641906
80821,8227,.192541194
74295,8227,.228488259
