iters,price,time
8282,3530,.035389498
50199,3530,.088588081
33633,3530,.106737119
72036,3530,.176035629
15059,3530,.054117520
54968,3530,.160849364
90610,3530,.213928923
752,3307,.014214717
33382,3530,.070789763
39406,3530,.099329899
