iters,price,time
51956,2754,.112438405
57729,2754,.162258018
53211,2754,.143280801
24095,2754,.055270270
61996,2754,.169105096
24597,2754,.081056112
51956,2754,.148675395
34135,2754,.092778392
94877,2754,.211509159
40661,2754,.117576480
