iters,price,time
83833,2313,.182293451
35139,2313,.101256851
73793,2313,.195118875
40661,2313,.117452678
42669,2313,.075765557
81825,2313,.214444414
5772,2301,.026486012
46685,2313,.075835816
71283,2313,.125879528
12549,2313,.046179489
