iters,price,time
89355,4249,.157383534
29617,4249,.093498429
68522,4249,.208992339
31123,4249,.101572108
19828,4249,.069993525
83331,4249,.206500683
38402,4249,.124363116
72287,4249,.195248934
30119,4249,.099681868
94626,4249,.183178459
