iters,price,time
71283,6585,.190033768
68522,6585,.138911492
30119,6585,.099465979
89857,6585,.194076405
76052,6585,.230778230
51454,6585,.140834892
83833,6585,.156458128
57729,6585,.174822308
54717,6585,.129612528
39657,6585,.111449319
