iters,price,time
108682,7025,.229099649
41916,7025,.127074519
71785,7025,.181794271
67016,7025,.149652444
33382,7025,.099055263
41916,7025,.129029558
77307,7025,.159145746
88100,7025,.166179585
62749,7025,.177909504
60992,7025,.133363730
