iters,price,time
92869,3947,.169758557
48442,3947,.148895301
93622,3947,.219705804
95128,3947,.215792589
59988,3947,.152917666
47438,3947,.132416413
76805,3947,.135662889
102658,3947,.179370043
66263,3947,.189483470
75801,3947,.147701914
