iters,price,time
51705,4144,.086280636
31374,4144,.080809295
51956,4144,.155164153
29115,4144,.077860590
26605,4144,.064660453
14306,4144,.052142406
24095,4144,.065742969
30621,4144,.095772795
75801,4144,.146651188
80319,4144,.142751758
