iters,price,time
71032,4077,.135886656
105168,4077,.248816929
103160,4077,.244735114
84837,4077,.142181072
86092,4077,.179402746
77307,4077,.145172770
61494,4077,.161564994
89857,4077,.206401108
40159,4077,.130987434
76052,4077,.193848220
