iters,price,time
6776,6303,.031175723
30872,6303,.065647802
47187,6303,.138304841
40912,6303,.125643061
2509,6221,.019388284
38904,6303,.114285079
36645,6303,.110489502
27860,6303,.058742126
42920,6303,.097179125
36645,6303,.110042332
