iters,price,time
61243,2988,.179529067
74044,2988,.123921006
108180,2988,.284480340
65259,2988,.169347290
64004,2988,.113286107
75801,2988,.165617245
80319,2988,.233729951
96132,2988,.197252827
49948,2988,.149647545
87096,2988,.219961579
