iters,price,time
60490,3343,.102519666
43673,3343,.112573378
59737,3343,.157785091
47689,3343,.136465599
50199,3343,.156847093
73542,3343,.117089298
28362,3343,.086002936
59486,3343,.167022148
56223,3343,.169565473
46434,3343,.133822808
