iters,price,time
44928,4605,.085280008
71785,4605,.188337437
55219,4605,.153392064
99144,4605,.283226912
6274,4407,.029870682
67518,4605,.111271338
81072,4605,.204647492
22087,4605,.072308553
83080,4605,.128281438
55470,4605,.152386530
