iters,price,time
78311,2734,.133173501
61996,2734,.161187120
19075,2734,.048765537
35641,2734,.111255162
3513,2734,.023809252
52709,2734,.099981441
25099,2734,.077010648
12800,2734,.043622603
55721,2734,.163002848
27107,2734,.084490352
