iters,price,time
56474,2900,.154309619
78311,2900,.211900803
65761,2900,.168653082
73040,2900,.126085406
83833,2900,.152114890
107427,2900,.239207295
47187,2900,.102706935
93371,2900,.216838825
77056,2900,.182084987
83582,2900,.198846933
