iters,price,time
59235,3709,.178876624
32127,3709,.098383474
55470,3709,.165240799
55721,3709,.147762494
11294,3709,.045300729
68773,3709,.145902537
20079,3709,.065952073
35390,3709,.066033059
84084,3709,.188675264
94124,3709,.262992259
