iters,price,time
56223,5876,.157996001
78311,5876,.175711424
100650,5876,.235458002
68522,5876,.191342512
85088,5876,.168568721
39155,5876,.112830776
50199,5876,.138009773
45430,5876,.104221306
77558,5876,.135046694
76052,5876,.142833861
