iters,price,time
70279,3067,.197845386
50199,3067,.141417487
60490,3067,.165632864
30370,3067,.094691051
43673,3067,.125743297
38653,3067,.113164009
60490,3067,.158027220
31625,3067,.073442143
54717,3067,.147387987
32629,3067,.097466240
