iters,price,time
80570,3857,.187631973
69526,3857,.193281846
87598,3857,.215900089
82327,3857,.139811909
29868,3857,.079062854
82578,3857,.168275971
97638,3857,.195375967
51705,3857,.156486879
98140,3857,.179359718
117216,3857,.238063301
