iters,price,time
40159,2821,.115444360
74044,2821,.182926175
30872,2821,.089059257
52207,2821,.149982705
26605,2821,.085028242
9537,2770,.035272420
83331,2821,.124063188
3011,2821,.020561768
33884,2821,.060764445
45179,2821,.082327044
