iters,price,time
68522,7177,.193997289
62749,7177,.165364381
4517,7177,.025199892
31123,7177,.106490201
47187,7177,.150669600
13302,7177,.050449597
49697,7177,.147587510
17820,7177,.059072137
14055,7177,.051781546
68020,7177,.158127683
