iters,price,time
62498,7295,.126389443
55219,7295,.128625912
82578,7295,.215745328
50450,7295,.158389213
1003,6748,.017748913
102658,7295,.213200785
99646,7295,.251449820
92618,7295,.197564278
85590,7295,.194522379
74295,7295,.131422415
