iters,price,time
8533,2765,.031725649
63753,2768,.157220557
63000,2768,.188445449
75801,2768,.192492827
90108,2768,.177390922
76303,2768,.203765205
54466,2768,.174980462
79817,2768,.225656377
72789,2768,.209823469
21334,2768,.072407663
