iters,price,time
74797,2743,.110854611
69024,2743,.112579376
65761,2743,.161756784
84586,2743,.156700828
55470,2743,.149044917
56725,2743,.123239107
80570,2743,.135808045
82327,2743,.161040515
46434,2743,.110222973
64506,2743,.152156434
