iters,price,time
43673,2741,.111892801
85841,2741,.145531667
63251,2741,.163884765
87598,2741,.227184390
78813,2741,.133499183
65259,2741,.173987141
49948,2741,.144344922
46685,2741,.140807314
65259,2741,.118154906
35139,2741,.102329061
