iters,price,time
20079,2794,.067364220
46183,2794,.135426857
98391,2794,.226479607
43924,2794,.135597198
30872,2794,.098142734
47187,2794,.140004544
75048,2794,.212140102
12800,2794,.047065053
61494,2794,.120230026
46936,2794,.140601621
