iters,price,time
37147,2785,.066922320
26103,2785,.079190874
33884,2785,.101411191
1003,2785,.016341070
34888,2785,.071195204
7027,2785,.041681415
23593,2785,.096146725
18071,2785,.060177061
10290,2785,.039833800
1756,1360,.019002216
