iters,price,time
30621,2468,.095018396
100148,2468,.171157012
25350,2468,.080169035
73542,2468,.206116077
65761,2468,.170963923
51454,2468,.142438238
104666,2468,.218351929
44677,2468,.127798429
41665,2468,.118371350
39657,2468,.114305242
