iters,price,time
25350,9295,.093348056
52709,9295,.139768631
51454,9295,.167890223
26605,9295,.084701496
53462,9295,.133085988
53713,9295,.100904943
64255,9295,.147011037
3262,8993,.024832248
57729,9295,.109400725
36143,9295,.118757037
