iters,price,time
44175,7158,.135120450
42418,7158,.131865609
49446,7158,.121150291
51454,7158,.124987162
48944,7158,.152531482
89606,7158,.156125037
50701,7158,.093078045
69024,7158,.186878902
21585,7158,.070625599
26605,7158,.084206554
