iters,price,time
60741,2969,.147328738
60741,2969,.109145871
10792,2969,.041067920
71283,2969,.150438288
75299,2969,.154197243
78311,2969,.145554125
2258,2969,.018823153
67267,2969,.159713011
46183,2969,.137831983
27358,2969,.068746495
