iters,price,time
77307,3067,.156820237
88853,3067,.159721801
23342,3067,.078907122
99144,3067,.231729210
92116,3067,.174980701
103662,3067,.255710891
102156,3067,.229825713
100399,3067,.207918971
76303,3067,.150909665
84837,3067,.232182286
