iters,price,time
30872,3121,.088016096
24346,3121,.076774447
77558,3121,.186627562
40159,3121,.124455999
24346,3121,.079834190
69024,3121,.190477872
27358,3121,.074414602
15812,3121,.058731832
22589,3121,.092462768
46685,3121,.102763732
