iters,price,time
51203,3468,.160345159
74546,3468,.182837046
83582,3468,.164469604
62749,3468,.191086196
98391,3468,.210329513
100901,3468,.195199399
97889,3468,.194617901
123993,3468,.224627174
117969,3468,.300844644
98642,3468,.242190982
