iters,price,time
35390,3958,.096846865
107427,3958,.238345587
76805,3958,.199012844
42167,3958,.101540112
109686,3958,.224239392
75801,3958,.205008094
39657,3958,.129346269
74546,3958,.190919096
57227,3958,.165184482
86092,3958,.154816568
