iters,price,time
72036,8786,.183952540
86092,8786,.194752664
107678,8786,.292128916
21585,8786,.061022704
88100,8786,.161058795
78311,8786,.157632525
73542,8786,.204061036
97136,8786,.215136700
96634,8786,.173026313
101654,8786,.218528016
