iters,price,time
59235,2352,.172808661
4015,2352,.023391126
83080,2352,.190830618
15561,2352,.061149081
18071,2352,.077737965
67267,2352,.175305568
58231,2352,.224679834
30872,2352,.062281176
43924,2352,.099372577
22589,2352,.080259975
