iters,price,time
35641,6901,.085556882
100399,6901,.217729479
103411,6901,.188834497
48693,6901,.147908528
43924,6901,.138570891
87849,6901,.163092951
41414,6901,.126967830
45932,6901,.146490635
55721,6901,.113843263
73291,6901,.149557533
