iters,price,time
103160,5891,.260867049
101152,5891,.168468784
51705,5891,.086239342
50701,5891,.150865460
80068,5891,.133058520
64506,5891,.183736371
75048,5891,.178579907
87598,5891,.240763882
60490,5891,.096777627
104415,5891,.210598196
