iters,price,time
8784,2564,.036672948
17820,2564,.050223004
29617,2564,.087246144
49446,2564,.141727159
21083,2564,.066838175
3011,2564,.017575646
19075,2564,.057288731
40159,2564,.118033058
32880,2564,.095559632
20581,2564,.063785183
