iters,price,time
18071,2196,.057651385
30119,2196,.087664970
17820,2196,.056453398
45681,2196,.079622160
9537,2196,.034448859
7529,2196,.032272201
34135,2196,.093131877
10541,2196,.038374429
11545,2196,.039433550
7529,2196,.030700474
