iters,price,time
51454,2874,.118093698
39908,2874,.121792325
74044,2874,.203760501
85088,2874,.181058538
88100,2874,.184984523
89857,2874,.212839334
72789,2874,.124189645
71785,2874,.184849610
57227,2874,.167602683
69024,2874,.187180840
