iters,price,time
62498,4296,.199603494
94877,4296,.176198657
56725,4296,.177594713
69275,4296,.167487999
78813,4296,.180301024
49195,4296,.146813138
36896,4296,.091983326
32378,4296,.104811084
76052,4296,.219555807
77307,4296,.199533821
