iters,price,time
83080,3335,.142863227
80319,3335,.145938946
70279,3335,.207066942
76805,3335,.166244309
73291,3335,.154096621
83331,3335,.142518057
76554,3335,.176302810
66263,3335,.185144895
84837,3335,.148396872
10290,3264,.031156126
