iters,price,time
65259,3666,.159975818
43422,3666,.103153599
23593,3666,.072582854
54968,3666,.149235090
71032,3666,.156309474
26856,3666,.081322713
46183,3666,.114830266
61996,3666,.176626109
33382,3666,.099389363
46183,3666,.102047978
