iters,price,time
55721,7423,.113642083
14306,7423,.051365054
50450,7423,.117575578
68271,7423,.171727227
81825,7423,.156569922
98642,7423,.183556532
35641,7423,.111184642
13804,7423,.053146968
9537,7423,.041011773
3262,7423,.023850550
