iters,price,time
87096,5583,.138283892
47689,5583,.135957116
63000,5583,.187095071
57729,5583,.115688293
45932,5583,.127239811
56223,5583,.157034481
19326,5583,.066583487
69024,5583,.185115559
8784,5583,.040404648
43924,5583,.130145403
