iters,price,time
77558,3115,.119098000
67769,3115,.163053925
33382,3115,.095767640
58984,3115,.136757176
68773,3115,.168410063
22338,3115,.066965883
29366,3115,.085878933
75299,3115,.188227512
44175,3115,.112158485
80570,3115,.220557348
