iters,price,time
40912,3812,.097676051
70530,3812,.205063725
97638,3812,.213154296
48944,3812,.124400915
126001,3812,.222363799
103913,3812,.176657595
66012,3812,.141475578
129515,3812,.305980789
61996,3812,.205412326
35892,3812,.119584835
