iters,price,time
45179,4183,.125597257
14306,4183,.054299513
35641,4183,.106862083
4015,4183,.023674253
55470,4183,.145633236
40159,4183,.093237409
31374,4183,.055905439
40661,4183,.114167012
68773,4183,.188225538
18071,4183,.060794117
