iters,price,time
25099,2772,.081769357
14557,2772,.051371657
72287,2772,.180358418
23342,2772,.075297782
115208,2772,.184705099
93622,2772,.156356890
49446,2772,.110563189
18071,2772,.065075402
56474,2772,.156728466
16063,2772,.059637810
