iters,price,time
82829,5366,.207806711
86845,5366,.185269729
49446,5366,.144321727
30872,5366,.115318450
53713,5366,.162819332
74797,5366,.142839005
26856,5366,.089893267
61494,5366,.198218529
64255,5366,.192444574
80570,5366,.228569525
