iters,price,time
71534,3791,.207017753
46434,3791,.091636422
46183,3791,.115628393
98642,3791,.214904644
55721,3791,.179602012
96132,3791,.170985819
101905,3791,.163268366
78813,3791,.171793114
72789,3791,.147730543
82829,3791,.170464562
