iters,price,time
12298,3684,.044144763
8533,3684,.036673494
44175,3684,.074704637
4266,3575,.022958118
36896,3684,.072921311
29868,3684,.092908096
42669,3684,.123154705
29868,3684,.070242251
53964,3684,.103647779
26354,3684,.084066692
