iters,price,time
68522,3543,.183438286
103913,3543,.190676827
40410,3543,.121940788
98893,3543,.220472827
103160,3543,.216878300
59235,3543,.150260989
103160,3543,.237229286
26354,3543,.089632915
36896,3543,.117423226
43171,3543,.130467279
