iters,price,time
32629,2502,.100360165
33131,2502,.088572526
33382,2502,.075916290
35139,2502,.070670715
49195,2502,.138469321
14808,2502,.049893199
63502,2502,.153300178
58482,2502,.138676573
12549,2502,.037049339
14808,2502,.053666472
