iters,price,time
31625,2869,.088041725
19326,2869,.065728977
36645,2869,.112001840
76805,2869,.182517309
67267,2869,.155261269
81574,2869,.196995214
48944,2869,.112463288
4266,2814,.025116843
51705,2869,.083029503
61996,2869,.099732455
