iters,price,time
75048,6120,.140258619
57980,6120,.099380241
105670,6120,.183128163
68773,6120,.207850490
64506,6120,.196122836
85590,6120,.195009856
28111,6120,.096566127
35892,6120,.091888285
51705,6120,.169772188
44175,6120,.145659020
