iters,price,time
107427,3129,.215472626
45430,3129,.128728853
86594,3129,.158913340
4517,3129,.025873726
71785,3129,.152022514
49697,3129,.146312290
78060,3129,.192620826
101403,3129,.230532615
91614,3129,.232209979
103913,3129,.158382911
