iters,price,time
66514,2458,.098926619
17067,2458,.055020708
45932,2458,.099251460
55470,2458,.097906778
6274,2458,.028686380
31876,2458,.094185118
4266,2425,.021056555
44426,2458,.131936114
1505,2458,.016594179
42418,2458,.090294355
