iters,price,time
97387,8374,.190945963
104666,8374,.191858483
82829,8374,.192800681
88853,8374,.227727169
57980,8374,.127468562
95881,8374,.251245514
97136,8374,.169532749
106925,8374,.211238812
101403,8374,.223469875
60992,8374,.155363565
