iters,price,time
42669,3484,.128977549
34888,3484,.099956399
49948,3484,.155215707
60992,3484,.153380712
69526,3484,.175419616
89857,3484,.170001612
92367,3484,.158195698
66765,3484,.183212319
35892,3484,.113309513
63251,3484,.128034480
