iters,price,time
69777,2523,.139800828
51956,2523,.079696316
16063,2523,.053014605
33884,2523,.092504753
48191,2523,.110687180
41665,2523,.120451224
62247,2523,.100823181
53713,2523,.133340495
67016,2523,.134659183
20832,2523,.062612410
