iter,bestPrice
8007,1574
6005,1574
6005,1574
4003,1484
5004,1574
6005,1574
7006,1574
6005,1574
7006,1574
5004,1574
5004,1574
5004,1337
5004,1574
7006,1574
5004,1574
6005,1574
5004,1574
7006,1574
5004,1574
3002,1574
6005,1574
6005,1574
6005,1574
6005,1574
6005,1574
8007,1350
5004,1574
6005,1574
7006,1574
6005,1574
6005,1574
5004,1574
6005,1574
5004,1574
7006,1574
6005,1574
5004,1574
8007,1574
6005,1574
5004,1574
5004,1574
6005,1574
5004,1574
6005,1574
5004,1574
5004,1574
6005,1574
5004,1574
5004,1574
6005,1574
5004,1574
5004,1574
6005,1574
6005,1574
5004,1574
7006,1574
5004,1574
5004,1574
7006,1484
7006,1574
7006,1574
6005,1574
7006,1574
5004,1484
6005,1574
6005,1574
6005,1574
6005,1574
6005,1574
5004,1574
5004,1574
5004,1574
7006,1574
6005,1574
5004,1574
6005,1574
7006,1574
5004,1574
7006,1574
6005,1574
6005,1574
6005,1574
6005,1574
7006,1574
7006,1574
6005,1574
5004,1574
7006,1574
7006,1574
5004,1574
7006,1574
8007,1574
6005,1574
5004,1574
5004,1574
6005,1574
6005,1574
5004,1574
5004,1574
7006,1574
