iter,bestPrice
7006,78800
7006,78800
9008,78800
5004,78800
8007,78800
8007,78800
7006,78800
7006,78800
7006,78800
9008,78800
8007,78800
9008,78800
7006,78800
8007,78800
8007,78800
7006,78800
7006,78800
7006,78800
6005,78800
6005,78800
7006,69318
8007,78800
7006,78800
7006,78800
7006,78800
6005,78800
7006,78800
7006,78800
6005,78800
10009,78800
5004,78800
10009,74282
7006,78800
7006,78800
6005,78800
7006,78800
6005,78800
7006,78800
8007,78800
8007,78800
8007,78800
8007,78800
7006,78800
5004,78800
6005,78800
9008,78800
7006,78800
7006,78800
7006,78800
9008,78800
6005,78800
8007,78800
9008,78800
8007,78800
5004,78800
7006,78800
9008,78800
7006,78800
5004,78800
6005,78800
8007,78800
7006,78800
6005,78800
7006,78800
7006,78800
8007,78800
5004,78800
8007,78800
10009,78800
9008,78800
8007,78800
5004,78800
6005,78800
6005,78800
7006,78800
9008,78800
8007,78800
7006,78800
7006,78800
7006,78800
7006,78800
7006,78800
3002,78800
9008,78800
7006,78800
8007,78800
6005,78800
6005,78800
9008,74282
7006,78800
6005,78800
7006,78800
8007,78800
7006,78800
7006,78800
8007,78800
8007,78800
6005,78800
8007,74282
7006,78800
