iter,bestPrice
14013,6403
21020,6403
16015,6403
22021,6403
21020,6403
23022,6403
11010,6403
20019,6403
21020,6403
23022,6403
16015,6403
15014,6403
20019,6403
19018,6403
17016,6403
22021,6403
17016,6403
19018,6403
19018,6403
21020,6403
19018,6403
14013,6403
18017,6403
14013,6403
17016,6403
21020,6403
18017,6403
10009,6403
15014,6403
18017,6403
20019,6403
18017,6403
16015,6403
19018,6403
22021,6403
21020,6403
15014,6403
19018,6403
21020,6403
23022,6403
17016,6403
21020,6403
21020,6403
19018,6403
15014,6403
21020,6403
17016,6403
21020,6403
21020,6403
20019,6403
16015,6403
17016,6403
21020,6403
20019,6403
25024,6403
18017,6403
22021,6403
18017,6403
17016,6403
22021,6403
16015,6403
20019,6403
23022,6403
19018,6403
19018,6403
20019,6403
17016,6403
15014,6403
20019,6403
15014,6403
19018,6403
18017,6403
18017,6403
20019,6403
17016,6403
22021,6403
16015,6403
20019,6403
17016,6403
17016,6403
23022,6403
19018,6403
21020,6403
18017,6403
17016,6403
20019,6403
19018,6403
14013,6403
13012,6403
21020,6403
19018,6403
20019,6403
18017,6403
19018,6403
17016,6403
17016,6403
23022,6403
16015,6403
21020,6403
19018,6403
