iter,bestPrice
2001,75
5004,62
4003,62
2001,75
7006,62
2001,75
2001,75
2001,75
2001,75
4003,62
5004,62
5004,62
2001,72
4003,62
5004,62
5004,62
2001,75
2001,75
6005,62
5004,62
5004,62
2001,75
2001,75
4003,62
2001,75
4003,62
2001,75
6005,62
4003,62
5004,62
4003,75
5004,62
5004,62
4003,62
6005,62
5004,62
2001,75
5004,62
3002,75
2001,75
5004,62
2001,75
5004,62
2001,75
2001,75
5004,62
6005,74
5004,62
3002,62
4003,62
5004,62
2001,75
2001,75
2001,75
5004,62
2001,75
3002,75
2001,75
2001,62
3002,75
6005,62
4003,62
2001,75
2001,75
4003,62
2001,75
4003,62
5004,62
2001,75
2001,75
2001,75
2001,75
4003,62
5004,62
6005,62
3002,75
2001,75
2001,75
5004,62
3002,75
2001,75
3002,75
6005,62
5004,62
4003,75
2001,75
2001,75
6005,62
2001,75
5004,62
2001,75
2001,75
5004,62
3002,75
2001,75
2001,75
6005,62
2001,75
5004,62
4003,75
