iter,bestPrice
263262,1574
17016,1574
347346,1574
344343,1574
154153,1574
234233,1574
114113,1574
327326,1574
270269,1574
271270,1574
233232,1574
187186,1574
46045,1574
251250,1574
337336,1574
325324,1574
238237,1574
161160,1574
60059,1574
246245,1574
8007,1574
276275,1574
296295,1574
275274,1574
257256,1574
260259,1574
304303,1574
283282,1574
192191,1574
185184,1574
27026,1574
182181,1574
161160,1574
75074,1574
207206,1574
268267,1574
106105,1574
98097,1574
259258,1574
304303,1574
238237,1574
20019,1574
15014,1574
195194,1574
5004,1574
250249,1574
180179,1574
250249,1574
233232,1574
231230,1574
173172,1574
330329,1574
236235,1574
247246,1574
171170,1574
251250,1574
317316,1574
241240,1574
218217,1574
209208,1574
368367,1574
273272,1574
86085,1574
295294,1574
268267,1574
239238,1574
220219,1574
101100,1574
168167,1574
129128,1574
312311,1574
254253,1574
207206,1574
265264,1574
211210,1574
183182,1574
234233,1574
137136,1574
201200,1574
226225,1574
320319,1574
251250,1574
63062,1574
234233,1574
197196,1574
279278,1574
252251,1574
204203,1574
290289,1574
267266,1574
423422,1574
387386,1574
225224,1574
303302,1574
248247,1574
268267,1574
30029,1574
218217,1574
253252,1574
249248,1574
