iter,bestPrice
30029,75
46045,62
35034,62
5004,75
29028,62
2001,75
2001,75
17016,74
2001,75
2001,75
2001,75
3002,75
2001,75
4003,75
3002,75
10009,75
27026,62
49048,62
55054,62
35034,62
2001,75
3002,75
3002,75
22021,75
32031,62
2001,75
2001,75
5004,75
2001,75
2001,75
10009,75
2001,75
2001,75
2001,75
29028,75
2001,75
29028,62
49048,62
2001,74
22021,75
2001,75
5004,75
2001,75
5004,75
2001,75
31030,62
32031,62
24023,62
27026,75
2001,75
44043,75
15014,75
2001,75
2001,75
3002,75
9008,75
2001,75
11010,75
62061,62
6005,75
2001,75
3002,75
42041,62
26025,74
16015,62
35034,62
2001,75
2001,75
41040,62
3002,75
20019,75
4003,75
3002,75
28027,62
2001,75
2001,75
48047,62
21020,62
33032,75
8007,75
2001,75
2001,75
55054,62
3002,75
46045,62
2001,75
60059,75
2001,75
11010,75
44043,62
2001,75
2001,75
3002,75
2001,75
2001,75
7006,75
42041,62
46045,62
13012,72
2001,75
