iter,bestPrice
9008,78800
6005,78800
8007,78800
9008,78800
6005,78800
5004,59675
6005,78800
7006,78800
7006,78800
7006,78800
6005,78800
9008,78800
5004,74282
5004,78800
7006,78800
9008,78800
10009,78800
9008,78800
7006,78800
5004,78800
7006,78800
7006,78800
7006,78800
8007,78800
9008,78800
6005,78800
9008,78800
8007,78800
9008,78800
7006,78800
7006,78800
8007,78800
8007,78800
7006,78800
9008,78800
8007,78800
8007,78800
5004,78800
7006,78800
5004,78800
7006,78800
8007,78800
7006,78800
8007,78800
7006,78800
7006,78800
4003,78800
7006,78800
8007,78800
7006,78800
7006,72090
10009,78800
6005,78800
9008,78800
8007,78800
7006,78800
7006,78800
9008,78800
7006,78800
6005,78800
6005,78800
9008,78800
7006,78800
6005,78800
7006,78800
8007,78800
7006,78800
7006,78800
7006,78800
5004,78800
8007,78800
7006,78800
8007,78800
6005,78800
5004,78800
7006,78800
7006,78800
7006,78800
7006,78800
8007,78800
7006,78800
8007,78800
7006,78800
7006,78800
8007,78800
7006,78800
7006,78800
7006,78800
6005,78800
8007,78800
8007,78800
8007,78800
7006,78800
8007,78800
7006,78800
8007,78800
8007,78800
9008,78800
6005,78800
5004,78800
