iter,bestPrice
6005,78800
5004,78800
6005,78800
4003,78800
6005,78800
6005,78800
4003,78800
3002,78800
4003,78800
6005,78800
6005,78800
5004,78800
5004,73836
5004,78800
5004,78800
5004,78800
6005,78800
4003,78800
4003,78800
5004,78800
4003,78800
5004,78800
5004,78800
6005,78800
5004,78800
6005,78800
5004,78800
3002,78800
5004,78800
5004,78800
6005,78800
6005,78800
4003,78800
6005,78800
6005,78800
4003,78800
2001,78800
5004,78800
4003,78800
5004,78800
4003,78800
5004,78800
3002,78800
4003,78800
5004,78800
7006,78800
2001,46918
4003,73836
6005,78800
5004,78800
5004,78800
5004,78800
6005,78800
6005,78800
5004,78800
5004,78800
4003,78800
6005,78800
5004,78800
5004,78800
6005,78800
6005,78800
6005,78800
3002,62535
6005,78800
5004,78800
5004,78800
5004,78800
6005,78800
5004,78800
5004,78800
5004,78800
5004,78800
3002,78800
5004,78800
5004,78800
6005,78800
4003,78800
5004,78800
6005,78800
5004,78800
5004,78800
5004,78800
6005,78800
5004,78800
5004,78800
5004,78800
3002,78800
4003,78800
5004,78800
5004,78800
2001,55276
5004,78800
6005,78800
3002,78800
6005,78800
5004,78800
6005,78800
5004,78800
4003,78800
