iter,bestPrice
5004,78800
7006,78800
4003,78800
7006,78800
7006,78800
10009,78800
7006,72090
9008,78800
4003,78800
7006,78800
5004,78800
7006,78800
4003,74282
7006,78800
7006,78800
7006,78800
6005,78800
7006,78800
7006,78800
8007,78800
6005,78800
8007,78800
6005,78800
7006,78800
7006,78800
7006,78800
7006,78800
7006,78800
4003,78800
6005,78800
5004,74282
6005,69245
7006,78800
6005,78800
6005,78800
6005,78800
7006,78800
5004,78800
7006,78800
6005,78800
6005,78800
6005,78800
4003,78800
6005,78800
5004,78800
5004,78800
6005,78800
7006,78800
7006,78800
10009,78800
8007,78800
9008,78800
10009,78800
7006,78800
8007,78800
6005,78800
5004,78800
7006,78800
8007,78800
6005,78800
6005,78800
9008,78800
6005,78800
5004,78800
8007,78800
8007,78800
8007,78800
7006,78800
7006,78800
3002,78800
7006,78800
5004,78800
7006,78800
7006,78800
6005,78800
6005,78800
7006,78800
7006,78800
8007,78800
7006,78800
5004,78800
7006,78800
7006,78800
8007,78800
4003,73836
8007,78800
7006,78800
4003,78800
9008,78800
8007,78800
8007,78800
5004,78800
5004,78800
8007,78800
7006,78800
6005,78800
8007,78800
6005,78800
7006,78800
9008,78800
