iter,bestPrice
2001,75
3002,62
2001,75
3002,75
2001,75
2001,75
2001,75
3002,75
3002,75
2001,75
3002,62
3002,62
3002,62
2001,75
3002,75
2001,75
4003,62
2001,75
4003,62
2001,72
2001,75
3002,62
4003,62
4003,62
4003,62
4003,62
3002,62
2001,75
2001,75
2001,75
2001,75
2001,75
2001,75
3002,62
3002,62
2001,75
2001,75
2001,75
3002,62
4003,62
4003,62
2001,75
3002,75
2001,75
3002,62
3002,62
2001,75
4003,62
2001,75
3002,62
2001,75
2001,75
3002,62
2001,75
3002,62
2001,75
2001,75
4003,62
2001,75
2001,75
2001,75
3002,62
5004,62
4003,62
2001,75
2001,75
3002,62
2001,75
4003,62
3002,62
4003,62
3002,62
2001,75
2001,75
3002,62
4003,62
3002,62
4003,62
2001,75
2001,75
2001,75
3002,62
3002,62
3002,62
2001,75
2001,75
2001,75
2001,75
3002,62
2001,75
2001,75
3002,75
5004,62
2001,75
2001,75
4003,62
2001,62
4003,62
3002,62
2001,75
