iter,bestPrice
99098,43759
99098,43759
93092,43759
63062,43759
80079,43759
103102,43759
78077,43759
89088,43759
101100,43759
52051,43759
94093,43759
74073,43759
80079,43759
47046,43759
77076,43759
82081,43759
87086,43759
80079,43759
108107,43759
94093,43759
83082,43759
67066,43759
92091,43759
70069,43759
93092,43759
90089,43759
79078,43759
53052,43759
76075,43759
60059,43759
85084,43759
60059,43759
73072,43759
87086,43759
95094,43759
50049,43759
74073,43759
69068,43759
74073,43759
71070,43759
68067,43759
79078,43759
82081,43759
87086,43759
73072,43759
105104,43759
85084,43759
91090,43759
100099,43759
77076,43759
85084,43759
113112,43759
87086,43759
93092,43759
93092,43759
96095,43759
82081,43759
89088,43759
95094,43759
74073,43759
75074,43759
101100,43759
93092,43759
95094,43759
75074,43759
60059,43759
90089,43759
73072,43759
95094,43759
100099,43759
81080,43759
94093,43759
80079,43759
102101,43759
61060,43759
85084,43759
97096,43759
49048,43759
90089,43759
85084,43759
84083,43759
104103,43759
93092,43759
84083,43759
76075,43759
79078,43759
70069,43759
75074,43759
84083,43759
63062,43759
65064,43759
94093,43759
74073,43759
57056,43759
94093,43759
77076,43759
40039,43759
66065,43759
99098,43759
94093,43759
