iter,bestPrice
4003,75
2001,75
6005,62
2001,75
7006,62
3002,75
3002,75
2001,75
8007,62
8007,62
4003,75
2001,75
6005,62
2001,75
9008,62
7006,62
2001,75
2001,75
5004,62
2001,75
4003,75
5004,62
3002,75
7006,62
3002,75
2001,75
2001,75
5004,62
2001,75
2001,75
2001,75
6005,62
7006,62
2001,75
5004,62
2001,75
5004,62
5004,62
2001,75
2001,75
2001,75
6005,62
9008,62
2001,74
3002,74
2001,75
8007,72
2001,75
8007,62
7006,62
2001,75
2001,75
7006,62
3002,75
8007,62
9008,62
11010,75
2001,75
3002,75
9008,62
2001,75
3002,75
2001,75
2001,75
2001,75
2001,75
9008,62
2001,75
2001,75
7006,62
6005,62
6005,62
7006,62
2001,75
7006,62
7006,62
6005,62
5004,62
2001,75
9008,62
7006,62
7006,62
2001,75
7006,62
7006,62
6005,62
5004,62
7006,62
5004,75
2001,75
3002,75
5004,62
8007,62
2001,75
8007,62
2001,75
6005,62
7006,62
7006,62
7006,62
