iter,bestPrice
8007,6403
5004,6403
5004,6403
6005,6403
6005,6403
6005,6403
6005,6403
5004,6352
6005,6403
6005,6403
5004,6403
6005,6403
7006,6403
6005,6403
6005,6403
5004,6403
5004,6403
5004,6403
5004,6403
6005,6403
6005,6403
6005,6403
6005,6403
6005,6403
6005,6403
6005,6403
6005,6403
5004,6403
5004,6403
5004,6403
7006,6403
6005,6403
6005,6403
6005,6403
5004,6403
4003,6352
6005,6403
5004,6403
6005,6403
5004,6403
5004,6403
5004,6403
5004,6403
6005,6403
6005,6403
6005,6403
6005,6403
5004,6403
5004,6403
6005,6403
7006,6403
5004,6403
4003,6403
5004,6403
5004,6403
5004,6403
6005,6403
6005,6403
5004,6403
7006,6403
6005,6403
6005,6352
4003,6403
7006,6403
5004,6403
7006,6403
5004,6403
7006,6403
5004,6352
4003,6403
5004,6403
6005,6403
7006,6403
6005,6403
6005,6403
5004,6403
6005,6403
4003,6403
5004,6403
5004,6403
6005,6403
5004,6403
6005,6403
7006,6403
6005,6403
5004,6352
5004,6403
5004,6403
6005,6403
6005,6403
5004,6403
5004,6403
5004,6403
4003,6403
5004,6403
6005,6403
5004,6403
6005,6403
6005,6403
5004,6403
