iter,bestPrice
56055,78800
29028,78800
48047,78800
30029,78800
70069,78800
68067,78800
47046,78800
55054,78800
63062,78800
75074,78800
71070,78800
75074,78800
67066,78800
38037,78800
62061,78800
62061,78800
57056,78800
48047,78800
60059,78800
49048,78800
73072,78800
50049,78800
64063,78800
51050,78800
33032,78800
54053,78800
75074,78800
35034,78800
80079,78800
57056,78800
71070,78800
54053,78800
68067,78800
62061,78800
31030,78800
49048,78800
71070,78800
67066,78800
72071,78800
52051,78800
44043,78800
66065,78800
58057,78800
60059,78800
62061,78800
67066,78800
61060,78800
23022,78800
52051,78800
40039,78800
63062,78800
71070,78800
60059,78800
74073,78800
75074,78800
28027,78800
67066,78800
60059,78800
19018,78800
51050,78800
39038,78800
56055,78800
66065,78800
38037,78800
51050,78800
44043,78800
44043,78800
35034,78800
81080,78800
64063,78800
47046,78800
58057,78800
30029,78800
44043,78800
74073,78800
58057,78800
37036,78800
56055,78800
54053,78800
47046,78800
43042,78800
38037,78800
72071,78800
67066,78800
65064,78800
55054,78800
30029,78800
46045,78800
72071,78800
53052,78800
16015,78800
11010,78800
48047,78800
27026,78800
63062,78800
36035,78800
57056,78800
64063,78800
68067,78800
68067,78800
