iter,bestPrice
5004,43759
6005,43759
7006,43759
5004,43759
4003,43759
5004,43759
7006,43759
6005,43759
6005,43759
6005,43759
6005,43759
5004,43759
5004,43759
6005,43759
5004,43759
5004,43759
6005,43759
5004,43759
6005,43759
4003,43759
5004,43759
6005,43759
6005,43759
5004,43759
5004,43759
5004,43759
6005,43759
5004,43759
6005,43759
6005,43759
7006,43759
6005,43759
6005,43759
6005,43759
5004,43759
6005,43759
6005,43759
5004,43759
5004,43759
6005,43759
6005,43759
7006,43759
5004,43759
6005,43759
5004,43759
5004,43759
6005,43759
6005,43759
6005,43759
5004,43759
5004,43759
5004,43759
5004,43759
5004,43759
6005,43759
5004,43759
5004,43759
5004,43759
5004,43759
7006,43759
6005,43759
7006,43759
6005,43759
4003,43759
6005,43759
5004,43759
6005,43759
6005,43759
6005,43759
6005,43759
4003,43759
5004,43759
4003,43759
7006,43759
5004,43759
6005,43759
5004,43759
6005,43759
5004,43759
5004,43759
6005,43759
5004,43759
5004,43759
6005,43759
5004,43759
5004,43759
5004,43759
6005,43759
5004,43759
6005,43759
5004,43759
6005,43759
5004,43759
5004,43759
6005,43759
5004,43759
5004,43759
7006,43759
5004,43759
6005,43759
