iter,bestPrice
6005,75
4003,62
2001,75
4003,62
4003,62
4003,62
2001,75
4003,62
2001,75
2001,75
2001,75
5004,62
2001,75
5004,62
3002,75
4003,62
2001,75
5004,62
4003,62
4003,62
6005,75
5004,62
4003,62
2001,75
2001,75
4003,62
4003,62
2001,75
4003,62
5004,62
5004,62
5004,62
6005,75
2001,75
3002,75
5004,62
5004,75
5004,62
2001,75
4003,62
5004,62
2001,75
2001,75
5004,62
4003,62
3002,75
2001,75
5004,62
2001,75
2001,75
2001,75
2001,75
2001,75
3002,62
5004,62
4003,62
2001,75
5004,62
3002,75
3002,62
5004,62
5004,62
2001,75
5004,62
2001,75
4003,62
5004,61
4003,75
5004,62
2001,75
3002,75
2001,75
5004,62
5004,62
4003,62
2001,75
5004,62
6005,62
2001,75
4003,62
4003,62
5004,62
2001,75
2001,75
2001,75
2001,75
2001,75
6005,75
2001,75
2001,75
2001,75
2001,75
2001,75
4003,61
2001,75
2001,75
2001,75
2001,74
5004,62
4003,62
