iter,bestPrice
7006,78800
4003,78800
7006,78800
8007,78800
7006,78800
6005,78800
8007,78800
6005,78800
4003,78800
6005,78800
6005,78800
7006,78800
6005,78800
7006,78800
6005,78800
7006,69318
6005,78800
5004,69245
5004,78800
8007,78800
7006,78800
5004,78800
7006,78800
8007,78800
6005,78800
7006,78800
6005,78800
8007,78800
7006,78800
8007,78800
6005,78800
6005,78800
6005,78800
6005,69245
8007,78800
6005,78800
6005,78800
6005,78800
7006,78800
7006,78800
7006,78800
8007,78800
8007,78800
5004,78800
6005,78800
5004,78800
5004,78800
6005,78800
7006,78800
6005,78800
6005,78800
7006,78800
6005,78800
6005,78800
7006,78800
4003,78800
8007,78800
8007,78800
6005,78800
8007,78800
7006,78800
8007,78800
6005,78800
4003,78800
5004,74282
7006,78800
8007,78800
8007,78800
7006,78800
8007,78800
6005,78800
6005,78800
8007,78800
7006,78800
7006,78800
7006,78800
5004,78800
6005,78800
5004,78800
6005,78800
6005,78800
6005,78800
6005,78800
8007,78800
5004,78800
5004,78800
4003,78800
8007,78800
6005,78800
5004,78800
7006,78800
4003,78800
6005,78800
5004,78800
7006,78800
5004,78800
6005,78800
5004,78800
6005,78800
8007,78800
