iter,bestPrice
38037,6403
45044,6403
42041,6403
52051,6403
41040,6403
43042,6403
47046,6403
43042,6403
44043,6403
50049,6403
48047,6403
48047,6403
44043,6403
44043,6403
43042,6403
38037,6403
44043,6403
39038,6403
39038,6403
50049,6403
41040,6403
36035,6403
37036,6403
32031,6403
39038,6403
14013,6403
31030,6403
42041,6403
37036,6403
39038,6403
46045,6403
51050,6403
37036,6403
45044,6403
53052,6403
42041,6403
47046,6403
27026,6403
50049,6403
32031,6403
34033,6403
46045,6403
37036,6403
48047,6403
42041,6403
50049,6403
46045,6403
51050,6403
42041,6403
43042,6403
47046,6403
41040,6403
46045,6403
50049,6403
52051,6403
45044,6403
55054,6403
36035,6403
33032,6403
43042,6403
23022,6403
46045,6403
28027,6403
44043,6403
51050,6403
51050,6403
42041,6403
37036,6403
44043,6403
44043,6403
43042,6403
35034,6403
37036,6403
58057,6403
40039,6403
50049,6403
56055,6403
41040,6403
39038,6403
46045,6403
44043,6403
38037,6403
43042,6403
49048,6403
30029,6403
44043,6403
57056,6403
40039,6403
34033,6403
53052,6403
46045,6403
37036,6403
40039,6403
56055,6403
34033,6403
52051,6403
50049,6403
51050,6403
51050,6403
46045,6403
