iter,bestPrice
5004,1574
5004,1574
5004,1574
5004,1574
6005,1574
5004,1574
5004,1574
5004,1574
5004,1574
4003,1574
5004,1574
3002,1574
4003,1574
5004,1574
5004,1574
4003,1574
4003,1574
6005,1574
5004,1574
6005,1574
3002,1574
6005,1574
5004,1574
5004,1574
5004,1574
5004,1574
5004,1574
6005,1574
4003,1574
5004,1574
5004,1574
4003,1574
5004,1574
5004,1574
4003,1574
5004,1574
4003,1574
6005,1574
5004,1574
6005,1574
5004,1574
4003,1574
4003,1574
5004,1574
5004,1574
6005,1574
5004,1574
5004,1574
4003,1574
5004,1574
4003,1574
6005,1574
5004,1574
4003,1574
5004,1574
4003,1574
5004,1574
5004,1574
5004,1574
4003,1574
4003,1285
4003,1574
4003,1574
5004,1574
4003,1574
4003,1574
4003,1574
4003,1574
4003,1574
4003,1574
4003,1574
5004,1574
5004,1574
4003,1574
4003,1574
4003,1574
3002,1574
5004,1574
5004,1574
6005,1574
5004,1574
4003,1574
6005,1574
4003,1574
4003,1574
4003,1574
4003,1574
5004,1574
5004,1574
4003,1574
5004,1574
5004,1574
6005,1574
5004,1574
4003,1574
4003,1574
4003,1574
5004,1574
5004,1574
5004,1574
