iter,bestPrice
20019,62
2001,75
16015,62
16015,62
16015,62
14013,62
10009,62
12011,62
2001,75
14013,75
2001,75
3002,75
11010,62
2001,75
2001,75
2001,75
20019,62
2001,75
2001,75
23022,62
2001,75
13012,62
3002,75
16015,62
12011,62
2001,75
11010,62
3002,75
19018,62
15014,62
3002,75
2001,75
8007,75
3002,75
7006,75
4003,75
15014,75
15014,62
19018,62
2001,75
2001,75
2001,75
2001,75
8007,62
25024,62
2001,75
19018,62
14013,62
12011,62
2001,75
14013,62
2001,75
18017,62
3002,75
9008,75
12011,62
2001,75
18017,62
3002,75
2001,75
3002,75
2001,75
2001,75
24023,62
2001,75
2001,75
10009,72
20019,62
2001,75
13012,62
2001,75
2001,75
10009,62
19018,62
2001,75
2001,75
16015,62
2001,75
13012,62
2001,75
20019,62
22021,62
18017,62
2001,75
10009,62
2001,75
2001,75
15014,62
15014,62
2001,75
2001,75
14013,62
2001,75
5004,75
2001,75
2001,75
2001,75
19018,62
2001,75
2001,75
