iter,bestPrice
5004,78800
5004,78800
3002,69318
4003,78800
5004,78800
5004,78800
6005,78800
5004,78800
5004,78800
4003,78800
7006,78800
4003,78800
5004,78800
6005,78800
4003,78800
5004,78800
4003,78800
5004,78800
5004,78800
5004,78800
5004,78800
4003,78800
5004,78800
6005,78800
5004,78800
5004,78800
5004,69318
4003,78800
6005,78800
5004,78800
5004,78800
5004,78800
5004,78800
5004,78800
5004,78800
6005,78800
4003,78800
5004,78800
5004,72090
4003,78800
4003,78800
5004,78800
5004,78800
6005,78800
4003,78800
4003,78800
4003,78800
4003,69245
6005,78800
5004,78800
5004,78800
5004,78800
6005,78800
5004,78800
4003,78800
5004,78800
6005,78800
5004,78800
5004,78800
5004,78800
5004,78800
6005,78800
4003,78800
5004,78800
4003,78800
6005,72090
5004,78800
6005,78800
3002,78800
4003,78800
5004,78800
5004,78800
6005,78800
5004,78800
6005,78800
5004,78800
5004,78800
4003,78800
5004,78800
6005,78800
5004,73836
7006,78800
5004,78800
5004,78800
6005,78800
5004,78800
6005,78800
3002,72090
6005,78800
4003,78800
7006,78800
3002,78800
5004,78800
5004,78800
5004,69245
5004,78800
6005,78800
5004,78800
6005,78800
5004,78800
