iter,bestPrice
3002,75
2001,75
2001,75
3002,75
10009,62
3002,75
2001,75
10009,75
7006,62
9008,62
15014,62
13012,62
2001,75
10009,62
2001,75
15014,62
2001,75
14013,62
11010,62
2001,75
5004,72
10009,62
2001,75
10009,62
17016,62
2001,75
13012,62
14013,62
12011,62
13012,62
14013,62
2001,74
12011,62
2001,75
3002,75
2001,74
8007,75
2001,75
2001,75
12011,62
2001,74
10009,62
11010,62
15014,62
3002,75
2001,75
6005,74
2001,75
5004,62
2001,75
15014,62
2001,75
2001,75
2001,75
2001,75
2001,75
6005,75
17016,62
10009,62
2001,75
5004,75
2001,75
2001,75
2001,75
2001,75
2001,75
16015,62
2001,75
2001,75
2001,75
14013,62
2001,75
10009,75
12011,62
2001,75
2001,75
5004,75
2001,75
6005,75
4003,75
2001,75
15014,62
2001,75
4003,75
8007,62
2001,75
2001,75
18017,62
19018,62
14013,62
2001,75
17016,62
9008,62
2001,75
17016,62
7006,75
7006,62
2001,75
2001,72
11010,62
