iter,bestPrice
99098,6403
78077,6403
79078,6403
103102,6403
88087,6403
88087,6403
92091,6403
71070,6403
81080,6403
81080,6403
99098,6403
98097,6403
78077,6403
82081,6403
59058,6403
102101,6403
74073,6403
91090,6403
75074,6403
68067,6403
115114,6403
36035,6403
84083,6403
87086,6403
72071,6403
90089,6403
107106,6403
86085,6403
58057,6403
88087,6403
93092,6403
74073,6403
100099,6403
59058,6403
114113,6403
78077,6403
86085,6403
89088,6403
98097,6403
78077,6403
77076,6403
98097,6403
66065,6403
53052,6403
102101,6403
96095,6403
105104,6403
83082,6403
111110,6403
65064,6403
83082,6403
85084,6403
80079,6403
104103,6403
77076,6403
93092,6403
52051,6403
73072,6403
90089,6403
81080,6403
101100,6403
94093,6403
85084,6403
59058,6403
84083,6403
74073,6403
85084,6403
79078,6403
104103,6403
83082,6403
81080,6403
49048,6403
70069,6403
84083,6403
81080,6403
77076,6403
66065,6403
82081,6403
42041,6403
87086,6403
100099,6403
81080,6403
84083,6403
85084,6403
92091,6403
88087,6403
96095,6403
73072,6403
84083,6403
86085,6403
84083,6403
80079,6403
91090,6403
74073,6403
82081,6403
51050,6403
87086,6403
74073,6403
74073,6403
69068,6403
