iter,bestPrice
4003,1574
5004,1574
5004,1574
4003,1574
6005,1574
5004,1574
5004,1574
4003,1574
7006,1574
5004,1574
6005,1574
6005,1574
7006,1574
6005,1574
5004,1574
6005,1574
4003,1574
5004,1574
5004,1574
5004,1574
6005,1574
5004,1574
5004,1574
4003,1574
6005,1574
6005,1574
7006,1574
5004,1574
4003,1574
5004,1574
6005,1574
4003,1574
2001,936
5004,1574
5004,1574
6005,1574
5004,1574
5004,1574
5004,1574
6005,1440
5004,1574
5004,1574
4003,1574
6005,1574
5004,1574
6005,1574
6005,1574
6005,1574
5004,1574
4003,1574
5004,1574
6005,1574
5004,1574
5004,1574
8007,1574
5004,1574
6005,1574
4003,1574
6005,1574
7006,1574
7006,1574
6005,1574
6005,1574
4003,1574
4003,1574
7006,1574
6005,1574
4003,1574
5004,1574
5004,1574
7006,1574
5004,1574
4003,1574
5004,1574
5004,1574
5004,1574
4003,1574
7006,1574
4003,1574
6005,1574
5004,1574
5004,1574
5004,1574
6005,1574
5004,1574
6005,1574
5004,1574
6005,1574
6005,1574
6005,1574
5004,1440
6005,1574
5004,1574
6005,1384
6005,1484
6005,1574
5004,1574
6005,1574
6005,1574
5004,1574
