iter,bestPrice
10009,6403
10009,6403
12011,6403
12011,6403
11010,6403
13012,6403
11010,6403
12011,6403
12011,6403
12011,6403
14013,6403
14013,6403
14013,6403
13012,6403
9008,6403
11010,6403
9008,6403
11010,6403
12011,6403
11010,6403
10009,6403
14013,6403
13012,6403
12011,6403
13012,6403
12011,6403
11010,6403
12011,6403
11010,6403
15014,6403
11010,6403
13012,6403
13012,6403
15014,6403
10009,6403
13012,6403
13012,6403
10009,6403
10009,6403
12011,6403
7006,6403
12011,6403
14013,6403
14013,6403
8007,6403
10009,6403
11010,6403
9008,6403
11010,6403
13012,6403
10009,6403
14013,6403
15014,6403
13012,6403
14013,6403
12011,6403
13012,6403
10009,6403
13012,6403
9008,6403
11010,6403
13012,6403
14013,6403
10009,6403
11010,6403
12011,6403
13012,6403
13012,6403
8007,6403
12011,6403
13012,6403
14013,6403
10009,6403
10009,6403
15014,6403
10009,6403
12011,6403
13012,6403
11010,6403
12011,6403
12011,6403
13012,6403
15014,6403
13012,6403
11010,6403
11010,6403
13012,6403
11010,6403
12011,6403
13012,6403
11010,6403
13012,6403
13012,6403
10009,6403
11010,6403
11010,6403
13012,6403
11010,6403
14013,6403
10009,6403
