iter,bestPrice
5004,78800
5004,78800
4003,78800
5004,78800
5004,78800
3002,78800
4003,78800
5004,78800
4003,78800
4003,78800
4003,78800
4003,78800
5004,78800
5004,78800
4003,78800
6005,78800
3002,78800
5004,78800
5004,78800
4003,78800
5004,78800
5004,78800
4003,78800
4003,78800
4003,78800
5004,78800
6005,78800
5004,78800
4003,72090
5004,78800
5004,78800
3002,78800
6005,78800
5004,78800
4003,78800
5004,78800
6005,78800
4003,78800
5004,78800
5004,78800
4003,78800
4003,78800
4003,78800
2001,78800
4003,78800
5004,78800
5004,78800
4003,78800
5004,78800
5004,78800
5004,74282
4003,66909
5004,78800
3002,78800
6005,78800
4003,78800
5004,78800
6005,78800
3002,78800
5004,78800
4003,78800
5004,78800
5004,78800
6005,78800
5004,78800
5004,78800
3002,78800
3002,78800
5004,73836
4003,78800
5004,78800
4003,78800
5004,78800
5004,78800
5004,78800
5004,78800
3002,78800
4003,78800
5004,78800
4003,78800
5004,78800
4003,78800
5004,78800
6005,78800
5004,78800
4003,78800
5004,74282
4003,78800
5004,78800
4003,78800
4003,78800
6005,78800
5004,78800
3002,69245
5004,78800
4003,78800
5004,78800
5004,78800
4003,78800
4003,78800
