iter,bestPrice
14013,78800
30029,78800
28027,78800
29028,78800
27026,78800
3002,78800
15014,78800
31030,78800
27026,78800
25024,78800
22021,78800
24023,78800
17016,78800
24023,78800
22021,78800
22021,78800
28027,78800
18017,78800
22021,78800
23022,78800
23022,78800
22021,78800
34033,78800
20019,78800
17016,78800
25024,78800
22021,78800
2001,46918
32031,78800
16015,78800
25024,78800
14013,78800
26025,78800
23022,78800
23022,78800
24023,78800
23022,78800
19018,78800
27026,78800
24023,78800
28027,78800
19018,78800
24023,78800
24023,78800
22021,78800
27026,78800
26025,78800
24023,78800
14013,78800
15014,78800
15014,78800
16015,78800
25024,78800
18017,78800
34033,78800
22021,78800
27026,78800
15014,78800
33032,78800
19018,78800
21020,78800
22021,78800
26025,78800
10009,78800
21020,78800
15014,78800
9008,78800
20019,78800
27026,78800
21020,78800
19018,78800
22021,78800
19018,78800
27026,78800
32031,78800
21020,78800
24023,78800
24023,78800
24023,78800
30029,78800
27026,78800
23022,78800
27026,78800
27026,78800
29028,78800
25024,78800
17016,78800
19018,78800
19018,78800
18017,78800
20019,78800
19018,78800
28027,78800
22021,78800
17016,78800
22021,78800
26025,78800
24023,78800
17016,78800
27026,78800
