iter,bestPrice
10009,1574
16015,1574
13012,1574
12011,1574
14013,1574
15014,1574
11010,1574
14013,1574
13012,1574
7006,1574
14013,1574
16015,1574
9008,1574
16015,1574
9008,1574
11010,1574
14013,1574
10009,1574
14013,1574
10009,1475
12011,1574
16015,1574
11010,1574
7006,1574
12011,1574
11010,1574
11010,1574
14013,1574
14013,1574
9008,1574
14013,1574
12011,1574
15014,1574
5004,1574
11010,1574
12011,1574
10009,1574
16015,1574
15014,1574
7006,1574
12011,1574
15014,1574
10009,1574
11010,1574
15014,1574
12011,1574
14013,1574
12011,1574
13012,1574
13012,1574
13012,1574
9008,1574
12011,1574
7006,1440
6005,1574
12011,1574
8007,1574
10009,1574
14013,1574
11010,1574
12011,1574
15014,1574
12011,1574
14013,1574
14013,1574
13012,1574
12011,1574
16015,1574
10009,1574
10009,1574
11010,1574
8007,1574
10009,1574
12011,1574
11010,1574
11010,1574
16015,1574
15014,1574
13012,1574
11010,1574
8007,1574
11010,1574
14013,1574
15014,1574
13012,1574
10009,1574
14013,1574
13012,1574
10009,1574
10009,1574
11010,1574
15014,1574
12011,1574
10009,1574
13012,1574
12011,1574
8007,1574
9008,1574
11010,1574
10009,1574
