iter,bestPrice
6005,78800
5004,78800
5004,78800
6005,78800
6005,78800
4003,78800
7006,78800
5004,78800
5004,78800
5004,78800
7006,78800
5004,78800
5004,78800
6005,78800
6005,78800
6005,78800
7006,78800
6005,78800
6005,78800
4003,78800
8007,78800
6005,78800
6005,78800
5004,78800
6005,78800
4003,78800
5004,78800
6005,78800
6005,78800
6005,78800
4003,78800
6005,78800
4003,78800
5004,78800
4003,78800
4003,78800
5004,78800
7006,78800
6005,78800
6005,78800
7006,78800
6005,78800
5004,78800
3002,78800
5004,78800
6005,78800
6005,78800
5004,78800
5004,78800
5004,78800
6005,78800
5004,78800
7006,78800
5004,78800
6005,78800
4003,78800
7006,78800
4003,78800
5004,78800
5004,78800
6005,78800
5004,78800
4003,78800
6005,78800
5004,78800
5004,78800
5004,78800
4003,78800
5004,78800
7006,78800
7006,78800
6005,78800
5004,74282
6005,78800
5004,78800
6005,78800
5004,78800
5004,78800
6005,78800
6005,78800
5004,69318
5004,78800
6005,78800
4003,78800
3002,78800
7006,78800
4003,78800
5004,78800
6005,78800
5004,78800
4003,78800
5004,78800
5004,78800
5004,78800
6005,78800
4003,78800
5004,78800
6005,78800
6005,78800
4003,78800
