iter,bestPrice
8007,62
3002,75
2001,74
2001,75
2001,75
7006,62
9008,62
3002,75
2001,75
10009,62
2001,74
2001,75
2001,75
2001,75
2001,75
8007,62
2001,75
6005,62
9008,62
8007,62
2001,75
3002,75
5004,62
2001,75
11010,62
2001,75
9008,62
2001,75
9008,62
10009,62
7006,62
8007,62
2001,75
7006,62
8007,62
9008,62
2001,75
10009,62
2001,75
9008,62
2001,75
2001,75
2001,75
2001,74
6005,62
2001,72
2001,75
12011,75
2001,75
3002,72
3002,75
2001,75
2001,62
8007,62
3002,75
7006,62
2001,75
8007,62
4003,75
5004,62
2001,75
9008,62
10009,62
8007,62
5004,75
10009,62
12011,62
3002,75
2001,75
2001,75
8007,62
7006,62
2001,75
2001,75
2001,75
8007,62
2001,75
11010,62
10009,62
2001,75
3002,75
4003,75
10009,62
7006,62
11010,62
2001,75
2001,75
7006,62
2001,75
2001,75
2001,75
10009,62
10009,62
4003,62
8007,62
3002,75
5004,62
3002,75
3002,75
5004,62
