iter,bestPrice
70069,43759
77076,43759
67066,43759
62061,43759
76075,43759
69068,43759
73072,43759
92091,43759
50049,43759
67066,43759
79078,43759
67066,43759
65064,43759
87086,43759
84083,43759
83082,43759
61060,43759
69068,43759
64063,43759
79078,43759
78077,43759
75074,43759
62061,43759
50049,43759
53052,43759
72071,43759
42041,43759
71070,43759
65064,43759
79078,43759
74073,43759
74073,43759
68067,43759
66065,43759
74073,43759
58057,43759
70069,43759
89088,43759
70069,43759
77076,43759
60059,43759
66065,43759
93092,43759
86085,43759
60059,43759
69068,43759
70069,43759
81080,43759
96095,43759
87086,43759
73072,43759
51050,43759
81080,43759
62061,43759
80079,43759
57056,43759
54053,43759
55054,43759
69068,43759
71070,43759
64063,43759
81080,43759
91090,43759
70069,43759
72071,43759
67066,43759
36035,43759
71070,43759
78077,43759
73072,43759
66065,43759
74073,43759
46045,43759
96095,43759
73072,43759
69068,43759
79078,43759
58057,43759
79078,43759
78077,43759
75074,43759
78077,43759
75074,43759
72071,43759
75074,43759
36035,43759
56055,43759
62061,43759
73072,43759
71070,43759
61060,43759
73072,43759
62061,43759
77076,43759
88087,43759
77076,43759
70069,43759
78077,43759
59058,43759
71070,43759
