iter,bestPrice
8007,78800
10009,78800
9008,78800
8007,78800
12011,78800
11010,78800
5004,78800
7006,78800
9008,78800
8007,78800
8007,78800
10009,78800
9008,78800
9008,78800
11010,78800
7006,78800
3002,78800
10009,78800
4003,78800
12011,78800
10009,78800
10009,78800
10009,78800
9008,78800
7006,78800
6005,78800
6005,78800
8007,78800
11010,78800
9008,78800
9008,78800
7006,78800
11010,78800
8007,78800
11010,78800
12011,78800
9008,78800
8007,78800
9008,78800
9008,78800
9008,78800
8007,78800
9008,78800
9008,78800
8007,68552
10009,78800
13012,78800
9008,78800
10009,78800
10009,78800
9008,78800
12011,78800
6005,78800
10009,78800
2001,56790
10009,78800
10009,78800
11010,78800
8007,78800
10009,78800
12011,78800
10009,78800
11010,78800
11010,78800
7006,72090
9008,74282
7006,78800
9008,78800
7006,78800
2001,46918
11010,78800
11010,78800
7006,78800
7006,78800
11010,78800
4003,78800
7006,78800
9008,78800
9008,78800
6005,69245
9008,78800
12011,78800
11010,78800
11010,78800
8007,78800
10009,78800
7006,78800
6005,78800
10009,78800
6005,78800
13012,78800
12011,78800
9008,78800
8007,78800
8007,78800
8007,78800
5004,78800
8007,78800
13012,78800
9008,78800
