iter,bestPrice
5004,1574
8007,1574
12011,1574
7006,1574
10009,1574
9008,1574
6005,1574
11010,1574
10009,1574
9008,1574
3002,1574
8007,1574
11010,1574
10009,1574
9008,1574
11010,1574
11010,1574
8007,1574
10009,1574
8007,1574
9008,1574
8007,1574
9008,1574
9008,1574
8007,1574
9008,1574
11010,1574
10009,1574
8007,1574
10009,1574
11010,1574
7006,1574
11010,1574
11010,1574
11010,1574
9008,1574
8007,1484
11010,1574
8007,1574
6005,1574
10009,1574
9008,1574
6005,1574
12011,1574
8007,1574
11010,1574
8007,1574
8007,1574
6005,1574
7006,1574
10009,1574
7006,1574
9008,1574
6005,1484
10009,1574
10009,1574
10009,1574
5004,1574
6005,1574
7006,1574
10009,1574
7006,1574
5004,1574
9008,1574
7006,1574
10009,1574
10009,1574
10009,1574
10009,1574
7006,1574
13012,1574
7006,1574
9008,1574
10009,1574
10009,1574
11010,1574
8007,1574
8007,1574
5004,1574
8007,1574
9008,1574
9008,1574
9008,1574
11010,1574
9008,1574
8007,1574
8007,1574
8007,1574
8007,1574
8007,1574
10009,1574
9008,1574
10009,1574
6005,1574
11010,1574
8007,1574
10009,1574
9008,1574
10009,1574
12011,1574
