iter,bestPrice
12011,43759
11010,43759
10009,43759
9008,43759
11010,43759
10009,43759
9008,43759
9008,43759
10009,43759
10009,43759
12011,43759
11010,43759
8007,43759
11010,43759
13012,43759
8007,43759
14013,43759
12011,43759
10009,43759
10009,43759
13012,43759
10009,43759
11010,43759
11010,43759
14013,43759
11010,43759
11010,43759
11010,43759
12011,43759
8007,43759
12011,43759
10009,43759
12011,43759
11010,43759
13012,43759
13012,43759
14013,43759
13012,43759
7006,43759
13012,43759
12011,43759
12011,43759
11010,43759
10009,43759
11010,43759
12011,43759
13012,43759
13012,43759
9008,43759
10009,43759
12011,43759
10009,43759
11010,43759
13012,43759
13012,43759
11010,43759
11010,43759
8007,43759
12011,43759
14013,43759
10009,43759
13012,43759
12011,43759
10009,43759
9008,43759
11010,43759
13012,43759
9008,43759
11010,43759
8007,43759
7006,43759
12011,43759
9008,43759
11010,43759
12011,43759
13012,43759
14013,43759
12011,43759
8007,43759
12011,43759
10009,43759
13012,43759
14013,43759
10009,43759
13012,43759
10009,43759
10009,43759
8007,43759
10009,43759
11010,43759
13012,43759
12011,43759
8007,43759
12011,43759
11010,43759
13012,43759
11010,43759
14013,43759
11010,43759
12011,43759
