iter,bestPrice
12011,1574
16015,1574
15014,1574
12011,1574
15014,1574
15014,1574
20019,1574
18017,1574
12011,1574
14013,1574
14013,1574
16015,1574
18017,1574
20019,1574
14013,1574
22021,1574
15014,1574
19018,1574
16015,1574
14013,1574
19018,1574
19018,1574
14013,1574
13012,1574
19018,1574
11010,1574
17016,1574
20019,1574
19018,1574
20019,1574
8007,1574
15014,1574
7006,1574
17016,1574
12011,1574
15014,1574
14013,1574
15014,1574
20019,1574
12011,1574
11010,1574
11010,1574
13012,1574
17016,1574
15014,1574
14013,1574
11010,1574
21020,1574
20019,1574
22021,1574
14013,1574
14013,1574
18017,1574
14013,1574
12011,1574
17016,1574
10009,1574
13012,1574
15014,1574
13012,1574
24023,1574
18017,1574
22021,1574
16015,1574
20019,1574
10009,1574
22021,1574
11010,1574
12011,1574
13012,1574
21020,1574
6005,1574
20019,1574
14013,1574
19018,1574
16015,1574
14013,1574
23022,1574
19018,1574
12011,1574
16015,1574
13012,1574
19018,1574
15014,1574
10009,1574
16015,1574
18017,1574
18017,1574
13012,1574
14013,1574
14013,1574
15014,1574
13012,1574
13012,1574
14013,1574
22021,1574
19018,1574
13012,1574
12011,1574
19018,1574
