iter,bestPrice
5004,78800
5004,74282
5004,78800
5004,78800
5004,78800
4003,74282
5004,78800
5004,78800
5004,78800
6005,78800
4003,78800
4003,78800
4003,78800
7006,78800
6005,78800
5004,78800
4003,78800
1000,46918
3002,66909
4003,78800
5004,78800
4003,64846
5004,78800
5004,78800
5004,78800
7006,78800
5004,78800
5004,78800
4003,78800
5004,78800
6005,78800
7006,78800
5004,78800
5004,78800
4003,78800
5004,78800
5004,78800
4003,69245
5004,78800
3002,78800
5004,78800
5004,78800
5004,78800
5004,78800
6005,78800
5004,78800
5004,78800
5004,78800
4003,78800
5004,78800
5004,78800
4003,78800
5004,78800
6005,78800
5004,78800
5004,78800
6005,78800
6005,78800
4003,78800
3002,78800
6005,78800
6005,78800
4003,78800
5004,78800
5004,78800
6005,78800
5004,78800
5004,78800
5004,78800
5004,78800
4003,78800
4003,78800
5004,78800
4003,78800
3002,78800
5004,78800
5004,78800
6005,78800
5004,78800
5004,74282
5004,78800
5004,78800
5004,78800
4003,78800
4003,78800
6005,78800
5004,78800
5004,78800
5004,78800
5004,67126
5004,78800
5004,78800
5004,78800
6005,78800
5004,78800
5004,78800
4003,78800
5004,78800
6005,78800
6005,78800
