iter,bestPrice
5004,1574
6005,1574
7006,1574
6005,1574
6005,1337
6005,1574
7006,1574
6005,1574
5004,1574
5004,1574
6005,1574
6005,1574
6005,1574
6005,1484
7006,1574
6005,1574
6005,1574
5004,1574
6005,1574
6005,1574
6005,1574
6005,1574
4003,1574
6005,1574
5004,1574
5004,1574
6005,1574
6005,1574
6005,1574
7006,1574
5004,1574
6005,1574
6005,1574
5004,1574
5004,1574
7006,1574
2001,989
6005,1574
6005,1574
4003,1574
6005,1574
6005,1574
6005,1574
8007,1574
6005,1574
5004,1574
5004,1574
6005,1574
5004,1574
4003,1574
6005,1574
6005,1574
5004,1574
6005,1574
6005,1574
5004,1574
5004,1574
6005,1574
6005,1574
5004,1574
8007,1574
6005,1574
5004,1574
5004,1574
7006,1574
6005,1574
5004,1574
6005,1574
5004,1574
7006,1574
4003,1574
7006,1574
6005,1574
4003,1574
7006,1574
7006,1574
5004,1574
5004,1475
5004,1574
6005,1574
6005,1574
6005,1574
5004,1574
7006,1574
5004,1574
6005,1574
5004,1574
7006,1574
6005,1574
6005,1574
6005,1350
6005,1574
6005,1574
5004,1574
6005,1574
7006,1574
5004,1574
6005,1574
6005,1574
5004,1574
