iter,bestPrice
16015,62
2001,75
2001,75
2001,75
18017,62
16015,62
19018,62
2001,75
2001,75
2001,75
2001,75
2001,75
11010,62
13012,62
3002,75
2001,75
3002,75
12011,62
2001,75
10009,62
13012,62
2001,75
6005,75
2001,75
2001,75
16015,62
2001,75
2001,75
3002,75
13012,62
8007,75
2001,75
10009,62
2001,74
10009,62
16015,62
12011,62
14013,62
14013,62
19018,72
2001,75
13012,62
2001,75
2001,75
15014,62
15014,62
2001,75
2001,75
2001,75
13012,62
5004,75
2001,74
3002,75
5004,75
5004,75
17016,62
3002,75
15014,62
18017,62
2001,75
3002,62
4003,75
2001,75
4003,62
2001,75
18017,62
2001,75
15014,62
2001,75
14013,62
2001,75
11010,62
10009,62
6005,62
2001,75
2001,75
2001,75
2001,75
3002,75
19018,75
16015,62
15014,62
2001,75
3002,75
13012,62
3002,75
3002,75
13012,62
6005,62
17016,62
3002,75
12011,62
13012,62
12011,62
15014,62
21020,62
2001,75
2001,75
13012,62
13012,62
