iter,bestPrice
33032,1574
26025,1574
33032,1574
28027,1574
16015,1574
29028,1574
33032,1574
27026,1574
37036,1574
12011,1574
15014,1574
26025,1574
31030,1574
27026,1574
26025,1574
25024,1574
29028,1574
36035,1574
29028,1574
30029,1574
31030,1574
29028,1574
32031,1574
2001,936
40039,1574
32031,1574
31030,1574
20019,1574
28027,1574
33032,1574
33032,1574
26025,1574
25024,1574
35034,1574
31030,1574
34033,1574
28027,1574
38037,1574
32031,1574
36035,1574
26025,1574
29028,1574
28027,1574
30029,1574
25024,1574
31030,1574
23022,1574
28027,1574
26025,1574
26025,1574
36035,1574
33032,1574
21020,1574
8007,1574
37036,1574
33032,1574
27026,1574
25024,1574
27026,1574
31030,1574
32031,1574
40039,1574
27026,1574
17016,1574
29028,1574
30029,1574
29028,1574
31030,1574
38037,1574
28027,1574
26025,1574
19018,1574
37036,1574
38037,1574
30029,1574
32031,1574
14013,1574
26025,1574
29028,1574
23022,1574
25024,1574
26025,1574
31030,1574
32031,1574
13012,1574
26025,1574
21020,1574
26025,1574
23022,1574
23022,1574
31030,1574
27026,1574
25024,1574
35034,1574
26025,1574
35034,1574
28027,1574
24023,1574
26025,1574
15014,1574
