iter,bestPrice
5004,1574
5004,1440
6005,1574
8007,1574
7006,1574
5004,1574
7006,1574
5004,1574
6005,1574
5004,1574
8007,1574
6005,1574
6005,1574
4003,1574
6005,1574
6005,1574
7006,1574
6005,1574
7006,1574
7006,1574
5004,1574
4003,1574
7006,1574
6005,1574
5004,1574
7006,1574
5004,1384
6005,1574
6005,1574
5004,1574
4003,1574
6005,1574
6005,1574
7006,1484
6005,1574
7006,1574
8007,1574
7006,1574
3002,1574
6005,1574
8007,1574
5004,1574
7006,1574
6005,1574
7006,1574
5004,1574
7006,1574
5004,1574
5004,1574
5004,1574
6005,1384
6005,1574
7006,1574
5004,1574
7006,1574
5004,1574
6005,1574
6005,1574
5004,1574
6005,1574
8007,1574
7006,1574
7006,1574
5004,1574
7006,1574
7006,1574
5004,1574
6005,1574
9008,1574
4003,1574
6005,1574
5004,1574
7006,1574
8007,1574
5004,1574
3002,1574
7006,1574
6005,1574
6005,1574
7006,1574
8007,1574
6005,1290
6005,1574
8007,1574
7006,1475
8007,1574
3002,1385
7006,1574
6005,1574
6005,1574
8007,1574
7006,1574
5004,1574
6005,1574
6005,1574
6005,1574
8007,1574
7006,1574
2001,1250
5004,1574
