iter,bestPrice
3002,75
2001,75
12011,62
2001,75
6005,75
14013,62
13012,72
14013,62
14013,62
2001,75
2001,75
3002,75
18017,62
7006,75
17016,62
3002,75
12011,62
15014,62
2001,75
6005,62
16015,62
9008,62
6005,62
5004,75
9008,62
16015,62
2001,75
5004,75
11010,62
7006,62
12011,74
14013,62
2001,75
3002,75
2001,75
2001,75
2001,75
15014,62
15014,62
2001,75
2001,74
14013,62
2001,75
12011,62
6005,75
2001,75
12011,62
19018,62
9008,62
2001,75
11010,62
14013,62
7006,62
13012,62
2001,75
2001,75
2001,75
13012,62
2001,75
2001,75
2001,75
12011,62
14013,62
2001,75
15014,62
2001,75
15014,62
2001,75
16015,62
3002,75
15014,62
12011,62
2001,75
17016,62
2001,75
2001,75
16015,62
11010,62
2001,74
2001,75
5004,75
2001,75
2001,75
2001,75
15014,62
10009,62
13012,62
3002,75
3002,75
2001,75
3002,75
2001,75
2001,75
15014,62
13012,62
2001,75
2001,75
2001,75
15014,75
11010,62
