iter,bestPrice
41040,43759
40039,43759
40039,43759
38037,43759
42041,43759
37036,43759
45044,43759
31030,43759
35034,43759
40039,43759
39038,43759
31030,43759
33032,43759
44043,43759
23022,43759
40039,43759
49048,43759
47046,43759
17016,43759
40039,43759
31030,43759
40039,43759
46045,43759
15014,43759
40039,43759
36035,43759
42041,43759
37036,43759
40039,43759
42041,43759
30029,43759
18017,43759
36035,43759
42041,43759
33032,43759
40039,43759
38037,43759
42041,43759
42041,43759
41040,43759
27026,43759
33032,43759
35034,43759
37036,43759
38037,43759
46045,43759
38037,43759
35034,43759
39038,43759
38037,43759
42041,43759
33032,43759
27026,43759
43042,43759
42041,43759
30029,43759
34033,43759
41040,43759
43042,43759
42041,43759
36035,43759
19018,43759
29028,43759
24023,43759
39038,43759
41040,43759
33032,43759
39038,43759
34033,43759
46045,43759
32031,43759
47046,43759
42041,43759
40039,43759
47046,43759
36035,43759
41040,43759
36035,43759
39038,43759
37036,43759
26025,43759
19018,43759
35034,43759
29028,43759
32031,43759
42041,43759
35034,43759
37036,43759
28027,43759
42041,43759
33032,43759
28027,43759
23022,43759
39038,43759
30029,43759
47046,43759
39038,43759
39038,43759
34033,43759
23022,43759
