iter,bestPrice
10009,43759
11010,43759
9008,43759
7006,43759
8007,43759
8007,43759
8007,43759
8007,43759
8007,43759
8007,43759
6005,43759
9008,43759
7006,43759
9008,43759
11010,43759
11010,43759
9008,43759
7006,43759
7006,43759
7006,43759
9008,43759
8007,43759
8007,43759
10009,43759
8007,43759
8007,43759
9008,43759
7006,43759
8007,43759
9008,43759
8007,43759
10009,43759
9008,43759
8007,43759
7006,43759
11010,43759
8007,43759
9008,43759
7006,43759
9008,43759
9008,43759
9008,43759
6005,43759
8007,43759
9008,43759
7006,43759
8007,43759
9008,43759
9008,43759
7006,43759
8007,43759
9008,43759
7006,43759
10009,43759
11010,43759
9008,43759
7006,43759
10009,43759
9008,43759
6005,43759
9008,43759
8007,43759
8007,43759
8007,43759
7006,43759
10009,43759
10009,43759
9008,43759
8007,43759
7006,43759
9008,43759
10009,43759
10009,43759
10009,43759
11010,43759
8007,43759
11010,43759
9008,43759
8007,43759
10009,43759
11010,43759
7006,43759
8007,43759
9008,43759
5004,43759
7006,43759
10009,43759
9008,43759
9008,43759
7006,43759
4003,43759
8007,43759
10009,43759
10009,43759
7006,43759
8007,43759
9008,43759
8007,43759
5004,43759
9008,43759
