iter,bestPrice
6005,1574
6005,1574
5004,1574
5004,1574
7006,1574
6005,1574
7006,1574
5004,1574
6005,1574
6005,1574
5004,1574
5004,1574
6005,1574
5004,1574
7006,1574
6005,1574
5004,1574
5004,1574
6005,1574
2001,1574
6005,1574
5004,1574
6005,1574
7006,1296
5004,1574
5004,1574
5004,1574
6005,1574
7006,1574
7006,1574
6005,1574
5004,1574
5004,1574
4003,1440
5004,1574
5004,1574
5004,1574
5004,1574
7006,1574
5004,1574
4003,1574
5004,1574
4003,1574
6005,1574
5004,1574
5004,1574
6005,1574
7006,1574
6005,1574
5004,1574
2001,1296
6005,1574
7006,1574
5004,1574
6005,1574
5004,1574
5004,1574
6005,1574
5004,1440
5004,1574
5004,1574
4003,1574
6005,1574
5004,1574
5004,1574
6005,1574
4003,1574
4003,1300
5004,1574
5004,1574
5004,1484
5004,1574
5004,1574
6005,1574
5004,1574
5004,1574
6005,1574
5004,1574
7006,1574
5004,1574
5004,1574
6005,1574
5004,1574
5004,1574
5004,1384
5004,1574
6005,1574
5004,1574
5004,1574
6005,1574
5004,1574
6005,1574
4003,1574
5004,1574
6005,1574
6005,1574
5004,1574
4003,1574
4003,1574
5004,1574
