iter,bestPrice
20019,78800
14013,78800
18017,78800
18017,78800
20019,78800
16015,78800
13012,78800
11010,78800
16015,78800
15014,78800
19018,78800
11010,78800
15014,78800
15014,78800
17016,78800
20019,78800
10009,78800
21020,78800
19018,78800
16015,78800
17016,78800
22021,78800
16015,78800
10009,78800
16015,78800
11010,78800
20019,78800
10009,78800
24023,78800
14013,78800
16015,78800
19018,78800
14013,78800
18017,78800
22021,78800
19018,78800
20019,78800
19018,78800
16015,78800
13012,78800
16015,78800
19018,78800
13012,78800
13012,78800
21020,78800
14013,78800
12011,78800
16015,78800
22021,78800
8007,78800
17016,78800
19018,78800
16015,78800
6005,78800
17016,78800
15014,78800
25024,78800
14013,78800
16015,78800
5004,78800
12011,78800
20019,78800
15014,78800
15014,73836
14013,78800
19018,78800
16015,78800
14013,78800
18017,78800
24023,78800
19018,78800
10009,78800
25024,78800
18017,78800
15014,78800
25024,78800
5004,78800
20019,78800
17016,78800
19018,78800
20019,78800
21020,78800
14013,78800
18017,78800
15014,78800
21020,78800
15014,78800
19018,78800
16015,78800
11010,78800
17016,78800
18017,78800
13012,78800
14013,78800
16015,78800
18017,78800
10009,78800
10009,78800
20019,78800
18017,78800
