iter,bestPrice
8007,6403
9008,6403
10009,6403
7006,6403
10009,6403
10009,6403
9008,6403
7006,6403
10009,6403
7006,6403
7006,6403
7006,6403
10009,6403
9008,6403
9008,6403
7006,6403
9008,6403
9008,6403
9008,6403
10009,6403
7006,6403
8007,6403
7006,6403
6005,6403
8007,6403
6005,6403
8007,6403
8007,6403
7006,6403
8007,6403
9008,6403
8007,6403
9008,6403
8007,6403
9008,6403
9008,6403
6005,6403
9008,6403
11010,6403
8007,6403
9008,6403
9008,6403
10009,6403
7006,6403
8007,6403
7006,6352
9008,6403
9008,6403
8007,6403
7006,6403
8007,6403
6005,6403
6005,6403
7006,6403
9008,6403
7006,6403
8007,6403
6005,6403
10009,6403
10009,6403
7006,6403
10009,6403
9008,6403
7006,6403
8007,6403
11010,6403
10009,6403
8007,6403
10009,6403
9008,6403
9008,6403
8007,6403
6005,6403
6005,6403
7006,6403
10009,6403
10009,6403
10009,6352
8007,6403
9008,6403
8007,6403
9008,6403
7006,6403
10009,6403
7006,6403
9008,6403
9008,6403
9008,6403
7006,6403
10009,6403
8007,6403
9008,6403
10009,6403
9008,6403
8007,6403
9008,6403
10009,6403
12011,6403
7006,6403
9008,6403
