iter,bestPrice
4003,1574
6005,1574
5004,1574
4003,1574
4003,1574
5004,1574
5004,1574
5004,1574
5004,1574
4003,1574
4003,1574
5004,1574
5004,1484
4003,1574
4003,1574
4003,1574
4003,1574
4003,1574
5004,1206
2001,1574
4003,1574
5004,1574
4003,1574
4003,1574
5004,1574
5004,1574
4003,1574
4003,1574
4003,1574
4003,1574
4003,1574
5004,1574
5004,1574
5004,1574
5004,1574
5004,1574
4003,1574
5004,1574
5004,1574
5004,1574
3002,1574
4003,1574
5004,1574
5004,1574
5004,1574
4003,1574
5004,1574
4003,1574
6005,1574
4003,1574
5004,1574
5004,1574
6005,1574
5004,1574
4003,1574
3002,1574
5004,1574
5004,1574
4003,1574
4003,1574
4003,1574
5004,1574
5004,1574
4003,1574
5004,1574
5004,1475
6005,1574
4003,1574
4003,1574
5004,1574
3002,1574
5004,1574
5004,1574
5004,1574
5004,1574
5004,1574
4003,1574
4003,1574
5004,1574
4003,1574
5004,1574
4003,1574
5004,1574
5004,1574
5004,1574
4003,1574
4003,1574
5004,1440
5004,1574
5004,1384
5004,1574
4003,1574
4003,1574
5004,1574
4003,1574
5004,1574
5004,1574
5004,1574
6005,1574
5004,1574
