iter,bestPrice
13012,78800
16015,78800
11010,78800
13012,78800
12011,78800
9008,78800
13012,78800
11010,78800
14013,78800
11010,78800
11010,78800
10009,78800
13012,78800
10009,78800
11010,78800
9008,78800
13012,78800
11010,78800
13012,78800
7006,78800
10009,78800
7006,78800
12011,78800
14013,78800
11010,78800
13012,78800
10009,78800
14013,78800
10009,78800
11010,78800
8007,78800
9008,78800
14013,78800
15014,78800
12011,78800
13012,78800
11010,78800
12011,78800
12011,78800
6005,78800
5004,78800
13012,78800
10009,78800
12011,78800
17016,78800
11010,78800
8007,78800
10009,78800
16015,78800
10009,78800
15014,78800
6005,78800
4003,69245
8007,78800
12011,78800
12011,78800
13012,78800
9008,78800
15014,78800
11010,78800
12011,78800
11010,78800
11010,78800
12011,78800
11010,78800
12011,78800
13012,78800
11010,78800
12011,78800
13012,78800
11010,78800
6005,67572
9008,78800
14013,78800
10009,78800
10009,78800
10009,78800
13012,78800
10009,78800
14013,78800
8007,78800
11010,78800
3002,54835
12011,78800
14013,78800
10009,78800
9008,78800
14013,78800
12011,78800
12011,78800
11010,78800
13012,78800
11010,78800
11010,78800
8007,78800
12011,78800
12011,78800
13012,78800
13012,78800
13012,78800
