iter,bestPrice
75074,6403
80079,6403
55054,6403
71070,6403
63062,6403
69068,6403
72071,6403
80079,6403
73072,6403
57056,6403
74073,6403
80079,6403
55054,6403
55054,6403
63062,6403
79078,6403
51050,6403
84083,6403
88087,6403
67066,6403
71070,6403
45044,6403
63062,6403
58057,6403
67066,6403
80079,6403
58057,6403
63062,6403
74073,6403
70069,6403
84083,6403
50049,6403
76075,6403
73072,6403
51050,6403
67066,6403
56055,6403
52051,6403
62061,6403
83082,6403
73072,6403
63062,6403
63062,6403
70069,6403
68067,6403
82081,6403
93092,6403
77076,6403
67066,6403
41040,6403
72071,6403
78077,6403
89088,6403
63062,6403
73072,6403
79078,6403
80079,6403
84083,6403
46045,6403
73072,6403
55054,6403
75074,6403
83082,6403
65064,6403
92091,6403
50049,6403
92091,6403
67066,6403
78077,6403
59058,6403
49048,6403
59058,6403
55054,6403
47046,6403
77076,6403
68067,6403
85084,6403
47046,6403
79078,6403
87086,6403
53052,6403
79078,6403
60059,6403
74073,6403
44043,6403
85084,6403
54053,6403
88087,6403
66065,6403
59058,6403
78077,6403
73072,6403
75074,6403
61060,6403
57056,6403
63062,6403
62061,6403
81080,6403
79078,6403
74073,6403
