iter,bestPrice
5004,1574
6005,1574
4003,1574
5004,1574
5004,1574
7006,1574
5004,1574
6005,1574
6005,1574
6005,1574
6005,1574
7006,1574
6005,1574
5004,1574
4003,1574
5004,1574
7006,1574
4003,1574
4003,1574
4003,1574
6005,1574
6005,1574
6005,1574
7006,1574
5004,1574
7006,1574
6005,1574
5004,1574
5004,1574
6005,1574
5004,1574
7006,1574
4003,1574
6005,1574
5004,1574
5004,1574
3002,1440
5004,1574
5004,1574
6005,1574
5004,1574
6005,1574
5004,1574
5004,1574
6005,1574
4003,1574
5004,1574
4003,1574
5004,1574
4003,1574
4003,1574
4003,1337
6005,1574
5004,1574
7006,1574
7006,1574
4003,1574
6005,1574
6005,1574
5004,1574
7006,1574
5004,1384
5004,1574
7006,1574
6005,1574
7006,1574
6005,1574
5004,1574
6005,1574
5004,1574
7006,1574
6005,1574
6005,1574
5004,1574
5004,1574
5004,1574
6005,1574
5004,1574
6005,1574
6005,1574
6005,1574
6005,1384
7006,1574
5004,1574
8007,1574
6005,1574
5004,1384
6005,1574
6005,1574
5004,1574
6005,1574
5004,1574
5004,1574
6005,1574
5004,1574
4003,1574
4003,1574
6005,1574
6005,1574
7006,1574
