iter,bestPrice
11010,62
2001,75
2001,75
2001,75
2001,75
2001,75
9008,62
13012,62
7006,62
4003,75
2001,75
4003,75
8007,62
2001,75
2001,75
9008,62
2001,75
3002,75
8007,62
4003,75
3002,75
2001,75
10009,62
6005,62
7006,62
8007,62
2001,75
2001,75
9008,62
2001,74
9008,62
9008,62
7006,62
7006,62
2001,75
7006,75
2001,75
5004,75
7006,62
2001,75
2001,75
8007,62
8007,62
2001,75
13012,62
6005,62
2001,74
3002,75
2001,75
8007,62
12011,62
8007,62
2001,75
2001,72
8007,62
10009,62
2001,75
2001,75
10009,62
11010,62
2001,75
2001,75
8007,62
3002,75
3002,75
9008,62
12011,72
2001,75
7006,62
2001,75
5004,75
10009,62
2001,75
3002,75
9008,62
8007,62
7006,62
2001,75
11010,62
7006,62
13012,72
2001,75
10009,62
2001,75
10009,72
9008,62
6005,62
2001,75
7006,62
7006,62
2001,75
3002,75
3002,75
3002,75
3002,75
2001,75
2001,74
2001,75
11010,62
2001,75
