iter,bestPrice
32031,6403
28027,6403
25024,6403
24023,6403
27026,6403
17016,6403
32031,6403
35034,6403
31030,6403
7006,6302
26025,6403
23022,6403
23022,6403
31030,6403
27026,6403
28027,6403
27026,6403
24023,6403
24023,6403
23022,6403
24023,6403
28027,6403
23022,6403
32031,6403
21020,6403
27026,6403
27026,6403
19018,6403
31030,6403
20019,6403
30029,6403
34033,6403
29028,6403
29028,6403
27026,6403
26025,6403
25024,6403
20019,6403
31030,6403
32031,6403
26025,6403
19018,6403
26025,6403
34033,6403
24023,6403
18017,6403
31030,6403
30029,6403
31030,6403
31030,6403
27026,6403
22021,6403
15014,6403
29028,6403
20019,6403
28027,6403
35034,6403
31030,6403
30029,6403
24023,6403
27026,6403
23022,6403
36035,6403
28027,6403
33032,6403
22021,6403
31030,6403
15014,6403
26025,6403
31030,6403
27026,6403
28027,6403
34033,6403
28027,6403
21020,6403
30029,6403
25024,6403
28027,6403
19018,6403
30029,6403
28027,6403
24023,6403
28027,6403
30029,6403
25024,6403
27026,6403
28027,6403
21020,6403
23022,6403
15014,6403
25024,6403
33032,6403
27026,6403
33032,6403
30029,6403
20019,6403
28027,6403
26025,6403
22021,6403
26025,6403
