iter,bestPrice
108107,78800
68067,78800
88087,78800
84083,78800
115114,78800
38037,78800
79078,78800
87086,78800
110109,78800
74073,78800
120119,78800
84083,78800
116115,78800
105104,78800
116115,78800
42041,78800
114113,78800
122121,78800
86085,78800
80079,78800
117116,78800
17016,78800
34033,78800
99098,78800
128127,78800
118117,78800
110109,78800
109108,78800
68067,78800
66065,78800
99098,78800
109108,78800
103102,78800
28027,78800
88087,78800
91090,78800
79078,78800
94093,78800
68067,78800
121120,78800
100099,78800
96095,78800
84083,78800
71070,78800
81080,78800
87086,78800
47046,78800
111110,78800
115114,78800
101100,78800
84083,78800
121120,78800
61060,78800
77076,78800
78077,78800
83082,78800
2001,46918
94093,78800
92091,78800
80079,78800
103102,78800
37036,78800
68067,78800
84083,78800
26025,78800
95094,78800
98097,78800
63062,78800
76075,78800
130129,78800
132131,78800
102101,78800
121120,78800
88087,78800
94093,78800
61060,78800
86085,78800
108107,78800
76075,78800
56055,78800
94093,78800
109108,78800
63062,78800
96095,78800
105104,78800
68067,78800
97096,78800
110109,78800
44043,78800
88087,78800
94093,78800
48047,78800
57056,78800
97096,78800
90089,78800
70069,78800
96095,78800
78077,78800
107106,78800
87086,78800
