iter,bestPrice
6005,1574
5004,1574
6005,1574
7006,1574
5004,1574
4003,1574
5004,1574
5004,1574
5004,1574
5004,1574
5004,1574
6005,1574
4003,1574
4003,1574
4003,1574
6005,1574
5004,1574
5004,1574
5004,1574
6005,1574
4003,1574
6005,1574
4003,1574
5004,1574
6005,1484
5004,1574
5004,1574
6005,1574
5004,1574
4003,1574
6005,1574
4003,1574
6005,1296
3002,1574
6005,1574
6005,1574
5004,1574
4003,1574
5004,1574
5004,1574
6005,1574
4003,1574
5004,1574
6005,1574
5004,1574
5004,1574
5004,1574
5004,1574
4003,1574
6005,1574
4003,1574
4003,1574
5004,1574
5004,1574
3002,1484
6005,1574
4003,1574
5004,1574
6005,1574
5004,1574
6005,1574
6005,1574
5004,1574
5004,1574
5004,1574
5004,1574
6005,1574
3002,1574
5004,1574
4003,1574
5004,1574
5004,1574
6005,1574
4003,1574
5004,1574
5004,1574
5004,1574
4003,1574
3002,1574
6005,1574
6005,1574
5004,1574
6005,1574
4003,1574
6005,1574
2001,936
6005,1574
6005,1574
4003,1574
5004,1574
6005,1574
5004,1574
4003,1574
4003,1574
4003,1574
4003,1574
5004,1574
5004,1574
4003,1475
4003,1574
