iter,bestPrice
15014,43759
12011,43759
14013,43759
15014,43759
14013,43759
18017,43759
9008,43759
13012,43759
12011,43759
14013,43759
15014,43759
13012,43759
15014,43759
15014,43759
15014,43759
15014,43759
17016,43759
13012,43759
14013,43759
14013,43759
15014,43759
15014,43759
13012,43759
12011,43759
12011,43759
15014,43759
10009,43759
14013,43759
10009,43759
15014,43759
10009,43759
15014,43759
13012,43759
17016,43759
13012,43759
16015,43759
8007,43759
11010,43759
13012,43759
11010,43759
16015,43759
13012,43759
11010,43759
13012,43759
14013,43759
14013,43759
16015,43759
15014,43759
10009,43759
12011,43759
13012,43759
13012,43759
8007,43759
14013,43759
12011,43759
10009,43759
16015,43759
14013,43759
15014,43759
16015,43759
8007,43759
15014,43759
14013,43759
12011,43759
13012,43759
13012,43759
13012,43759
12011,43759
15014,43759
15014,43759
14013,43759
11010,43759
12011,43759
11010,43759
13012,43759
16015,43759
15014,43759
14013,43759
13012,43759
14013,43759
14013,43759
15014,43759
13012,43759
15014,43759
15014,43759
10009,43759
13012,43759
13012,43759
12011,43759
11010,43759
15014,43759
12011,43759
14013,43759
16015,43759
14013,43759
13012,43759
8007,43759
13012,43759
11010,43759
14013,43759
