iter,bestPrice
31030,43759
17016,43759
21020,43759
26025,43759
20019,43759
25024,43759
22021,43759
27026,43759
20019,43759
26025,43759
23022,43759
27026,43759
34033,43759
27026,43759
23022,43759
19018,43759
27026,43759
19018,43759
19018,43759
26025,43759
28027,43759
22021,43759
23022,43759
21020,43759
23022,43759
22021,43759
29028,43759
24023,43759
29028,43759
23022,43759
26025,43759
27026,43759
24023,43759
16015,43759
29028,43759
28027,43759
31030,43759
24023,43759
27026,43759
28027,43759
27026,43759
29028,43759
25024,43759
30029,43759
19018,43759
24023,43759
34033,43759
26025,43759
29028,43759
24023,43759
26025,43759
26025,43759
29028,43759
19018,43759
26025,43759
24023,43759
34033,43759
29028,43759
27026,43759
32031,43759
24023,43759
17016,43759
35034,43759
24023,43759
23022,43759
21020,43759
22021,43759
29028,43759
26025,43759
20019,43759
26025,43759
27026,43759
19018,43759
22021,43759
23022,43759
28027,43759
29028,43759
30029,43759
30029,43759
30029,43759
17016,43759
27026,43759
25024,43759
28027,43759
27026,43759
27026,43759
24023,43759
29028,43759
33032,43759
27026,43759
33032,43759
29028,43759
27026,43759
24023,43759
24023,43759
26025,43759
27026,43759
31030,43759
22021,43759
22021,43759
