iter,bestPrice
5004,1574
4003,1574
3002,1574
4003,1574
5004,1574
5004,1574
6005,1574
5004,1574
6005,1574
3002,1337
4003,1574
4003,1574
3002,1574
4003,1574
5004,1574
5004,1574
5004,1574
4003,1574
5004,1574
4003,1574
5004,1574
5004,1574
5004,1574
5004,1574
4003,1574
4003,1574
3002,1574
5004,1574
5004,1574
4003,1574
5004,1574
4003,1574
5004,1574
4003,1574
3002,1574
3002,1574
5004,1574
5004,1574
4003,1574
4003,1574
4003,1574
5004,1574
4003,1574
5004,1574
5004,1440
5004,1574
4003,1574
4003,1574
4003,1574
5004,1574
5004,1574
5004,1574
4003,1574
3002,1574
4003,1574
6005,1574
4003,1574
5004,1574
6005,1574
5004,1574
4003,1574
5004,1574
4003,1574
5004,1574
5004,1574
5004,1440
5004,1574
5004,1574
5004,1574
5004,1484
4003,1574
5004,1574
5004,1574
4003,1440
5004,1574
4003,1574
4003,1574
3002,1574
4003,1574
4003,1574
4003,1574
3002,1384
4003,1574
5004,1574
4003,1574
4003,1574
5004,1574
5004,1574
5004,1574
5004,1574
4003,1574
4003,1574
5004,1574
4003,1574
3002,1574
5004,1574
4003,1574
5004,1574
4003,1574
5004,1574
