iter,bestPrice
10009,78800
7006,78800
5004,78800
10009,78800
6005,78800
11010,78800
8007,78800
7006,78800
9008,78800
7006,78800
8007,78800
8007,78800
8007,78800
7006,78800
7006,78800
6005,78800
10009,78800
8007,78800
8007,78800
10009,78800
6005,78800
9008,78800
8007,78800
8007,78800
9008,78800
8007,78800
7006,78800
7006,78800
6005,78800
8007,78800
5004,78800
9008,78800
8007,78800
8007,78800
8007,78800
10009,78800
8007,78800
8007,78800
8007,78800
9008,78800
6005,78800
10009,78800
9008,78800
8007,78800
10009,78800
7006,78800
7006,78800
11010,78800
9008,78800
7006,78800
8007,78800
7006,78800
8007,78800
7006,78800
6005,78800
6005,78800
7006,78800
7006,78800
9008,78800
9008,78800
8007,78800
7006,78800
7006,78800
6005,78800
9008,78800
8007,78800
10009,78800
7006,78800
12011,78800
11010,78800
7006,78800
7006,78800
10009,78800
6005,78800
6005,78800
10009,78800
6005,78800
9008,78800
8007,78800
10009,78800
8007,78800
6005,78800
8007,78800
6005,78800
8007,78800
5004,78800
10009,78800
9008,78800
7006,78800
8007,78800
7006,78800
7006,78800
9008,78800
9008,78800
5004,78800
7006,78800
9008,78800
8007,78800
7006,78800
8007,78800
