iter,bestPrice
6005,78800
4003,78800
3002,78800
5004,78800
6005,78800
5004,78800
5004,78800
5004,78800
4003,78800
4003,78800
5004,78800
6005,78800
5004,78800
5004,78800
5004,78800
6005,78800
4003,78800
5004,78800
5004,78800
4003,72090
5004,78800
6005,78800
5004,78800
5004,78800
5004,78800
6005,78800
5004,78800
4003,78800
5004,78800
4003,78800
6005,78800
5004,78800
6005,78800
4003,78800
5004,78800
4003,78800
5004,78800
6005,78800
4003,78800
5004,78800
6005,78800
5004,78800
6005,78800
6005,72090
5004,78800
5004,78800
5004,78800
4003,78800
5004,78800
6005,78800
5004,78800
5004,78800
4003,78800
6005,78800
5004,78800
5004,78800
6005,78800
5004,78800
6005,78800
6005,78800
6005,78800
5004,78800
4003,78800
5004,78800
5004,78800
6005,78800
5004,78800
4003,78800
5004,78800
4003,78800
4003,78800
6005,78800
5004,78800
4003,78800
3002,78800
6005,78800
4003,78800
4003,78800
4003,78800
4003,69245
5004,78800
4003,78800
5004,78800
5004,78800
3002,78800
5004,78800
4003,78800
5004,78800
4003,78800
6005,78800
5004,78800
5004,78800
6005,78800
5004,78800
5004,78800
4003,78800
5004,78800
5004,78800
5004,78800
5004,78800
