iter,bestPrice
149148,1574
192191,1574
204203,1574
241240,1574
185184,1574
319318,1574
244243,1574
45044,1574
264263,1574
125124,1574
256255,1574
173172,1574
118117,1574
204203,1574
227226,1574
127126,1574
189188,1574
321320,1574
185184,1574
164163,1574
39038,1574
215214,1574
213212,1574
129128,1574
350349,1574
203202,1574
292291,1574
219218,1574
335334,1574
142141,1574
133132,1574
250249,1574
113112,1574
182181,1574
66065,1574
216215,1574
353352,1574
175174,1574
262261,1574
99098,1574
313312,1574
294293,1574
213212,1574
202201,1574
180179,1574
151150,1574
262261,1574
278277,1574
195194,1574
267266,1574
172171,1574
80079,1574
148147,1574
318317,1574
58057,1574
249248,1574
311310,1574
139138,1574
191190,1574
265264,1574
376375,1574
127126,1574
254253,1574
290289,1574
10009,1574
201200,1574
343342,1574
198197,1574
224223,1574
148147,1574
303302,1574
302301,1574
323322,1574
133132,1574
174173,1574
315314,1574
179178,1574
285284,1574
103102,1574
221220,1574
272271,1574
240239,1574
177176,1574
246245,1574
103102,1574
260259,1574
131130,1574
315314,1574
320319,1574
8007,1574
312311,1574
207206,1574
114113,1574
245244,1574
258257,1574
383382,1574
268267,1574
332331,1574
287286,1574
91090,1574
