iter,bestPrice
363362,43759
365364,43759
355354,43759
310309,43759
418417,43759
313312,43759
516515,43759
312311,43759
362361,43759
431430,43759
383382,43759
394393,43759
372371,43759
311310,43759
346345,43759
316315,43759
248247,43759
418417,43759
408407,43759
439438,43759
391390,43759
376375,43759
429428,43759
388387,43759
452451,43759
392391,43759
473472,43759
363362,43759
336335,43759
327326,43759
475474,43759
375374,43759
278277,43759
303302,43759
417416,43759
426425,43759
338337,43759
354353,43759
368367,43759
418417,43759
454453,43759
345344,43759
317316,43759
411410,43759
269268,43759
504503,43759
408407,43759
356355,43759
406405,43759
326325,43759
381380,43759
418417,43759
513512,43759
458457,43759
234233,43759
416415,43759
398397,43759
234233,43759
423422,43759
201200,43759
301300,43759
441440,43759
301300,43759
352351,43759
424423,43759
340339,43759
398397,43759
472471,43759
288287,43759
376375,43759
278277,43759
359358,43759
175174,43759
454453,43759
379378,43759
292291,43759
365364,43759
354353,43759
433432,43759
399398,43759
483482,43759
267266,43759
325324,43759
434433,43759
413412,43759
354353,43759
316315,43759
414413,43759
263262,43759
285284,43759
455454,43759
281280,43759
284283,43759
365364,43759
411410,43759
403402,43759
353352,43759
488487,43759
435434,43759
218217,43759
