iter,bestPrice
214213,1574
228227,1574
263262,1574
268267,1574
266265,1574
219218,1574
348347,1574
317316,1574
297296,1574
189188,1574
344343,1574
83082,1574
258257,1574
268267,1574
178177,1574
43042,1574
319318,1574
130129,1574
312311,1574
294293,1574
73072,1574
267266,1574
186185,1574
196195,1574
288287,1574
111110,1574
2001,936
242241,1574
309308,1574
187186,1574
100099,1574
312311,1574
178177,1574
228227,1574
170169,1574
127126,1574
126125,1574
232231,1574
153152,1574
149148,1574
70069,1574
296295,1574
109108,1574
177176,1574
58057,1574
340339,1574
214213,1574
228227,1574
289288,1574
168167,1574
293292,1574
379378,1574
49048,1574
188187,1574
339338,1574
125124,1574
240239,1574
276275,1574
248247,1574
186185,1574
14013,1574
376375,1574
385384,1574
228227,1574
372371,1574
255254,1574
198197,1574
209208,1574
249248,1574
133132,1574
239238,1574
167166,1574
109108,1574
224223,1574
173172,1574
294293,1574
165164,1574
301300,1574
164163,1574
144143,1574
227226,1574
249248,1574
15014,1574
53052,1574
313312,1574
219218,1574
211210,1574
374373,1574
84083,1574
259258,1574
373372,1574
137136,1574
97096,1574
214213,1574
196195,1574
238237,1574
238237,1574
21020,1574
257256,1574
256255,1574
