iter,bestPrice
190189,1574
258257,1574
250249,1574
277276,1574
131130,1574
189188,1574
214213,1574
37036,1574
219218,1574
256255,1574
185184,1574
186185,1574
119118,1574
295294,1574
264263,1574
97096,1574
237236,1574
85084,1574
211210,1574
169168,1574
286285,1574
275274,1574
223222,1574
316315,1574
259258,1574
104103,1574
253252,1574
298297,1574
331330,1574
255254,1574
206205,1574
188187,1574
237236,1574
370369,1574
240239,1574
380379,1574
335334,1574
284283,1574
224223,1574
272271,1574
230229,1574
264263,1574
129128,1574
246245,1574
350349,1574
164163,1574
182181,1574
272271,1574
227226,1574
267266,1574
191190,1574
99098,1574
174173,1574
199198,1574
373372,1574
173172,1574
321320,1574
301300,1574
78077,1574
200199,1574
215214,1574
213212,1574
264263,1574
172171,1574
169168,1574
136135,1574
345344,1574
287286,1574
50049,1574
138137,1574
365364,1574
238237,1574
255254,1574
294293,1574
152151,1574
256255,1574
123122,1574
213212,1574
267266,1574
293292,1574
311310,1574
335334,1574
301300,1574
59058,1574
163162,1574
260259,1574
77076,1574
217216,1574
403402,1574
128127,1574
106105,1574
286285,1574
201200,1574
212211,1574
165164,1574
254253,1574
160159,1574
259258,1574
258257,1574
111110,1574
