iter,bestPrice
393392,6403
493492,6403
462461,6403
291290,6403
461460,6403
335334,6403
382381,6403
360359,6403
301300,6403
395394,6403
398397,6403
325324,6403
380379,6403
213212,6403
488487,6403
389388,6403
318317,6403
387386,6403
198197,6403
420419,6403
333332,6403
352351,6403
394393,6403
361360,6403
409408,6403
257256,6403
434433,6403
347346,6403
408407,6403
396395,6403
408407,6403
511510,6403
294293,6403
350349,6403
462461,6403
447446,6403
339338,6403
513512,6403
372371,6403
287286,6403
461460,6403
359358,6403
443442,6403
402401,6403
374373,6403
501500,6403
430429,6403
385384,6403
360359,6403
378377,6403
354353,6403
364363,6403
307306,6403
487486,6403
507506,6403
477476,6403
402401,6403
321320,6403
481480,6403
419418,6403
459458,6403
55054,6403
335334,6403
248247,6403
299298,6403
410409,6403
428427,6403
308307,6403
219218,6403
330329,6403
311310,6403
418417,6403
292291,6403
425424,6403
343342,6403
444443,6403
501500,6403
349348,6403
349348,6403
327326,6403
247246,6403
315314,6403
400399,6403
314313,6403
419418,6403
446445,6403
454453,6403
308307,6403
358357,6403
365364,6403
414413,6403
408407,6403
234233,6403
405404,6403
427426,6403
405404,6403
292291,6403
485484,6403
293292,6403
340339,6403
