iter,bestPrice
314313,43759
436435,43759
357356,43759
327326,43759
375374,43759
492491,43759
232231,43759
421420,43759
529528,43759
327326,43759
470469,43759
286285,43759
382381,43759
451450,43759
232231,43759
382381,43759
316315,43759
231230,43759
289288,43759
416415,43759
366365,43759
470469,43759
271270,43759
475474,43759
457456,43759
268267,43759
387386,43759
295294,43759
445444,43759
205204,43759
198197,43759
343342,43759
301300,43759
395394,43759
453452,43759
371370,43759
399398,43759
358357,43759
360359,43759
448447,43759
338337,43759
402401,43759
382381,43759
446445,43759
369368,43759
423422,43759
358357,43759
335334,43759
383382,43759
391390,43759
447446,43759
102101,43759
360359,43759
325324,43759
469468,43759
398397,43759
357356,43759
415414,43759
493492,43759
228227,43759
396395,43759
325324,43759
338337,43759
431430,43759
431430,43759
355354,43759
13012,43759
421420,43759
405404,43759
312311,43759
342341,43759
402401,43759
406405,43759
310309,43759
492491,43759
377376,43759
384383,43759
382381,43759
368367,43759
309308,43759
382381,43759
357356,43759
440439,43759
329328,43759
450449,43759
349348,43759
393392,43759
228227,43759
283282,43759
339338,43759
336335,43759
263262,43759
446445,43759
313312,43759
503502,43759
374373,43759
399398,43759
406405,43759
358357,43759
343342,43759
