iter,bestPrice
338337,6403
321320,6403
429428,6403
451450,6403
457456,6403
462461,6403
393392,6403
401400,6403
435434,6403
305304,6403
479478,6403
421420,6403
440439,6403
280279,6403
452451,6403
318317,6403
367366,6403
326325,6403
369368,6403
372371,6403
355354,6403
383382,6403
396395,6403
445444,6403
411410,6403
353352,6403
425424,6403
287286,6403
402401,6403
338337,6403
180179,6403
290289,6403
309308,6403
251250,6403
379378,6403
302301,6403
422421,6403
294293,6403
297296,6403
267266,6403
399398,6403
415414,6403
359358,6403
422421,6403
423422,6403
461460,6403
411410,6403
417416,6403
395394,6403
383382,6403
476475,6403
452451,6403
365364,6403
391390,6403
465464,6403
387386,6403
346345,6403
236235,6403
362361,6403
348347,6403
410409,6403
345344,6403
271270,6403
488487,6403
383382,6403
401400,6403
298297,6403
366365,6403
402401,6403
236235,6403
300299,6403
300299,6403
374373,6403
410409,6403
515514,6403
414413,6403
293292,6403
375374,6403
338337,6403
370369,6403
254253,6403
369368,6403
288287,6403
301300,6403
439438,6403
335334,6403
449448,6403
308307,6403
283282,6403
362361,6403
412411,6403
379378,6403
383382,6403
165164,6403
297296,6403
452451,6403
423422,6403
477476,6403
393392,6403
429428,6403
