iter,bestPrice
447446,6403
369368,6403
280279,6403
397396,6403
393392,6403
379378,6403
431430,6403
301300,6403
401400,6403
374373,6403
320319,6403
331330,6403
393392,6403
409408,6403
477476,6403
455454,6403
388387,6403
397396,6403
374373,6403
341340,6403
465464,6403
388387,6403
292291,6403
391390,6403
321320,6403
195194,6403
384383,6403
368367,6403
308307,6403
457456,6403
375374,6403
484483,6403
378377,6403
411410,6403
239238,6403
369368,6403
320319,6403
380379,6403
464463,6403
360359,6403
442441,6403
307306,6403
343342,6403
244243,6403
240239,6403
203202,6403
334333,6403
383382,6403
356355,6403
467466,6403
438437,6403
540539,6403
393392,6403
375374,6403
371370,6403
513512,6403
428427,6403
347346,6403
398397,6403
351350,6403
463462,6403
266265,6403
353352,6403
442441,6403
383382,6403
351350,6403
457456,6403
464463,6403
400399,6403
278277,6403
470469,6403
515514,6403
501500,6403
363362,6403
235234,6403
367366,6403
424423,6403
344343,6403
435434,6403
324323,6403
391390,6403
335334,6403
428427,6403
349348,6403
387386,6403
285284,6403
322321,6403
235234,6403
262261,6403
388387,6403
293292,6403
287286,6403
393392,6403
301300,6403
400399,6403
370369,6403
264263,6403
367366,6403
273272,6403
397396,6403
