iter,bestPrice
406405,6403
435434,6403
488487,6403
493492,6403
417416,6403
362361,6403
391390,6403
484483,6403
314313,6403
502501,6403
514513,6403
414413,6403
411410,6403
420419,6403
454453,6403
223222,6403
311310,6403
399398,6403
451450,6403
464463,6403
434433,6403
326325,6403
255254,6403
504503,6403
324323,6403
438437,6403
454453,6403
357356,6403
397396,6403
442441,6403
362361,6403
404403,6403
311310,6403
319318,6403
262261,6403
350349,6403
134133,6403
325324,6403
379378,6403
426425,6403
485484,6403
397396,6403
360359,6403
423422,6403
374373,6403
340339,6403
411410,6403
412411,6403
298297,6403
294293,6403
374373,6403
274273,6403
413412,6403
430429,6403
361360,6403
425424,6403
383382,6403
456455,6403
275274,6403
380379,6403
377376,6403
292291,6403
385384,6403
368367,6403
420419,6403
346345,6403
468467,6403
386385,6403
339338,6403
427426,6403
444443,6403
425424,6403
423422,6403
362361,6403
396395,6403
362361,6403
457456,6403
303302,6403
435434,6403
477476,6403
319318,6403
314313,6403
343342,6403
264263,6403
403402,6403
532531,6403
471470,6403
513512,6403
389388,6403
376375,6403
234233,6403
355354,6403
327326,6403
390389,6403
283282,6403
399398,6403
401400,6403
470469,6403
412411,6403
296295,6403
