iter,bestPrice
364363,6403
395394,6403
418417,6403
484483,6403
378377,6403
364363,6403
378377,6403
470469,6403
405404,6403
343342,6403
436435,6403
343342,6403
399398,6403
322321,6403
339338,6403
494493,6403
245244,6403
305304,6403
415414,6403
381380,6403
371370,6403
405404,6403
404403,6403
472471,6403
301300,6403
408407,6403
182181,6403
360359,6403
443442,6403
443442,6403
370369,6403
502501,6403
380379,6403
348347,6403
344343,6403
348347,6403
367366,6403
392391,6403
395394,6403
407406,6403
425424,6403
403402,6403
446445,6403
376375,6403
290289,6403
463462,6403
379378,6403
417416,6403
305304,6403
473472,6403
380379,6403
353352,6403
321320,6403
338337,6403
407406,6403
273272,6403
367366,6403
421420,6403
453452,6403
472471,6403
456455,6403
442441,6403
364363,6403
286285,6403
356355,6403
259258,6403
287286,6403
414413,6403
439438,6403
436435,6403
162161,6403
303302,6403
452451,6403
413412,6403
340339,6403
327326,6403
352351,6403
308307,6403
242241,6403
477476,6403
482481,6403
399398,6403
396395,6403
334333,6403
291290,6403
466465,6403
457456,6403
391390,6403
362361,6403
384383,6403
421420,6403
365364,6403
368367,6403
443442,6403
498497,6403
344343,6403
485484,6403
288287,6403
344343,6403
398397,6403
