iter,bestPrice
284283,1574
78077,1574
255254,1574
290289,1574
377376,1574
276275,1574
122121,1574
13012,1574
210209,1574
150149,1574
350349,1574
144143,1574
286285,1574
313312,1574
58057,1574
161160,1574
208207,1574
222221,1574
277276,1574
20019,1574
116115,1574
121120,1574
342341,1574
59058,1574
333332,1574
319318,1574
244243,1574
318317,1574
314313,1574
56055,1574
257256,1574
268267,1574
299298,1574
98097,1574
308307,1574
315314,1574
291290,1574
252251,1574
295294,1574
293292,1574
204203,1574
286285,1574
248247,1574
109108,1574
370369,1574
233232,1574
237236,1574
97096,1574
212211,1574
273272,1574
150149,1574
242241,1574
259258,1574
37036,1574
215214,1574
38037,1574
83082,1574
278277,1574
270269,1574
78077,1574
267266,1574
241240,1574
383382,1574
217216,1574
383382,1574
260259,1574
338337,1574
163162,1574
48047,1574
367366,1574
275274,1574
324323,1574
304303,1574
154153,1574
186185,1574
174173,1574
246245,1574
296295,1574
67066,1574
236235,1574
274273,1574
286285,1574
249248,1574
336335,1574
28027,1574
152151,1574
68067,1574
325324,1574
254253,1574
265264,1574
174173,1574
245244,1574
279278,1574
66065,1574
285284,1574
292291,1574
303302,1574
243242,1574
222221,1574
90089,1574
