iter,bestPrice
388387,6403
271270,6403
401400,6403
514513,6403
336335,6403
360359,6403
335334,6403
442441,6403
317316,6403
357356,6403
380379,6403
367366,6403
353352,6403
375374,6403
378377,6403
385384,6403
342341,6403
389388,6403
345344,6403
443442,6403
482481,6403
380379,6403
419418,6403
268267,6403
494493,6403
474473,6403
402401,6403
228227,6403
228227,6403
446445,6403
285284,6403
439438,6403
426425,6403
255254,6403
396395,6403
390389,6403
380379,6403
276275,6403
383382,6403
275274,6403
396395,6403
410409,6403
263262,6403
435434,6403
353352,6403
367366,6403
529528,6403
395394,6403
304303,6403
345344,6403
499498,6403
292291,6403
389388,6403
414413,6403
328327,6403
319318,6403
286285,6403
328327,6403
385384,6403
318317,6403
394393,6403
460459,6403
433432,6403
413412,6403
469468,6403
416415,6403
416415,6403
490489,6403
296295,6403
428427,6403
168167,6403
298297,6403
350349,6403
233232,6403
382381,6403
405404,6403
442441,6403
335334,6403
357356,6403
405404,6403
299298,6403
431430,6403
267266,6403
457456,6403
217216,6403
303302,6403
391390,6403
482481,6403
304303,6403
254253,6403
313312,6403
381380,6403
409408,6403
429428,6403
477476,6403
386385,6403
323322,6403
303302,6403
322321,6403
362361,6403
