iter,bestPrice
196195,78800
212211,78800
321320,78800
16015,78800
56055,78800
223222,78800
235234,78800
220219,78800
196195,78800
256255,78800
154153,78800
273272,78800
198197,78800
202201,78800
216215,78800
282281,78800
116115,78800
111110,78800
212211,78800
196195,78800
339338,78800
253252,78800
224223,78800
247246,78800
104103,78800
237236,78800
207206,78800
257256,78800
155154,78800
157156,78800
68067,78800
129128,78800
175174,78800
317316,78800
71070,78800
273272,78800
341340,78800
198197,78800
365364,78800
339338,78800
262261,78800
276275,78800
45044,78800
206205,78800
153152,78800
314313,78800
212211,78800
217216,78800
264263,78800
268267,78800
164163,78800
93092,78800
369368,78800
246245,78800
294293,78800
314313,78800
55054,78800
28027,78800
194193,78800
378377,78800
327326,78800
282281,78800
146145,78800
206205,78800
258257,78800
170169,78800
10009,72090
188187,78800
167166,78800
190189,78800
90089,78800
225224,78800
288287,78800
132131,78800
153152,78800
252251,78800
234233,78800
161160,78800
248247,78800
228227,78800
128127,78800
200199,78800
219218,78800
216215,78800
94093,78800
369368,78800
339338,78800
111110,78800
288287,78800
68067,78800
202201,78800
112111,78800
218217,78800
238237,78800
180179,78800
357356,78800
81080,78800
307306,78800
335334,78800
301300,78800
