iter,bestPrice
443442,43759
267266,43759
305304,43759
449448,43759
365364,43759
361360,43759
397396,43759
166165,43759
267266,43759
389388,43759
365364,43759
446445,43759
353352,43759
335334,43759
425424,43759
353352,43759
447446,43759
440439,43759
307306,43759
325324,43759
389388,43759
386385,43759
481480,43759
410409,43759
305304,43759
426425,43759
411410,43759
395394,43759
421420,43759
367366,43759
407406,43759
399398,43759
467466,43759
375374,43759
406405,43759
310309,43759
365364,43759
410409,43759
341340,43759
380379,43759
394393,43759
185184,43759
442441,43759
422421,43759
277276,43759
445444,43759
358357,43759
327326,43759
402401,43759
452451,43759
305304,43759
332331,43759
255254,43759
418417,43759
321320,43759
447446,43759
343342,43759
386385,43759
267266,43759
355354,43759
427426,43759
359358,43759
241240,43759
432431,43759
365364,43759
399398,43759
450449,43759
452451,43759
369368,43759
438437,43759
454453,43759
405404,43759
465464,43759
516515,43759
363362,43759
420419,43759
401400,43759
377376,43759
413412,43759
454453,43759
401400,43759
347346,43759
318317,43759
428427,43759
372371,43759
433432,43759
322321,43759
396395,43759
241240,43759
431430,43759
362361,43759
372371,43759
347346,43759
436435,43759
281280,43759
512511,43759
252251,43759
333332,43759
479478,43759
411410,43759
