iter,bestPrice
288287,43759
366365,43759
408407,43759
239238,43759
381380,43759
469468,43759
301300,43759
442441,43759
448447,43759
380379,43759
306305,43759
456455,43759
376375,43759
36035,43759
325324,43759
380379,43759
430429,43759
373372,43759
461460,43759
257256,43759
414413,43759
360359,43759
399398,43759
448447,43759
358357,43759
349348,43759
336335,43759
385384,43759
360359,43759
446445,43759
225224,43759
312311,43759
440439,43759
485484,43759
328327,43759
368367,43759
430429,43759
415414,43759
345344,43759
385384,43759
242241,43759
277276,43759
314313,43759
419418,43759
400399,43759
433432,43759
371370,43759
319318,43759
461460,43759
292291,43759
342341,43759
182181,43759
491490,43759
362361,43759
338337,43759
399398,43759
322321,43759
268267,43759
382381,43759
401400,43759
377376,43759
315314,43759
440439,43759
371370,43759
399398,43759
428427,43759
396395,43759
331330,43759
356355,43759
296295,43759
157156,43759
352351,43759
494493,43759
358357,43759
396395,43759
399398,43759
467466,43759
267266,43759
417416,43759
414413,43759
341340,43759
428427,43759
353352,43759
446445,43759
460459,43759
380379,43759
352351,43759
250249,43759
316315,43759
411410,43759
400399,43759
307306,43759
360359,43759
506505,43759
302301,43759
448447,43759
357356,43759
394393,43759
369368,43759
409408,43759
