iter,bestPrice
181180,1574
301300,1574
111110,1574
162161,1574
113112,1574
219218,1574
188187,1574
200199,1574
201200,1574
205204,1574
319318,1574
171170,1574
240239,1574
206205,1574
239238,1574
298297,1574
201200,1574
192191,1574
111110,1574
243242,1574
302301,1574
187186,1574
32031,1574
263262,1574
284283,1574
215214,1574
328327,1574
130129,1574
86085,1574
268267,1574
287286,1574
92091,1574
166165,1574
282281,1574
294293,1574
189188,1574
2001,1080
403402,1574
389388,1574
383382,1574
336335,1574
305304,1574
112111,1574
378377,1574
333332,1574
331330,1574
55054,1574
273272,1574
265264,1574
241240,1574
285284,1574
69068,1574
117116,1574
287286,1574
245244,1574
151150,1574
239238,1574
184183,1574
273272,1574
111110,1574
277276,1574
334333,1574
250249,1574
204203,1574
188187,1574
229228,1574
230229,1574
142141,1574
162161,1574
208207,1574
288287,1574
257256,1574
180179,1574
262261,1574
286285,1574
216215,1574
141140,1574
194193,1574
202201,1574
346345,1574
274273,1574
297296,1574
51050,1574
21020,1484
151150,1574
196195,1574
131130,1574
24023,1574
242241,1574
296295,1574
224223,1574
267266,1574
258257,1574
322321,1574
188187,1574
268267,1574
270269,1574
82081,1574
226225,1574
15014,1574
