iter,bestPrice
285284,1574
289288,1574
247246,1574
324323,1574
233232,1574
349348,1574
228227,1574
213212,1574
353352,1574
253252,1574
149148,1574
51050,1574
365364,1574
197196,1574
131130,1574
218217,1574
165164,1574
261260,1574
246245,1574
286285,1574
76075,1574
213212,1574
280279,1574
116115,1574
324323,1574
181180,1574
332331,1574
206205,1574
317316,1574
163162,1574
131130,1574
252251,1574
67066,1574
315314,1574
190189,1574
257256,1574
93092,1574
196195,1574
374373,1574
328327,1574
322321,1574
40039,1574
63062,1574
260259,1574
191190,1574
93092,1574
230229,1574
271270,1574
310309,1574
94093,1574
313312,1574
172171,1574
301300,1574
302301,1574
181180,1574
239238,1574
185184,1574
356355,1574
103102,1574
370369,1574
252251,1574
292291,1574
109108,1574
211210,1574
227226,1574
285284,1574
97096,1574
221220,1574
308307,1574
164163,1574
291290,1574
266265,1574
307306,1574
294293,1574
232231,1574
217216,1574
227226,1574
212211,1574
264263,1574
308307,1574
182181,1574
236235,1574
127126,1574
235234,1574
252251,1574
144143,1574
105104,1574
213212,1574
106105,1574
299298,1574
224223,1574
154153,1574
344343,1574
303302,1574
69068,1574
75074,1574
253252,1574
190189,1574
248247,1574
157156,1574
