iter,bestPrice
307306,78800
309308,78800
44043,78800
152151,78800
346345,78800
291290,78800
184183,78800
202201,78800
47046,78800
211210,78800
38037,78800
217216,78800
288287,78800
87086,78800
132131,78800
293292,78800
235234,78800
317316,78800
307306,78800
319318,78800
7006,74282
184183,78800
257256,78800
296295,78800
281280,78800
210209,78800
323322,78800
229228,78800
333332,78800
136135,78800
286285,78800
366365,78800
257256,78800
224223,78800
165164,78800
345344,78800
213212,78800
166165,78800
341340,78800
60059,78800
312311,78800
200199,78800
206205,78800
205204,78800
133132,78800
335334,78800
235234,78800
287286,78800
272271,78800
283282,78800
346345,78800
361360,78800
252251,78800
293292,78800
162161,78800
274273,78800
109108,78800
232231,78800
357356,78800
171170,78800
220219,78800
39038,78800
242241,78800
170169,78800
348347,78800
51050,78800
232231,78800
235234,78800
239238,78800
226225,78800
253252,78800
213212,78800
220219,78800
256255,78800
305304,78800
244243,78800
231230,78800
247246,78800
255254,78800
61060,78800
8007,67572
225224,78800
201200,78800
199198,78800
137136,78800
161160,78800
223222,78800
220219,78800
229228,78800
10009,78800
282281,78800
219218,78800
69068,78800
259258,78800
250249,78800
218217,78800
92091,78800
93092,78800
142141,78800
330329,78800
