iter,bestPrice
359358,1574
267266,1574
82081,1574
35034,1574
212211,1574
283282,1574
242241,1574
348347,1574
87086,1574
218217,1574
260259,1574
206205,1574
196195,1574
200199,1574
238237,1574
322321,1574
246245,1574
269268,1574
86085,1574
169168,1574
216215,1574
308307,1574
296295,1574
307306,1574
162161,1574
233232,1574
155154,1574
129128,1574
307306,1574
244243,1574
318317,1574
218217,1574
236235,1574
181180,1574
354353,1574
92091,1574
244243,1574
186185,1574
286285,1574
248247,1574
235234,1574
203202,1574
326325,1574
172171,1574
228227,1574
247246,1574
288287,1574
276275,1574
283282,1574
265264,1574
375374,1574
254253,1574
239238,1574
139138,1574
223222,1574
248247,1574
182181,1574
272271,1574
27026,1574
223222,1574
210209,1574
285284,1574
215214,1574
55054,1574
298297,1574
173172,1574
189188,1574
296295,1574
368367,1574
336335,1574
263262,1574
276275,1574
305304,1574
79078,1574
289288,1574
148147,1574
136135,1574
223222,1574
194193,1574
199198,1574
271270,1574
185184,1574
189188,1574
190189,1574
56055,1574
264263,1574
300299,1574
285284,1574
192191,1574
291290,1574
311310,1574
375374,1574
209208,1574
279278,1574
210209,1574
137136,1574
304303,1574
129128,1574
255254,1574
291290,1574
