iter,bestPrice
234233,78800
96095,78800
305304,78800
291290,78800
225224,78800
217216,78800
161160,78800
296295,78800
214213,78800
182181,78800
219218,78800
256255,78800
188187,78800
231230,78800
316315,78800
69068,78800
267266,78800
304303,78800
196195,78800
300299,78800
126125,78800
343342,78800
259258,78800
172171,78800
236235,78800
262261,78800
297296,78800
236235,78800
138137,78800
39038,78800
263262,78800
234233,78800
379378,78800
329328,78800
105104,78800
128127,78800
333332,78800
258257,78800
194193,78800
49048,78800
233232,78800
234233,78800
137136,78800
341340,78800
192191,78800
302301,78800
209208,78800
268267,78800
310309,78800
297296,78800
214213,78800
164163,78800
246245,78800
254253,78800
185184,78800
269268,78800
55054,78800
280279,78800
234233,78800
159158,78800
128127,78800
126125,78800
196195,78800
202201,78800
195194,78800
186185,78800
271270,78800
188187,78800
236235,78800
226225,78800
232231,78800
52051,78800
376375,78800
127126,78800
325324,78800
193192,78800
344343,78800
274273,78800
136135,78800
217216,78800
67066,78800
183182,78800
159158,78800
34033,78800
190189,78800
183182,78800
304303,78800
135134,78800
197196,78800
159158,78800
60059,78800
293292,78800
258257,78800
331330,78800
81080,78800
260259,78800
308307,78800
220219,78800
301300,78800
224223,78800
