iter,bestPrice
154153,72
46045,75
12011,75
2001,75
45044,75
2001,75
75074,75
10009,75
112111,75
2001,75
2001,75
2001,75
139138,75
27026,75
2001,75
2001,75
2001,75
2001,75
2001,75
82081,62
30029,75
2001,75
4003,75
2001,75
58057,75
5004,75
15014,75
51050,62
37036,75
38037,75
40039,62
2001,75
5004,75
29028,75
3002,75
77076,62
3002,75
2001,75
2001,75
2001,75
45044,74
2001,75
137136,62
2001,75
13012,75
25024,75
29028,74
20019,75
7006,75
3002,75
8007,75
25024,75
2001,75
8007,75
2001,75
20019,75
2001,75
95094,62
59058,75
45044,75
4003,75
2001,75
2001,75
3002,75
36035,74
45044,75
92091,62
5004,75
35034,75
3002,75
2001,75
16015,62
2001,75
2001,75
2001,75
3002,75
2001,75
31030,75
2001,75
6005,75
76075,75
2001,75
85084,75
2001,75
95094,62
2001,75
2001,75
73072,62
3002,75
10009,75
30029,75
4003,75
21020,74
2001,75
26025,75
27026,75
2001,75
2001,75
2001,75
3002,75
