iter,bestPrice
361360,43759
280279,43759
424423,43759
313312,43759
380379,43759
435434,43759
356355,43759
427426,43759
386385,43759
349348,43759
477476,43759
413412,43759
438437,43759
525524,43759
407406,43759
448447,43759
391390,43759
459458,43759
370369,43759
402401,43759
524523,43759
222221,43759
317316,43759
219218,43759
429428,43759
365364,43759
358357,43759
163162,43759
458457,43759
361360,43759
397396,43759
365364,43759
291290,43759
316315,43759
362361,43759
440439,43759
517516,43759
335334,43759
393392,43759
471470,43759
317316,43759
286285,43759
352351,43759
401400,43759
391390,43759
465464,43759
363362,43759
334333,43759
268267,43759
402401,43759
228227,43759
456455,43759
398397,43759
401400,43759
379378,43759
188187,43759
389388,43759
325324,43759
300299,43759
356355,43759
425424,43759
445444,43759
402401,43759
424423,43759
406405,43759
407406,43759
303302,43759
364363,43759
405404,43759
429428,43759
426425,43759
402401,43759
413412,43759
259258,43759
504503,43759
338337,43759
312311,43759
411410,43759
292291,43759
328327,43759
256255,43759
434433,43759
357356,43759
252251,43759
364363,43759
400399,43759
393392,43759
447446,43759
423422,43759
383382,43759
422421,43759
382381,43759
344343,43759
385384,43759
305304,43759
355354,43759
422421,43759
412411,43759
280279,43759
412411,43759
