iter,bestPrice
320319,78800
255254,78800
297296,78800
107106,78800
71070,78800
221220,78800
27026,78800
132131,78800
331330,78800
134133,78800
342341,78800
210209,78800
225224,78800
337336,78800
197196,78800
215214,78800
180179,78800
106105,78800
52051,78800
353352,78800
106105,78800
300299,78800
312311,78800
216215,78800
85084,78800
177176,78800
23022,78800
235234,78800
275274,78800
209208,78800
132131,78800
292291,78800
284283,78800
115114,78800
80079,78800
188187,78800
155154,78800
108107,78800
130129,78800
257256,78800
196195,78800
67066,78800
272271,78800
346345,78800
84083,78800
35034,78800
173172,78800
162161,78800
275274,78800
129128,78800
317316,78800
234233,78800
323322,78800
186185,78800
249248,78800
300299,78800
238237,78800
294293,78800
203202,78800
111110,78800
415414,78800
358357,78800
267266,78800
237236,78800
357356,78800
136135,78800
258257,78800
269268,78800
259258,78800
270269,78800
332331,78800
320319,78800
305304,78800
331330,78800
71070,78800
354353,78800
253252,78800
113112,78800
280279,78800
103102,78800
152151,78800
115114,78800
200199,78800
173172,78800
373372,78800
135134,78800
124123,78800
271270,78800
279278,78800
254253,78800
201200,78800
57056,78800
259258,78800
191190,78800
241240,78800
20019,78800
144143,78800
159158,78800
234233,78800
364363,78800
