iter,bestPrice
94093,1574
270269,1574
183182,1574
322321,1574
275274,1574
231230,1574
126125,1574
363362,1574
229228,1574
147146,1574
96095,1574
310309,1574
316315,1574
234233,1574
176175,1574
157156,1574
266265,1574
70069,1574
127126,1574
208207,1574
191190,1574
192191,1574
213212,1574
228227,1574
228227,1574
315314,1574
274273,1574
128127,1574
78077,1574
294293,1574
312311,1574
300299,1574
130129,1574
91090,1574
284283,1574
273272,1574
108107,1574
229228,1574
220219,1574
268267,1574
290289,1574
189188,1574
53052,1574
374373,1574
253252,1574
127126,1574
184183,1574
221220,1574
254253,1574
174173,1574
144143,1574
168167,1574
255254,1574
42041,1574
193192,1574
272271,1574
206205,1574
329328,1574
391390,1574
241240,1574
230229,1574
222221,1574
124123,1574
302301,1574
176175,1574
186185,1574
155154,1574
142141,1574
231230,1574
385384,1574
358357,1574
270269,1574
142141,1574
264263,1574
95094,1574
315314,1574
179178,1574
205204,1574
104103,1574
87086,1574
198197,1574
77076,1574
198197,1574
240239,1574
251250,1574
209208,1574
249248,1574
182181,1574
302301,1574
109108,1574
329328,1574
278277,1574
286285,1574
64063,1574
311310,1574
188187,1574
124123,1574
256255,1574
320319,1574
98097,1574
