iter,bestPrice
277276,1574
217216,1574
72071,1574
143142,1574
304303,1574
206205,1574
249248,1574
321320,1574
234233,1574
231230,1574
256255,1574
157156,1574
101100,1574
280279,1574
184183,1574
148147,1574
237236,1574
171170,1574
206205,1574
132131,1574
183182,1574
179178,1574
241240,1574
159158,1574
246245,1574
260259,1574
191190,1574
67066,1574
272271,1574
255254,1574
156155,1574
113112,1574
188187,1574
345344,1574
349348,1574
78077,1574
238237,1574
280279,1574
331330,1574
248247,1574
317316,1574
198197,1574
284283,1574
93092,1574
282281,1574
118117,1574
304303,1574
248247,1574
225224,1574
336335,1574
188187,1574
297296,1574
134133,1574
159158,1574
301300,1574
243242,1574
77076,1574
258257,1574
319318,1574
115114,1574
252251,1574
233232,1574
206205,1574
162161,1574
137136,1574
150149,1574
162161,1574
267266,1574
197196,1574
192191,1574
88087,1574
203202,1574
229228,1574
289288,1574
196195,1574
97096,1574
259258,1574
238237,1574
176175,1574
333332,1574
121120,1574
352351,1574
174173,1574
176175,1574
281280,1574
259258,1574
342341,1574
109108,1574
64063,1574
55054,1574
232231,1574
36035,1574
147146,1574
45044,1574
340339,1574
379378,1574
205204,1574
271270,1574
237236,1574
294293,1574
