iter,bestPrice
361360,6403
382381,6403
315314,6403
455454,6403
443442,6403
364363,6403
549548,6403
360359,6403
364363,6403
322321,6403
337336,6403
527526,6403
357356,6403
493492,6403
371370,6403
296295,6403
313312,6403
319318,6403
403402,6403
440439,6403
449448,6403
365364,6403
480479,6403
276275,6403
387386,6403
384383,6403
239238,6403
418417,6403
384383,6403
358357,6403
423422,6403
408407,6403
261260,6403
381380,6403
344343,6403
364363,6403
415414,6403
396395,6403
511510,6403
463462,6403
381380,6403
437436,6403
358357,6403
206205,6403
388387,6403
339338,6403
377376,6403
226225,6403
169168,6403
235234,6403
309308,6403
279278,6403
240239,6403
345344,6403
379378,6403
424423,6403
410409,6403
384383,6403
374373,6403
302301,6403
209208,6403
409408,6403
421420,6403
295294,6403
366365,6403
335334,6403
339338,6403
385384,6403
388387,6403
267266,6403
450449,6403
389388,6403
285284,6403
279278,6403
457456,6403
429428,6403
348347,6403
388387,6403
318317,6403
430429,6403
298297,6403
362361,6403
419418,6403
321320,6403
460459,6403
342341,6403
336335,6403
472471,6403
454453,6403
344343,6403
505504,6403
410409,6403
291290,6403
372371,6403
381380,6403
349348,6403
313312,6403
313312,6403
261260,6403
439438,6403
