iter,bestPrice
174173,43759
502501,43759
346345,43759
432431,43759
483482,43759
313312,43759
342341,43759
365364,43759
396395,43759
397396,43759
311310,43759
404403,43759
391390,43759
307306,43759
330329,43759
220219,43759
389388,43759
498497,43759
401400,43759
431430,43759
444443,43759
447446,43759
397396,43759
282281,43759
334333,43759
267266,43759
439438,43759
281280,43759
537536,43759
427426,43759
451450,43759
378377,43759
272271,43759
337336,43759
403402,43759
476475,43759
421420,43759
294293,43759
249248,43759
345344,43759
338337,43759
510509,43759
301300,43759
352351,43759
428427,43759
420419,43759
476475,43759
349348,43759
292291,43759
471470,43759
402401,43759
263262,43759
469468,43759
490489,43759
231230,43759
445444,43759
336335,43759
349348,43759
289288,43759
505504,43759
223222,43759
448447,43759
232231,43759
447446,43759
367366,43759
328327,43759
372371,43759
346345,43759
432431,43759
564563,43759
417416,43759
394393,43759
390389,43759
292291,43759
377376,43759
317316,43759
449448,43759
316315,43759
385384,43759
297296,43759
457456,43759
504503,43759
402401,43759
371370,43759
395394,43759
382381,43759
372371,43759
417416,43759
414413,43759
353352,43759
361360,43759
395394,43759
431430,43759
299298,43759
390389,43759
486485,43759
414413,43759
295294,43759
405404,43759
375374,43759
