iter,bestPrice
82081,75
2001,75
2001,75
3002,75
23022,75
75074,75
31030,72
2001,75
2001,75
2001,75
11010,75
2001,75
34033,75
84083,72
2001,75
7006,74
144143,62
98097,74
31030,75
29028,75
67066,75
2001,75
32031,75
4003,75
167166,62
2001,74
2001,75
3002,75
17016,75
61060,62
10009,75
3002,75
42041,75
66065,62
127126,62
2001,75
20019,75
2001,75
90089,62
44043,75
2001,75
69068,72
2001,75
5004,75
2001,75
2001,75
2001,75
2001,75
2001,75
135134,62
5004,75
6005,74
73072,62
91090,75
3002,75
10009,75
3002,75
3002,75
143142,62
23022,75
136135,75
2001,75
5004,75
8007,74
10009,75
15014,72
2001,74
3002,75
32031,75
2001,75
137136,75
16015,75
28027,75
2001,75
140139,75
2001,75
2001,75
4003,75
115114,62
2001,75
23022,75
2001,75
2001,75
57056,75
2001,75
79078,75
2001,75
62061,74
3002,75
14013,75
25024,75
16015,75
2001,75
2001,75
30029,75
2001,75
2001,75
3002,75
7006,75
2001,74
