iter,bestPrice
288287,1574
219218,1574
336335,1574
288287,1574
232231,1574
182181,1574
275274,1574
138137,1574
220219,1574
289288,1574
82081,1574
191190,1574
157156,1574
167166,1574
248247,1574
298297,1574
136135,1574
171170,1574
302301,1574
137136,1574
289288,1574
166165,1574
29028,1574
60059,1574
312311,1574
27026,1574
272271,1574
251250,1574
51050,1574
244243,1574
336335,1574
191190,1574
356355,1574
288287,1574
175174,1574
260259,1574
102101,1574
152151,1574
265264,1574
305304,1574
267266,1574
151150,1574
266265,1574
160159,1574
333332,1574
191190,1574
183182,1574
293292,1574
326325,1574
277276,1574
153152,1574
270269,1574
183182,1574
135134,1574
184183,1574
311310,1574
99098,1574
185184,1574
75074,1574
322321,1574
288287,1574
226225,1574
290289,1574
152151,1574
250249,1574
228227,1574
219218,1574
216215,1574
152151,1574
294293,1574
60059,1574
293292,1574
276275,1574
115114,1574
265264,1574
281280,1574
254253,1574
202201,1574
102101,1574
185184,1574
159158,1574
254253,1574
351350,1574
118117,1574
256255,1574
225224,1574
140139,1574
7006,1574
312311,1574
165164,1574
385384,1574
319318,1574
122121,1574
264263,1574
288287,1574
217216,1574
157156,1574
96095,1574
252251,1574
224223,1574
