iter,bestPrice
32031,78800
261260,78800
147146,78800
102101,78800
260259,78800
80079,78800
199198,78800
253252,78800
287286,78800
13012,78800
201200,78800
274273,78800
166165,78800
250249,78800
325324,78800
208207,78800
207206,78800
257256,78800
226225,78800
197196,78800
169168,78800
55054,78800
203202,78800
76075,78800
329328,78800
98097,78800
307306,78800
57056,78800
51050,78800
118117,78800
272271,78800
245244,78800
148147,78800
189188,78800
218217,78800
267266,78800
255254,78800
255254,78800
341340,78800
91090,78800
281280,78800
255254,78800
263262,78800
317316,78800
26025,78800
280279,78800
137136,78800
282281,78800
344343,78800
237236,78800
285284,78800
283282,78800
263262,78800
215214,78800
105104,78800
223222,78800
92091,78800
260259,78800
216215,78800
268267,78800
253252,78800
165164,78800
100099,78800
363362,78800
241240,78800
238237,78800
97096,78800
193192,78800
147146,78800
273272,78800
271270,78800
240239,78800
81080,78800
248247,78800
304303,78800
340339,78800
295294,78800
133132,78800
103102,78800
207206,78800
173172,78800
200199,78800
219218,78800
204203,78800
226225,78800
323322,78800
273272,78800
148147,78800
302301,78800
273272,78800
178177,78800
285284,78800
247246,78800
217216,78800
116115,78800
109108,78800
283282,78800
317316,78800
202201,78800
240239,78800
