iter,bestPrice
196195,78800
248247,78800
192191,78800
237236,78800
263262,78800
145144,78800
280279,78800
225224,78800
146145,78800
289288,78800
23022,78800
252251,78800
117116,78800
192191,78800
251250,78800
297296,78800
294293,78800
309308,78800
249248,78800
49048,78800
341340,78800
97096,78800
291290,78800
275274,78800
289288,78800
293292,78800
115114,78800
132131,78800
240239,78800
83082,78800
245244,78800
291290,78800
256255,78800
145144,78800
167166,78800
50049,78800
291290,78800
272271,78800
176175,78800
238237,78800
162161,78800
132131,78800
109108,78800
246245,78800
257256,78800
278277,78800
294293,78800
251250,78800
248247,78800
260259,78800
202201,78800
185184,78800
270269,78800
256255,78800
189188,78800
222221,78800
264263,78800
181180,78800
311310,78800
232231,78800
10009,78800
364363,78800
321320,78800
218217,78800
216215,78800
321320,78800
215214,78800
167166,78800
247246,78800
134133,78800
285284,78800
245244,78800
139138,78800
280279,78800
310309,78800
138137,78800
295294,78800
191190,78800
272271,78800
268267,78800
116115,78800
338337,78800
214213,78800
211210,78800
126125,78800
258257,78800
189188,78800
191190,78800
300299,78800
237236,78800
193192,78800
291290,78800
100099,78800
235234,78800
59058,78800
127126,78800
262261,78800
55054,78800
296295,78800
224223,78800
