iter,bestPrice
288287,78800
222221,78800
330329,78800
147146,78800
207206,78800
183182,78800
49048,78800
248247,78800
306305,78800
294293,78800
50049,78800
302301,78800
213212,78800
233232,78800
202201,78800
310309,78800
220219,78800
324323,78800
107106,78800
102101,78800
302301,78800
184183,78800
169168,78800
86085,78800
124123,78800
335334,78800
135134,78800
174173,78800
48047,78800
301300,78800
235234,78800
175174,78800
192191,78800
83082,78800
252251,78800
293292,78800
346345,78800
202201,78800
202201,78800
380379,78800
240239,78800
281280,78800
54053,78800
302301,78800
319318,78800
312311,78800
210209,78800
318317,78800
107106,78800
175174,78800
242241,78800
147146,78800
76075,78800
48047,78800
285284,78800
315314,78800
294293,78800
217216,78800
215214,78800
222221,78800
250249,78800
117116,78800
76075,78800
366365,78800
210209,78800
237236,78800
293292,78800
310309,78800
173172,78800
162161,78800
316315,78800
230229,78800
315314,78800
137136,78800
126125,78800
344343,78800
276275,78800
203202,78800
104103,78800
242241,78800
163162,78800
169168,78800
396395,78800
278277,78800
206205,78800
198197,78800
184183,78800
221220,78800
209208,78800
188187,78800
295294,78800
194193,78800
94093,78800
173172,78800
234233,78800
130129,78800
374373,78800
169168,78800
192191,78800
149148,78800
