iter,bestPrice
324323,43759
420419,43759
312311,43759
368367,43759
408407,43759
365364,43759
394393,43759
431430,43759
445444,43759
311310,43759
363362,43759
245244,43759
359358,43759
499498,43759
292291,43759
289288,43759
187186,43759
481480,43759
361360,43759
461460,43759
324323,43759
355354,43759
259258,43759
256255,43759
397396,43759
194193,43759
324323,43759
308307,43759
164163,43759
394393,43759
353352,43759
286285,43759
426425,43759
289288,43759
430429,43759
327326,43759
477476,43759
502501,43759
342341,43759
402401,43759
367366,43759
430429,43759
444443,43759
468467,43759
384383,43759
336335,43759
315314,43759
436435,43759
416415,43759
276275,43759
152151,43759
461460,43759
450449,43759
378377,43759
303302,43759
249248,43759
386385,43759
240239,43759
450449,43759
385384,43759
364363,43759
341340,43759
344343,43759
423422,43759
385384,43759
286285,43759
233232,43759
500499,43759
371370,43759
325324,43759
296295,43759
360359,43759
378377,43759
464463,43759
364363,43759
370369,43759
511510,43759
402401,43759
380379,43759
444443,43759
401400,43759
351350,43759
441440,43759
430429,43759
329328,43759
392391,43759
290289,43759
412411,43759
463462,43759
268267,43759
311310,43759
106105,43759
432431,43759
340339,43759
380379,43759
486485,43759
255254,43759
534533,43759
362361,43759
449448,43759
