iter,bestPrice
403402,6403
234233,6403
261260,6403
415414,6403
418417,6403
449448,6403
399398,6403
479478,6403
371370,6403
300299,6403
369368,6403
401400,6403
463462,6403
450449,6403
435434,6403
145144,6403
397396,6403
346345,6403
458457,6403
352351,6403
159158,6403
379378,6403
407406,6403
358357,6403
467466,6403
180179,6403
475474,6403
377376,6403
405404,6403
496495,6403
427426,6403
405404,6403
365364,6403
380379,6403
373372,6403
429428,6403
417416,6403
398397,6403
411410,6403
364363,6403
297296,6403
443442,6403
349348,6403
527526,6403
357356,6403
357356,6403
317316,6403
378377,6403
352351,6403
302301,6403
424423,6403
445444,6403
249248,6403
361360,6403
353352,6403
305304,6403
430429,6403
345344,6403
287286,6403
413412,6403
244243,6403
327326,6403
393392,6403
275274,6403
306305,6403
372371,6403
332331,6403
387386,6403
244243,6403
354353,6403
437436,6403
270269,6403
499498,6403
342341,6403
452451,6403
514513,6403
338337,6403
291290,6403
359358,6403
456455,6403
236235,6403
324323,6403
355354,6403
448447,6403
437436,6403
378377,6403
403402,6403
384383,6403
507506,6403
412411,6403
222221,6403
46045,6403
133132,6403
479478,6403
229228,6403
291290,6403
292291,6403
365364,6403
537536,6403
385384,6403
