iter,bestPrice
341340,6403
436435,6403
388387,6403
349348,6403
340339,6403
443442,6403
418417,6403
287286,6403
298297,6403
419418,6403
378377,6403
385384,6403
452451,6403
458457,6403
309308,6403
383382,6403
432431,6403
297296,6403
358357,6403
330329,6403
425424,6403
452451,6403
322321,6403
415414,6403
261260,6403
386385,6403
473472,6403
363362,6403
360359,6403
391390,6403
359358,6403
397396,6403
337336,6403
333332,6403
469468,6403
324323,6403
411410,6403
354353,6403
383382,6403
337336,6403
402401,6403
408407,6403
279278,6403
318317,6403
298297,6403
382381,6403
484483,6403
268267,6403
405404,6403
145144,6403
432431,6403
296295,6403
426425,6403
534533,6403
271270,6403
420419,6403
426425,6403
424423,6403
393392,6403
321320,6403
284283,6403
396395,6403
462461,6403
381380,6403
399398,6403
310309,6403
404403,6403
361360,6403
411410,6403
390389,6403
136135,6403
445444,6403
499498,6403
454453,6403
359358,6403
331330,6403
206205,6403
329328,6403
364363,6403
449448,6403
423422,6403
284283,6403
356355,6403
344343,6403
318317,6403
362361,6403
365364,6403
303302,6403
410409,6403
501500,6403
378377,6403
395394,6403
371370,6403
251250,6403
420419,6403
305304,6403
376375,6403
379378,6403
430429,6403
364363,6403
