iter,bestPrice
363362,6403
286285,6403
377376,6403
433432,6403
305304,6403
400399,6403
418417,6403
395394,6403
371370,6403
323322,6403
447446,6403
364363,6403
305304,6403
347346,6403
429428,6403
401400,6403
273272,6403
378377,6403
477476,6403
451450,6403
336335,6403
472471,6403
438437,6403
374373,6403
316315,6403
496495,6403
366365,6403
285284,6403
268267,6403
416415,6403
402401,6403
341340,6403
427426,6403
293292,6403
292291,6403
383382,6403
202201,6403
418417,6403
526525,6403
385384,6403
413412,6403
343342,6403
471470,6403
372371,6403
480479,6403
270269,6403
221220,6403
363362,6403
448447,6403
300299,6403
305304,6403
405404,6403
442441,6403
413412,6403
178177,6403
248247,6403
442441,6403
308307,6403
421420,6403
381380,6403
405404,6403
441440,6403
342341,6403
419418,6403
391390,6403
434433,6403
330329,6403
359358,6403
414413,6403
467466,6403
411410,6403
367366,6403
385384,6403
474473,6403
422421,6403
418417,6403
412411,6403
270269,6403
331330,6403
280279,6403
411410,6403
330329,6403
247246,6403
346345,6403
352351,6403
340339,6403
441440,6403
465464,6403
441440,6403
368367,6403
330329,6403
297296,6403
395394,6403
371370,6403
418417,6403
374373,6403
346345,6403
416415,6403
212211,6403
370369,6403
