iter,bestPrice
11010,75
4003,75
2001,75
2001,75
2001,75
2001,75
2001,75
72071,75
2001,74
2001,75
2001,75
3002,75
9008,74
2001,75
2001,75
2001,75
48047,72
2001,75
2001,75
7006,75
2001,75
48047,75
3002,75
2001,75
2001,75
2001,75
173172,62
41040,75
6005,75
2001,75
26025,62
21020,74
2001,75
2001,75
2001,75
33032,75
3002,75
18017,75
136135,75
34033,62
2001,75
16015,75
86085,75
2001,75
112111,75
2001,75
2001,75
2001,75
110109,75
2001,75
55054,75
79078,75
2001,75
11010,75
2001,75
56055,75
29028,75
158157,62
3002,75
2001,75
184183,75
15014,75
37036,75
101100,75
2001,75
103102,62
7006,75
13012,75
7006,75
3002,75
27026,75
10009,75
101100,62
2001,75
115114,62
4003,75
32031,72
35034,75
2001,62
2001,75
2001,75
2001,75
13012,75
5004,75
54053,74
154153,75
10009,75
29028,75
5004,75
2001,75
2001,75
8007,74
11010,75
2001,75
45044,75
2001,75
19018,75
2001,75
84083,74
33032,75
