iter,bestPrice
246245,43759
315314,43759
317316,43759
450449,43759
402401,43759
470469,43759
378377,43759
364363,43759
318317,43759
245244,43759
492491,43759
432431,43759
458457,43759
313312,43759
428427,43759
206205,43759
400399,43759
443442,43759
396395,43759
398397,43759
324323,43759
413412,43759
307306,43759
425424,43759
484483,43759
484483,43759
325324,43759
462461,43759
454453,43759
421420,43759
451450,43759
441440,43759
277276,43759
241240,43759
446445,43759
508507,43759
295294,43759
478477,43759
401400,43759
366365,43759
370369,43759
369368,43759
321320,43759
245244,43759
337336,43759
265264,43759
438437,43759
366365,43759
446445,43759
401400,43759
363362,43759
416415,43759
394393,43759
359358,43759
344343,43759
380379,43759
305304,43759
395394,43759
378377,43759
237236,43759
378377,43759
273272,43759
445444,43759
444443,43759
303302,43759
363362,43759
195194,43759
403402,43759
484483,43759
344343,43759
331330,43759
383382,43759
304303,43759
430429,43759
439438,43759
479478,43759
282281,43759
344343,43759
289288,43759
394393,43759
231230,43759
239238,43759
260259,43759
479478,43759
482481,43759
334333,43759
282281,43759
227226,43759
295294,43759
371370,43759
330329,43759
324323,43759
423422,43759
442441,43759
414413,43759
353352,43759
364363,43759
379378,43759
435434,43759
307306,43759
