iter,bestPrice
91090,75
134133,75
7006,72
3002,75
60059,75
5004,75
36035,75
2001,75
2001,75
9008,75
19018,75
5004,75
33032,75
2001,74
4003,75
5004,75
2001,75
2001,75
13012,75
2001,75
2001,75
4003,74
2001,75
5004,75
41040,75
3002,75
64063,75
2001,75
50049,75
2001,75
13012,75
43042,75
3002,75
3002,75
140139,75
2001,75
2001,75
2001,75
5004,75
2001,75
78077,75
122121,72
119118,75
31030,75
42041,75
6005,75
10009,75
2001,74
2001,75
95094,75
4003,75
14013,75
2001,75
5004,75
22021,75
2001,75
2001,75
3002,75
2001,75
30029,75
3002,75
2001,75
32031,75
2001,75
16015,75
2001,75
8007,75
2001,75
81080,75
2001,75
65064,75
90089,75
2001,75
6005,75
136135,75
2001,75
5004,75
12011,75
2001,75
2001,75
13012,75
36035,75
2001,75
84083,75
110109,75
2001,75
20019,75
2001,75
173172,62
27026,75
2001,75
2001,75
66065,75
2001,75
45044,75
17016,75
2001,75
105104,74
57056,74
2001,75
