iter,bestPrice
1000,1440
8007,1574
53052,1574
30029,1574
1000,1110
2001,1475
67066,1574
1000,1341
110109,1574
41040,1574
1000,1095
1000,1285
1000,1475
35034,1574
54053,1574
64063,1574
33032,1574
1000,1110
1000,1369
16015,1574
1000,1250
8007,1574
2001,1296
21020,1574
65064,1574
17016,1574
1000,1384
54053,1574
2001,1484
1000,992
1000,1484
88087,1574
2001,1263
90089,1574
2001,1350
1000,1190
1000,1296
1000,1574
63062,1574
6005,1574
17016,1484
22021,1484
1000,1124
17016,1574
2001,1484
63062,1574
1000,1151
1000,1385
11010,1574
6005,1296
3002,1574
3002,1350
85084,1574
69068,1574
86085,1574
54053,1574
35034,1574
17016,1574
14013,1574
1000,1263
4003,1574
1000,1160
4003,1484
1000,1369
33032,1574
1000,1197
4003,1574
6005,1574
1000,1384
1000,1440
1000,1337
5004,1440
1000,1385
88087,1574
8007,1574
61060,1574
30029,1574
2001,1296
1000,1475
1000,1263
1000,1294
1000,1185
31030,1574
38037,1574
2001,1369
105104,1574
2001,1369
2001,1574
1000,1193
17016,1574
30029,1574
30029,1574
5004,1574
36035,1574
54053,1574
8007,1484
22021,1574
14013,1574
3002,1574
34033,1574
