iter,bestPrice
520519,6403
375374,6403
489488,6403
418417,6403
374373,6403
441440,6403
450449,6403
360359,6403
477476,6403
368367,6403
367366,6403
602601,6403
439438,6403
333332,6403
358357,6403
467466,6403
414413,6403
516515,6403
555554,6403
421420,6403
536535,6403
543542,6403
387386,6403
460459,6403
487486,6403
420419,6403
415414,6403
457456,6403
472471,6403
502501,6403
455454,6403
496495,6403
401400,6403
491490,6403
499498,6403
499498,6403
462461,6403
395394,6403
404403,6403
494493,6403
592591,6403
443442,6403
447446,6403
427426,6403
345344,6403
357356,6403
450449,6403
365364,6403
438437,6403
381380,6403
575574,6403
482481,6403
424423,6403
448447,6403
450449,6403
472471,6403
497496,6403
448447,6403
533532,6403
356355,6403
532531,6403
368367,6403
460459,6403
467466,6403
305304,6403
281280,6403
310309,6403
521520,6403
404403,6403
332331,6403
333332,6403
444443,6403
338337,6403
454453,6403
535534,6403
416415,6403
350349,6403
471470,6403
415414,6403
500499,6403
403402,6403
423422,6403
441440,6403
324323,6403
544543,6403
328327,6403
289288,6403
534533,6403
502501,6403
471470,6403
496495,6403
501500,6403
459458,6403
274273,6403
500499,6403
490489,6403
270269,6403
489488,6403
400399,6403
485484,6403
