iter,bestPrice
1000,40987
1000,41301
2001,41440
2001,40279
1000,41301
1000,43759
1000,40786
1000,39517
2001,42125
1000,43074
1000,39014
1000,43074
1000,38360
1000,39353
1000,41301
1000,41440
1000,43413
1000,43074
1000,41301
1000,41440
1000,43074
1000,43759
1000,43413
1000,37744
1000,39667
1000,43413
2001,41440
1000,41301
1000,42125
1000,41151
1000,40786
1000,39378
1000,39353
1000,39014
1000,39032
1000,41301
1000,39378
1000,41440
1000,43413
1000,43074
1000,39856
1000,41779
1000,43413
1000,43413
1000,41779
1000,41151
1000,40631
1000,42125
1000,43759
1000,43413
1000,41440
1000,41151
1000,43759
1000,41440
1000,41490
1000,43413
1000,43074
1000,43074
1000,39856
1000,38997
1000,43759
1000,43074
1000,43413
1000,40631
1000,42125
1000,41440
1000,40631
2001,41490
1000,41440
1000,41779
1000,38997
1000,38875
1000,41490
1000,43413
1000,38506
1000,41132
1000,43074
2001,41132
1000,38708
1000,43759
1000,41151
1000,42125
1000,40447
2001,43413
2001,43413
1000,41151
1000,40279
1000,41151
1000,43413
1000,43759
1000,41440
1000,43413
1000,43413
1000,41490
1000,42125
1000,42125
1000,39699
1000,39965
1000,40987
1000,43413
