iter,bestPrice
1000,1164
1000,1341
2001,1337
1000,1574
2001,1484
1000,1178
1000,1484
1000,1574
1000,1574
4003,1385
1000,1080
1000,1226
1000,1092
1000,1072
6005,1574
1000,1294
2001,1574
1000,1201
9008,1574
1000,1079
1000,1210
1000,1095
1000,1251
1000,1250
1000,1124
1000,1270
1000,1384
1000,1440
1000,1195
1000,1020
1000,1384
1000,1296
1000,1369
1000,1225
1000,983
1000,936
1000,1205
1000,1162
3002,1337
1000,1110
1000,1066
1000,1475
1000,1484
1000,1195
1000,1263
1000,1226
6005,1475
1000,1300
36035,1574
1000,1350
2001,1225
1000,1300
1000,1185
8007,1574
1000,1225
4003,1337
1000,1384
1000,1296
1000,1193
2001,1484
1000,1094
1000,1350
1000,1574
1000,1162
1000,1574
1000,1225
1000,1193
3002,1300
1000,1193
1000,1475
2001,1250
1000,1063
1000,1290
1000,1484
1000,1039
1000,1250
1000,1185
1000,1012
1000,1384
1000,1195
1000,1337
1000,1279
1000,1475
1000,1484
12011,1475
1000,1263
2001,1574
1000,1475
1000,1574
1000,1337
1000,1384
1000,1384
7006,1369
1000,1341
8007,1484
1000,1574
1000,1074
1000,1193
2001,1201
1000,1337
