iter,bestPrice
1000,62
1000,62
1000,74
1000,74
1000,62
1000,75
1000,75
1000,75
1000,59
1000,62
1000,60
1000,59
1000,62
1000,60
1000,62
1000,52
1000,61
1000,62
1000,62
1000,60
1000,75
1000,75
1000,61
1000,61
1000,72
1000,62
1000,75
1000,75
1000,75
1000,72
1000,75
1000,75
1000,72
1000,75
1000,62
1000,59
1000,54
1000,75
1000,61
1000,75
1000,61
1000,75
1000,62
1000,61
1000,75
1000,60
1000,60
1000,62
1000,61
1000,74
1000,59
1000,62
1000,75
1000,75
1000,61
1000,75
1000,61
1000,62
1000,61
1000,75
1000,75
1000,61
1000,61
1000,61
1000,61
1000,75
1000,62
1000,59
1000,75
1000,55
1000,75
1000,61
1000,75
1000,60
1000,62
1000,61
1000,75
1000,61
1000,59
1000,75
1000,61
1000,60
1000,75
1000,60
1000,75
1000,59
1000,62
1000,59
1000,62
1000,61
1000,62
1000,62
1000,72
1000,59
1000,62
1000,72
1000,57
1000,75
1000,75
1000,60
