iter,bestPrice
1000,1263
1000,1574
1000,1250
6005,1440
1000,1285
1000,990
3002,1475
1000,1179
1000,1063
1000,1385
1000,1440
1000,1210
8007,1484
1000,1110
1000,1440
1000,981
1000,1197
1000,1091
1000,1300
1000,1475
3002,1484
1000,1103
1000,1089
1000,1574
1000,1058
1000,1296
1000,1210
2001,1350
1000,1384
6005,1475
2001,1440
1000,1191
1000,1206
1000,1225
1000,1195
1000,1193
1000,1574
1000,1290
1000,1066
1000,1296
1000,1294
1000,1484
1000,1484
1000,1440
1000,1350
1000,1185
1000,1475
3002,1574
1000,1369
1000,1294
1000,1205
1000,1384
1000,1300
2001,1574
1000,1210
1000,1484
1000,1200
1000,1574
4003,1484
1000,1296
1000,1475
1000,1173
1000,1263
1000,1384
1000,1484
1000,1384
4003,1574
1000,1270
1000,1290
4003,1574
1000,1103
2001,1300
1000,1369
1000,1279
1000,1145
1000,1162
2001,1385
1000,1263
1000,1279
4003,1475
1000,1337
1000,1201
1000,1197
1000,1574
1000,1197
1000,1484
1000,1475
1000,1475
1000,1440
1000,1197
1000,1350
1000,1341
1000,1574
1000,1205
1000,1290
1000,1290
1000,1440
1000,1574
1000,1369
1000,1162
