iter,bestPrice
135134,43759
162161,43759
96095,43759
135134,43759
102101,43759
138137,43759
80079,43759
51050,43759
109108,43759
151150,43759
35034,43759
118117,43759
130129,43759
125124,43759
3002,43759
31030,43759
3002,43759
7006,43413
37036,43759
223222,43759
130129,43759
75074,43759
136135,43759
219218,43759
28027,43759
66065,43759
4003,43759
48047,43759
173172,43759
52051,43759
9008,43759
58057,43413
88087,43759
51050,43759
40039,43759
4003,43074
82081,43759
35034,43759
76075,43759
48047,43759
156155,43759
89088,43759
99098,43759
18017,43759
54053,43759
87086,43759
68067,43759
17016,43759
68067,43759
68067,43759
10009,43759
32031,43759
43042,43759
8007,43759
6005,41490
43042,43759
57056,43759
46045,43759
48047,43759
102101,43759
80079,43759
4003,41440
19018,43759
51050,43759
38037,43759
162161,43759
119118,43759
123122,43759
133132,43759
32031,43759
3002,43074
117116,43759
87086,43759
60059,43759
20019,43759
66065,43759
132131,43759
80079,43759
76075,43759
103102,43759
84083,43759
23022,43759
78077,43759
75074,43759
4003,43413
5004,43759
25024,43759
168167,43759
111110,43759
25024,43759
112111,43759
9008,43413
91090,43759
53052,43759
155154,43759
110109,43759
194193,43759
23022,43759
8007,43413
59058,43759
