iter,bestPrice
1000,1384
38037,1574
1000,1201
1000,1206
6005,1574
1000,1168
1000,1440
1000,1440
3002,1484
1000,1384
1000,1279
1000,1574
1000,1475
1000,1162
1000,1350
1000,1076
12011,1574
1000,1384
1000,1294
2001,1484
2001,1384
1000,1385
3002,1369
1000,1095
3002,1574
33032,1574
9008,1574
1000,1341
1000,1484
1000,1484
1000,1110
1000,1263
1000,1164
38037,1574
1000,1200
1000,1270
1000,1296
1000,1384
12011,1574
1000,1574
1000,1574
2001,1350
1000,1384
1000,1574
1000,1384
1000,1341
1000,1193
1000,1270
1000,1350
1000,1440
2001,1341
1000,1285
8007,1574
1000,1193
23022,1574
5004,1484
39038,1574
8007,1574
1000,1106
6005,1574
1000,1440
1000,1384
1000,1164
1000,1341
38037,1574
1000,1190
5004,1484
2001,1574
2001,1300
1000,1263
1000,1574
1000,1384
1000,1296
1000,1162
3002,1263
1000,1160
1000,1285
3002,1440
6005,1574
37036,1574
1000,1263
12011,1574
1000,1126
16015,1574
2001,1440
3002,1475
1000,1574
1000,1475
1000,1337
1000,1285
1000,1484
1000,1065
1000,1475
9008,1574
4003,1475
1000,1440
1000,1574
1000,1384
1000,1484
6005,1484
