iter,bestPrice
1000,6063
1000,6403
1000,6302
1000,6352
1000,6164
1000,6042
1000,5758
1000,6164
1000,5710
1000,5847
1000,6042
1000,5947
1000,6020
1000,6113
1000,5715
1000,6164
1000,5847
1000,6063
1000,6063
1000,6020
1000,5831
1000,6302
1000,6302
1000,6020
1000,5968
1000,6302
1000,6302
1000,6020
1000,5803
1000,5918
1000,6164
1000,5968
1000,5628
1000,6063
1000,6070
1000,6042
1000,6302
1000,6020
1000,6302
1000,6113
1000,6063
1000,6403
1000,5893
1000,6302
1000,6352
1000,5918
1000,6302
1000,6352
1000,5662
1000,5944
1000,5521
1000,6302
1000,5715
1000,5633
1000,6302
1000,6164
1000,5944
1000,6403
1000,6019
1000,5893
1000,6164
1000,5997
1000,6403
1000,5947
1000,5803
1000,6302
1000,6302
1000,5721
1000,6352
1000,6164
1000,6020
1000,5628
1000,5721
1000,6113
1000,6352
1000,5781
1000,5803
1000,6302
1000,6302
1000,5708
1000,6302
1000,5710
1000,6352
1000,6302
1000,5960
1000,6019
1000,6352
1000,6403
1000,6352
1000,6302
1000,5944
1000,5803
1000,5611
1000,6302
1000,5997
1000,6302
1000,5705
1000,6403
1000,6020
1000,6352
