iter,bestPrice
1000,6302
1000,6164
1000,6352
1000,6063
1000,5628
1000,6063
2001,6063
1000,6070
1000,6020
1000,6352
1000,5968
1000,6302
1000,6302
1000,6352
1000,6403
1000,5633
1000,5997
1000,5578
1000,6302
1000,5578
1000,6070
1000,6302
1000,5918
1000,5997
1000,5708
1000,6070
1000,6042
1000,6302
1000,5968
1000,6042
1000,6048
1000,5947
1000,5918
1000,6042
1000,5664
1000,6063
1000,5780
2001,6113
1000,6070
1000,6302
1000,6042
1000,6070
2001,6063
1000,6302
1000,6302
1000,5781
1000,6352
8007,6403
1000,6403
1000,5831
1000,6302
1000,6403
1000,5781
1000,6302
1000,6403
1000,6352
1000,5893
1000,5419
1000,6352
1000,6352
1000,6352
1000,5578
1000,6070
1000,6403
1000,6352
1000,6042
1000,6048
1000,5944
1000,5471
1000,5947
1000,5705
1000,6042
1000,5918
1000,5614
1000,6063
1000,5671
1000,5671
1000,6042
1000,5608
1000,5578
1000,6113
1000,6113
1000,5781
1000,6063
1000,5831
1000,6164
1000,6302
1000,6403
1000,5579
1000,5997
1000,5893
1000,5918
1000,6352
1000,5708
1000,6352
1000,5705
1000,6063
2001,6403
1000,5272
1000,6164
