iter,bestPrice
34033,78800
84083,78800
2001,55528
16015,78800
116115,78800
47046,78800
2001,78800
1000,59303
14013,78800
2001,69245
28027,78800
10009,73836
16015,73836
31030,78800
77076,78800
92091,78800
6005,69245
53052,78800
115114,78800
1000,73836
50049,78800
52051,78800
7006,78800
91090,78800
18017,69318
128127,78800
2001,78800
90089,78800
93092,78800
83082,78800
137136,78800
70069,78800
24023,78800
5004,66909
32031,78800
104103,78800
7006,74282
84083,78800
5004,78800
112111,78800
51050,78800
3002,69245
85084,78800
46045,78800
11010,78800
4003,78800
2001,73836
2001,74282
2001,68552
80079,78800
131130,78800
21020,74282
29028,78800
109108,78800
114113,78800
51050,78800
70069,78800
50049,78800
3002,74282
27026,78800
5004,78800
80079,78800
57056,78800
16015,78800
83082,78800
36035,78800
61060,78800
69068,78800
32031,78800
3002,64727
43042,78800
2001,74282
181180,78800
133132,78800
126125,78800
3002,78800
1000,46918
103102,78800
1000,74282
13012,78800
3002,53691
8007,74282
12011,78800
53052,78800
48047,78800
9008,74282
44043,74282
13012,78800
50049,78800
2001,64727
97096,78800
63062,78800
16015,74282
177176,78800
195194,78800
2001,72090
125124,78800
55054,78800
5004,78800
36035,78800
