iter,bestPrice
1000,38205
1000,40786
1000,41333
1000,41301
1000,43074
1000,43413
1000,40279
1000,40279
1000,40447
1000,37338
1000,42125
1000,38863
1000,43074
1000,43413
1000,39667
1000,40279
1000,41440
1000,38004
1000,41151
1000,43413
7006,43413
8007,43759
1000,43074
1000,40648
1000,43074
2001,41779
1000,43759
1000,40447
1000,43074
1000,41301
1000,38715
1000,40648
1000,39378
1000,40786
1000,38306
1000,41440
1000,43413
1000,41779
1000,40447
1000,41490
1000,43074
1000,41301
1000,40447
1000,43074
1000,41151
1000,43413
1000,41779
1000,43074
1000,39014
1000,40447
1000,39517
1000,41490
1000,41151
1000,43074
1000,43759
1000,43413
1000,40631
1000,40648
2001,41301
1000,40393
1000,43413
1000,41440
1000,43074
2001,43413
1000,43074
1000,38863
1000,43074
1000,40393
1000,41301
1000,41490
1000,41151
1000,43413
1000,41151
1000,41151
1000,39517
1000,43413
1000,40447
1000,38524
1000,40648
8007,43759
1000,43759
1000,43759
1000,41440
1000,38875
1000,41779
1000,41490
1000,40279
2001,43413
1000,41779
1000,43413
1000,40631
1000,40393
1000,39965
1000,40786
1000,41440
1000,41490
1000,43759
1000,41490
2001,36836
1000,43074
