iter,bestPrice
1000,58209
1000,78800
1000,59536
1000,65098
1000,69245
1000,66909
1000,69245
1000,55038
4003,78800
1000,60328
1000,58209
1000,52628
1000,78800
1000,67572
1000,55616
1000,74282
1000,61308
6005,64846
1000,60134
1000,66909
1000,72090
1000,64846
1000,64727
1000,69245
2001,74282
1000,67572
1000,69245
1000,66909
1000,58997
1000,55157
1000,68552
1000,67126
1000,74282
1000,54835
1000,49511
3002,78800
1000,74282
1000,72090
1000,60328
1000,59675
1000,64034
1000,69245
1000,78800
24023,78800
1000,64846
1000,73836
25024,78800
1000,69318
1000,78800
1000,65098
1000,69245
1000,64727
1000,78800
1000,72090
1000,55276
2001,64281
1000,63173
1000,69318
2001,64727
13012,78800
1000,57571
1000,69245
2001,65098
1000,61337
1000,54835
1000,60580
1000,53172
1000,74282
2001,68552
1000,67572
1000,63588
1000,56463
8007,73836
1000,64727
63062,78800
1000,59536
1000,72090
3002,78800
1000,60328
1000,61308
1000,69245
1000,69245
1000,64608
1000,55276
1000,74282
1000,72090
19018,78800
2001,64281
1000,68552
1000,58774
1000,78800
1000,51010
1000,64608
1000,64034
1000,69318
1000,66909
1000,55018
1000,67572
1000,60090
1000,73836
