iter,bestPrice
1812810,43759
1843841,43759
1842840,43759
1763761,43759
1814812,43759
1775773,43759
1825823,43759
1951949,43759
1771769,43759
1900898,43759
1734732,43759
1754752,43759
1730728,43759
1826824,43759
1846844,43759
1943941,43759
1788786,43759
1774772,43759
1839837,43759
1774772,43759
1731729,43759
1783781,43759
1842840,43759
1751749,43759
1899897,43759
1740738,43759
1665663,43759
1722720,43759
1834832,43759
1809807,43759
1873871,43759
1843841,43759
1859857,43759
1782780,43759
1862860,43759
1731729,43759
1803801,43759
1846844,43759
1739737,43759
1820818,43759
1712710,43759
1773771,43759
1875873,43759
1686684,43759
1833831,43759
1752750,43759
1848846,43759
1713711,43759
1739737,43759
1767765,43759
1827825,43759
1876874,43759
1884882,43759
1847845,43759
1722720,43759
1878876,43759
1771769,43759
1790788,43759
1771769,43759
1831829,43759
1893891,43759
1795793,43759
1882880,43759
1732730,43759
1843841,43759
1709707,43759
1771769,43759
1824822,43759
1802800,43759
1852850,43759
1756754,43759
1855853,43759
1793791,43759
1748746,43759
1857855,43759
1850848,43759
1892890,43759
1823821,43759
1828826,43759
1821819,43759
1850848,43759
1814812,43759
1782780,43759
1815813,43759
1855853,43759
1895893,43759
1960958,43759
1891889,43759
1783781,43759
1845843,43759
1902900,43759
1922920,43759
1851849,43759
1778776,43759
1745743,43759
1852850,43759
1753751,43759
1716714,43759
1743741,43759
1820818,43759
