iter,bestPrice
1000,78800
1000,78800
1000,67126
1000,64846
23022,78800
1000,58997
1000,78800
2001,55528
1000,72090
12011,78800
1000,64281
1000,59536
1000,72090
8007,72090
1000,69245
6005,64846
2001,65098
2001,78800
2001,73836
1000,78800
1000,59763
18017,78800
2001,74282
1000,56344
1000,61337
1000,59675
23022,78800
3002,78800
1000,72090
2001,74282
8007,78800
12011,78800
3002,72090
6005,74282
1000,64608
1000,68552
1000,78800
3002,73836
1000,55528
1000,50758
1000,53687
8007,69318
1000,60268
7006,73836
2001,78800
2001,69318
2001,58997
1000,67126
1000,74282
1000,64846
1000,73836
1000,58982
7006,74282
1000,69245
3002,74282
1000,64727
1000,56463
2001,69245
8007,74282
1000,78800
1000,67572
2001,72090
1000,54256
1000,73836
1000,64846
2001,64846
1000,63173
4003,73836
3002,73836
1000,69245
1000,64004
1000,64727
51050,78800
1000,46918
1000,55304
33032,78800
1000,73836
1000,62535
1000,64846
1000,74282
1000,53603
19018,74282
1000,72090
1000,58997
19018,78800
1000,73836
2001,67572
2001,74282
1000,78800
8007,78800
7006,66909
8007,78800
1000,64004
1000,78800
3002,74282
2001,58017
1000,72090
1000,69245
3002,78800
45044,78800
