iter,bestPrice
2001,73836
1000,59303
13012,78800
48047,78800
3002,60199
3002,78800
1000,69245
1000,64727
1000,64281
1000,78800
1000,73836
1000,54627
6005,69245
1000,72090
1000,50604
1000,74282
1000,64034
3002,67572
3002,78800
1000,78800
1000,72090
1000,50080
2001,61337
1000,69245
2001,69318
47046,78800
1000,78800
25024,78800
1000,67572
1000,69245
1000,68552
1000,56463
1000,61337
1000,73836
1000,78800
1000,55750
1000,73836
1000,67572
1000,56221
1000,78800
1000,74282
1000,49511
1000,73836
12011,78800
3002,78800
1000,64034
6005,78800
1000,63173
3002,73836
1000,59536
1000,51722
1000,72090
2001,60134
5004,72090
1000,67126
1000,74282
1000,55528
1000,64846
1000,66909
1000,72090
9008,73836
1000,54835
2001,74282
1000,58209
1000,64004
1000,69245
12011,78800
2001,74282
1000,53603
1000,78800
1000,52064
19018,78800
1000,67572
1000,78800
1000,64846
8007,78800
1000,52965
1000,74282
1000,62608
4003,64034
1000,58209
6005,72090
1000,58655
1000,64846
1000,61337
1000,63173
1000,66909
3002,67572
1000,58136
2001,58136
1000,78800
1000,62535
1000,69318
17016,78800
1000,64281
1000,78800
19018,78800
1000,66909
1000,64281
1000,54835
