iter,bestPrice
1000,69245
1000,62535
3002,66909
1000,63588
2001,73836
1000,72090
1000,61308
8007,78800
2001,55038
2001,69245
1000,68552
1000,63173
1000,64727
2001,78800
1000,64281
23022,78800
1000,55528
1000,78800
2001,72090
1000,60580
3002,67572
1000,64846
4003,74282
2001,66909
1000,64281
1000,66909
1000,78800
1000,78800
23022,78800
1000,47249
1000,59675
3002,74282
1000,78800
1000,72090
1000,72090
3002,78800
1000,55528
1000,74282
1000,64727
12011,78800
9008,74282
24023,78800
2001,64034
1000,62608
1000,65098
9008,74282
1000,48803
1000,50352
2001,65098
2001,78800
3002,72090
45044,78800
2001,63173
1000,66909
9008,74282
8007,78800
3002,74282
28027,78800
6005,72090
3002,78800
1000,54479
2001,62608
1000,66909
24023,78800
12011,78800
1000,64608
1000,69245
3002,78800
1000,78800
1000,59882
1000,78800
2001,78800
1000,78800
3002,69245
2001,64846
1000,69245
11010,78800
1000,72090
14013,78800
1000,72090
24023,78800
9008,78800
2001,73836
2001,73836
1000,67572
1000,72090
1000,53731
1000,69245
1000,63173
1000,72090
1000,74282
2001,61337
2001,78800
1000,74282
8007,78800
1000,69318
6005,78800
1000,78800
1000,51010
2001,78800
