iter,bestPrice
1000,58017
1000,64846
1000,73836
1000,64727
1000,64004
35034,74282
9008,74282
1000,58982
1000,66909
1000,78800
1000,74282
1000,73836
3002,69245
1000,73836
12011,74282
1000,68552
1000,51257
1000,58997
1000,69245
1000,64281
1000,78800
24023,78800
1000,59536
2001,72090
1000,72090
1000,74282
1000,60199
3002,72090
1000,64004
24023,78800
1000,55364
3002,78800
1000,64281
1000,63588
1000,72090
1000,64846
1000,66909
1000,62535
2001,74282
6005,74282
1000,78800
1000,74282
1000,66909
1000,60090
1000,73836
1000,74282
1000,65098
1000,66909
1000,47862
1000,55528
1000,67572
2001,74282
1000,67572
1000,55528
23022,78800
1000,74282
48047,78800
1000,58017
1000,78800
1000,63173
1000,78800
1000,74282
2001,74282
2001,72090
30029,78800
1000,64034
1000,58136
24023,78800
1000,58997
1000,64727
2001,57294
1000,60134
1000,58997
7006,73836
1000,60328
1000,54751
2001,64846
6005,78800
9008,78800
6005,78800
2001,66909
1000,60268
1000,78800
1000,63173
1000,74282
1000,62535
5004,78800
1000,48818
2001,69318
1000,68552
33032,78800
1000,78800
1000,69245
1000,64004
1000,66909
1000,69318
1000,67126
30029,78800
1000,66909
6005,69245
