iter,bestPrice
1000,1574
4003,1574
75074,1574
14013,1574
3002,1270
31030,1574
1000,1484
22021,1574
1000,1574
4003,1574
1000,1225
1000,1574
39038,1574
29028,1574
23022,1574
17016,1574
1000,1574
4003,1484
1000,1475
105104,1574
37036,1574
1000,1203
38037,1574
17016,1574
1000,1574
1000,1475
1000,1384
31030,1574
22021,1574
2001,1296
1000,1384
3002,1440
1000,1350
65064,1574
35034,1574
23022,1574
30029,1574
3002,1384
1000,1484
32031,1574
2001,1574
18017,1574
3002,1385
10009,1574
1000,1020
43042,1574
6005,1574
1000,1059
1000,1206
31030,1574
1000,1475
1000,1072
44043,1574
5004,1574
31030,1574
1000,936
1000,1195
2001,1294
68067,1574
1000,1294
22021,1574
6005,1574
1000,1095
1000,1071
2001,1574
2001,1384
1000,1384
1000,1052
1000,1475
35034,1484
57056,1574
11010,1574
61060,1574
10009,1484
46045,1574
1000,1440
3002,1484
1000,1296
3002,1440
1000,1484
5004,1574
1000,1290
1000,1190
2001,1129
3002,1484
8007,1574
8007,1574
27026,1574
52051,1574
31030,1574
1000,1279
23022,1574
1000,1178
2001,1350
1000,1384
1000,1574
3002,1369
27026,1574
22021,1574
2001,1384
