iter,bestPrice
1000,41151
1000,38858
1000,39014
1000,39856
1000,41779
1000,40631
1000,41151
1000,40732
1000,40447
1000,38997
1000,42125
1000,40987
1000,39378
1000,41333
1000,41333
1000,38674
1000,39098
1000,43413
1000,43413
1000,43413
1000,41301
1000,41490
1000,39152
1000,41151
1000,43759
1000,41490
1000,39032
1000,39667
1000,40631
1000,38858
1000,42125
1000,40732
4003,43074
1000,43759
1000,42125
1000,41301
1000,41151
1000,43074
1000,40648
1000,41440
1000,43759
1000,40786
1000,40279
1000,39098
1000,39498
1000,43759
1000,43413
1000,41779
1000,41132
1000,41151
3002,43759
1000,40447
1000,43074
1000,43413
2001,43413
1000,40447
1000,40393
1000,41440
1000,43074
1000,43759
1000,42125
1000,38715
1000,43759
1000,43759
1000,42125
1000,41490
1000,40447
1000,43413
1000,39498
1000,38004
1000,41151
1000,39965
1000,40648
1000,40279
1000,40279
2001,39856
1000,38715
1000,41490
1000,39064
1000,41151
1000,43413
1000,38875
1000,40279
1000,43759
1000,41301
1000,37793
1000,40631
1000,39517
2001,40987
1000,39378
1000,43074
1000,39517
1000,43759
1000,40279
1000,43074
1000,43074
1000,42125
1000,40279
1000,43759
1000,37109
