iter,bestPrice
1000,1384
15014,1574
1000,1162
3002,1341
2001,1337
1000,1206
39038,1574
1000,1384
2001,1475
1000,1263
2001,1369
1000,1001
11010,1440
1000,1484
17016,1574
18017,1574
1000,1193
2001,1369
1000,1296
1000,1285
1000,1300
1000,1285
1000,1385
2001,1290
1000,1178
1000,1574
6005,1574
14013,1484
1000,1385
2001,1484
1000,1225
1000,1193
1000,1110
43042,1574
1000,1205
1000,1294
1000,1484
1000,1263
1000,1136
1000,1484
1000,1225
1000,1263
11010,1484
2001,1369
1000,1350
1000,1440
2001,1475
57056,1574
1000,1484
79078,1574
1000,1117
1000,1206
1000,1440
1000,1384
1000,1016
26025,1574
1000,1285
30029,1574
8007,1574
1000,936
1000,1179
56055,1574
1000,1203
54053,1574
37036,1574
2001,1484
1000,1124
4003,1484
3002,1574
1000,1574
1000,936
1000,1296
1000,1574
31030,1574
1000,1574
23022,1475
2001,1300
14013,1574
1000,1337
1000,1337
1000,1091
17016,1484
46045,1574
1000,1574
1000,1384
1000,1484
1000,1300
1000,1384
1000,1250
3002,1475
3002,1574
2001,1440
1000,1384
1000,1195
1000,1250
1000,1210
1000,1574
1000,1193
3002,1300
11010,1574
