iter,bestPrice
1000,1475
1000,1475
1000,1484
1000,1440
1000,1484
1000,1384
1000,1369
1000,1475
1000,1195
1000,1072
1000,1369
1000,1226
1000,1195
1000,1574
1000,1384
1000,1052
1000,1294
1000,1180
1000,1574
4003,1574
1000,1337
1000,1185
1000,1440
1000,1440
9008,1574
1000,1337
1000,1384
1000,1341
1000,1384
1000,1574
1000,1026
1000,1475
1000,1484
1000,1574
1000,1300
1000,1124
1000,1440
1000,1290
1000,1226
1000,1337
1000,1341
1000,1175
1000,1296
1000,1197
1000,1484
1000,1574
1000,1475
1000,1440
1000,1294
1000,1574
1000,1341
1000,1440
1000,1185
1000,1151
1000,1337
2001,1226
1000,1484
1000,1369
1000,1206
1000,1484
1000,1115
1000,1337
1000,1115
1000,1574
1000,1440
1000,1475
1000,1574
1000,1071
1000,1279
1000,1129
1000,1185
1000,1385
1000,1106
1000,1251
1000,1270
1000,1337
1000,1296
2001,1574
1000,1484
1000,1440
1000,1006
1000,1190
1000,1263
1000,1337
1000,1475
1000,1337
1000,1110
1000,1337
1000,1574
2001,1350
1000,1384
1000,1206
1000,1251
2001,1574
1000,1066
1000,1574
1000,1117
1000,1205
1000,1369
1000,1205
