iter,bestPrice
1000,5944
1000,5563
22021,6403
1000,5847
6005,6403
1000,6352
1000,6403
2001,6302
1000,6352
2001,5803
1000,6302
1000,6063
1000,6302
1000,6042
1000,5847
1000,5710
1000,6352
1000,6302
1000,6042
7006,6403
1000,5721
1000,6048
1000,5760
1000,5781
1000,6302
1000,6048
1000,5944
1000,5560
1000,5613
1000,6403
9008,6352
1000,6403
1000,6063
1000,6403
8007,6352
1000,6020
1000,5402
1000,5947
33032,6403
3002,6042
1000,5760
1000,6403
1000,6042
1000,5705
1000,5918
1000,6164
2001,6063
1000,6302
2001,5847
1000,6302
2001,6403
1000,6302
1000,5803
1000,6403
1000,6302
1000,6020
1000,6070
1000,5947
1000,5721
2001,6403
1000,5781
1000,6019
1000,6302
1000,6048
1000,5715
1000,6403
9008,6302
1000,6070
1000,6403
1000,6063
2001,6302
1000,6042
1000,5968
1000,6020
1000,6164
3002,6164
1000,6302
1000,6403
1000,6042
1000,5918
1000,5708
1000,5947
1000,5636
1000,5997
3002,5705
1000,6302
2001,6302
1000,6403
1000,5893
1000,5628
3002,6063
1000,5997
1000,6302
1000,5658
1000,6302
1000,6070
1000,6070
1000,6302
2001,6302
4003,6070
