iter,bestPrice
1000,1115
1000,1350
1000,1164
1000,1384
1000,1294
1000,986
1000,996
1000,1484
1000,1369
2001,1341
1000,1440
1000,1341
1000,1384
1000,1574
1000,1574
1000,1250
1000,1210
9008,1484
1000,1475
1000,1574
1000,1205
1000,1337
1000,1185
1000,1279
2001,1294
1000,1263
24023,1574
1000,1384
1000,1337
1000,1285
1000,1294
2001,1385
1000,1185
1000,1574
1000,1191
1000,1384
1000,1384
4003,1440
2001,1369
20019,1574
4003,1385
1000,1061
1000,1160
1000,1384
1000,1574
1000,1341
1000,1195
1000,1175
4003,1574
1000,1193
1000,1193
1000,1369
1000,1285
40039,1574
1000,1337
1000,1574
3002,1574
6005,1440
3002,1296
1000,1574
1000,1440
6005,1574
1000,1574
2001,1296
1000,1484
1000,1290
2001,1201
1000,1185
2001,1440
1000,1350
2001,1294
1000,1124
1000,1337
3002,1574
1000,1369
1000,1369
1000,1341
1000,1484
10009,1574
3002,1369
1000,1440
1000,1210
3002,1341
1000,1484
1000,1369
1000,1193
2001,1341
1000,1574
1000,1226
1000,1574
1000,1279
1000,1574
1000,1574
1000,1111
1000,1300
1000,1178
1000,1051
1000,1440
1000,1440
1000,1574
