iter,bestPrice
16015,6352
51050,6403
1000,5947
1000,6063
2001,6302
1000,6403
2001,6403
2001,6164
29028,6403
2001,6403
1000,6063
2001,6403
54053,6403
1000,6302
13012,6403
14013,6352
3002,6063
20019,6403
14013,6403
4003,6070
1000,5721
33032,6403
5004,6302
1000,6302
64063,6403
1000,6352
5004,6063
42041,6403
1000,6070
8007,6352
16015,6403
1000,5910
2001,6352
2001,6403
44043,6403
3002,6070
3002,5918
1000,6063
1000,6063
2001,5944
1000,5555
1000,5918
4003,6302
63062,6403
4003,6164
21020,6403
4003,6302
2001,6113
2001,6113
54053,6403
2001,5721
2001,6403
1000,6042
3002,6352
2001,6352
2001,6019
7006,6403
1000,6063
54053,6403
2001,6070
107106,6403
33032,6403
1000,6113
119118,6403
36035,6403
1000,5705
42041,6403
14013,6403
2001,6352
2001,5968
29028,6352
2001,6042
2001,6042
64063,6403
2001,6352
2001,6113
7006,6302
2001,6352
21020,6403
1000,6042
1000,5910
16015,6352
16015,6403
1000,6352
2001,5721
5004,6302
15014,6403
29028,6403
2001,5664
2001,6302
21020,6352
1000,5831
1000,5831
1000,6164
1000,5611
4003,6352
2001,5910
2001,6302
1000,6070
10009,6070
