iter,bestPrice
8007,1574
1000,1384
1000,1300
1000,1059
32031,1574
2001,1103
2001,1294
22021,1574
1000,1574
11010,1574
32031,1574
40039,1574
23022,1574
99098,1574
2001,1440
1000,1384
23022,1574
23022,1574
1000,982
23022,1574
1000,1484
6005,1574
11010,1440
6005,1475
1000,1440
1000,1195
3002,1440
1000,1126
1000,1072
1000,1100
12011,1574
1000,1369
2001,1385
8007,1574
1000,1151
3002,1484
66065,1574
23022,1574
1000,1296
1000,1384
16015,1574
3002,1484
9008,1574
1000,1574
1000,1341
12011,1440
9008,1440
3002,1385
20019,1574
1000,1103
1000,996
1000,1384
53052,1574
6005,1385
22021,1574
3002,1475
35034,1574
1000,1160
1000,1103
22021,1574
1000,1574
1000,1095
2001,1337
1000,1484
1000,1022
1000,1574
1000,1164
1000,1337
6005,1369
5004,1574
11010,1574
1000,1197
1000,1574
1000,1095
1000,1034
1000,1160
1000,1250
1000,960
1000,1337
1000,1574
23022,1574
38037,1574
4003,1475
3002,1574
8007,1574
1000,1484
1000,1185
40039,1574
8007,1574
1000,1107
1000,1484
1000,1574
1000,1574
1000,936
1000,1385
1000,1178
1000,1175
23022,1484
60059,1574
1000,1484
