iter,bestPrice
6005,1484
4003,1484
1000,1195
1000,1574
6005,1475
8007,1574
1000,1250
1000,1369
1000,1203
8007,1574
19018,1574
1000,1369
1000,1300
2001,1300
1000,1032
1000,1285
1000,1279
1000,1300
1000,1337
1000,1484
6005,1574
2001,1296
1000,1574
3002,1574
1000,1475
1000,1484
1000,1484
1000,1350
1000,1296
13012,1574
1000,1475
1000,1484
1000,1294
12011,1574
1000,1574
1000,1226
1000,1484
2001,1341
12011,1574
1000,1203
1000,1020
6005,1484
1000,1193
2001,1440
1000,973
1000,1475
3002,1475
1000,1173
2001,1440
8007,1384
1000,1440
2001,1385
6005,1484
1000,1185
1000,1270
1000,1574
8007,1475
1000,1574
1000,1063
1000,1574
1000,1197
1000,1385
1000,1296
8007,1484
3002,1369
1000,1475
7006,1484
1000,1484
3002,1369
39038,1574
1000,1574
1000,1574
1000,1164
2001,1203
1000,1440
1000,1195
1000,1369
1000,1018
1000,1440
9008,1574
1000,1369
13012,1574
1000,1190
1000,1296
1000,1369
1000,1384
1000,1440
1000,1201
1000,1279
1000,1337
1000,1185
1000,1369
1000,1484
3002,1484
1000,1191
1000,1484
1000,1484
1000,1294
1000,1369
12011,1574
