iter,bestPrice
15014,78800
2001,78800
94093,78800
21020,74282
2001,72090
57056,78800
2001,65098
1000,66909
11010,74282
3002,64727
7006,69245
71070,78800
1000,78800
2001,78800
30029,78800
26025,78800
1000,73836
52051,78800
50049,78800
19018,78800
53052,78800
16015,78800
66065,78800
6005,78800
29028,74282
14013,74282
70069,78800
1000,64004
41040,78800
3002,73836
29028,78800
3002,69245
18017,78800
48047,78800
2001,78800
2001,67572
33032,78800
14013,73836
83082,78800
2001,67126
2001,64727
1000,59675
54053,78800
3002,68552
78077,78800
2001,78800
7006,78800
1000,56344
44043,78800
32031,78800
1000,64004
4003,72090
3002,78800
17016,78800
4003,78800
3002,78800
14013,78800
29028,78800
83082,78800
69068,78800
36035,78800
17016,78800
3002,78800
58057,78800
4003,73836
2001,78800
21020,78800
8007,78800
60059,78800
1000,66909
24023,78800
21020,78800
30029,78800
89088,78800
40039,78800
1000,46918
50049,78800
2001,53618
1000,66909
58057,78800
2001,63588
163162,78800
107106,78800
30029,78800
87086,78800
8007,78800
3002,78800
12011,74282
63062,78800
30029,78800
79078,78800
88087,78800
2001,68552
64063,78800
98097,78800
2001,64727
20019,78800
3002,72090
1000,73836
2001,68552
