iter,bestPrice
1000,1337
1000,1574
1000,1195
1000,1193
2001,1574
2001,1484
1000,1300
1000,1484
8007,1484
1000,1300
1000,1574
3002,1369
1000,1251
1000,1225
1000,1105
1000,1484
1000,1300
1000,1440
1000,1011
1000,1574
1000,1270
2001,1385
1000,1574
1000,1092
1000,1193
2001,1369
6005,1574
1000,1484
1000,1285
1000,1279
1000,1475
1000,1369
8007,1574
1000,1369
1000,936
1000,1369
8007,1574
1000,967
1000,1263
1000,1300
1000,1440
1000,1574
1000,1279
1000,1484
30029,1574
1000,1440
1000,1385
1000,1385
1000,1574
1000,1384
1000,1337
1000,1384
1000,1574
1000,1475
1000,1440
1000,936
2001,1440
1000,1205
1000,1190
1000,1173
1000,1206
1000,1574
7006,1440
3002,1484
1000,1574
1000,1484
3002,1210
24023,1574
1000,1290
1000,1175
1000,1110
28027,1574
1000,1080
1000,1135
1000,1225
1000,1226
2001,1440
9008,1574
1000,1162
1000,990
1000,1185
1000,1206
1000,1384
1000,1341
1000,1185
1000,1574
1000,1337
1000,1092
1000,1226
6005,1574
1000,1341
1000,1384
1000,1337
1000,1574
12011,1484
1000,1103
2001,1294
1000,1126
1000,1369
1000,1063
