iter,bestPrice
2001,61
2001,75
2001,61
2001,75
2001,74
2001,75
2001,75
1000,74
2001,75
2001,75
1000,75
2001,62
2001,75
2001,61
50049,75
1000,62
1000,75
2001,61
1000,61
2001,75
2001,75
1000,62
1000,59
1000,75
2001,62
2001,62
2001,62
2001,62
2001,61
2001,61
1000,75
1000,62
2001,75
1000,62
1000,62
2001,62
1000,75
2001,75
1000,61
1000,75
1000,75
2001,75
2001,62
1000,75
2001,61
2001,60
1000,62
2001,62
4003,61
2001,59
2001,62
1000,75
2001,75
2001,62
1000,59
2001,75
2001,61
1000,62
2001,61
2001,62
2001,62
2001,75
2001,62
1000,61
2001,62
2001,62
1000,62
1000,61
2001,75
2001,75
2001,62
2001,62
2001,75
2001,75
2001,75
1000,61
2001,75
2001,62
1000,75
2001,75
1000,75
2001,62
1000,62
2001,62
1000,61
2001,62
2001,75
2001,62
2001,75
1000,62
2001,62
1000,75
1000,62
1000,75
1000,72
2001,61
1000,75
2001,61
2001,62
2001,62
