iter,bestPrice
65064,6403
15014,6403
100099,6403
38037,6403
61060,6403
49048,6403
109108,6403
6005,6302
103102,6403
171170,6403
175174,6403
65064,6403
43042,6403
36035,6403
119118,6403
280279,6403
80079,6403
155154,6403
82081,6403
131130,6403
28027,6403
227226,6403
94093,6403
13012,6403
91090,6403
39038,6403
156155,6403
188187,6403
124123,6403
139138,6403
27026,6403
248247,6403
67066,6403
156155,6403
8007,6403
209208,6403
169168,6403
125124,6403
43042,6403
142141,6403
108107,6403
62061,6403
250249,6403
44043,6403
117116,6403
80079,6403
13012,6403
182181,6403
31030,6403
108107,6403
9008,6403
53052,6403
37036,6403
21020,6403
83082,6403
99098,6403
16015,6403
92091,6403
37036,6403
35034,6403
6005,6403
114113,6403
77076,6403
167166,6403
162161,6403
115114,6403
111110,6403
189188,6403
141140,6403
11010,6403
139138,6403
309308,6403
94093,6403
74073,6403
47046,6403
120119,6403
149148,6403
80079,6403
52051,6403
108107,6403
139138,6403
109108,6403
116115,6403
152151,6403
126125,6403
127126,6403
158157,6403
55054,6403
42041,6403
30029,6403
116115,6403
194193,6403
40039,6403
118117,6403
76075,6403
124123,6403
2001,6302
75074,6403
172171,6403
294293,6403
