iter,bestPrice
1000,59303
1000,61337
1000,62535
3002,62535
1000,73836
1000,78800
1000,73836
1000,67572
8007,67572
7006,73836
9008,78800
1000,58209
1000,63588
1000,63173
3002,64281
1000,59070
4003,78800
2001,78800
3002,74282
40039,78800
1000,66909
1000,78800
1000,78800
1000,49471
1000,69245
2001,58655
2001,66909
1000,64281
1000,74282
1000,55018
1000,60199
3002,64004
1000,59536
1000,74282
2001,66909
1000,59675
1000,62535
1000,56938
1000,73836
3002,73836
1000,58774
1000,69245
1000,78800
1000,58136
1000,78800
1000,73836
1000,74282
1000,66909
1000,64727
1000,67572
1000,59882
1000,63588
1000,78800
1000,74282
1000,52628
1000,68552
1000,56463
1000,78800
1000,58432
1000,64004
1000,78800
1000,59303
1000,78800
3002,78800
1000,73836
1000,78800
1000,49069
9008,74282
1000,59675
1000,64281
1000,54598
2001,66909
1000,59763
16015,78800
1000,74282
25024,78800
1000,69245
1000,64608
34033,78800
1000,64846
1000,78800
1000,59675
1000,65098
1000,60268
1000,59675
1000,67572
1000,68552
1000,64846
1000,74282
1000,69245
1000,64846
2001,64727
1000,52623
1000,64034
1000,61308
1000,67572
1000,65098
1000,73836
34033,78800
8007,78800
