iter,bestPrice
1000,69318
1000,69318
1000,66909
1000,60328
1000,59882
1000,78800
2001,69245
1000,78800
1000,69245
1000,69245
1000,60580
1000,58774
1000,69318
1000,64846
1000,56463
1000,64727
1000,78800
2001,64846
1000,58982
1000,59536
1000,64727
1000,68552
1000,51930
1000,58982
1000,64281
25024,74282
4003,73836
1000,78800
1000,64727
1000,58997
4003,74282
1000,74282
1000,58997
8007,74282
1000,55528
1000,52628
1000,69245
1000,67126
1000,69318
1000,64004
1000,63173
2001,78800
1000,66909
1000,63173
4003,78800
1000,69245
1000,78800
1000,54627
1000,74282
1000,64608
1000,72090
1000,51297
1000,72090
1000,60328
1000,73836
1000,55543
1000,58997
1000,60199
2001,63173
1000,64281
1000,68552
1000,55750
1000,69245
1000,61308
1000,68552
1000,67572
1000,69245
1000,65098
1000,68552
1000,78800
1000,73836
1000,60268
1000,66909
1000,67126
1000,74282
1000,78800
6005,78800
3002,72090
2001,78800
1000,64846
1000,64846
1000,73836
1000,69245
1000,73836
1000,54018
1000,78800
48047,78800
1000,64281
10009,78800
1000,55616
3002,78800
4003,74282
1000,65098
1000,65098
1000,78800
1000,67126
66065,78800
1000,66909
1000,66909
1000,64727
