iter,bestPrice
1000,1369
1000,1162
2001,1296
8007,1574
50049,1574
43042,1574
1000,1574
1000,1105
80079,1574
1000,1059
2001,1091
43042,1574
102101,1574
84083,1574
5004,1475
1000,1197
2001,1574
17016,1574
4003,1440
16015,1574
14013,1574
43042,1574
29028,1574
54053,1574
2001,1369
56055,1574
2001,1094
2001,1484
22021,1574
111110,1574
37036,1574
1000,1300
33032,1574
1000,1151
2001,1005
2001,1384
56055,1574
1000,1126
2001,1574
53052,1574
2001,1475
1000,1279
118117,1574
34033,1574
2001,1384
1000,1369
2001,1350
22021,1574
1000,1124
17016,1574
8007,1574
1000,1279
8007,1574
1000,1475
1000,1574
6005,1484
6005,1337
1000,1350
1000,1285
98097,1574
55054,1574
41040,1574
101100,1574
2001,1369
40039,1574
55054,1574
2001,1384
8007,1484
21020,1574
66065,1574
40039,1574
81080,1574
54053,1574
81080,1574
72071,1574
1000,1384
51050,1574
58057,1574
2001,1066
1000,1296
2001,1200
1000,1190
54053,1574
5004,1574
118117,1574
2001,1270
50049,1574
1000,1190
2001,1296
56055,1574
1000,1440
21020,1574
1000,1574
34033,1574
29028,1574
3002,1369
1000,1440
17016,1574
4003,1440
2001,1440
