iter,bestPrice
2001,42125
1000,43759
18017,43759
1000,39098
1000,41779
1000,43413
1000,43759
1000,43759
1000,41301
1000,41779
1000,43074
1000,40447
1000,40393
1000,42125
1000,40279
9008,43413
1000,43074
1000,39667
1000,41151
1000,43413
1000,43074
1000,41132
12011,43759
1000,40631
1000,39667
1000,43074
1000,39054
4003,40447
1000,41440
1000,41301
1000,41779
1000,39667
1000,38759
1000,39856
1000,41440
1000,41151
1000,41440
1000,43074
1000,39667
1000,43759
3002,41779
1000,38997
1000,39032
1000,42125
1000,39014
1000,40732
1000,41301
1000,40732
1000,43074
1000,41490
1000,39353
1000,39014
2001,43074
1000,40279
1000,43074
1000,41301
1000,39378
1000,41301
1000,41301
1000,40648
1000,42125
1000,39965
1000,41151
1000,39517
1000,41440
1000,40279
1000,41301
1000,41151
1000,40447
1000,38813
1000,39054
1000,39517
2001,43759
1000,41333
1000,43413
1000,40648
1000,38875
1000,41490
1000,39856
1000,43413
1000,41490
1000,39517
2001,41440
1000,43074
1000,41301
1000,38645
1000,41490
1000,39152
33032,43759
1000,43074
1000,40279
1000,38706
1000,40393
1000,41490
1000,42125
1000,40987
1000,43759
1000,43413
1000,43759
1000,43413
