iter,bestPrice
29028,43759
2001,41301
8007,43413
1000,41440
1000,39965
40039,43759
2001,41132
4003,43074
1000,39098
16015,43413
67066,43759
1000,38858
1000,40447
6005,43413
1000,41440
21020,43759
2001,43074
7006,43759
1000,40279
1000,43413
1000,41779
1000,40648
1000,41151
55054,43759
1000,40631
1000,40648
1000,38506
8007,43413
3002,43074
22021,43759
1000,38192
1000,38674
1000,40786
10009,43413
80079,43759
30029,43759
1000,41151
1000,40648
3002,42125
1000,43074
8007,42125
31030,43759
1000,41440
1000,41440
1000,41301
1000,41779
1000,41490
2001,41301
1000,40393
21020,43759
67066,43759
3002,40447
1000,41440
1000,43759
2001,43074
4003,43074
8007,43759
1000,40786
1000,40393
1000,37853
5004,41490
2001,43413
8007,43759
1000,43074
21020,43413
1000,41440
1000,39667
1000,41440
1000,43759
1000,40987
21020,43759
1000,41779
2001,41301
1000,37853
1000,43759
2001,43759
8007,43759
1000,43074
4003,43413
2001,41779
5004,40648
1000,43074
2001,43759
31030,43759
1000,38708
5004,43074
1000,40987
2001,41440
1000,41779
1000,42125
41040,43759
52051,43759
33032,43759
70069,43759
4003,41490
1000,41779
2001,43413
1000,40648
6005,43074
14013,43759
