iter,bestPrice
4003,42125
5004,43413
35034,43759
79078,43759
51050,43759
5004,43759
2001,41301
21020,43759
2001,41490
103102,43759
2001,41779
6005,43413
2001,40732
32031,43759
3002,43413
3002,43074
31030,43759
7006,43074
21020,43759
31030,43759
3002,43759
20019,43759
2001,41779
2001,41301
14013,43759
2001,40987
2001,41333
2001,43759
58057,43759
3002,43074
2001,43074
1000,20813
114113,43759
2001,41440
16015,43759
53052,43759
4003,43759
6005,43759
21020,43759
103102,43759
4003,43413
7006,43413
1000,40987
1000,41779
21020,43413
2001,43413
21020,43759
25024,43759
48047,43759
23022,43759
8007,43413
4003,43413
7006,43413
116115,43759
58057,43759
52051,43759
141140,43759
2001,40732
1000,41132
2001,43759
62061,43759
36035,43759
5004,43759
4003,43413
54053,43759
36035,43759
2001,41301
62061,43759
2001,41490
7006,43074
3002,43759
13012,43074
14013,43413
29028,43413
7006,43759
2001,41490
7006,43413
3002,42125
144143,43759
1000,43413
39038,43759
5004,43759
72071,43759
46045,43759
5004,41779
2001,43074
59058,43759
2001,43759
3002,41151
63062,43759
2001,42125
1000,41132
2001,43759
20019,43074
2001,43759
1000,39965
54053,43759
52051,43759
28027,43759
32031,43759
