iter,bestPrice
1000,59303
1000,52628
1000,78800
1000,56221
8007,73836
1000,57571
1000,60328
1000,58997
1000,58655
1000,68552
1000,64281
1000,62608
1000,74282
1000,73836
1000,48639
1000,74282
1000,68552
1000,78800
1000,69245
1000,60580
1000,69245
20019,74282
1000,64034
1000,74282
1000,64281
2001,72090
2001,64846
1000,69318
2001,64281
3002,78800
3002,78800
1000,68552
1000,78800
1000,74282
1000,59303
1000,63173
1000,63588
1000,72090
1000,55528
1000,62608
1000,59675
1000,64281
1000,55276
1000,55543
1000,69245
1000,63173
1000,72090
1000,69245
1000,62535
1000,59303
1000,61308
1000,64846
3002,68552
1000,64846
1000,57571
1000,64727
3002,74282
1000,72090
1000,64727
1000,62535
1000,60268
2001,78800
1000,64608
1000,65098
1000,55869
1000,66909
2001,74282
1000,66909
1000,59882
1000,78800
1000,78800
4003,69318
1000,74282
1000,64846
1000,55276
1000,68552
1000,64846
1000,67572
1000,64281
2001,64034
1000,45794
1000,72090
1000,78800
1000,60268
1000,54835
1000,78800
1000,59644
1000,59675
1000,69318
1000,78800
1000,69245
1000,66909
6005,74282
1000,78800
1000,69245
1000,78800
1000,72090
1000,78800
1000,66909
1000,68552
