iter,bestPrice
48047,1574
32031,1484
61060,1574
5004,1574
2001,1574
91090,1574
35034,1574
5004,1574
3002,1574
158157,1574
123122,1574
87086,1574
57056,1574
2001,1484
9008,1574
154153,1574
25024,1574
43042,1574
101100,1574
59058,1574
84083,1574
20019,1574
76075,1574
32031,1574
143142,1574
58057,1574
11010,1574
97096,1574
34033,1574
161160,1574
89088,1574
94093,1574
111110,1574
2001,1484
35034,1574
158157,1574
38037,1574
32031,1574
43042,1574
7006,1574
88087,1574
46045,1574
188187,1574
150149,1574
2001,1574
135134,1574
91090,1574
6005,1484
58057,1574
147146,1574
2001,1201
106105,1574
7006,1574
139138,1574
74073,1574
2001,1574
182181,1574
115114,1574
108107,1574
59058,1574
2001,1341
16015,1574
128127,1574
113112,1574
2001,1484
18017,1574
8007,1440
21020,1574
96095,1574
137136,1574
153152,1574
95094,1574
83082,1574
62061,1574
38037,1484
51050,1574
78077,1574
203202,1574
82081,1574
21020,1574
3002,1475
107106,1574
145144,1574
50049,1574
96095,1574
56055,1574
105104,1574
108107,1574
43042,1574
75074,1574
47046,1574
91090,1574
90089,1574
65064,1574
95094,1574
74073,1574
56055,1574
42041,1574
62061,1574
57056,1574
