iter,bestPrice
2001,6302
1000,6352
1000,6063
1000,6302
6005,6403
1000,6063
1000,6063
1000,6403
1000,5664
15014,6403
1000,6070
1000,6020
1000,5671
1000,6352
2001,6352
2001,6042
17016,6403
1000,5686
1000,6352
1000,5997
1000,5758
1000,6019
1000,6020
34033,6403
15014,6403
1000,6302
15014,6403
3002,6042
1000,5831
21020,6403
23022,6403
1000,5847
1000,6403
1000,5803
1000,6352
1000,5944
1000,6020
1000,5944
1000,5809
1000,6403
1000,6352
14013,6403
1000,5650
11010,6403
1000,6042
1000,6020
2001,6403
2001,6302
11010,6403
1000,6063
30029,6403
39038,6403
1000,5997
32031,6403
1000,6352
11010,6403
1000,6403
31030,6403
1000,6403
1000,5968
1000,5781
4003,6352
1000,5947
31030,6403
2001,6403
1000,5947
1000,5944
1000,6352
1000,6063
1000,5760
1000,6070
4003,6302
1000,6302
1000,6403
1000,5579
1000,5947
1000,6063
1000,6113
1000,5589
2001,6352
1000,5628
1000,6020
1000,5687
2001,6352
1000,5555
1000,6070
1000,5947
1000,6302
44043,6403
1000,5729
54053,6403
35034,6403
22021,6403
2001,6352
1000,6042
1000,6302
34033,6403
1000,6403
1000,6063
1000,5758
