iter,bestPrice
1000,43074
1000,43413
1000,40732
1000,40279
1000,39667
1000,39353
1000,38715
1000,41151
1000,41490
1000,43759
1000,39667
1000,40447
1000,38813
1000,39856
1000,40732
1000,40631
1000,41440
1000,39517
1000,41779
1000,41301
1000,43759
1000,41440
1000,42125
1000,40732
1000,41301
1000,41301
1000,39353
1000,41779
6005,43759
1000,39667
17016,43074
1000,41440
1000,42125
1000,40732
1000,38620
1000,41779
2001,42125
1000,41779
1000,43413
1000,40631
1000,39667
1000,43074
1000,41779
1000,43413
1000,42125
1000,39032
1000,43759
1000,43759
1000,38506
1000,41301
1000,40447
1000,41301
1000,40631
1000,43413
1000,43074
1000,38715
1000,41440
1000,43413
1000,40732
1000,43074
1000,39667
1000,43759
1000,40393
1000,43074
1000,40732
1000,41490
1000,39054
1000,43413
1000,41301
1000,41151
1000,42125
1000,41132
1000,41440
1000,41333
1000,41440
1000,43074
1000,43413
1000,40447
2001,41440
1000,40648
1000,41301
1000,40648
1000,41301
1000,38858
1000,40648
2001,42125
1000,43413
1000,40447
1000,41151
1000,43413
2001,43074
1000,38620
1000,43759
1000,43413
1000,41301
1000,41132
1000,41440
1000,40648
1000,38813
1000,41440
