iter,bestPrice
1000,39517
2001,41490
1000,40786
1000,40631
15014,43759
3002,43074
42041,43759
1000,41440
3002,43759
1000,43074
1000,41151
1000,40987
1000,41440
1000,41301
8007,43413
1000,43074
1000,43074
1000,41301
1000,40648
1000,43759
1000,39353
2001,43074
22021,43759
1000,40648
1000,43074
1000,40648
32031,43759
2001,39699
2001,43413
1000,39699
3002,43759
17016,41779
1000,40648
1000,43074
3002,43074
1000,38997
1000,39517
8007,43759
1000,41440
1000,38524
31030,43759
1000,40447
1000,40987
1000,39378
1000,39856
1000,40631
1000,39054
1000,39378
2001,41301
1000,38620
1000,38858
1000,39032
6005,43413
1000,42125
1000,38858
1000,43074
17016,43759
1000,38506
1000,38463
1000,41440
2001,43413
10009,43413
1000,41440
1000,42125
1000,40631
1000,38620
1000,43074
3002,40786
22021,43413
4003,41301
2001,40648
8007,43759
6005,43759
1000,41490
23022,43759
1000,41151
2001,41779
1000,37338
1000,38863
1000,39856
1000,41151
2001,43759
1000,39965
1000,41490
1000,41301
1000,43074
1000,43074
1000,41490
6005,41490
55054,43759
1000,41779
1000,41301
58057,43759
7006,43413
1000,40631
1000,43413
1000,43074
1000,39965
1000,43074
1000,41440
