iter,bestPrice
19018,1574
11010,1574
1000,1039
25024,1574
1000,1574
31030,1574
17016,1484
1000,1185
1000,1574
22021,1574
1000,1012
1000,1250
1000,1200
1000,1384
2001,1475
46045,1574
1000,1072
22021,1574
1000,1285
6005,1294
1000,1250
2001,1384
1000,1263
3002,1384
1000,1440
18017,1440
22021,1574
18017,1574
23022,1574
1000,1103
8007,1475
15014,1574
1000,1369
44043,1574
22021,1574
1000,1279
2001,1385
43042,1574
1000,1484
3002,1574
55054,1574
2001,1574
1000,1475
1000,1300
21020,1574
1000,1296
3002,1574
1000,1193
93092,1574
14013,1484
39038,1574
1000,1206
2001,1384
1000,1350
35034,1574
1000,1279
3002,1384
2001,1475
1000,1484
2001,1193
2001,1205
1000,1300
1000,1296
1000,1041
16015,1574
1000,1205
6005,1574
1000,1059
7006,1484
1000,1175
2001,1384
7006,1484
1000,1105
1000,1164
1000,1574
1000,1185
1000,1206
1000,1574
55054,1574
1000,1300
2001,1337
3002,1294
1000,1020
65064,1574
11010,1475
1000,990
1000,1369
18017,1574
4003,1484
8007,1440
57056,1574
1000,1384
1000,1440
1000,966
1000,1151
1000,1115
4003,1574
1000,1440
1000,1300
1000,1341
