iter,bestPrice
146145,78800
2001,65098
104103,78800
2001,66909
30029,78800
7006,78800
1000,66909
2001,69245
6005,78800
7006,78800
8007,78800
1000,46918
2001,68552
40039,78800
23022,74282
29028,78800
1000,78800
4003,78800
51050,78800
2001,78800
2001,62535
2001,78800
6005,73836
2001,63173
83082,78800
1000,46918
1000,64727
30029,78800
40039,78800
102101,78800
81080,78800
16015,78800
17016,78800
29028,78800
88087,78800
29028,78800
11010,78800
1000,69245
65064,78800
55054,78800
4003,74282
2001,54751
97096,78800
72071,78800
1000,78800
1000,65098
1000,68552
29028,78800
2001,73836
65064,78800
3002,78800
1000,58209
155154,78800
83082,78800
72071,78800
2001,69245
1000,51703
8007,78800
24023,78800
5004,78800
95094,78800
1000,68552
1000,78800
33032,78800
21020,78800
37036,78800
54053,78800
6005,74282
53052,78800
29028,78800
1000,78800
21020,78800
48047,78800
29028,78800
1000,64846
2001,69245
62061,78800
1000,69245
82081,78800
2001,78800
1000,73836
145144,78800
2001,60268
51050,78800
53052,78800
33032,78800
103102,78800
1000,50604
3002,72090
57056,78800
1000,78800
2001,64727
84083,78800
50049,78800
15014,78800
2001,68552
16015,78800
32031,78800
54053,78800
55054,78800
