iter,bestPrice
1000,63173
1000,69318
1000,51010
1000,59675
1000,65098
1000,54464
1000,58205
1000,67572
1000,61308
61060,78800
62061,78800
1000,69245
1000,61308
1000,63588
1000,56790
8007,74282
1000,62535
1000,48763
1000,69245
6005,78800
2001,78800
1000,74282
3002,74282
1000,67126
2001,78800
3002,64281
1000,67572
1000,59675
1000,65098
1000,61308
5004,69245
8007,74282
1000,64727
1000,78800
1000,78800
1000,78800
1000,63588
2001,69318
1000,61308
4003,78800
8007,78800
17016,78800
2001,68552
1000,68552
3002,64608
1000,58982
24023,78800
7006,78800
2001,72090
1000,62535
1000,69245
1000,63588
1000,53272
1000,72090
1000,60328
1000,78800
3002,78800
1000,60134
1000,60199
3002,67126
6005,73836
1000,56221
9008,74282
75074,78800
19018,78800
1000,78800
1000,64727
6005,78800
1000,55276
24023,78800
1000,64281
1000,64608
1000,50149
1000,58982
1000,68552
1000,73836
1000,59303
4003,74282
1000,60199
3002,67572
1000,60199
37036,78800
3002,78800
1000,64281
1000,64608
1000,59882
1000,69318
2001,78800
38037,78800
3002,74282
1000,69245
1000,74282
8007,78800
1000,59763
1000,64846
1000,69245
1000,69245
1000,68552
1000,66909
1000,58655
