iter,bestPrice
1000,40631
30029,43759
23022,43759
1000,40631
6005,41779
1000,41779
1000,40447
1000,38813
1000,38875
1000,39378
2001,41490
1000,43759
1000,43074
1000,43074
2001,39353
1000,39098
7006,43413
3002,41151
1000,43074
1000,43074
23022,43759
1000,42125
1000,43759
58057,43759
1000,39064
1000,38356
1000,41779
1000,41132
1000,38715
3002,43074
1000,41333
22021,43759
1000,42125
1000,41490
2001,39517
1000,41301
1000,40393
27026,43759
1000,39856
1000,39378
7006,43413
2001,41132
1000,38708
1000,39064
32031,43759
1000,41151
1000,40732
1000,39517
8007,43759
1000,39699
1000,39152
1000,43074
1000,41490
1000,38997
1000,39353
1000,41490
1000,43074
1000,43074
1000,43074
1000,41440
1000,43759
1000,40447
1000,41151
1000,39667
1000,41151
1000,43074
8007,43759
1000,43074
1000,40631
2001,43413
1000,43074
20019,43759
1000,38360
1000,43413
1000,40279
1000,43413
1000,40648
1000,43074
2001,41440
31030,43759
1000,39856
1000,41301
1000,43413
1000,43759
1000,43759
1000,43759
1000,39965
1000,40393
1000,43413
1000,40648
4003,41490
1000,43413
9008,43413
1000,43413
1000,41779
1000,41132
22021,43759
1000,43074
1000,41490
1000,41132
