iter,bestPrice
1000,1300
1000,1574
1000,1484
1000,1440
3002,1484
1000,1484
1000,1175
1000,1440
1000,1225
1000,1574
1000,1574
1000,1065
1000,967
1000,1350
2001,1440
1000,1574
1000,1440
1000,1225
2001,1385
2001,1574
1000,1103
1000,1300
1000,1066
1000,1574
1000,1384
1000,1574
1000,1270
1000,1574
1000,1175
1000,1574
1000,1193
2001,1369
1000,1173
1000,1263
8007,1484
1000,1385
1000,1263
1000,1279
1000,1337
1000,1475
1000,1440
1000,1294
1000,1290
1000,1384
1000,1203
1000,1475
4003,1440
1000,1226
1000,1350
1000,1179
1000,1175
3002,1484
2001,1151
2001,1337
1000,1385
49048,1574
1000,1574
76075,1574
3002,1384
2001,1440
1000,1337
1000,1484
1000,1294
1000,1117
2001,1226
1000,1341
1000,1162
10009,1574
1000,1074
1000,1197
1000,1574
1000,1095
1000,1225
1000,1574
1000,1341
2001,1574
3002,1385
1000,1206
1000,1162
1000,1105
18017,1484
1000,1300
1000,1337
1000,1250
1000,1124
7006,1484
3002,1440
2001,1369
6005,1484
2001,1574
1000,1197
8007,1440
8007,1574
1000,1185
1000,1206
1000,1250
34033,1574
1000,1105
1000,1285
1000,1048
