iter,bestPrice
1000,41333
1000,43759
1000,41490
1000,41151
1000,41151
1000,40732
1000,43413
1000,40732
1000,43759
1000,41440
1000,43413
1000,42125
1000,38858
1000,41333
1000,41132
2001,43759
1000,43413
1000,41301
1000,41440
3002,43413
1000,43413
1000,40648
1000,41301
1000,40393
1000,41151
1000,40447
1000,43413
1000,39965
1000,43074
1000,39517
1000,38997
1000,38645
1000,41333
1000,41440
1000,41301
1000,40786
1000,42125
1000,43759
8007,43759
1000,43759
1000,41779
2001,41151
1000,43413
1000,40648
1000,41301
1000,39032
1000,43759
1000,43413
1000,41151
1000,40987
1000,41301
1000,38725
1000,41440
1000,41779
1000,43413
1000,40447
1000,41440
1000,40447
1000,41132
1000,41151
1000,39667
1000,39378
1000,41440
1000,40631
1000,41779
1000,43413
1000,40648
1000,43413
1000,43413
1000,41490
1000,40786
1000,36935
1000,43759
1000,43413
1000,41490
1000,43074
2001,43074
1000,43759
1000,41490
1000,43074
1000,43759
1000,40393
1000,39965
1000,38858
1000,41779
1000,41779
1000,40393
1000,43759
1000,41301
1000,39517
1000,43413
1000,40786
1000,40279
1000,43074
1000,43413
1000,43413
1000,39098
1000,41151
1000,40786
1000,40786
