iter,bestPrice
1000,41779
1000,41301
1000,38809
1000,42125
1000,38645
1000,40447
1000,39054
1000,43074
1000,43074
1000,43074
1000,37175
1000,40447
2001,43759
1000,41132
1000,40631
1000,41440
1000,40987
1000,40631
1000,41301
1000,43759
1000,40987
1000,41440
1000,41301
1000,41301
1000,41151
1000,41490
1000,39064
1000,41779
1000,43074
1000,40648
1000,43759
1000,39667
1000,40393
1000,40786
1000,39152
1000,43074
1000,40987
1000,43413
1000,41151
1000,41151
1000,38360
1000,40648
1000,40648
1000,43759
1000,43413
1000,43074
1000,41440
1000,40631
1000,38506
1000,41440
1000,38506
1000,41301
1000,43074
1000,41132
1000,41440
1000,41301
1000,38645
1000,41440
1000,38858
1000,41440
1000,43074
1000,41779
1000,40732
1000,41440
1000,43413
1000,39965
1000,39965
1000,42125
1000,38813
1000,43759
1000,43074
1000,41301
1000,40732
1000,40393
1000,40447
1000,38715
1000,41440
1000,43074
1000,43413
1000,38708
1000,43413
1000,40279
1000,43759
1000,40631
1000,43074
1000,40648
1000,40648
1000,41490
1000,41779
1000,43074
1000,43074
1000,40732
1000,38506
1000,41151
1000,38863
1000,43413
1000,40732
1000,41301
1000,41779
8007,43413
