iter,bestPrice
3002,65098
95094,78800
17016,74282
2001,58017
40039,78800
30029,78800
53052,78800
12011,74282
22021,78800
51050,78800
8007,78800
17016,78800
5004,69318
1000,74282
11010,78800
8007,78800
1000,69245
70069,78800
2001,72090
6005,69318
97096,78800
3002,78800
3002,68552
1000,59675
3002,74282
1000,78800
50049,78800
7006,78800
37036,78800
17016,74282
16015,78800
2001,73836
59058,78800
1000,54835
21020,78800
84083,78800
17016,78800
51050,78800
1000,60268
2001,74282
87086,78800
21020,78800
21020,78800
121120,78800
21020,78800
1000,49787
22021,78800
1000,68552
1000,56938
14013,78800
2001,64727
21020,78800
1000,66909
86085,78800
51050,78800
97096,78800
8007,69318
36035,78800
40039,78800
57056,78800
68067,78800
14013,78800
1000,69245
29028,78800
17016,78800
88087,78800
65064,78800
42041,78800
3002,78800
52051,78800
8007,78800
4003,78800
44043,78800
2001,78800
31030,78800
25024,78800
30029,78800
2001,59882
20019,78800
2001,54711
6005,78800
3002,66909
88087,78800
1000,78800
2001,74282
16015,78800
21020,78800
1000,78800
51050,78800
2001,67126
2001,74282
2001,66909
29028,74282
2001,73836
118117,78800
4003,69245
11010,78800
1000,60268
2001,78800
49048,78800
