iter,bestPrice
49048,6403
47046,6403
2001,6352
128127,6403
120119,6403
23022,6403
5004,6063
19018,6403
31030,6403
88087,6403
185184,6403
25024,6403
2001,6302
89088,6403
108107,6403
100099,6403
122121,6403
47046,6403
106105,6403
8007,6302
127126,6403
116115,6403
141140,6403
27026,6403
2001,6403
31030,6403
21020,6403
95094,6403
75074,6403
10009,6403
9008,6403
28027,6403
31030,6403
56055,6403
2001,6352
38037,6403
15014,6403
3002,6403
96095,6403
58057,6403
55054,6403
93092,6403
5004,6403
32031,6403
10009,6403
114113,6403
14013,6403
57056,6403
28027,6403
49048,6403
119118,6403
104103,6403
53052,6403
65064,6403
20019,6403
2001,6164
65064,6403
64063,6403
11010,6403
84083,6403
73072,6403
61060,6403
17016,6403
74073,6403
54053,6403
17016,6403
157156,6403
144143,6403
177176,6403
22021,6403
52051,6403
94093,6403
19018,6403
8007,6164
132131,6403
18017,6403
177176,6403
125124,6403
136135,6403
5004,6352
88087,6403
103102,6403
149148,6403
88087,6403
194193,6403
14013,6403
29028,6403
2001,6352
170169,6403
72071,6403
29028,6352
65064,6403
2001,6302
20019,6403
91090,6403
134133,6403
15014,6352
54053,6403
135134,6403
149148,6403
