iter,bestPrice
1000,6403
1000,6070
1000,6403
1000,6164
1000,6063
1000,6302
11010,6403
1000,5847
1000,6063
31030,6403
3002,6403
6005,6352
1000,6020
1000,5678
8007,6403
1000,6352
1000,6063
1000,5997
2001,6302
1000,5960
2001,6019
1000,6403
1000,5687
1000,5809
1000,6070
1000,6020
1000,6352
1000,6020
1000,5687
1000,6352
1000,6042
1000,6352
1000,6070
1000,6352
10009,6302
6005,6403
31030,6403
2001,5947
2001,5997
1000,6070
1000,6113
1000,5944
1000,6113
1000,6302
1000,6403
43042,6403
1000,5448
11010,6403
8007,6352
1000,5944
22021,6403
19018,6403
1000,6352
1000,6063
1000,6352
1000,6403
2001,5760
1000,6302
1000,5997
17016,6403
1000,6403
1000,6403
2001,6164
1000,6302
1000,6403
2001,6113
1000,6020
1000,6302
1000,6352
4003,6403
1000,5529
1000,5686
6005,6113
1000,6020
1000,5721
1000,6352
11010,6164
1000,6020
2001,6403
2001,6302
1000,6113
1000,5910
1000,5636
31030,6352
1000,6020
1000,5968
1000,5944
1000,5445
1000,6164
1000,6113
1000,5960
1000,5918
1000,6042
1000,5589
1000,5968
1000,5960
1000,6302
1000,6302
1000,6302
1000,5687
