iter,bestPrice
1000,5918
7006,6352
1000,6113
1000,5918
2001,6113
1000,6070
8007,6403
1000,6113
1000,6042
1000,6302
21020,6403
1000,6048
1000,5781
1000,6403
1000,5944
2001,6070
1000,6403
86085,6403
1000,6352
1000,6020
1000,6070
1000,6302
4003,6403
2001,6302
2001,6042
1000,5708
5004,6403
1000,6302
1000,5997
1000,6113
1000,6302
1000,5781
1000,5535
1000,6063
1000,6352
1000,5831
1000,6403
2001,5960
1000,5310
1000,6403
17016,6403
1000,5710
1000,6042
1000,6113
1000,6403
4003,6302
1000,6070
1000,5893
1000,6070
1000,6113
1000,5538
1000,6113
2001,6403
29028,6403
1000,6070
1000,6403
11010,6403
1000,6302
8007,6403
1000,5708
44043,6403
1000,5425
1000,6042
2001,6070
6005,6352
11010,6403
11010,6164
52051,6403
1000,6403
1000,5781
1000,5686
14013,6403
1000,6042
1000,5997
1000,6070
1000,6063
1000,6070
1000,6164
1000,6403
1000,6063
1000,6020
22021,6403
8007,6403
1000,5944
2001,6042
1000,6070
1000,6352
1000,5997
26025,6403
1000,5918
1000,5686
1000,5654
22021,6403
35034,6403
26025,6403
16015,6403
1000,6042
1000,6352
1000,5960
1000,6302
