iter,bestPrice
1000,72
1000,75
1000,62
1000,56
1000,75
1000,75
1000,72
1000,74
1000,75
1000,62
1000,61
2001,75
1000,62
1000,75
1000,75
1000,62
1000,75
1000,62
1000,62
2001,75
1000,75
1000,75
1000,61
1000,62
1000,75
1000,75
1000,60
1000,60
1000,75
1000,61
1000,62
1000,75
1000,74
2001,62
1000,75
1000,75
1000,75
1000,75
3002,72
1000,75
1000,72
1000,62
1000,75
1000,75
2001,59
1000,55
1000,75
1000,59
1000,60
1000,75
1000,75
2001,61
1000,58
1000,62
1000,75
1000,60
1000,75
1000,75
1000,62
1000,59
1000,61
1000,61
1000,61
1000,75
1000,60
1000,75
1000,62
2001,75
1000,60
1000,61
1000,75
1000,75
1000,61
1000,60
1000,74
1000,59
1000,74
1000,61
1000,75
1000,75
1000,74
1000,59
1000,62
1000,60
1000,75
1000,59
1000,59
1000,75
1000,75
1000,75
1000,74
1000,61
1000,74
1000,75
1000,61
1000,62
1000,61
1000,61
1000,75
1000,61
