iter,bestPrice
1000,43759
1000,40732
1000,38506
1000,41151
1000,41301
1000,38813
1000,41779
1000,43413
1000,39098
1000,39378
1000,43413
1000,35574
38037,43759
2001,43413
1000,41440
1000,41151
1000,38470
1000,40987
1000,39856
1000,41151
1000,39856
1000,43413
1000,43413
1000,39032
1000,43413
1000,43074
1000,42125
1000,43759
1000,38858
1000,41333
1000,40631
1000,43074
1000,42125
1000,41301
2001,43074
1000,41440
2001,43074
1000,41151
1000,40987
18017,43759
1000,43413
1000,41440
1000,40279
1000,40987
1000,43074
1000,41151
12011,43759
3002,43759
1000,38875
1000,43759
1000,42125
1000,43074
1000,41490
2001,43759
1000,39667
8007,43759
1000,40447
1000,43413
1000,41151
1000,43413
1000,41490
9008,43759
1000,40648
1000,40631
18017,43759
1000,41132
1000,41440
1000,40786
1000,41440
1000,38105
1000,39517
1000,43074
1000,41440
1000,40987
1000,43074
1000,39699
2001,41301
1000,40987
1000,40732
1000,40987
1000,39378
4003,43759
1000,39667
2001,42125
1000,39014
1000,38369
1000,43759
1000,43759
1000,40987
1000,43413
1000,36751
1000,40648
1000,43759
1000,41301
1000,43413
1000,38858
1000,39667
1000,42125
1000,38620
1000,43413
