iter,bestPrice
1000,5565
1000,6020
1000,6042
1000,6020
2001,6352
1000,5710
1000,6302
1000,5847
1000,5760
1000,5710
1000,6070
1000,5633
1000,6063
1000,6403
1000,5781
1000,6352
1000,5687
1000,6042
1000,6042
1000,5947
1000,6403
1000,6070
1000,6063
1000,6302
1000,6403
1000,5968
1000,5708
1000,5760
1000,6352
1000,6302
1000,6352
1000,6020
1000,6020
1000,6352
1000,5910
1000,5918
1000,5831
1000,5633
1000,6302
3002,5947
1000,6352
1000,6352
1000,6113
1000,5760
1000,5831
2001,6403
1000,6113
1000,5847
1000,5947
1000,5968
1000,6352
1000,6113
1000,6352
1000,6352
2001,6352
2001,6070
1000,5687
1000,5535
1000,6352
1000,5803
1000,6302
1000,5803
1000,6302
1000,6063
1000,5997
1000,5780
1000,6352
1000,5968
1000,6403
1000,6042
4003,6302
1000,5636
5004,6403
1000,5893
1000,6352
1000,6113
1000,5947
1000,6020
1000,5671
1000,6302
1000,6403
1000,5803
1000,5968
1000,5760
1000,6113
1000,6302
1000,6048
1000,5658
1000,6019
1000,6302
1000,6352
1000,6164
1000,5947
1000,5960
1000,6048
1000,6302
1000,6070
1000,6042
1000,5910
1000,5893
