iter,bestPrice
8007,74282
1000,66909
29028,78800
1000,78800
1000,60199
22021,78800
9008,74282
1000,64034
1000,69245
1000,60580
1000,59675
37036,78800
36035,78800
38037,78800
1000,59675
9008,74282
2001,72090
2001,73836
1000,78800
1000,59644
4003,78800
58057,78800
5004,68552
15014,78800
6005,78800
10009,72090
5004,78800
1000,69245
1000,64846
23022,78800
8007,74282
4003,78800
1000,78800
1000,60328
1000,61308
2001,58136
1000,74282
1000,60268
1000,63173
30029,78800
1000,65098
6005,78800
4003,67126
8007,78800
1000,69245
1000,50352
31030,78800
43042,78800
3002,78800
39038,78800
22021,78800
71070,78800
1000,63173
1000,64727
1000,50564
1000,60580
22021,78800
1000,72090
5004,72090
8007,74282
1000,67126
1000,66909
8007,78800
1000,58655
2001,74282
5004,78800
1000,68552
15014,78800
1000,51738
1000,73836
104103,78800
11010,74282
3002,65098
77076,78800
1000,53321
5004,78800
1000,73836
1000,53321
2001,73836
7006,78800
1000,74282
8007,74282
17016,74282
86085,78800
6005,74282
1000,78800
1000,49515
28027,78800
54053,78800
1000,66909
1000,78800
1000,73836
1000,78800
31030,78800
2001,59763
1000,54751
1000,58655
29028,78800
1000,69318
1000,73836
