iter,bestPrice
1000,1385
1000,1078
1000,1270
1000,1015
1000,1574
1000,1296
7006,1484
1000,1296
1000,1193
1000,1178
1000,1475
1000,1250
1000,1574
1000,1205
1000,1095
1000,1296
1000,1484
1000,1484
1000,1440
1000,1193
1000,1263
1000,1185
1000,1109
1000,1294
2001,1285
1000,1350
1000,1341
1000,1290
1000,1263
1000,1384
1000,1124
1000,1251
1000,1065
2001,1484
1000,1178
1000,1440
1000,1206
2001,1296
1000,1285
1000,1475
1000,1193
1000,1111
1000,1574
1000,1384
6005,1475
1000,1250
1000,1440
1000,1226
1000,1300
1000,1337
1000,1484
20019,1574
1000,1296
2001,1475
1000,1270
1000,1574
1000,1296
1000,1180
3002,1574
1000,1296
1000,1210
1000,1279
1000,1178
1000,1193
1000,1250
1000,1279
3002,1484
1000,1018
1000,1440
1000,1193
1000,1225
1000,1475
1000,1475
1000,1384
1000,1300
1000,1440
1000,1290
1000,1574
1000,1206
1000,1088
1000,1205
1000,1080
1000,1059
1000,1175
1000,1290
1000,1071
1000,1100
1000,1384
1000,1440
1000,1178
1000,1484
3002,1484
1000,1475
1000,1205
1000,1574
1000,1285
1000,1296
2001,1484
1000,1484
1000,1440
