iter,bestPrice
1000,64846
1000,56938
1000,67126
2001,69245
1000,78800
1000,73836
1000,78800
1000,55528
1000,62535
1000,56463
1000,69318
7006,67126
1000,78800
2001,78800
1000,52925
1000,64608
1000,63173
1000,58997
1000,78800
1000,67126
1000,69245
1000,66909
1000,64846
1000,72090
1000,72090
1000,72090
1000,62535
1000,60580
1000,74282
1000,64846
9008,74282
1000,53272
1000,74282
1000,48526
1000,78800
1000,78800
1000,74282
1000,74282
1000,78800
1000,69318
1000,54256
1000,58017
1000,64034
1000,64846
1000,74282
1000,55157
1000,74282
1000,78800
1000,49515
1000,66909
1000,58205
1000,59644
1000,49500
1000,63173
8007,74282
1000,58997
1000,64608
1000,60328
1000,67126
1000,54464
1000,78800
1000,56463
1000,69245
1000,64281
1000,69245
1000,67126
1000,74282
8007,78800
2001,58136
6005,78800
1000,78800
1000,64846
1000,64846
1000,66909
1000,60580
1000,54711
3002,72090
1000,72090
1000,72090
1000,63588
1000,55528
1000,66909
1000,54598
1000,54033
1000,65098
1000,64004
1000,53241
1000,74282
8007,78800
1000,58774
1000,78800
1000,67572
1000,64846
3002,69245
1000,60328
1000,55157
1000,74282
1000,72090
1000,51129
1000,78800
