iter,bestPrice
3002,1475
1000,1294
79078,1574
11010,1574
1000,1574
7006,1574
3002,1484
7006,1574
1000,1285
119118,1574
2001,1197
21020,1574
141140,1574
35034,1574
14013,1574
3002,1384
41040,1574
145144,1574
1000,1574
59058,1574
85084,1574
54053,1574
2001,1369
29028,1574
58057,1574
41040,1574
83082,1574
5004,1574
1000,1290
51050,1574
55054,1574
16015,1574
8007,1574
2001,1484
8007,1574
4003,1574
113112,1574
127126,1574
1000,1225
8007,1484
4003,1385
33032,1574
16015,1484
49048,1574
1000,1475
77076,1574
2001,1574
28027,1574
7006,1574
29028,1574
50049,1574
51050,1574
87086,1574
96095,1574
97096,1574
1000,1263
54053,1574
84083,1574
2001,1574
21020,1574
65064,1574
26025,1574
5004,1384
111110,1574
4003,1574
82081,1574
116115,1574
7006,1475
2001,1285
21020,1574
100099,1574
29028,1574
95094,1574
36035,1574
60059,1574
33032,1574
37036,1574
39038,1574
16015,1484
8007,1574
92091,1574
28027,1574
19018,1574
33032,1484
14013,1574
150149,1574
50049,1574
2001,1475
18017,1484
14013,1574
37036,1574
4003,1574
28027,1574
5004,1484
54053,1574
2001,1369
151150,1574
67066,1574
49048,1574
15014,1574
