iter,bestPrice
1000,38708
1000,40987
1000,43413
1000,40732
1000,41779
1000,40648
1000,40279
1000,43759
1000,39378
1000,40279
1000,43413
1000,39856
1000,41490
1000,41440
1000,43413
4003,43759
1000,42125
2001,43759
1000,38708
1000,43074
1000,41779
1000,40732
1000,43074
1000,41440
1000,43759
1000,40631
1000,41490
1000,41301
1000,40732
1000,43413
1000,41440
1000,41151
1000,41490
1000,42125
1000,39152
1000,43074
1000,41440
1000,39353
1000,43413
1000,41490
1000,39667
1000,41301
1000,41151
1000,41301
1000,43413
1000,41151
1000,39667
1000,40987
1000,43759
1000,41490
1000,41490
1000,41490
1000,43074
1000,40987
1000,40732
1000,41440
1000,38042
1000,43759
1000,41490
1000,40786
1000,41440
1000,43074
1000,40279
1000,41440
1000,43759
1000,39965
1000,40786
1000,39064
1000,43413
1000,40786
1000,42125
1000,39498
1000,40393
1000,38463
1000,41151
1000,43074
1000,43074
1000,41151
1000,43413
1000,39667
1000,39517
1000,38997
1000,41490
1000,43413
1000,40786
1000,43759
1000,41779
1000,43413
1000,40732
1000,41151
1000,43074
1000,42125
1000,40732
1000,38725
1000,43413
1000,38356
1000,40279
1000,41440
1000,43074
1000,41301
