iter,bestPrice
56055,1574
10009,1574
1000,1574
54053,1574
81080,1574
21020,1574
1000,1384
2001,1145
1000,1193
17016,1484
21020,1475
1000,1384
3002,1440
1000,1178
34033,1574
2001,1574
11010,1574
22021,1574
17016,1574
1000,1574
55054,1574
2001,1384
1000,1296
1000,986
4003,1440
27026,1574
5004,1440
1000,1384
2001,1574
57056,1574
1000,1484
3002,1574
8007,1574
18017,1574
2001,1484
17016,1574
1000,1574
2001,1369
34033,1574
85084,1574
26025,1574
28027,1574
1000,1124
15014,1475
22021,1574
2001,1337
1000,936
1000,1384
56055,1574
5004,1574
65064,1574
21020,1574
25024,1574
1000,1384
5004,1384
59058,1574
54053,1574
2001,1294
51050,1574
17016,1574
22021,1574
1000,1440
1000,1440
1000,1300
1000,1475
8007,1574
31030,1574
1000,1193
4003,1279
6005,1574
14013,1574
54053,1574
2001,1270
83082,1574
2001,1369
1000,1296
17016,1484
30029,1574
41040,1574
2001,1440
22021,1574
3002,1574
1000,1440
22021,1574
4003,1369
1000,1290
1000,1574
11010,1574
2001,1484
1000,1384
1000,1058
22021,1574
1000,1012
8007,1350
1000,1574
1000,1095
1000,1574
1000,1341
4003,1484
14013,1574
