iter,bestPrice
1000,43759
1000,41440
1000,39517
1000,41440
2001,39517
1000,43413
1000,41151
1000,40786
1000,39965
1000,39498
1000,43074
1000,43759
1000,41490
1000,43413
1000,39965
1000,41301
1000,39517
2001,43759
1000,41440
1000,41301
1000,43759
2001,43413
1000,41301
22021,43759
1000,41440
1000,40279
1000,38042
1000,43074
35034,43759
1000,41301
1000,43413
1000,41490
4003,43413
1000,38863
1000,39378
1000,43413
1000,43413
1000,40648
6005,42125
1000,43074
1000,41490
1000,41132
1000,43413
1000,43759
55054,43759
8007,43413
1000,40987
1000,41779
1000,43759
1000,43413
3002,43074
1000,41301
1000,40987
1000,41151
1000,38124
1000,43413
1000,43413
1000,43074
1000,41440
1000,39856
7006,43413
1000,39856
10009,43413
1000,38524
1000,43413
2001,41333
2001,38645
1000,39517
1000,38306
1000,41490
1000,40732
3002,41490
1000,43759
23022,43759
5004,43074
1000,43759
1000,38725
2001,41151
1000,39667
1000,39378
2001,43759
1000,40447
1000,43413
6005,43074
2001,42125
1000,38620
1000,40786
15014,43759
1000,43413
1000,43759
1000,43759
1000,43759
26025,43759
1000,39667
1000,43759
2001,41301
1000,43759
35034,43759
1000,41490
1000,41440
