iter,bestPrice
1000,58432
20019,74282
3002,78800
1000,69245
1000,69245
1000,57571
1000,72090
1000,72090
1000,58136
1000,55276
1000,59536
2001,72090
17016,78800
1000,64846
1000,59536
1000,58997
1000,51129
2001,66909
6005,78800
1000,50604
2001,74282
1000,64281
5004,69318
1000,66909
1000,46981
1000,78800
1000,58997
1000,64034
1000,54751
1000,62608
1000,59536
1000,67572
1000,52628
3002,78800
12011,78800
1000,60580
2001,73836
1000,63173
1000,60328
1000,64846
1000,73836
1000,78800
1000,59675
1000,68552
1000,78800
9008,72090
1000,63588
2001,78800
1000,46690
1000,69245
1000,49204
1000,60199
2001,72090
1000,56221
1000,56463
1000,60199
1000,64281
1000,49515
1000,58205
1000,49634
1000,64846
1000,62608
3002,60199
1000,62535
1000,56221
32031,78800
1000,64846
1000,64281
1000,65098
2001,69318
1000,73836
1000,59536
2001,69318
1000,52826
1000,66909
1000,64727
8007,78800
1000,57294
11010,74282
1000,53603
1000,53731
1000,55543
1000,78800
1000,59675
1000,56790
1000,74282
2001,64034
1000,64034
1000,55018
1000,78800
8007,78800
1000,60268
1000,65098
3002,64727
5004,72090
1000,78800
1000,54256
1000,58209
1000,78800
1000,59882
