iter,bestPrice
1000,41132
1000,43759
1000,41779
3002,43074
1000,41440
15014,43759
1000,43759
5004,43759
1000,41333
1000,41151
15014,43759
1000,43413
1000,41779
1000,43413
1000,41779
1000,41779
1000,40393
1000,41779
19018,43759
1000,43759
1000,38021
1000,43074
1000,43074
1000,39699
1000,38813
1000,41490
1000,43413
1000,43074
1000,41779
2001,43759
1000,37766
1000,41490
1000,39965
1000,43074
1000,41440
1000,39667
1000,40786
1000,41440
1000,43074
1000,43759
8007,43759
17016,43759
1000,41301
1000,41440
1000,40987
1000,41440
1000,41440
2001,43074
2001,41490
1000,38863
1000,41490
1000,43413
1000,40631
1000,40393
1000,43074
1000,39064
1000,40631
1000,40279
1000,43413
1000,42125
1000,43074
1000,41333
1000,41779
1000,38875
1000,40987
1000,38863
1000,40393
1000,41779
1000,43759
2001,41440
1000,43074
1000,38997
2001,41490
1000,41779
1000,42125
1000,41440
8007,43759
1000,39152
1000,39378
1000,43074
1000,41440
1000,43413
2001,43413
1000,40786
1000,40393
8007,43413
1000,41779
2001,40393
1000,38863
1000,42125
56055,43759
1000,41301
2001,40393
2001,43413
1000,43759
1000,40279
2001,43413
11010,43759
5004,43413
1000,40732
