iter,bestPrice
1000,62535
4003,72090
1000,64846
1000,56221
1000,59303
1000,64608
1000,60580
1000,74282
1000,58982
1000,78800
1000,69318
1000,65098
1000,50905
1000,60328
1000,78800
1000,69245
1000,72090
1000,68552
1000,61308
1000,69318
1000,53731
1000,68552
3002,61337
2001,67572
1000,78800
1000,72090
1000,68552
1000,50698
1000,64281
1000,72090
1000,69245
1000,72090
1000,69245
1000,67126
1000,69245
1000,59070
1000,60328
2001,74282
1000,64608
1000,74282
1000,67126
5004,78800
1000,68552
1000,74282
1000,69318
1000,59675
1000,68552
1000,58017
1000,74282
1000,78800
1000,66909
1000,56790
1000,63173
1000,78800
1000,62535
1000,61308
1000,59882
6005,74282
1000,78800
1000,69318
1000,67572
1000,64846
1000,78800
1000,68552
1000,72090
1000,59303
1000,49818
1000,64608
1000,72090
1000,59536
2001,78800
1000,78800
2001,63173
1000,58655
1000,69318
3002,64281
1000,74282
1000,66909
1000,53914
1000,64281
1000,62535
1000,64727
1000,67572
1000,54598
1000,48867
1000,73836
1000,78800
1000,69245
1000,66909
1000,78800
1000,78800
1000,64608
1000,78800
1000,56221
1000,59303
1000,65098
1000,64281
3002,78800
1000,58017
1000,74282
