iter,bestPrice
14013,1574
1000,1022
1000,1574
31030,1574
1000,1440
1000,1440
9008,1574
11010,1574
31030,1574
8007,1574
1000,1440
89088,1574
1000,1296
22021,1574
1000,1384
1000,1089
3002,1337
1000,1574
1000,1384
1000,1279
1000,1296
3002,1369
2001,1337
79078,1574
59058,1574
22021,1574
1000,1369
1000,1226
1000,1384
1000,1263
1000,1440
1000,1294
2001,1263
59058,1574
23022,1574
56055,1574
94093,1574
1000,1300
3002,1440
13012,1574
63062,1574
2001,1574
17016,1475
3002,1384
63062,1574
2001,1574
1000,1048
12011,1574
1000,1026
1000,1270
3002,1574
1000,1574
1000,1574
1000,1574
22021,1574
4003,1574
1000,1225
1000,1022
54053,1574
1000,1197
21020,1574
30029,1574
1000,1300
1000,1440
2001,1341
1000,1179
16015,1574
1000,1162
1000,1103
1000,1574
1000,1180
2001,1193
1000,1151
3002,1475
1000,1072
2001,1296
23022,1574
36035,1574
23022,1574
1000,1095
1000,1050
6005,1484
11010,1484
1000,1300
1000,1193
3002,1574
30029,1574
1000,1225
1000,1337
15014,1574
1000,1574
33032,1574
31030,1574
1000,1151
11010,1574
1000,1350
1000,1369
1000,1369
4003,1574
5004,1574
