iter,bestPrice
1000,6020
1000,6020
1000,6164
1000,6042
1000,6020
1000,6403
1000,5781
1000,6164
1000,6302
1000,5893
1000,5809
1000,5910
1000,6048
1000,5687
1000,6113
1000,6352
1000,6302
1000,6020
1000,6302
1000,5944
1000,6042
1000,5847
1000,5611
1000,6352
1000,5679
1000,5710
1000,5780
1000,6352
1000,6403
1000,5968
1000,6048
1000,5803
1000,5555
1000,5679
1000,6164
1000,6352
1000,6352
1000,5831
1000,6048
1000,5968
1000,5968
1000,6113
1000,5947
1000,6302
1000,5355
1000,6070
1000,5781
1000,6020
1000,5650
1000,5687
1000,5847
1000,6113
1000,6113
1000,5944
1000,6403
1000,5781
1000,5780
1000,6019
1000,5781
1000,5758
1000,5944
1000,5947
1000,6063
1000,5729
1000,6070
1000,6070
1000,6164
1000,6042
1000,5710
1000,6048
1000,5654
1000,6019
1000,6403
1000,6113
1000,5947
1000,6302
1000,6403
1000,5997
1000,6302
1000,6302
1000,6048
1000,6302
1000,6020
1000,5997
1000,6048
1000,6070
1000,5758
1000,6063
1000,6352
1000,5721
1000,6063
1000,5997
1000,6352
1000,6302
1000,5947
1000,5918
1000,6352
1000,5613
1000,5968
1000,6403
