iter,bestPrice
1000,53321
1000,63173
1000,53272
1000,55157
1000,51257
1000,54033
1000,60090
1000,46918
1000,78800
1000,72090
2001,78800
1000,72090
2001,60199
1000,62535
1000,74282
1000,69318
1000,59536
1000,72090
1000,72090
2001,74282
1000,73836
1000,78800
1000,74282
1000,78800
1000,64727
2001,72090
1000,64727
1000,78800
1000,49125
1000,64608
1000,54751
1000,78800
1000,78800
1000,61337
1000,67572
1000,64846
1000,67572
1000,69318
1000,78800
1000,59303
1000,60580
1000,59675
1000,73836
1000,74282
1000,60328
1000,66909
2001,78800
1000,55543
1000,78800
1000,67126
3002,74282
1000,60199
1000,69245
1000,66909
1000,73836
1000,62608
1000,54751
6005,78800
1000,69245
1000,78800
1000,66909
1000,63173
1000,58655
1000,54835
1000,55304
1000,53603
1000,72090
1000,68552
1000,72090
1000,72090
1000,66909
1000,59536
1000,58774
1000,53241
1000,78800
1000,72090
1000,49292
1000,51930
1000,55364
1000,78800
2001,78800
1000,72090
1000,47546
1000,54835
1000,67126
1000,65098
1000,58997
1000,66909
2001,66909
1000,63173
1000,68552
1000,69245
1000,64034
1000,64846
1000,55869
1000,53731
1000,55157
1000,59303
1000,65098
1000,51025
