iter,bestPrice
33032,43759
1000,43759
1000,40732
6005,41440
1000,41490
3002,41779
11010,43759
1000,40631
2001,41490
1000,43074
61060,43759
1000,42125
1000,40987
1000,40447
8007,43074
1000,41779
1000,43759
6005,41490
5004,43074
29028,43759
2001,41779
90089,43759
2001,40732
58057,43759
8007,43759
5004,43759
2001,43759
1000,43759
1000,41490
1000,41301
3002,43413
2001,39965
2001,40631
1000,39014
2001,41440
17016,43759
1000,43759
66065,43759
2001,43074
56055,43759
2001,43074
2001,41779
2001,41779
30029,43759
3002,41490
4003,43759
1000,43413
1000,40732
2001,39699
2001,43759
1000,37950
3002,43759
21020,43759
56055,43759
1000,40786
8007,41779
54053,43759
3002,43074
33032,43759
2001,39667
2001,43759
1000,43759
2001,43413
2001,43413
94093,43759
21020,43759
10009,43759
2001,43759
2001,43074
1000,38708
2001,39965
37036,43759
1000,40447
1000,40648
26025,43759
42041,43759
1000,39064
1000,36952
10009,43759
6005,43759
2001,41779
21020,43759
1000,41440
1000,43759
4003,41301
2001,43413
4003,39699
1000,43074
1000,43074
30029,43759
1000,43413
21020,43759
2001,41490
1000,43413
4003,41440
14013,43759
1000,40279
164163,43759
4003,43074
1000,41490
