iter,bestPrice
1000,41440
1000,43413
1000,41151
1000,39856
1000,40987
1000,41490
1000,38356
1000,41440
1000,42125
1000,40648
1000,38132
1000,41333
1000,39965
1000,41440
1000,41490
1000,39856
1000,41779
1000,36952
1000,43074
1000,41779
2001,43759
1000,43759
1000,43074
1000,41301
1000,39699
1000,40631
1000,40631
1000,43074
1000,41301
1000,41440
1000,41490
1000,42125
1000,42125
1000,43759
1000,42125
1000,39667
1000,41301
1000,40447
1000,40279
1000,41151
1000,41301
1000,39014
2001,43413
1000,41490
1000,39378
3002,40631
1000,40786
1000,43074
1000,41779
1000,43413
1000,43413
1000,39517
1000,39517
1000,38809
1000,43759
6005,43759
1000,41333
1000,42125
1000,38205
4003,41490
1000,43074
1000,42125
1000,40631
3002,43413
1000,42125
1000,41779
1000,37967
1000,41151
2001,41333
1000,41151
3002,43759
1000,43413
1000,39856
1000,43413
1000,42125
1000,38997
1000,41301
1000,40447
1000,41490
1000,39353
1000,40732
1000,41490
1000,41490
1000,38863
1000,40393
1000,41151
1000,40648
1000,41440
1000,40447
1000,39378
1000,39498
1000,43074
1000,43074
1000,39965
1000,41301
1000,41490
1000,40447
1000,41779
1000,41490
1000,39054
