iter,bestPrice
54053,1574
84083,1574
7006,1574
61060,1574
34033,1574
24023,1574
88087,1574
35034,1574
10009,1574
32031,1574
98097,1574
104103,1574
2001,1440
3002,1263
38037,1574
2001,1484
53052,1574
2001,1574
10009,1574
150149,1574
70069,1574
14013,1574
18017,1574
10009,1574
83082,1574
25024,1574
81080,1574
53052,1574
65064,1574
2001,1296
59058,1574
15014,1574
2001,1484
13012,1369
131130,1574
106105,1574
50049,1574
51050,1574
21020,1574
2001,1574
108107,1574
35034,1574
2001,1475
16015,1574
28027,1574
36035,1574
95094,1574
5004,1574
1000,1574
45044,1574
2001,1440
7006,1484
32031,1574
91090,1574
67066,1574
45044,1574
2001,1574
36035,1574
59058,1574
49048,1574
21020,1574
4003,1574
55054,1574
27026,1574
66065,1574
4003,1475
94093,1574
2001,1574
5004,1574
128127,1574
88087,1574
2001,1270
4003,1440
63062,1574
5004,1484
149148,1574
2001,1440
38037,1574
77076,1574
79078,1574
50049,1574
23022,1574
55054,1574
51050,1574
60059,1574
55054,1574
54053,1574
95094,1574
3002,1385
60059,1574
11010,1574
17016,1484
2001,1279
52051,1574
10009,1574
60059,1574
7006,1384
156155,1574
52051,1574
2001,1350
