iter,bestPrice
1000,41301
1000,39667
1000,40631
1000,43413
1000,39353
1000,39032
1000,43413
1000,41440
1000,40393
1000,41490
1000,41440
1000,41301
1000,43074
1000,43074
1000,40786
1000,40393
1000,41440
19018,43759
1000,41151
1000,40732
1000,40987
1000,41779
1000,43413
1000,43074
1000,42125
1000,40279
1000,40279
1000,43413
1000,40987
1000,40631
1000,40786
1000,41779
1000,43759
1000,43759
1000,39014
1000,40732
1000,41490
1000,43759
1000,43759
1000,38759
1000,41151
1000,43759
1000,39378
1000,41779
1000,41151
1000,41132
1000,41151
1000,40447
1000,38725
1000,40987
1000,43074
1000,43759
1000,38506
1000,40631
1000,43413
1000,40447
1000,38813
1000,40648
1000,38620
1000,41440
1000,37109
1000,40786
1000,40987
1000,42125
1000,38708
1000,43074
1000,40987
1000,39032
1000,43074
1000,39667
1000,43413
1000,41151
1000,37836
1000,41490
1000,38875
1000,39517
1000,43074
1000,41490
1000,41779
1000,41151
1000,39152
1000,41440
1000,40447
1000,36785
1000,39856
1000,41490
2001,41779
1000,43413
1000,39667
1000,41440
1000,41490
1000,39517
1000,41440
1000,39014
1000,39353
1000,41490
1000,39032
1000,41440
4003,43759
1000,41151
