iter,bestPrice
1000,5918
1000,5997
1000,6063
1000,5947
1000,5758
1000,6070
1000,6063
1000,6352
1000,6302
1000,6352
1000,5893
1000,6042
1000,6352
1000,5947
1000,6302
1000,6020
1000,6113
1000,5944
1000,6352
1000,5997
1000,5918
1000,6063
1000,6113
1000,6403
1000,6302
1000,5678
1000,6302
1000,5684
1000,6164
1000,6063
1000,6070
1000,6070
1000,5664
1000,6302
1000,6352
1000,6352
1000,6302
1000,5758
1000,6302
1000,6020
1000,5729
1000,6164
1000,6352
1000,6302
1000,5809
1000,5710
1000,6113
2001,6302
1000,6302
1000,5678
1000,5560
1000,6063
1000,6070
1000,6063
1000,6063
1000,6352
1000,6302
1000,6020
1000,6063
1000,5650
1000,6403
1000,6403
1000,6403
1000,6020
1000,5809
1000,5715
1000,5658
1000,5847
1000,6113
1000,6403
1000,5780
1000,5910
1000,5918
1000,6063
1000,5997
1000,5678
1000,6070
1000,5662
1000,5847
1000,6019
1000,6019
1000,6070
1000,6113
1000,6164
1000,5508
1000,5729
1000,6164
1000,5715
1000,6042
1000,5715
1000,5910
1000,6164
1000,6352
1000,6020
1000,6113
1000,5758
1000,6352
1000,5847
1000,5760
1000,6403
