iter,bestPrice
2001,69318
1000,59644
8007,78800
1000,56463
1000,58997
1000,48639
1000,64846
2001,64846
39038,78800
42041,78800
6005,78800
30029,78800
82081,78800
17016,74282
43042,78800
13012,78800
1000,73836
3002,78800
2001,62535
29028,78800
1000,59675
3002,74282
35034,78800
14013,78800
2001,78800
8007,78800
3002,67572
17016,78800
67066,78800
1000,63173
1000,48679
64063,78800
31030,78800
14013,78800
1000,73836
35034,78800
15014,78800
5004,69318
1000,47244
1000,64608
8007,78800
37036,74282
5004,74282
1000,63588
1000,58982
1000,58205
1000,59675
1000,55528
1000,69245
2001,73836
1000,61337
17016,78800
1000,78800
8007,78800
8007,72090
2001,78800
2001,63588
2001,74282
52051,78800
4003,78800
2001,64846
106105,78800
31030,78800
1000,69245
88087,78800
2001,69245
1000,64846
87086,78800
1000,46918
61060,78800
66065,78800
1000,50193
7006,78800
1000,73836
1000,72090
3002,67572
1000,69245
62061,78800
2001,72090
1000,58997
38037,78800
1000,58997
30029,78800
2001,78800
22021,74282
54053,78800
56055,78800
1000,74282
1000,78800
1000,62535
34033,78800
32031,78800
52051,78800
41040,78800
1000,74282
3002,66909
2001,64727
2001,69245
30029,78800
1000,72090
