iter,bestPrice
355354,43759
364363,43759
219218,43759
215214,43759
296295,43759
265264,43759
235234,43759
339338,43759
273272,43759
291290,43759
309308,43759
284283,43759
297296,43759
297296,43759
368367,43759
273272,43759
256255,43759
233232,43759
219218,43759
251250,43759
216215,43759
298297,43759
300299,43759
196195,43759
355354,43759
328327,43759
257256,43759
182181,43759
232231,43759
144143,43759
296295,43759
269268,43759
299298,43759
337336,43759
252251,43759
106105,43759
207206,43759
25024,43759
256255,43759
230229,43759
245244,43759
281280,43759
219218,43759
310309,43759
172171,43759
306305,43759
111110,43759
356355,43759
250249,43759
434433,43759
369368,43759
346345,43759
197196,43759
252251,43759
373372,43759
308307,43759
285284,43759
253252,43759
259258,43759
352351,43759
331330,43759
358357,43759
219218,43759
389388,43759
349348,43759
302301,43759
341340,43759
196195,43759
306305,43759
347346,43759
318317,43759
266265,43759
163162,43759
288287,43759
270269,43759
186185,43759
301300,43759
351350,43759
283282,43759
358357,43759
192191,43759
346345,43759
341340,43759
213212,43759
287286,43759
292291,43759
302301,43759
253252,43759
390389,43759
335334,43759
395394,43759
347346,43759
237236,43759
229228,43759
292291,43759
291290,43759
291290,43759
314313,43759
356355,43759
302301,43759
