iter,bestPrice
1000,6113
1000,5918
1000,6164
1000,6020
1000,6113
1000,6113
1000,5997
1000,6164
1000,6070
1000,5893
1000,6019
1000,5781
1000,5803
1000,6352
8007,6403
1000,5715
1000,5918
1000,6063
1000,5781
1000,6302
1000,5893
1000,6302
1000,6403
1000,6352
1000,6403
1000,6063
1000,5654
1000,6020
3002,6048
24023,6403
1000,5960
1000,6042
1000,5960
4003,6063
1000,5997
1000,6070
1000,6063
1000,5944
2001,6352
1000,5665
1000,6063
1000,6403
1000,5781
1000,6352
7006,6070
1000,5729
18017,6352
1000,6020
1000,5847
1000,5423
1000,5893
8007,6113
1000,6403
1000,6063
2001,6164
1000,5893
1000,6352
1000,5521
1000,5831
2001,6070
1000,6352
3002,6048
1000,5831
1000,5910
1000,5650
1000,6063
1000,6403
1000,5847
1000,6164
3002,6113
1000,6042
1000,6352
1000,6070
1000,6042
1000,6070
1000,5910
1000,6070
1000,6164
1000,5918
1000,6352
2001,6070
1000,6042
1000,6403
1000,6113
1000,5960
1000,6070
1000,6352
1000,6403
1000,5918
1000,5910
8007,6403
1000,6020
1000,6042
1000,6352
8007,6403
1000,5997
1000,6403
1000,6403
1000,6113
1000,5918
