iter,bestPrice
2001,75
1000,60
1000,62
1000,75
1000,62
1000,62
1000,60
1000,60
1000,75
1000,74
1000,61
1000,74
1000,61
1000,62
1000,56
1000,75
1000,75
1000,61
1000,62
1000,75
1000,61
1000,75
1000,61
1000,75
1000,75
1000,61
1000,61
1000,74
1000,75
1000,75
1000,75
1000,60
2001,75
1000,62
1000,62
1000,75
1000,75
1000,75
1000,72
1000,62
1000,75
1000,62
1000,59
2001,61
1000,75
1000,61
1000,62
1000,75
1000,72
1000,75
1000,75
1000,75
1000,62
1000,75
1000,75
1000,72
1000,61
1000,75
1000,75
1000,61
1000,62
2001,74
1000,75
1000,62
1000,75
1000,62
1000,75
1000,75
1000,75
1000,72
4003,75
1000,74
1000,75
1000,75
1000,75
1000,75
1000,74
1000,75
1000,75
1000,61
1000,61
1000,74
1000,62
1000,61
1000,75
1000,62
1000,75
1000,75
1000,62
1000,75
1000,62
1000,61
1000,75
1000,62
1000,75
1000,59
3002,75
1000,61
1000,62
1000,74
