iter,bestPrice
21020,43759
1000,43074
5004,41333
1000,40648
1000,43759
1000,40447
4003,43413
1000,41779
1000,42125
26025,43759
1000,39054
1000,40393
1000,41440
1000,41151
1000,43413
1000,43759
1000,39856
1000,39054
11010,41779
1000,40393
1000,40631
1000,43413
1000,41779
1000,37398
1000,41440
1000,43413
1000,43413
1000,41301
1000,43759
1000,40631
1000,41440
11010,43074
1000,43074
27026,43413
1000,41779
1000,41151
1000,38809
1000,43074
1000,43074
1000,41440
1000,43074
1000,40393
85084,43759
1000,43413
2001,40648
1000,43074
5004,43413
1000,39965
5004,43413
1000,43759
1000,38192
31030,43759
5004,43413
3002,43759
1000,39517
1000,38706
1000,42125
1000,43413
1000,41440
1000,41779
1000,41333
1000,40279
2001,40987
1000,43413
1000,43074
1000,40393
1000,41779
1000,40447
1000,41440
1000,42125
1000,43074
53052,43759
1000,41132
1000,41779
1000,41440
1000,39856
1000,40648
1000,41151
11010,43759
1000,38360
1000,40447
35034,43759
1000,43759
35034,43759
1000,41490
1000,43413
1000,39517
1000,40631
1000,41779
1000,41779
1000,41490
2001,40447
2001,43074
1000,40648
1000,39965
1000,39517
1000,41490
1000,40447
1000,43074
2001,41779
