iter,bestPrice
25943,78800
73695,78800
109791,78800
33087,78800
23687,78800
101519,78800
58655,78800
98135,78800
30079,78800
79711,78800
10903,78800
62415,78800
33463,78800
16167,78800
23311,78800
37975,78800
15415,74282
23311,78800
74071,78800
80087,78800
91367,78800
42111,78800
57903,78800
34591,78800
73695,78800
60535,78800
93623,78800
94375,78800
2255,78800
60911,78800
46247,78800
119943,78800
18423,78800
67679,78800
22935,78800
90991,78800
94751,78800
25191,78800
102271,78800
65423,78800
85727,78800
61663,78800
25943,78800
107911,78800
105655,78800
69935,78800
89863,78800
69935,78800
57903,78800
124831,78800
124079,78800
75199,78800
68431,78800
65423,78800
96631,78800
109039,78800
80839,78800
98511,78800
36095,78800
58279,78800
12783,78800
81967,78800
56775,78800
72567,78800
43239,78800
44367,78800
33839,78800
81215,78800
87231,78800
71063,78800
34967,78800
94751,78800
31583,78800
52639,78800
104903,78800
3383,78800
86479,78800
50383,78800
29327,78800
77079,78800
74447,78800
86479,78800
53015,78800
85351,78800
101143,78800
39855,78800
39855,78800
15039,78800
34591,73836
112047,78800
60159,78800
90239,78800
72943,78800
68807,78800
64671,78800
11655,78800
77831,78800
68055,78800
37223,78800
58655,78800
