iter,bestPrice
41222,43759
43185,43759
29746,43759
23706,43759
58285,43759
32615,43759
42128,43759
14948,43413
17666,43413
6341,43759
13136,43759
17515,43413
27179,43759
54963,43759
26273,43759
11626,43759
53000,43759
16760,43759
301,20813
36994,43759
42128,43759
32162,43759
33521,43759
18572,43759
56020,43759
20384,43759
31558,43759
48470,43759
35182,43759
58285,43759
10720,43759
41675,43759
47262,43759
25367,43759
28538,43759
38655,43759
3019,41333
35333,43759
27481,43759
15401,43759
42430,43759
32011,43759
11777,43759
45601,43759
28085,43759
15401,43759
50131,43759
42732,43759
39259,43759
17968,43759
24914,43759
30954,43759
33521,43759
1056,43074
32766,43759
19176,43759
11022,43759
60701,43759
15401,43759
33370,43759
47564,43759
5737,43759
43638,43759
42279,43759
34729,43759
27179,43759
12230,43759
29746,43759
47262,43759
21441,43759
40165,43759
21139,43759
43034,43759
47111,43759
39259,43759
34729,43759
45148,43759
12079,43759
30954,43759
41524,43759
30501,43759
13438,43759
38353,43759
28085,43759
26273,43759
8908,43413
3774,43413
40467,43759
15552,43413
14193,43759
8606,43759
32162,43759
13287,43759
50735,43759
25669,43759
5586,43074
6190,43759
30048,43759
32766,43759
4378,43413
