iter,bestPrice
38504,6403
26575,6403
39410,6403
47111,6403
31105,6403
12985,6403
31407,6403
44393,6403
35484,6403
37145,6403
10267,6403
36692,6403
41222,6403
26877,6403
46809,6403
33974,6403
301,3046
28538,6403
24914,6403
38202,6403
50584,6403
25971,6403
32615,6403
43185,6403
7549,6302
23857,6403
9361,6403
34276,6403
50886,6403
35937,6403
4227,6352
39863,6403
39108,6403
47715,6403
11626,6403
17666,6403
4529,6352
9965,6403
27783,6403
39863,6403
37749,6403
22800,6403
37447,6403
8757,6352
25820,6403
26273,6403
6341,6403
14797,6403
18874,6403
36088,6403
28236,6403
12834,6403
5435,6403
28689,6403
37749,6403
39108,6403
16156,6302
56775,6403
39561,6403
43638,6403
35484,6403
9059,6352
28538,6403
41977,6403
39561,6403
23706,6403
31407,6403
45148,6403
45299,6403
27179,6403
38202,6403
28387,6403
53906,6403
15250,6403
30803,6403
53453,6403
30501,6403
35333,6403
29444,6403
15099,6403
38504,6403
49376,6403
23857,6403
25065,6403
15703,6403
43940,6403
35031,6403
29595,6403
46507,6403
31105,6403
34578,6403
15703,6403
5737,6063
46507,6403
3170,6403
2113,6403
18723,6403
65382,6403
31709,6403
55416,6403
