iter,bestPrice
37741,78800
25763,78800
35481,78800
35029,78800
19661,78800
9491,78800
37967,78800
33673,78800
14237,78800
28023,78800
23277,78800
15367,78800
32769,78800
22599,78800
29831,78800
20791,78800
32543,78800
35707,78800
37515,78800
37289,78800
15367,78800
52883,78800
25085,78800
15141,78800
49267,78800
27571,78800
10621,78800
42487,78800
34125,78800
32543,78800
30509,78800
22599,78800
46329,78800
30283,78800
5649,72090
16949,78800
20113,78800
28023,78800
3163,78800
31639,78800
50849,78800
18079,78800
42487,78800
11073,72090
32091,78800
38419,78800
61471,78800
44069,78800
12881,78800
14011,78800
31187,78800
12203,78800
60567,78800
41583,78800
21017,78800
8135,69245
6779,78800
4745,78800
3841,78800
26893,78800
40679,78800
9491,78800
16045,74282
28023,78800
22825,74282
29605,78800
37289,78800
30509,78800
24859,78800
451,59303
21469,78800
18757,74282
19209,78800
7909,78800
49493,78800
34803,78800
43391,78800
28249,78800
43165,78800
40679,78800
34803,78800
48815,78800
23729,74282
54465,78800
16949,78800
20565,78800
6779,74282
57855,78800
36837,78800
21695,78800
43391,78800
26441,78800
32769,78800
27571,78800
38645,78800
26893,78800
41131,78800
40905,78800
33673,78800
42939,78800
