iter,bestPrice
294293,6403
369368,6403
395394,6403
357356,6403
445444,6403
375374,6403
290289,6403
370369,6403
363362,6403
417416,6403
330329,6403
410409,6403
381380,6403
368367,6403
461460,6403
385384,6403
403402,6403
460459,6403
444443,6403
391390,6403
489488,6403
382381,6403
332331,6403
303302,6403
462461,6403
447446,6403
422421,6403
324323,6403
385384,6403
452451,6403
478477,6403
382381,6403
312311,6403
394393,6403
171170,6403
452451,6403
252251,6403
388387,6403
498497,6403
404403,6403
400399,6403
415414,6403
349348,6403
350349,6403
311310,6403
349348,6403
373372,6403
375374,6403
377376,6403
245244,6403
248247,6403
470469,6403
367366,6403
425424,6403
490489,6403
321320,6403
330329,6403
423422,6403
403402,6403
390389,6403
586585,6403
300299,6403
446445,6403
338337,6403
360359,6403
329328,6403
202201,6403
438437,6403
420419,6403
348347,6403
452451,6403
298297,6403
337336,6403
414413,6403
355354,6403
2001,4277
411410,6403
351350,6403
310309,6403
343342,6403
292291,6403
453452,6403
337336,6403
464463,6403
309308,6403
362361,6403
451450,6403
374373,6403
392391,6403
285284,6403
380379,6403
435434,6403
295294,6403
428427,6403
279278,6403
379378,6403
399398,6403
415414,6403
403402,6403
417416,6403
