iter,bestPrice
31154,78800
44621,78800
401,46918
14471,78800
25727,78800
10250,78800
4823,78800
32762,78800
6230,78800
11456,78800
3818,67126
401,74282
15275,78800
16280,78800
18893,78800
43817,78800
41405,78800
34169,78800
24722,78800
31757,78800
27335,78800
40400,78800
19496,78800
3215,78800
34169,78800
41405,78800
25124,78800
7436,78800
8843,78800
13265,78800
22712,78800
16079,74282
25325,78800
9245,78800
22511,78800
42008,78800
1004,68552
11657,78800
9647,74282
22310,78800
11054,78800
602,73836
25727,78800
23717,78800
6431,69245
18893,78800
8642,78800
1004,78800
28742,78800
41606,78800
33365,78800
29546,78800
6632,68552
21908,78800
21305,78800
1004,69245
23315,78800
25727,78800
24521,78800
7235,78800
3215,78800
10049,78800
31958,78800
39998,78800
36983,78800
32159,78800
2210,74282
33566,78800
22310,78800
18290,78800
7637,78800
15677,78800
11657,73836
23516,78800
7034,65098
9044,74282
36983,78800
24320,78800
23717,78800
29546,78800
41807,78800
3014,78800
13466,78800
31958,78800
36179,78800
23516,74282
41606,78800
8240,78800
25526,78800
12059,72090
16481,78800
14270,78800
39194,78800
27134,78800
24119,78800
38792,78800
2411,72090
18491,78800
39194,78800
27536,78800
