iter,bestPrice
2827,78800
2928,73836
9594,69245
5251,67126
9695,78800
3029,66909
3332,78800
12624,78800
1009,59763
4443,78800
4847,73836
8483,78800
1312,64727
11311,78800
15351,78800
16765,78800
7574,78800
504,66909
9291,78800
15452,78800
3332,69245
1211,64608
8483,78800
11109,78800
2928,74282
504,54835
3433,72090
3029,78800
14038,72090
2726,78800
3231,68552
7170,78800
2928,73836
8079,78800
2322,68552
403,59070
4241,72090
13028,69245
4443,78800
1817,74282
7069,78800
3534,78800
9998,78800
807,52623
504,72090
1110,64034
24441,78800
2524,64281
6968,78800
2221,69318
504,63588
5554,72090
5958,78800
4342,68552
7978,78800
807,78800
3635,69245
12422,67572
10200,78800
6665,78800
5150,62608
1615,78800
8382,78800
2120,78800
1918,68552
605,66909
6766,73836
13331,78800
2322,74282
4039,69318
1514,74282
908,59303
3433,78800
3837,68552
9594,78800
5352,78800
2524,78800
3635,64281
7069,78800
10907,78800
2221,67126
807,78800
1817,66909
6463,78800
2827,72090
2625,72090
10402,78800
1615,78800
1918,74282
15856,78800
6362,74282
13230,78800
5352,69245
3938,64608
2019,68552
8281,74282
6463,74282
3231,78800
4544,73836
3231,69245
