iter,bestPrice
3262,78800
46434,78800
13051,78800
38653,78800
40410,78800
2007,68552
27609,78800
59486,78800
50701,78800
49697,78800
39406,78800
33884,78800
20079,78800
24597,78800
45681,78800
26605,78800
75801,78800
38402,78800
39155,78800
24346,78800
23844,78800
51203,78800
42418,78800
33884,78800
6776,78800
19326,78800
34637,78800
11796,78800
6525,74282
48693,78800
11545,78800
47438,78800
11545,78800
60239,78800
36645,78800
40410,78800
31625,78800
50199,78800
5270,78800
31625,78800
13553,78800
22840,78800
4517,78800
34637,78800
40159,78800
31123,78800
61745,78800
57478,78800
30621,78800
2007,78800
60490,78800
21083,78800
50952,78800
19326,78800
24346,78800
38653,78800
42418,78800
28362,78800
52207,78800
52207,78800
32378,78800
22087,78800
31876,78800
63251,78800
35641,78800
17820,78800
32880,78800
32629,78800
52709,78800
19075,78800
18573,78800
42418,78800
26354,78800
45932,78800
31876,78800
20581,78800
42418,78800
52458,78800
18071,78800
38904,78800
35139,78800
38653,78800
17318,78800
47438,78800
39406,78800
81323,78800
38402,78800
34386,78800
47689,78800
8031,78800
51705,78800
55972,78800
10541,78800
4517,64608
18071,78800
55470,78800
25099,78800
20581,74282
36394,78800
45430,78800
