iter,bestPrice
56725,6403
22840,6403
93622,6403
74295,6403
80821,6403
78562,6403
78060,6403
72287,6403
94375,6403
51203,6403
9788,6403
102407,6403
40912,6403
81825,6403
9286,6403
53462,6403
63502,6403
35390,6403
70028,6403
49195,6403
33633,6403
79566,6403
115208,6403
75048,6403
97638,6403
87347,6403
29115,6403
94877,6403
70530,6403
64004,6403
41414,6403
85841,6403
77809,6403
28613,6403
30872,6403
93371,6403
61243,6403
93120,6403
21334,6403
77558,6403
45932,6403
20330,6403
93622,6403
104917,6403
61745,6403
68522,6403
88853,6403
78562,6403
41916,6403
67016,6403
18573,6403
75550,6403
71534,6403
21083,6403
67267,6403
84084,6403
90359,6403
78311,6403
95128,6403
58482,6403
62498,6403
32629,6403
72789,6403
60239,6403
58984,6403
72287,6403
48944,6403
87598,6403
52960,6403
50199,6403
93873,6403
99144,6403
50199,6403
83080,6403
90359,6403
88100,6403
72789,6403
56474,6403
54466,6403
99897,6403
87598,6403
52207,6403
60239,6403
92869,6403
74044,6403
70530,6403
63000,6403
78311,6403
48442,6403
55972,6403
54717,6403
111945,6403
103160,6403
85339,6403
55470,6403
35139,6403
65761,6403
64255,6403
43171,6403
83833,6403
