iter,bestPrice
89998,43759
51470,43759
108058,43759
80667,43759
25584,43759
89998,43759
92707,43759
12942,43413
99630,43759
95115,43759
63510,43759
79162,43759
103844,43759
68928,43759
31002,43759
44547,43759
66821,43759
73744,43759
63811,43759
45751,43759
86988,43759
97523,43759
98727,43759
86386,43759
68928,43759
37624,43413
81269,43759
117088,43759
129429,43759
29497,43759
51169,43759
74647,43759
41537,43759
49965,43759
102038,43759
55082,43759
94814,43759
88493,43759
68025,43759
94212,43759
53878,43759
78259,43759
47256,43759
39430,43759
75249,43759
86687,43759
69229,43759
84580,43759
93008,43759
62005,43759
111971,43759
77958,43759
34915,43759
105650,43759
37925,43759
44547,43759
89095,43759
107456,43759
87289,43759
86386,43759
105349,43759
46654,43759
109864,43759
81269,43759
74647,43759
105650,43759
104446,43759
105048,43759
100834,43759
81570,43759
82172,43759
102941,43759
93911,43759
101436,43759
99329,43759
107456,43759
80667,43759
98426,43759
73142,43759
96921,43759
80366,43759
82473,43759
51470,43759
77356,43759
74346,43759
61403,43759
79463,43759
94212,43759
79162,43759
27089,43759
84279,43759
91202,43759
118894,43759
56286,43759
72540,43759
82473,43759
105951,43759
106252,43759
109864,43759
84580,43759
