iter,bestPrice
47858,6403
112874,6403
99630,6403
108660,6403
80667,6403
75249,6403
72841,6403
75249,6403
80667,6403
89095,6403
52072,6403
49363,6403
87590,6403
53276,6403
78861,6403
76754,6403
106252,6403
72239,6403
63510,6403
95115,6403
82473,6403
76754,6403
73744,6403
91503,6403
102640,6403
97824,6403
111068,6403
87590,6403
69831,6403
111971,6403
49965,6403
64413,6403
77958,6403
112573,6403
71637,6403
106252,6403
90600,6403
32507,6403
46353,6403
48761,6403
77657,6403
93911,6403
112874,6403
70433,6403
95115,6403
46353,6403
86687,6403
100834,6403
18661,6403
72841,6403
83376,6403
37925,6403
105048,6403
44246,6403
71938,6403
78259,6403
124312,6403
106854,6403
61704,6403
44848,6403
93008,6403
93911,6403
46955,6403
61704,6403
85784,6403
80667,6403
120700,6403
118894,6403
85483,6403
55082,6403
97222,6403
74948,6403
86988,6403
87891,6403
78560,6403
1805,6403
123409,6403
93610,6403
98125,6403
65316,6403
86085,6403
88493,6403
102339,6403
88794,6403
94212,6403
40333,6403
79764,6403
74346,6403
79162,6403
34614,6403
44547,6403
111670,6403
49965,6403
74647,6403
114078,6403
88493,6403
69229,6403
71938,6403
107155,6403
34012,6403
