iters,price,time
501,45,.024691374
1254,45,.011020888
752,44,.009789737
501,45,.008167829
501,45,.009646509
501,45,.008802809
2509,45,.014991869
1003,45,.010909379
1003,45,.008917239
752,45,.010642449
