iters,price,time
501,90,.022888690
1003,79,.014717449
501,90,.010974960
3262,79,.021857819
8533,79,.039835659
2007,79,.017497733
501,90,.012066001
501,90,.010783884
752,90,.010558467
1505,78,.013721839
