iters,price,time
2007,37,.028101111
752,70,.010202387
1003,70,.010825363
1505,70,.012101079
1756,70,.012012445
4517,70,.020046543
501,52,.008980374
752,70,.010640009
752,70,.009234450
752,69,.009192676
