iters,price,time
752,67,.028639692
501,67,.009673775
1756,67,.013869887
3011,51,.018357688
18573,52,.067011575
3513,52,.014919004
9788,51,.038337409
501,67,.008879126
9286,67,.034579695
14808,67,.054529298
