iters,price,time
752,74,.018707136
752,87,.011603702
501,87,.011156096
501,87,.011366965
752,87,.010714336
2007,74,.011732489
752,86,.010659771
1003,87,.013187217
501,87,.011983754
1003,74,.013326874
