iters,price,time
8784,69,.044714091
5521,68,.031656453
8282,70,.037682034
1505,70,.018843412
9286,70,.029981559
6023,70,.028887340
1003,70,.014860377
1505,67,.014043123
501,52,.009661627
1505,70,.013564308
