iters,price,time
4517,93,.029396875
1254,93,.048268681
9788,93,.096155978
1756,93,.031169486
1756,93,.039150168
1254,70,.021530813
1254,93,.020995483
6274,93,.037990019
2760,93,.017638401
752,93,.011666416
