iters,price,time
2007,49,.018077447
1003,49,.011041161
501,49,.009584084
8784,42,.033426503
1756,48,.013597952
1003,40,.010890719
501,49,.009046555
4768,41,.023806421
2760,48,.015054369
2007,42,.013415057
