iters,price,time
1003,61,.027267236
2258,61,.018092335
7780,61,.047165396
1003,63,.014208100
752,60,.016921090
1003,63,.012873527
501,63,.011099758
9788,63,.044678474
752,61,.011466735
752,63,.011227162
