iters,price,time
501,59,.025077987
1505,59,.011196378
11043,59,.045019826
752,59,.010963362
1003,59,.009685092
4266,50,.018984902
4768,50,.021443175
11545,57,.040723978
10290,50,.040972916
501,59,.009741510
