iters,price,time
1003,36,.015634689
1003,27,.009819750
1254,30,.011492114
1254,34,.011187295
9035,36,.030709261
501,37,.009716347
501,37,.009368957
1254,32,.010506753
2007,34,.013058060
16565,37,.062079962
