iters,price,time
501,74,.008882883
2509,69,.016307987
3011,69,.020903342
501,64,.011316202
1003,72,.011636867
2007,64,.014889083
501,75,.010462385
1756,69,.013960030
501,64,.008838652
501,75,.010243064
