iters,price,time
3513,75,.025993750
501,71,.009804851
752,75,.010900747
1003,58,.010868861
501,72,.009602986
501,75,.010110180
501,58,.009381753
501,73,.010004343
2258,75,.011587486
4266,74,.027535314
