iters,price,time
501,91,.010000661
2509,64,.015276258
501,91,.009656879
501,91,.011288405
752,91,.011571831
2760,68,.017002274
4266,91,.027472669
13302,68,.051927696
752,68,.012015726
501,91,.012119851
