iters,price,time
752,47,.018807242
752,42,.010663830
1254,42,.011227934
3011,42,.017369227
501,47,.009898992
752,42,.009253206
752,47,.009901722
1003,47,.011695062
5270,42,.023719700
501,47,.009365095
