iters,price,time
5019,43,.028410938
752,43,.009895830
501,43,.011500636
3764,43,.019408332
501,56,.009503896
501,56,.010302033
752,56,.009059225
6525,43,.026641403
501,56,.009759119
2760,43,.017136431
