iters,price,time
752,70,.019412089
1003,70,.012298677
6023,70,.026641780
2760,70,.018774099
501,70,.010087097
1003,70,.013825052
2007,70,.011449683
501,69,.009748288
752,69,.012594248
501,70,.010447289
