iters,price,time
501,66,.016670440
752,51,.010605263
2258,66,.013642272
752,46,.010206063
501,66,.010820088
501,66,.011463905
9286,51,.037442416
4266,51,.022493634
8784,64,.033664128
2007,66,.016136168
