iters,price,time
501,59,.014711257
1505,45,.012713831
752,59,.010395096
1254,60,.013188364
501,60,.011150054
501,60,.012273694
752,45,.012419428
2007,60,.013865038
2509,60,.016918379
1003,44,.012854195
