iters,price,time
501,59,.014316852
501,59,.009488145
2509,54,.015958468
1003,54,.010593816
2258,59,.012860837
4266,59,.019410968
501,59,.008117579
4015,59,.018429720
3011,54,.016151462
2258,54,.013626797
