iters,price,time
752,81,.014160814
501,76,.007884008
7027,88,.018544554
2760,80,.015719611
4768,88,.021564447
1003,88,.011769635
2258,81,.013754833
1505,87,.011320447
5772,88,.023556678
1505,88,.011150831
