iters,price,time
1756,73,.029536682
501,69,.010064729
501,73,.009289044
2509,74,.015606159
501,74,.009115894
501,74,.010324049
1003,74,.012598896
752,74,.010978737
1505,74,.012405020
1505,74,.013237533
