iters,price,time
2007,31,.028879726
3764,37,.018705573
6776,37,.029661090
1254,30,.012103363
1756,31,.012983447
1505,30,.013074687
2258,37,.014297901
752,29,.009900975
2007,31,.014444096
501,37,.010154840
