iters,price,time
22589,80,.079626338
23593,85,.090240021
7027,85,.037480679
3513,85,.023655022
16565,83,.063036531
8784,85,.021043530
4768,85,.021785805
14557,85,.034675062
501,85,.008797119
6525,80,.027218894
