iters,price,time
752,22,.016006586
8784,28,.033964343
2509,28,.014179571
501,23,.011160394
1505,28,.013296570
9286,28,.036334056
5270,28,.024728840
3262,28,.018022942
4266,28,.023825588
2509,28,.018825498
