iters,price,time
14306,51,.064004152
3011,51,.016871554
5019,51,.024046110
1003,34,.011009581
2007,50,.013639166
6525,51,.026379477
752,51,.011300046
3011,51,.015752038
501,49,.011342187
1003,51,.011503911
