file,opt
data/R/wuf20-78-R1/wuf20-01.mwcnf,-9223372036854775808
data/R/wuf20-78-R1/wuf20-010.mwcnf,-9223372036854775808
data/R/wuf20-78-R1/wuf20-0100.mwcnf,-9223372036854775808
data/R/wuf20-78-R1/wuf20-01000.mwcnf,-9223372036854775808
data/R/wuf20-78-R1/wuf20-0101.mwcnf,-9223372036854775808
data/R/wuf20-78-R1/wuf20-0102.mwcnf,-9223372036854775808
data/R/wuf20-78-R1/wuf20-0103.mwcnf,-9223372036854775808
data/R/wuf20-78-R1/wuf20-0104.mwcnf,-9223372036854775808
data/R/wuf20-78-R1/wuf20-0105.mwcnf,-9223372036854775808
data/R/wuf20-78-R1/wuf20-0106.mwcnf,-9223372036854775808
data/R/wuf20-78-R1/wuf20-0107.mwcnf,-9223372036854775808
data/R/wuf20-78-R1/wuf20-0108.mwcnf,-9223372036854775808
data/R/wuf20-78-R1/wuf20-0109.mwcnf,-9223372036854775808
data/R/wuf20-78-R1/wuf20-011.mwcnf,-9223372036854775808
data/R/wuf20-78-R1/wuf20-0110.mwcnf,-9223372036854775808
data/R/wuf20-78-R1/wuf20-0111.mwcnf,-9223372036854775808
data/R/wuf20-78-R1/wuf20-0112.mwcnf,-9223372036854775808
data/R/wuf20-78-R1/wuf20-0113.mwcnf,-9223372036854775808
data/R/wuf20-78-R1/wuf20-0114.mwcnf,-9223372036854775808
data/R/wuf20-78-R1/wuf20-0115.mwcnf,-9223372036854775808
data/R/wuf20-78-R1/wuf20-0116.mwcnf,-9223372036854775808
data/R/wuf20-78-R1/wuf20-0117.mwcnf,-9223372036854775808
data/R/wuf20-78-R1/wuf20-0118.mwcnf,-9223372036854775808
data/R/wuf20-78-R1/wuf20-0119.mwcnf,-9223372036854775808
data/R/wuf20-78-R1/wuf20-012.mwcnf,-9223372036854775808
data/R/wuf20-78-R1/wuf20-0120.mwcnf,-9223372036854775808
data/R/wuf20-78-R1/wuf20-0121.mwcnf,-9223372036854775808
data/R/wuf20-78-R1/wuf20-0122.mwcnf,-9223372036854775808
data/R/wuf20-78-R1/wuf20-0123.mwcnf,-9223372036854775808
data/R/wuf20-78-R1/wuf20-0124.mwcnf,-9223372036854775808
data/R/wuf20-78-R1/wuf20-0125.mwcnf,-9223372036854775808
data/R/wuf20-78-R1/wuf20-0126.mwcnf,-9223372036854775808
data/R/wuf20-78-R1/wuf20-0127.mwcnf,-9223372036854775808
data/R/wuf20-78-R1/wuf20-0128.mwcnf,-9223372036854775808
data/R/wuf20-78-R1/wuf20-0129.mwcnf,-9223372036854775808
data/R/wuf20-78-R1/wuf20-013.mwcnf,-9223372036854775808
data/R/wuf20-78-R1/wuf20-0130.mwcnf,-9223372036854775808
data/R/wuf20-78-R1/wuf20-0131.mwcnf,-9223372036854775808
data/R/wuf20-78-R1/wuf20-0132.mwcnf,-9223372036854775808
data/R/wuf20-78-R1/wuf20-0133.mwcnf,-9223372036854775808
data/R/wuf20-78-R1/wuf20-0134.mwcnf,-9223372036854775808
data/R/wuf20-78-R1/wuf20-0135.mwcnf,-9223372036854775808
data/R/wuf20-78-R1/wuf20-0136.mwcnf,-9223372036854775808
data/R/wuf20-78-R1/wuf20-0137.mwcnf,-9223372036854775808
data/R/wuf20-78-R1/wuf20-0138.mwcnf,-9223372036854775808
data/R/wuf20-78-R1/wuf20-0139.mwcnf,-9223372036854775808
data/R/wuf20-78-R1/wuf20-014.mwcnf,-9223372036854775808
data/R/wuf20-78-R1/wuf20-0140.mwcnf,-9223372036854775808
data/R/wuf20-78-R1/wuf20-0141.mwcnf,-9223372036854775808
data/R/wuf20-78-R1/wuf20-0142.mwcnf,-9223372036854775808
data/R/wuf20-78-R1/wuf20-0143.mwcnf,-9223372036854775808
data/R/wuf20-78-R1/wuf20-0144.mwcnf,-9223372036854775808
data/R/wuf20-78-R1/wuf20-0145.mwcnf,-9223372036854775808
data/R/wuf20-78-R1/wuf20-0146.mwcnf,-9223372036854775808
data/R/wuf20-78-R1/wuf20-0147.mwcnf,-9223372036854775808
data/R/wuf20-78-R1/wuf20-0148.mwcnf,-9223372036854775808
data/R/wuf20-78-R1/wuf20-0149.mwcnf,-9223372036854775808
data/R/wuf20-78-R1/wuf20-015.mwcnf,-9223372036854775808
data/R/wuf20-78-R1/wuf20-0150.mwcnf,-9223372036854775808
data/R/wuf20-78-R1/wuf20-0151.mwcnf,-9223372036854775808
data/R/wuf20-78-R1/wuf20-0152.mwcnf,-9223372036854775808
data/R/wuf20-78-R1/wuf20-0153.mwcnf,-9223372036854775808
data/R/wuf20-78-R1/wuf20-0154.mwcnf,-9223372036854775808
data/R/wuf20-78-R1/wuf20-0155.mwcnf,-9223372036854775808
data/R/wuf20-78-R1/wuf20-0156.mwcnf,-9223372036854775808
data/R/wuf20-78-R1/wuf20-0157.mwcnf,-9223372036854775808
data/R/wuf20-78-R1/wuf20-0158.mwcnf,-9223372036854775808
data/R/wuf20-78-R1/wuf20-0159.mwcnf,-9223372036854775808
data/R/wuf20-78-R1/wuf20-016.mwcnf,-9223372036854775808
data/R/wuf20-78-R1/wuf20-0160.mwcnf,-9223372036854775808
data/R/wuf20-78-R1/wuf20-0161.mwcnf,-9223372036854775808
data/R/wuf20-78-R1/wuf20-0162.mwcnf,-9223372036854775808
data/R/wuf20-78-R1/wuf20-0163.mwcnf,-9223372036854775808
data/R/wuf20-78-R1/wuf20-0164.mwcnf,-9223372036854775808
data/R/wuf20-78-R1/wuf20-0165.mwcnf,-9223372036854775808
data/R/wuf20-78-R1/wuf20-0166.mwcnf,-9223372036854775808
data/R/wuf20-78-R1/wuf20-0167.mwcnf,-9223372036854775808
data/R/wuf20-78-R1/wuf20-0168.mwcnf,-9223372036854775808
data/R/wuf20-78-R1/wuf20-0169.mwcnf,-9223372036854775808
data/R/wuf20-78-R1/wuf20-017.mwcnf,-9223372036854775808
data/R/wuf20-78-R1/wuf20-0170.mwcnf,-9223372036854775808
data/R/wuf20-78-R1/wuf20-0171.mwcnf,-9223372036854775808
data/R/wuf20-78-R1/wuf20-0172.mwcnf,-9223372036854775808
data/R/wuf20-78-R1/wuf20-0173.mwcnf,-9223372036854775808
data/R/wuf20-78-R1/wuf20-0174.mwcnf,-9223372036854775808
data/R/wuf20-78-R1/wuf20-0175.mwcnf,-9223372036854775808
data/R/wuf20-78-R1/wuf20-0176.mwcnf,-9223372036854775808
data/R/wuf20-78-R1/wuf20-0177.mwcnf,-9223372036854775808
data/R/wuf20-78-R1/wuf20-0178.mwcnf,-9223372036854775808
data/R/wuf20-78-R1/wuf20-0179.mwcnf,-9223372036854775808
data/R/wuf20-78-R1/wuf20-018.mwcnf,-9223372036854775808
data/R/wuf20-78-R1/wuf20-0180.mwcnf,-9223372036854775808
data/R/wuf20-78-R1/wuf20-0181.mwcnf,-9223372036854775808
data/R/wuf20-78-R1/wuf20-0182.mwcnf,-9223372036854775808
data/R/wuf20-78-R1/wuf20-0183.mwcnf,-9223372036854775808
data/R/wuf20-78-R1/wuf20-0184.mwcnf,-9223372036854775808
data/R/wuf20-78-R1/wuf20-0185.mwcnf,-9223372036854775808
data/R/wuf20-78-R1/wuf20-0186.mwcnf,-9223372036854775808
data/R/wuf20-78-R1/wuf20-0187.mwcnf,-9223372036854775808
data/R/wuf20-78-R1/wuf20-0188.mwcnf,-9223372036854775808
data/R/wuf20-78-R1/wuf20-0189.mwcnf,-9223372036854775808
data/R/wuf20-78-R1/wuf20-019.mwcnf,-9223372036854775808
data/R/wuf20-78-R1/wuf20-0190.mwcnf,-9223372036854775808
data/R/wuf20-78-R1/wuf20-0191.mwcnf,-9223372036854775808
data/R/wuf20-78-R1/wuf20-0192.mwcnf,-9223372036854775808
data/R/wuf20-78-R1/wuf20-0193.mwcnf,-9223372036854775808
data/R/wuf20-78-R1/wuf20-0194.mwcnf,-9223372036854775808
data/R/wuf20-78-R1/wuf20-0195.mwcnf,-9223372036854775808
data/R/wuf20-78-R1/wuf20-0196.mwcnf,-9223372036854775808
data/R/wuf20-78-R1/wuf20-0197.mwcnf,-9223372036854775808
data/R/wuf20-78-R1/wuf20-0198.mwcnf,-9223372036854775808
data/R/wuf20-78-R1/wuf20-0199.mwcnf,-9223372036854775808
data/R/wuf20-78-R1/wuf20-02.mwcnf,-9223372036854775808
data/R/wuf20-78-R1/wuf20-020.mwcnf,-9223372036854775808
data/R/wuf20-78-R1/wuf20-0200.mwcnf,-9223372036854775808
data/R/wuf20-78-R1/wuf20-0201.mwcnf,-9223372036854775808
data/R/wuf20-78-R1/wuf20-0202.mwcnf,-9223372036854775808
data/R/wuf20-78-R1/wuf20-0203.mwcnf,-9223372036854775808
data/R/wuf20-78-R1/wuf20-0204.mwcnf,-9223372036854775808
data/R/wuf20-78-R1/wuf20-0205.mwcnf,-9223372036854775808
data/R/wuf20-78-R1/wuf20-0206.mwcnf,-9223372036854775808
data/R/wuf20-78-R1/wuf20-0207.mwcnf,-9223372036854775808
data/R/wuf20-78-R1/wuf20-0208.mwcnf,-9223372036854775808
data/R/wuf20-78-R1/wuf20-0209.mwcnf,-9223372036854775808
data/R/wuf20-78-R1/wuf20-021.mwcnf,-9223372036854775808
data/R/wuf20-78-R1/wuf20-0210.mwcnf,-9223372036854775808
data/R/wuf20-78-R1/wuf20-0211.mwcnf,-9223372036854775808
data/R/wuf20-78-R1/wuf20-0212.mwcnf,-9223372036854775808
data/R/wuf20-78-R1/wuf20-0213.mwcnf,-9223372036854775808
data/R/wuf20-78-R1/wuf20-0214.mwcnf,-9223372036854775808
data/R/wuf20-78-R1/wuf20-0215.mwcnf,-9223372036854775808
data/R/wuf20-78-R1/wuf20-0216.mwcnf,-9223372036854775808
data/R/wuf20-78-R1/wuf20-0217.mwcnf,-9223372036854775808
data/R/wuf20-78-R1/wuf20-0218.mwcnf,-9223372036854775808
data/R/wuf20-78-R1/wuf20-0219.mwcnf,-9223372036854775808
data/R/wuf20-78-R1/wuf20-022.mwcnf,-9223372036854775808
data/R/wuf20-78-R1/wuf20-0220.mwcnf,-9223372036854775808
data/R/wuf20-78-R1/wuf20-0221.mwcnf,-9223372036854775808
data/R/wuf20-78-R1/wuf20-0222.mwcnf,-9223372036854775808
data/R/wuf20-78-R1/wuf20-0223.mwcnf,-9223372036854775808
data/R/wuf20-78-R1/wuf20-0224.mwcnf,-9223372036854775808
data/R/wuf20-78-R1/wuf20-0225.mwcnf,-9223372036854775808
data/R/wuf20-78-R1/wuf20-0226.mwcnf,-9223372036854775808
data/R/wuf20-78-R1/wuf20-0227.mwcnf,-9223372036854775808
data/R/wuf20-78-R1/wuf20-0228.mwcnf,-9223372036854775808
data/R/wuf20-78-R1/wuf20-0229.mwcnf,-9223372036854775808
data/R/wuf20-78-R1/wuf20-023.mwcnf,-9223372036854775808
data/R/wuf20-78-R1/wuf20-0230.mwcnf,-9223372036854775808
data/R/wuf20-78-R1/wuf20-0231.mwcnf,-9223372036854775808
data/R/wuf20-78-R1/wuf20-0232.mwcnf,-9223372036854775808
data/R/wuf20-78-R1/wuf20-0233.mwcnf,-9223372036854775808
data/R/wuf20-78-R1/wuf20-0234.mwcnf,-9223372036854775808
data/R/wuf20-78-R1/wuf20-0235.mwcnf,-9223372036854775808
data/R/wuf20-78-R1/wuf20-0236.mwcnf,-9223372036854775808
data/R/wuf20-78-R1/wuf20-0237.mwcnf,-9223372036854775808
data/R/wuf20-78-R1/wuf20-0238.mwcnf,-9223372036854775808
data/R/wuf20-78-R1/wuf20-0239.mwcnf,-9223372036854775808
data/R/wuf20-78-R1/wuf20-024.mwcnf,-9223372036854775808
data/R/wuf20-78-R1/wuf20-0240.mwcnf,-9223372036854775808
data/R/wuf20-78-R1/wuf20-0241.mwcnf,-9223372036854775808
data/R/wuf20-78-R1/wuf20-0242.mwcnf,-9223372036854775808
data/R/wuf20-78-R1/wuf20-0243.mwcnf,-9223372036854775808
data/R/wuf20-78-R1/wuf20-0244.mwcnf,-9223372036854775808
data/R/wuf20-78-R1/wuf20-0245.mwcnf,-9223372036854775808
data/R/wuf20-78-R1/wuf20-0246.mwcnf,-9223372036854775808
data/R/wuf20-78-R1/wuf20-0247.mwcnf,-9223372036854775808
data/R/wuf20-78-R1/wuf20-0248.mwcnf,-9223372036854775808
data/R/wuf20-78-R1/wuf20-0249.mwcnf,-9223372036854775808
data/R/wuf20-78-R1/wuf20-025.mwcnf,-9223372036854775808
data/R/wuf20-78-R1/wuf20-0250.mwcnf,-9223372036854775808
data/R/wuf20-78-R1/wuf20-0251.mwcnf,-9223372036854775808
data/R/wuf20-78-R1/wuf20-0252.mwcnf,-9223372036854775808
data/R/wuf20-78-R1/wuf20-0253.mwcnf,-9223372036854775808
data/R/wuf20-78-R1/wuf20-0254.mwcnf,-9223372036854775808
data/R/wuf20-78-R1/wuf20-0255.mwcnf,-9223372036854775808
data/R/wuf20-78-R1/wuf20-0256.mwcnf,-9223372036854775808
data/R/wuf20-78-R1/wuf20-0257.mwcnf,-9223372036854775808
data/R/wuf20-78-R1/wuf20-0258.mwcnf,-9223372036854775808
data/R/wuf20-78-R1/wuf20-0259.mwcnf,-9223372036854775808
data/R/wuf20-78-R1/wuf20-026.mwcnf,-9223372036854775808
data/R/wuf20-78-R1/wuf20-0260.mwcnf,-9223372036854775808
data/R/wuf20-78-R1/wuf20-0261.mwcnf,-9223372036854775808
data/R/wuf20-78-R1/wuf20-0262.mwcnf,-9223372036854775808
data/R/wuf20-78-R1/wuf20-0263.mwcnf,-9223372036854775808
data/R/wuf20-78-R1/wuf20-0264.mwcnf,-9223372036854775808
data/R/wuf20-78-R1/wuf20-0265.mwcnf,-9223372036854775808
data/R/wuf20-78-R1/wuf20-0266.mwcnf,-9223372036854775808
data/R/wuf20-78-R1/wuf20-0267.mwcnf,-9223372036854775808
data/R/wuf20-78-R1/wuf20-0268.mwcnf,-9223372036854775808
data/R/wuf20-78-R1/wuf20-0269.mwcnf,-9223372036854775808
data/R/wuf20-78-R1/wuf20-027.mwcnf,-9223372036854775808
data/R/wuf20-78-R1/wuf20-0270.mwcnf,-9223372036854775808
data/R/wuf20-78-R1/wuf20-0271.mwcnf,-9223372036854775808
data/R/wuf20-78-R1/wuf20-0272.mwcnf,-9223372036854775808
data/R/wuf20-78-R1/wuf20-0273.mwcnf,-9223372036854775808
data/R/wuf20-78-R1/wuf20-0274.mwcnf,-9223372036854775808
data/R/wuf20-78-R1/wuf20-0275.mwcnf,-9223372036854775808
data/R/wuf20-78-R1/wuf20-0276.mwcnf,-9223372036854775808
data/R/wuf20-78-R1/wuf20-0277.mwcnf,-9223372036854775808
data/R/wuf20-78-R1/wuf20-0278.mwcnf,-9223372036854775808
data/R/wuf20-78-R1/wuf20-0279.mwcnf,-9223372036854775808
data/R/wuf20-78-R1/wuf20-028.mwcnf,-9223372036854775808
data/R/wuf20-78-R1/wuf20-0280.mwcnf,-9223372036854775808
data/R/wuf20-78-R1/wuf20-0281.mwcnf,-9223372036854775808
data/R/wuf20-78-R1/wuf20-0282.mwcnf,-9223372036854775808
data/R/wuf20-78-R1/wuf20-0283.mwcnf,-9223372036854775808
data/R/wuf20-78-R1/wuf20-0284.mwcnf,-9223372036854775808
data/R/wuf20-78-R1/wuf20-0285.mwcnf,-9223372036854775808
data/R/wuf20-78-R1/wuf20-0286.mwcnf,-9223372036854775808
data/R/wuf20-78-R1/wuf20-0287.mwcnf,-9223372036854775808
data/R/wuf20-78-R1/wuf20-0288.mwcnf,-9223372036854775808
data/R/wuf20-78-R1/wuf20-0289.mwcnf,-9223372036854775808
data/R/wuf20-78-R1/wuf20-029.mwcnf,-9223372036854775808
data/R/wuf20-78-R1/wuf20-0290.mwcnf,-9223372036854775808
data/R/wuf20-78-R1/wuf20-0291.mwcnf,-9223372036854775808
data/R/wuf20-78-R1/wuf20-0292.mwcnf,-9223372036854775808
data/R/wuf20-78-R1/wuf20-0293.mwcnf,-9223372036854775808
data/R/wuf20-78-R1/wuf20-0294.mwcnf,-9223372036854775808
data/R/wuf20-78-R1/wuf20-0295.mwcnf,-9223372036854775808
data/R/wuf20-78-R1/wuf20-0296.mwcnf,-9223372036854775808
data/R/wuf20-78-R1/wuf20-0297.mwcnf,-9223372036854775808
data/R/wuf20-78-R1/wuf20-0298.mwcnf,-9223372036854775808
data/R/wuf20-78-R1/wuf20-0299.mwcnf,-9223372036854775808
data/R/wuf20-78-R1/wuf20-03.mwcnf,-9223372036854775808
data/R/wuf20-78-R1/wuf20-030.mwcnf,-9223372036854775808
data/R/wuf20-78-R1/wuf20-0300.mwcnf,-9223372036854775808
data/R/wuf20-78-R1/wuf20-0301.mwcnf,-9223372036854775808
data/R/wuf20-78-R1/wuf20-0302.mwcnf,-9223372036854775808
data/R/wuf20-78-R1/wuf20-0303.mwcnf,-9223372036854775808
data/R/wuf20-78-R1/wuf20-0304.mwcnf,-9223372036854775808
data/R/wuf20-78-R1/wuf20-0305.mwcnf,-9223372036854775808
data/R/wuf20-78-R1/wuf20-0306.mwcnf,-9223372036854775808
data/R/wuf20-78-R1/wuf20-0307.mwcnf,-9223372036854775808
data/R/wuf20-78-R1/wuf20-0308.mwcnf,-9223372036854775808
data/R/wuf20-78-R1/wuf20-0309.mwcnf,-9223372036854775808
data/R/wuf20-78-R1/wuf20-031.mwcnf,-9223372036854775808
data/R/wuf20-78-R1/wuf20-0310.mwcnf,-9223372036854775808
data/R/wuf20-78-R1/wuf20-0311.mwcnf,-9223372036854775808
data/R/wuf20-78-R1/wuf20-0312.mwcnf,-9223372036854775808
data/R/wuf20-78-R1/wuf20-0313.mwcnf,-9223372036854775808
data/R/wuf20-78-R1/wuf20-0314.mwcnf,-9223372036854775808
data/R/wuf20-78-R1/wuf20-0315.mwcnf,-9223372036854775808
data/R/wuf20-78-R1/wuf20-0316.mwcnf,-9223372036854775808
data/R/wuf20-78-R1/wuf20-0317.mwcnf,-9223372036854775808
data/R/wuf20-78-R1/wuf20-0318.mwcnf,-9223372036854775808
data/R/wuf20-78-R1/wuf20-0319.mwcnf,-9223372036854775808
data/R/wuf20-78-R1/wuf20-032.mwcnf,-9223372036854775808
data/R/wuf20-78-R1/wuf20-0320.mwcnf,-9223372036854775808
data/R/wuf20-78-R1/wuf20-0321.mwcnf,-9223372036854775808
data/R/wuf20-78-R1/wuf20-0322.mwcnf,-9223372036854775808
data/R/wuf20-78-R1/wuf20-0323.mwcnf,-9223372036854775808
data/R/wuf20-78-R1/wuf20-0324.mwcnf,-9223372036854775808
data/R/wuf20-78-R1/wuf20-0325.mwcnf,-9223372036854775808
data/R/wuf20-78-R1/wuf20-0326.mwcnf,-9223372036854775808
data/R/wuf20-78-R1/wuf20-0327.mwcnf,-9223372036854775808
data/R/wuf20-78-R1/wuf20-0328.mwcnf,-9223372036854775808
data/R/wuf20-78-R1/wuf20-0329.mwcnf,-9223372036854775808
data/R/wuf20-78-R1/wuf20-0330.mwcnf,-9223372036854775808
data/R/wuf20-78-R1/wuf20-0331.mwcnf,-9223372036854775808
data/R/wuf20-78-R1/wuf20-0332.mwcnf,-9223372036854775808
data/R/wuf20-78-R1/wuf20-0333.mwcnf,-9223372036854775808
data/R/wuf20-78-R1/wuf20-0334.mwcnf,-9223372036854775808
data/R/wuf20-78-R1/wuf20-0335.mwcnf,-9223372036854775808
data/R/wuf20-78-R1/wuf20-0336.mwcnf,-9223372036854775808
data/R/wuf20-78-R1/wuf20-0337.mwcnf,-9223372036854775808
data/R/wuf20-78-R1/wuf20-0338.mwcnf,-9223372036854775808
data/R/wuf20-78-R1/wuf20-0339.mwcnf,-9223372036854775808
data/R/wuf20-78-R1/wuf20-034.mwcnf,-9223372036854775808
data/R/wuf20-78-R1/wuf20-0342.mwcnf,-9223372036854775808
data/R/wuf20-78-R1/wuf20-0343.mwcnf,-9223372036854775808
data/R/wuf20-78-R1/wuf20-0344.mwcnf,-9223372036854775808
data/R/wuf20-78-R1/wuf20-0345.mwcnf,-9223372036854775808
data/R/wuf20-78-R1/wuf20-0346.mwcnf,-9223372036854775808
data/R/wuf20-78-R1/wuf20-0347.mwcnf,-9223372036854775808
data/R/wuf20-78-R1/wuf20-0348.mwcnf,-9223372036854775808
data/R/wuf20-78-R1/wuf20-0349.mwcnf,-9223372036854775808
data/R/wuf20-78-R1/wuf20-035.mwcnf,-9223372036854775808
data/R/wuf20-78-R1/wuf20-0350.mwcnf,-9223372036854775808
data/R/wuf20-78-R1/wuf20-0351.mwcnf,-9223372036854775808
data/R/wuf20-78-R1/wuf20-0352.mwcnf,-9223372036854775808
data/R/wuf20-78-R1/wuf20-0353.mwcnf,-9223372036854775808
data/R/wuf20-78-R1/wuf20-0354.mwcnf,-9223372036854775808
data/R/wuf20-78-R1/wuf20-0355.mwcnf,-9223372036854775808
data/R/wuf20-78-R1/wuf20-0356.mwcnf,-9223372036854775808
data/R/wuf20-78-R1/wuf20-0357.mwcnf,-9223372036854775808
data/R/wuf20-78-R1/wuf20-0358.mwcnf,-9223372036854775808
data/R/wuf20-78-R1/wuf20-0359.mwcnf,-9223372036854775808
data/R/wuf20-78-R1/wuf20-036.mwcnf,-9223372036854775808
data/R/wuf20-78-R1/wuf20-0360.mwcnf,-9223372036854775808
data/R/wuf20-78-R1/wuf20-0361.mwcnf,-9223372036854775808
data/R/wuf20-78-R1/wuf20-0362.mwcnf,-9223372036854775808
data/R/wuf20-78-R1/wuf20-0363.mwcnf,-9223372036854775808
data/R/wuf20-78-R1/wuf20-0364.mwcnf,-9223372036854775808
data/R/wuf20-78-R1/wuf20-0365.mwcnf,-9223372036854775808
data/R/wuf20-78-R1/wuf20-0366.mwcnf,-9223372036854775808
data/R/wuf20-78-R1/wuf20-0367.mwcnf,-9223372036854775808
data/R/wuf20-78-R1/wuf20-0368.mwcnf,-9223372036854775808
data/R/wuf20-78-R1/wuf20-0369.mwcnf,-9223372036854775808
data/R/wuf20-78-R1/wuf20-037.mwcnf,-9223372036854775808
data/R/wuf20-78-R1/wuf20-0370.mwcnf,-9223372036854775808
data/R/wuf20-78-R1/wuf20-0371.mwcnf,-9223372036854775808
data/R/wuf20-78-R1/wuf20-0372.mwcnf,-9223372036854775808
data/R/wuf20-78-R1/wuf20-0373.mwcnf,-9223372036854775808
data/R/wuf20-78-R1/wuf20-0374.mwcnf,-9223372036854775808
data/R/wuf20-78-R1/wuf20-0375.mwcnf,-9223372036854775808
data/R/wuf20-78-R1/wuf20-0376.mwcnf,-9223372036854775808
data/R/wuf20-78-R1/wuf20-0377.mwcnf,-9223372036854775808
data/R/wuf20-78-R1/wuf20-0378.mwcnf,-9223372036854775808
data/R/wuf20-78-R1/wuf20-0379.mwcnf,-9223372036854775808
data/R/wuf20-78-R1/wuf20-038.mwcnf,-9223372036854775808
data/R/wuf20-78-R1/wuf20-0380.mwcnf,-9223372036854775808
data/R/wuf20-78-R1/wuf20-0381.mwcnf,-9223372036854775808
data/R/wuf20-78-R1/wuf20-0382.mwcnf,-9223372036854775808
data/R/wuf20-78-R1/wuf20-0383.mwcnf,-9223372036854775808
data/R/wuf20-78-R1/wuf20-0384.mwcnf,-9223372036854775808
data/R/wuf20-78-R1/wuf20-0385.mwcnf,-9223372036854775808
data/R/wuf20-78-R1/wuf20-0386.mwcnf,-9223372036854775808
data/R/wuf20-78-R1/wuf20-0387.mwcnf,-9223372036854775808
data/R/wuf20-78-R1/wuf20-0388.mwcnf,-9223372036854775808
data/R/wuf20-78-R1/wuf20-0389.mwcnf,-9223372036854775808
data/R/wuf20-78-R1/wuf20-039.mwcnf,-9223372036854775808
data/R/wuf20-78-R1/wuf20-0390.mwcnf,-9223372036854775808
data/R/wuf20-78-R1/wuf20-0391.mwcnf,-9223372036854775808
data/R/wuf20-78-R1/wuf20-0392.mwcnf,-9223372036854775808
data/R/wuf20-78-R1/wuf20-0393.mwcnf,-9223372036854775808
data/R/wuf20-78-R1/wuf20-0394.mwcnf,-9223372036854775808
data/R/wuf20-78-R1/wuf20-0395.mwcnf,-9223372036854775808
data/R/wuf20-78-R1/wuf20-0396.mwcnf,-9223372036854775808
data/R/wuf20-78-R1/wuf20-0397.mwcnf,-9223372036854775808
data/R/wuf20-78-R1/wuf20-0398.mwcnf,-9223372036854775808
data/R/wuf20-78-R1/wuf20-0399.mwcnf,-9223372036854775808
data/R/wuf20-78-R1/wuf20-04.mwcnf,-9223372036854775808
data/R/wuf20-78-R1/wuf20-040.mwcnf,-9223372036854775808
data/R/wuf20-78-R1/wuf20-0400.mwcnf,-9223372036854775808
data/R/wuf20-78-R1/wuf20-0401.mwcnf,-9223372036854775808
data/R/wuf20-78-R1/wuf20-0402.mwcnf,-9223372036854775808
data/R/wuf20-78-R1/wuf20-0403.mwcnf,-9223372036854775808
data/R/wuf20-78-R1/wuf20-0404.mwcnf,-9223372036854775808
data/R/wuf20-78-R1/wuf20-0405.mwcnf,-9223372036854775808
data/R/wuf20-78-R1/wuf20-0406.mwcnf,-9223372036854775808
data/R/wuf20-78-R1/wuf20-0407.mwcnf,-9223372036854775808
data/R/wuf20-78-R1/wuf20-0408.mwcnf,-9223372036854775808
data/R/wuf20-78-R1/wuf20-0409.mwcnf,-9223372036854775808
data/R/wuf20-78-R1/wuf20-041.mwcnf,-9223372036854775808
data/R/wuf20-78-R1/wuf20-0410.mwcnf,-9223372036854775808
data/R/wuf20-78-R1/wuf20-0411.mwcnf,-9223372036854775808
data/R/wuf20-78-R1/wuf20-0412.mwcnf,-9223372036854775808
data/R/wuf20-78-R1/wuf20-0413.mwcnf,-9223372036854775808
data/R/wuf20-78-R1/wuf20-0414.mwcnf,-9223372036854775808
data/R/wuf20-78-R1/wuf20-0415.mwcnf,-9223372036854775808
data/R/wuf20-78-R1/wuf20-0416.mwcnf,-9223372036854775808
data/R/wuf20-78-R1/wuf20-0417.mwcnf,-9223372036854775808
data/R/wuf20-78-R1/wuf20-0418.mwcnf,-9223372036854775808
data/R/wuf20-78-R1/wuf20-0419.mwcnf,-9223372036854775808
data/R/wuf20-78-R1/wuf20-042.mwcnf,-9223372036854775808
data/R/wuf20-78-R1/wuf20-0420.mwcnf,-9223372036854775808
data/R/wuf20-78-R1/wuf20-0421.mwcnf,-9223372036854775808
data/R/wuf20-78-R1/wuf20-0422.mwcnf,-9223372036854775808
data/R/wuf20-78-R1/wuf20-0423.mwcnf,-9223372036854775808
data/R/wuf20-78-R1/wuf20-0424.mwcnf,-9223372036854775808
data/R/wuf20-78-R1/wuf20-0425.mwcnf,-9223372036854775808
data/R/wuf20-78-R1/wuf20-0426.mwcnf,-9223372036854775808
data/R/wuf20-78-R1/wuf20-0427.mwcnf,-9223372036854775808
data/R/wuf20-78-R1/wuf20-0428.mwcnf,-9223372036854775808
data/R/wuf20-78-R1/wuf20-0429.mwcnf,-9223372036854775808
data/R/wuf20-78-R1/wuf20-043.mwcnf,-9223372036854775808
data/R/wuf20-78-R1/wuf20-0430.mwcnf,-9223372036854775808
data/R/wuf20-78-R1/wuf20-0431.mwcnf,-9223372036854775808
data/R/wuf20-78-R1/wuf20-0432.mwcnf,-9223372036854775808
data/R/wuf20-78-R1/wuf20-0433.mwcnf,-9223372036854775808
data/R/wuf20-78-R1/wuf20-0434.mwcnf,-9223372036854775808
data/R/wuf20-78-R1/wuf20-0435.mwcnf,-9223372036854775808
data/R/wuf20-78-R1/wuf20-0436.mwcnf,-9223372036854775808
data/R/wuf20-78-R1/wuf20-0437.mwcnf,-9223372036854775808
data/R/wuf20-78-R1/wuf20-0438.mwcnf,-9223372036854775808
data/R/wuf20-78-R1/wuf20-0439.mwcnf,-9223372036854775808
data/R/wuf20-78-R1/wuf20-044.mwcnf,-9223372036854775808
data/R/wuf20-78-R1/wuf20-0440.mwcnf,-9223372036854775808
data/R/wuf20-78-R1/wuf20-0441.mwcnf,-9223372036854775808
data/R/wuf20-78-R1/wuf20-0442.mwcnf,-9223372036854775808
data/R/wuf20-78-R1/wuf20-0443.mwcnf,-9223372036854775808
data/R/wuf20-78-R1/wuf20-0444.mwcnf,-9223372036854775808
data/R/wuf20-78-R1/wuf20-0445.mwcnf,-9223372036854775808
data/R/wuf20-78-R1/wuf20-0446.mwcnf,-9223372036854775808
data/R/wuf20-78-R1/wuf20-0447.mwcnf,-9223372036854775808
data/R/wuf20-78-R1/wuf20-0448.mwcnf,-9223372036854775808
data/R/wuf20-78-R1/wuf20-0449.mwcnf,-9223372036854775808
data/R/wuf20-78-R1/wuf20-045.mwcnf,-9223372036854775808
data/R/wuf20-78-R1/wuf20-0450.mwcnf,-9223372036854775808
data/R/wuf20-78-R1/wuf20-0451.mwcnf,-9223372036854775808
data/R/wuf20-78-R1/wuf20-0452.mwcnf,-9223372036854775808
data/R/wuf20-78-R1/wuf20-0453.mwcnf,-9223372036854775808
data/R/wuf20-78-R1/wuf20-0454.mwcnf,-9223372036854775808
data/R/wuf20-78-R1/wuf20-0455.mwcnf,-9223372036854775808
data/R/wuf20-78-R1/wuf20-0456.mwcnf,-9223372036854775808
data/R/wuf20-78-R1/wuf20-0457.mwcnf,-9223372036854775808
data/R/wuf20-78-R1/wuf20-0458.mwcnf,-9223372036854775808
data/R/wuf20-78-R1/wuf20-0459.mwcnf,-9223372036854775808
data/R/wuf20-78-R1/wuf20-046.mwcnf,-9223372036854775808
data/R/wuf20-78-R1/wuf20-0460.mwcnf,-9223372036854775808
data/R/wuf20-78-R1/wuf20-0461.mwcnf,-9223372036854775808
data/R/wuf20-78-R1/wuf20-0462.mwcnf,-9223372036854775808
data/R/wuf20-78-R1/wuf20-0463.mwcnf,-9223372036854775808
data/R/wuf20-78-R1/wuf20-0464.mwcnf,-9223372036854775808
data/R/wuf20-78-R1/wuf20-0465.mwcnf,-9223372036854775808
data/R/wuf20-78-R1/wuf20-0466.mwcnf,-9223372036854775808
data/R/wuf20-78-R1/wuf20-0467.mwcnf,-9223372036854775808
data/R/wuf20-78-R1/wuf20-0468.mwcnf,-9223372036854775808
data/R/wuf20-78-R1/wuf20-0469.mwcnf,-9223372036854775808
data/R/wuf20-78-R1/wuf20-047.mwcnf,-9223372036854775808
data/R/wuf20-78-R1/wuf20-0470.mwcnf,-9223372036854775808
data/R/wuf20-78-R1/wuf20-0471.mwcnf,-9223372036854775808
data/R/wuf20-78-R1/wuf20-0472.mwcnf,-9223372036854775808
data/R/wuf20-78-R1/wuf20-0473.mwcnf,-9223372036854775808
data/R/wuf20-78-R1/wuf20-0474.mwcnf,-9223372036854775808
data/R/wuf20-78-R1/wuf20-0475.mwcnf,-9223372036854775808
data/R/wuf20-78-R1/wuf20-0476.mwcnf,-9223372036854775808
data/R/wuf20-78-R1/wuf20-0477.mwcnf,-9223372036854775808
data/R/wuf20-78-R1/wuf20-0478.mwcnf,-9223372036854775808
data/R/wuf20-78-R1/wuf20-0479.mwcnf,-9223372036854775808
data/R/wuf20-78-R1/wuf20-048.mwcnf,-9223372036854775808
data/R/wuf20-78-R1/wuf20-0480.mwcnf,-9223372036854775808
data/R/wuf20-78-R1/wuf20-0481.mwcnf,-9223372036854775808
data/R/wuf20-78-R1/wuf20-0482.mwcnf,-9223372036854775808
data/R/wuf20-78-R1/wuf20-0483.mwcnf,-9223372036854775808
data/R/wuf20-78-R1/wuf20-0484.mwcnf,-9223372036854775808
data/R/wuf20-78-R1/wuf20-0485.mwcnf,-9223372036854775808
data/R/wuf20-78-R1/wuf20-0486.mwcnf,-9223372036854775808
data/R/wuf20-78-R1/wuf20-0487.mwcnf,-9223372036854775808
data/R/wuf20-78-R1/wuf20-0488.mwcnf,-9223372036854775808
data/R/wuf20-78-R1/wuf20-0489.mwcnf,-9223372036854775808
data/R/wuf20-78-R1/wuf20-049.mwcnf,-9223372036854775808
data/R/wuf20-78-R1/wuf20-0490.mwcnf,-9223372036854775808
data/R/wuf20-78-R1/wuf20-0491.mwcnf,-9223372036854775808
data/R/wuf20-78-R1/wuf20-0492.mwcnf,-9223372036854775808
data/R/wuf20-78-R1/wuf20-0493.mwcnf,-9223372036854775808
data/R/wuf20-78-R1/wuf20-0494.mwcnf,-9223372036854775808
data/R/wuf20-78-R1/wuf20-0495.mwcnf,-9223372036854775808
data/R/wuf20-78-R1/wuf20-0496.mwcnf,-9223372036854775808
data/R/wuf20-78-R1/wuf20-0497.mwcnf,-9223372036854775808
data/R/wuf20-78-R1/wuf20-0498.mwcnf,-9223372036854775808
data/R/wuf20-78-R1/wuf20-0499.mwcnf,-9223372036854775808
data/R/wuf20-78-R1/wuf20-05.mwcnf,-9223372036854775808
data/R/wuf20-78-R1/wuf20-050.mwcnf,-9223372036854775808
data/R/wuf20-78-R1/wuf20-0500.mwcnf,-9223372036854775808
data/R/wuf20-78-R1/wuf20-0501.mwcnf,-9223372036854775808
data/R/wuf20-78-R1/wuf20-0502.mwcnf,-9223372036854775808
data/R/wuf20-78-R1/wuf20-0503.mwcnf,-9223372036854775808
data/R/wuf20-78-R1/wuf20-0504.mwcnf,-9223372036854775808
data/R/wuf20-78-R1/wuf20-0505.mwcnf,-9223372036854775808
data/R/wuf20-78-R1/wuf20-0506.mwcnf,-9223372036854775808
data/R/wuf20-78-R1/wuf20-0507.mwcnf,-9223372036854775808
data/R/wuf20-78-R1/wuf20-0508.mwcnf,-9223372036854775808
data/R/wuf20-78-R1/wuf20-0509.mwcnf,-9223372036854775808
data/R/wuf20-78-R1/wuf20-051.mwcnf,-9223372036854775808
data/R/wuf20-78-R1/wuf20-0510.mwcnf,-9223372036854775808
data/R/wuf20-78-R1/wuf20-0511.mwcnf,-9223372036854775808
data/R/wuf20-78-R1/wuf20-0512.mwcnf,-9223372036854775808
data/R/wuf20-78-R1/wuf20-0513.mwcnf,-9223372036854775808
data/R/wuf20-78-R1/wuf20-0514.mwcnf,-9223372036854775808
data/R/wuf20-78-R1/wuf20-0515.mwcnf,-9223372036854775808
data/R/wuf20-78-R1/wuf20-0516.mwcnf,-9223372036854775808
data/R/wuf20-78-R1/wuf20-0517.mwcnf,-9223372036854775808
data/R/wuf20-78-R1/wuf20-0518.mwcnf,-9223372036854775808
data/R/wuf20-78-R1/wuf20-0519.mwcnf,-9223372036854775808
data/R/wuf20-78-R1/wuf20-052.mwcnf,-9223372036854775808
data/R/wuf20-78-R1/wuf20-0520.mwcnf,-9223372036854775808
data/R/wuf20-78-R1/wuf20-0521.mwcnf,-9223372036854775808
data/R/wuf20-78-R1/wuf20-0522.mwcnf,-9223372036854775808
data/R/wuf20-78-R1/wuf20-0523.mwcnf,-9223372036854775808
data/R/wuf20-78-R1/wuf20-0524.mwcnf,-9223372036854775808
data/R/wuf20-78-R1/wuf20-0525.mwcnf,-9223372036854775808
data/R/wuf20-78-R1/wuf20-0526.mwcnf,-9223372036854775808
data/R/wuf20-78-R1/wuf20-0527.mwcnf,-9223372036854775808
data/R/wuf20-78-R1/wuf20-0528.mwcnf,-9223372036854775808
data/R/wuf20-78-R1/wuf20-0529.mwcnf,-9223372036854775808
data/R/wuf20-78-R1/wuf20-053.mwcnf,-9223372036854775808
data/R/wuf20-78-R1/wuf20-0530.mwcnf,-9223372036854775808
data/R/wuf20-78-R1/wuf20-0531.mwcnf,-9223372036854775808
data/R/wuf20-78-R1/wuf20-0532.mwcnf,-9223372036854775808
data/R/wuf20-78-R1/wuf20-0533.mwcnf,-9223372036854775808
data/R/wuf20-78-R1/wuf20-0534.mwcnf,-9223372036854775808
data/R/wuf20-78-R1/wuf20-0535.mwcnf,-9223372036854775808
data/R/wuf20-78-R1/wuf20-0536.mwcnf,-9223372036854775808
data/R/wuf20-78-R1/wuf20-0537.mwcnf,-9223372036854775808
data/R/wuf20-78-R1/wuf20-0538.mwcnf,-9223372036854775808
data/R/wuf20-78-R1/wuf20-0539.mwcnf,-9223372036854775808
data/R/wuf20-78-R1/wuf20-054.mwcnf,-9223372036854775808
data/R/wuf20-78-R1/wuf20-0540.mwcnf,-9223372036854775808
data/R/wuf20-78-R1/wuf20-0541.mwcnf,-9223372036854775808
data/R/wuf20-78-R1/wuf20-0542.mwcnf,-9223372036854775808
data/R/wuf20-78-R1/wuf20-0543.mwcnf,-9223372036854775808
data/R/wuf20-78-R1/wuf20-0544.mwcnf,-9223372036854775808
data/R/wuf20-78-R1/wuf20-0545.mwcnf,-9223372036854775808
data/R/wuf20-78-R1/wuf20-0546.mwcnf,-9223372036854775808
data/R/wuf20-78-R1/wuf20-0547.mwcnf,-9223372036854775808
data/R/wuf20-78-R1/wuf20-0548.mwcnf,-9223372036854775808
data/R/wuf20-78-R1/wuf20-0549.mwcnf,-9223372036854775808
data/R/wuf20-78-R1/wuf20-055.mwcnf,-9223372036854775808
data/R/wuf20-78-R1/wuf20-0550.mwcnf,-9223372036854775808
data/R/wuf20-78-R1/wuf20-0551.mwcnf,-9223372036854775808
data/R/wuf20-78-R1/wuf20-0552.mwcnf,-9223372036854775808
data/R/wuf20-78-R1/wuf20-0553.mwcnf,-9223372036854775808
data/R/wuf20-78-R1/wuf20-0554.mwcnf,-9223372036854775808
data/R/wuf20-78-R1/wuf20-0555.mwcnf,-9223372036854775808
data/R/wuf20-78-R1/wuf20-0556.mwcnf,-9223372036854775808
data/R/wuf20-78-R1/wuf20-0557.mwcnf,-9223372036854775808
data/R/wuf20-78-R1/wuf20-0558.mwcnf,-9223372036854775808
data/R/wuf20-78-R1/wuf20-0559.mwcnf,-9223372036854775808
data/R/wuf20-78-R1/wuf20-056.mwcnf,-9223372036854775808
data/R/wuf20-78-R1/wuf20-0560.mwcnf,-9223372036854775808
data/R/wuf20-78-R1/wuf20-0561.mwcnf,-9223372036854775808
data/R/wuf20-78-R1/wuf20-0562.mwcnf,-9223372036854775808
data/R/wuf20-78-R1/wuf20-0563.mwcnf,-9223372036854775808
data/R/wuf20-78-R1/wuf20-0564.mwcnf,-9223372036854775808
data/R/wuf20-78-R1/wuf20-0565.mwcnf,-9223372036854775808
data/R/wuf20-78-R1/wuf20-0566.mwcnf,-9223372036854775808
data/R/wuf20-78-R1/wuf20-0567.mwcnf,-9223372036854775808
data/R/wuf20-78-R1/wuf20-0568.mwcnf,-9223372036854775808
data/R/wuf20-78-R1/wuf20-0569.mwcnf,-9223372036854775808
data/R/wuf20-78-R1/wuf20-057.mwcnf,-9223372036854775808
data/R/wuf20-78-R1/wuf20-0570.mwcnf,-9223372036854775808
data/R/wuf20-78-R1/wuf20-0571.mwcnf,-9223372036854775808
data/R/wuf20-78-R1/wuf20-0572.mwcnf,-9223372036854775808
data/R/wuf20-78-R1/wuf20-0573.mwcnf,-9223372036854775808
data/R/wuf20-78-R1/wuf20-0574.mwcnf,-9223372036854775808
data/R/wuf20-78-R1/wuf20-0575.mwcnf,-9223372036854775808
data/R/wuf20-78-R1/wuf20-0576.mwcnf,-9223372036854775808
data/R/wuf20-78-R1/wuf20-0577.mwcnf,-9223372036854775808
data/R/wuf20-78-R1/wuf20-0578.mwcnf,-9223372036854775808
data/R/wuf20-78-R1/wuf20-0579.mwcnf,-9223372036854775808
data/R/wuf20-78-R1/wuf20-058.mwcnf,-9223372036854775808
data/R/wuf20-78-R1/wuf20-0580.mwcnf,-9223372036854775808
data/R/wuf20-78-R1/wuf20-0581.mwcnf,-9223372036854775808
data/R/wuf20-78-R1/wuf20-0582.mwcnf,-9223372036854775808
data/R/wuf20-78-R1/wuf20-0583.mwcnf,-9223372036854775808
data/R/wuf20-78-R1/wuf20-0584.mwcnf,-9223372036854775808
data/R/wuf20-78-R1/wuf20-0585.mwcnf,-9223372036854775808
data/R/wuf20-78-R1/wuf20-0586.mwcnf,-9223372036854775808
data/R/wuf20-78-R1/wuf20-0587.mwcnf,-9223372036854775808
data/R/wuf20-78-R1/wuf20-0588.mwcnf,-9223372036854775808
data/R/wuf20-78-R1/wuf20-0589.mwcnf,-9223372036854775808
data/R/wuf20-78-R1/wuf20-059.mwcnf,-9223372036854775808
data/R/wuf20-78-R1/wuf20-0590.mwcnf,-9223372036854775808
data/R/wuf20-78-R1/wuf20-0591.mwcnf,-9223372036854775808
data/R/wuf20-78-R1/wuf20-0592.mwcnf,-9223372036854775808
data/R/wuf20-78-R1/wuf20-0593.mwcnf,-9223372036854775808
data/R/wuf20-78-R1/wuf20-0594.mwcnf,-9223372036854775808
data/R/wuf20-78-R1/wuf20-0595.mwcnf,-9223372036854775808
data/R/wuf20-78-R1/wuf20-0596.mwcnf,-9223372036854775808
data/R/wuf20-78-R1/wuf20-0597.mwcnf,-9223372036854775808
data/R/wuf20-78-R1/wuf20-0598.mwcnf,-9223372036854775808
data/R/wuf20-78-R1/wuf20-0599.mwcnf,-9223372036854775808
data/R/wuf20-78-R1/wuf20-06.mwcnf,-9223372036854775808
data/R/wuf20-78-R1/wuf20-060.mwcnf,-9223372036854775808
data/R/wuf20-78-R1/wuf20-0600.mwcnf,-9223372036854775808
data/R/wuf20-78-R1/wuf20-0601.mwcnf,-9223372036854775808
data/R/wuf20-78-R1/wuf20-0602.mwcnf,-9223372036854775808
data/R/wuf20-78-R1/wuf20-0603.mwcnf,-9223372036854775808
data/R/wuf20-78-R1/wuf20-0604.mwcnf,-9223372036854775808
data/R/wuf20-78-R1/wuf20-0605.mwcnf,-9223372036854775808
data/R/wuf20-78-R1/wuf20-0606.mwcnf,-9223372036854775808
data/R/wuf20-78-R1/wuf20-0607.mwcnf,-9223372036854775808
data/R/wuf20-78-R1/wuf20-0608.mwcnf,-9223372036854775808
data/R/wuf20-78-R1/wuf20-0609.mwcnf,-9223372036854775808
data/R/wuf20-78-R1/wuf20-061.mwcnf,-9223372036854775808
data/R/wuf20-78-R1/wuf20-0610.mwcnf,-9223372036854775808
data/R/wuf20-78-R1/wuf20-0611.mwcnf,-9223372036854775808
data/R/wuf20-78-R1/wuf20-0612.mwcnf,-9223372036854775808
data/R/wuf20-78-R1/wuf20-0613.mwcnf,-9223372036854775808
data/R/wuf20-78-R1/wuf20-0614.mwcnf,-9223372036854775808
data/R/wuf20-78-R1/wuf20-0615.mwcnf,-9223372036854775808
data/R/wuf20-78-R1/wuf20-0616.mwcnf,-9223372036854775808
data/R/wuf20-78-R1/wuf20-0617.mwcnf,-9223372036854775808
data/R/wuf20-78-R1/wuf20-0618.mwcnf,-9223372036854775808
data/R/wuf20-78-R1/wuf20-0619.mwcnf,-9223372036854775808
data/R/wuf20-78-R1/wuf20-062.mwcnf,-9223372036854775808
data/R/wuf20-78-R1/wuf20-0620.mwcnf,-9223372036854775808
data/R/wuf20-78-R1/wuf20-0621.mwcnf,-9223372036854775808
data/R/wuf20-78-R1/wuf20-0622.mwcnf,-9223372036854775808
data/R/wuf20-78-R1/wuf20-0623.mwcnf,-9223372036854775808
data/R/wuf20-78-R1/wuf20-0624.mwcnf,-9223372036854775808
data/R/wuf20-78-R1/wuf20-0625.mwcnf,-9223372036854775808
data/R/wuf20-78-R1/wuf20-0626.mwcnf,-9223372036854775808
data/R/wuf20-78-R1/wuf20-0627.mwcnf,-9223372036854775808
data/R/wuf20-78-R1/wuf20-0628.mwcnf,-9223372036854775808
data/R/wuf20-78-R1/wuf20-0629.mwcnf,-9223372036854775808
data/R/wuf20-78-R1/wuf20-063.mwcnf,-9223372036854775808
data/R/wuf20-78-R1/wuf20-0630.mwcnf,-9223372036854775808
data/R/wuf20-78-R1/wuf20-0631.mwcnf,-9223372036854775808
data/R/wuf20-78-R1/wuf20-0632.mwcnf,-9223372036854775808
data/R/wuf20-78-R1/wuf20-0633.mwcnf,-9223372036854775808
data/R/wuf20-78-R1/wuf20-0634.mwcnf,-9223372036854775808
data/R/wuf20-78-R1/wuf20-0635.mwcnf,-9223372036854775808
data/R/wuf20-78-R1/wuf20-0636.mwcnf,-9223372036854775808
data/R/wuf20-78-R1/wuf20-0637.mwcnf,-9223372036854775808
data/R/wuf20-78-R1/wuf20-0638.mwcnf,-9223372036854775808
data/R/wuf20-78-R1/wuf20-0639.mwcnf,-9223372036854775808
data/R/wuf20-78-R1/wuf20-064.mwcnf,-9223372036854775808
data/R/wuf20-78-R1/wuf20-0640.mwcnf,-9223372036854775808
data/R/wuf20-78-R1/wuf20-0641.mwcnf,-9223372036854775808
data/R/wuf20-78-R1/wuf20-0642.mwcnf,-9223372036854775808
data/R/wuf20-78-R1/wuf20-0643.mwcnf,-9223372036854775808
data/R/wuf20-78-R1/wuf20-0644.mwcnf,-9223372036854775808
data/R/wuf20-78-R1/wuf20-0645.mwcnf,-9223372036854775808
data/R/wuf20-78-R1/wuf20-0646.mwcnf,-9223372036854775808
data/R/wuf20-78-R1/wuf20-0647.mwcnf,-9223372036854775808
data/R/wuf20-78-R1/wuf20-0648.mwcnf,-9223372036854775808
data/R/wuf20-78-R1/wuf20-0649.mwcnf,-9223372036854775808
data/R/wuf20-78-R1/wuf20-065.mwcnf,-9223372036854775808
data/R/wuf20-78-R1/wuf20-0650.mwcnf,-9223372036854775808
data/R/wuf20-78-R1/wuf20-0651.mwcnf,-9223372036854775808
data/R/wuf20-78-R1/wuf20-0652.mwcnf,-9223372036854775808
data/R/wuf20-78-R1/wuf20-0653.mwcnf,-9223372036854775808
data/R/wuf20-78-R1/wuf20-0654.mwcnf,-9223372036854775808
data/R/wuf20-78-R1/wuf20-0655.mwcnf,-9223372036854775808
data/R/wuf20-78-R1/wuf20-0656.mwcnf,-9223372036854775808
data/R/wuf20-78-R1/wuf20-0657.mwcnf,-9223372036854775808
data/R/wuf20-78-R1/wuf20-0658.mwcnf,-9223372036854775808
data/R/wuf20-78-R1/wuf20-0659.mwcnf,-9223372036854775808
data/R/wuf20-78-R1/wuf20-066.mwcnf,-9223372036854775808
data/R/wuf20-78-R1/wuf20-0660.mwcnf,-9223372036854775808
data/R/wuf20-78-R1/wuf20-0661.mwcnf,-9223372036854775808
data/R/wuf20-78-R1/wuf20-0662.mwcnf,-9223372036854775808
data/R/wuf20-78-R1/wuf20-0663.mwcnf,-9223372036854775808
data/R/wuf20-78-R1/wuf20-0664.mwcnf,-9223372036854775808
data/R/wuf20-78-R1/wuf20-0665.mwcnf,-9223372036854775808
data/R/wuf20-78-R1/wuf20-0666.mwcnf,-9223372036854775808
data/R/wuf20-78-R1/wuf20-0667.mwcnf,-9223372036854775808
data/R/wuf20-78-R1/wuf20-0668.mwcnf,-9223372036854775808
data/R/wuf20-78-R1/wuf20-0669.mwcnf,-9223372036854775808
data/R/wuf20-78-R1/wuf20-067.mwcnf,-9223372036854775808
data/R/wuf20-78-R1/wuf20-0670.mwcnf,-9223372036854775808
data/R/wuf20-78-R1/wuf20-0671.mwcnf,-9223372036854775808
data/R/wuf20-78-R1/wuf20-0672.mwcnf,-9223372036854775808
data/R/wuf20-78-R1/wuf20-0673.mwcnf,-9223372036854775808
data/R/wuf20-78-R1/wuf20-0674.mwcnf,-9223372036854775808
data/R/wuf20-78-R1/wuf20-0675.mwcnf,-9223372036854775808
data/R/wuf20-78-R1/wuf20-0676.mwcnf,-9223372036854775808
data/R/wuf20-78-R1/wuf20-0677.mwcnf,-9223372036854775808
data/R/wuf20-78-R1/wuf20-0678.mwcnf,-9223372036854775808
data/R/wuf20-78-R1/wuf20-0679.mwcnf,-9223372036854775808
data/R/wuf20-78-R1/wuf20-068.mwcnf,-9223372036854775808
data/R/wuf20-78-R1/wuf20-0680.mwcnf,-9223372036854775808
data/R/wuf20-78-R1/wuf20-0681.mwcnf,-9223372036854775808
data/R/wuf20-78-R1/wuf20-0682.mwcnf,-9223372036854775808
data/R/wuf20-78-R1/wuf20-0683.mwcnf,-9223372036854775808
data/R/wuf20-78-R1/wuf20-0684.mwcnf,-9223372036854775808
data/R/wuf20-78-R1/wuf20-0685.mwcnf,-9223372036854775808
data/R/wuf20-78-R1/wuf20-0686.mwcnf,-9223372036854775808
data/R/wuf20-78-R1/wuf20-0687.mwcnf,-9223372036854775808
data/R/wuf20-78-R1/wuf20-0688.mwcnf,-9223372036854775808
data/R/wuf20-78-R1/wuf20-0689.mwcnf,-9223372036854775808
data/R/wuf20-78-R1/wuf20-069.mwcnf,-9223372036854775808
data/R/wuf20-78-R1/wuf20-0690.mwcnf,-9223372036854775808
data/R/wuf20-78-R1/wuf20-0691.mwcnf,-9223372036854775808
data/R/wuf20-78-R1/wuf20-0692.mwcnf,-9223372036854775808
data/R/wuf20-78-R1/wuf20-0693.mwcnf,-9223372036854775808
data/R/wuf20-78-R1/wuf20-0694.mwcnf,-9223372036854775808
data/R/wuf20-78-R1/wuf20-0695.mwcnf,-9223372036854775808
data/R/wuf20-78-R1/wuf20-0696.mwcnf,-9223372036854775808
data/R/wuf20-78-R1/wuf20-0697.mwcnf,-9223372036854775808
data/R/wuf20-78-R1/wuf20-0698.mwcnf,-9223372036854775808
data/R/wuf20-78-R1/wuf20-0699.mwcnf,-9223372036854775808
data/R/wuf20-78-R1/wuf20-07.mwcnf,-9223372036854775808
data/R/wuf20-78-R1/wuf20-070.mwcnf,-9223372036854775808
data/R/wuf20-78-R1/wuf20-0700.mwcnf,-9223372036854775808
data/R/wuf20-78-R1/wuf20-0701.mwcnf,-9223372036854775808
data/R/wuf20-78-R1/wuf20-0702.mwcnf,-9223372036854775808
data/R/wuf20-78-R1/wuf20-0703.mwcnf,-9223372036854775808
data/R/wuf20-78-R1/wuf20-0704.mwcnf,-9223372036854775808
data/R/wuf20-78-R1/wuf20-0705.mwcnf,-9223372036854775808
data/R/wuf20-78-R1/wuf20-0706.mwcnf,-9223372036854775808
data/R/wuf20-78-R1/wuf20-0707.mwcnf,-9223372036854775808
data/R/wuf20-78-R1/wuf20-0708.mwcnf,-9223372036854775808
data/R/wuf20-78-R1/wuf20-0709.mwcnf,-9223372036854775808
data/R/wuf20-78-R1/wuf20-071.mwcnf,-9223372036854775808
data/R/wuf20-78-R1/wuf20-0710.mwcnf,-9223372036854775808
data/R/wuf20-78-R1/wuf20-0711.mwcnf,-9223372036854775808
data/R/wuf20-78-R1/wuf20-0712.mwcnf,-9223372036854775808
data/R/wuf20-78-R1/wuf20-0713.mwcnf,-9223372036854775808
data/R/wuf20-78-R1/wuf20-0714.mwcnf,-9223372036854775808
data/R/wuf20-78-R1/wuf20-0715.mwcnf,-9223372036854775808
data/R/wuf20-78-R1/wuf20-0716.mwcnf,-9223372036854775808
data/R/wuf20-78-R1/wuf20-0717.mwcnf,-9223372036854775808
data/R/wuf20-78-R1/wuf20-0718.mwcnf,-9223372036854775808
data/R/wuf20-78-R1/wuf20-0719.mwcnf,-9223372036854775808
data/R/wuf20-78-R1/wuf20-072.mwcnf,-9223372036854775808
data/R/wuf20-78-R1/wuf20-0720.mwcnf,-9223372036854775808
data/R/wuf20-78-R1/wuf20-0721.mwcnf,-9223372036854775808
data/R/wuf20-78-R1/wuf20-0722.mwcnf,-9223372036854775808
data/R/wuf20-78-R1/wuf20-0723.mwcnf,-9223372036854775808
data/R/wuf20-78-R1/wuf20-0724.mwcnf,-9223372036854775808
data/R/wuf20-78-R1/wuf20-0725.mwcnf,-9223372036854775808
data/R/wuf20-78-R1/wuf20-0726.mwcnf,-9223372036854775808
data/R/wuf20-78-R1/wuf20-0727.mwcnf,-9223372036854775808
data/R/wuf20-78-R1/wuf20-0728.mwcnf,-9223372036854775808
data/R/wuf20-78-R1/wuf20-0729.mwcnf,-9223372036854775808
data/R/wuf20-78-R1/wuf20-073.mwcnf,-9223372036854775808
data/R/wuf20-78-R1/wuf20-0730.mwcnf,-9223372036854775808
data/R/wuf20-78-R1/wuf20-0731.mwcnf,-9223372036854775808
data/R/wuf20-78-R1/wuf20-0732.mwcnf,-9223372036854775808
data/R/wuf20-78-R1/wuf20-0733.mwcnf,-9223372036854775808
data/R/wuf20-78-R1/wuf20-0734.mwcnf,-9223372036854775808
data/R/wuf20-78-R1/wuf20-0735.mwcnf,-9223372036854775808
data/R/wuf20-78-R1/wuf20-0736.mwcnf,-9223372036854775808
data/R/wuf20-78-R1/wuf20-0737.mwcnf,-9223372036854775808
data/R/wuf20-78-R1/wuf20-0738.mwcnf,-9223372036854775808
data/R/wuf20-78-R1/wuf20-0739.mwcnf,-9223372036854775808
data/R/wuf20-78-R1/wuf20-074.mwcnf,-9223372036854775808
data/R/wuf20-78-R1/wuf20-0740.mwcnf,-9223372036854775808
data/R/wuf20-78-R1/wuf20-0741.mwcnf,-9223372036854775808
data/R/wuf20-78-R1/wuf20-0742.mwcnf,-9223372036854775808
data/R/wuf20-78-R1/wuf20-0743.mwcnf,-9223372036854775808
data/R/wuf20-78-R1/wuf20-0744.mwcnf,-9223372036854775808
data/R/wuf20-78-R1/wuf20-0745.mwcnf,-9223372036854775808
data/R/wuf20-78-R1/wuf20-0746.mwcnf,-9223372036854775808
data/R/wuf20-78-R1/wuf20-0747.mwcnf,-9223372036854775808
data/R/wuf20-78-R1/wuf20-0748.mwcnf,-9223372036854775808
data/R/wuf20-78-R1/wuf20-0749.mwcnf,-9223372036854775808
data/R/wuf20-78-R1/wuf20-075.mwcnf,-9223372036854775808
data/R/wuf20-78-R1/wuf20-0750.mwcnf,-9223372036854775808
data/R/wuf20-78-R1/wuf20-0751.mwcnf,-9223372036854775808
data/R/wuf20-78-R1/wuf20-0752.mwcnf,-9223372036854775808
data/R/wuf20-78-R1/wuf20-0753.mwcnf,-9223372036854775808
data/R/wuf20-78-R1/wuf20-0754.mwcnf,-9223372036854775808
data/R/wuf20-78-R1/wuf20-0755.mwcnf,-9223372036854775808
data/R/wuf20-78-R1/wuf20-0756.mwcnf,-9223372036854775808
data/R/wuf20-78-R1/wuf20-0757.mwcnf,-9223372036854775808
data/R/wuf20-78-R1/wuf20-0758.mwcnf,-9223372036854775808
data/R/wuf20-78-R1/wuf20-0759.mwcnf,-9223372036854775808
data/R/wuf20-78-R1/wuf20-076.mwcnf,-9223372036854775808
data/R/wuf20-78-R1/wuf20-0760.mwcnf,-9223372036854775808
data/R/wuf20-78-R1/wuf20-0761.mwcnf,-9223372036854775808
data/R/wuf20-78-R1/wuf20-0762.mwcnf,-9223372036854775808
data/R/wuf20-78-R1/wuf20-0763.mwcnf,-9223372036854775808
data/R/wuf20-78-R1/wuf20-0764.mwcnf,-9223372036854775808
data/R/wuf20-78-R1/wuf20-0765.mwcnf,-9223372036854775808
data/R/wuf20-78-R1/wuf20-0766.mwcnf,-9223372036854775808
data/R/wuf20-78-R1/wuf20-0767.mwcnf,-9223372036854775808
data/R/wuf20-78-R1/wuf20-0768.mwcnf,-9223372036854775808
data/R/wuf20-78-R1/wuf20-0769.mwcnf,-9223372036854775808
data/R/wuf20-78-R1/wuf20-0770.mwcnf,-9223372036854775808
data/R/wuf20-78-R1/wuf20-0771.mwcnf,-9223372036854775808
data/R/wuf20-78-R1/wuf20-0772.mwcnf,-9223372036854775808
data/R/wuf20-78-R1/wuf20-0773.mwcnf,-9223372036854775808
data/R/wuf20-78-R1/wuf20-0774.mwcnf,-9223372036854775808
data/R/wuf20-78-R1/wuf20-0775.mwcnf,-9223372036854775808
data/R/wuf20-78-R1/wuf20-0776.mwcnf,-9223372036854775808
data/R/wuf20-78-R1/wuf20-0777.mwcnf,-9223372036854775808
data/R/wuf20-78-R1/wuf20-0778.mwcnf,-9223372036854775808
data/R/wuf20-78-R1/wuf20-0779.mwcnf,-9223372036854775808
data/R/wuf20-78-R1/wuf20-078.mwcnf,-9223372036854775808
data/R/wuf20-78-R1/wuf20-0781.mwcnf,-9223372036854775808
data/R/wuf20-78-R1/wuf20-0782.mwcnf,-9223372036854775808
data/R/wuf20-78-R1/wuf20-0783.mwcnf,-9223372036854775808
data/R/wuf20-78-R1/wuf20-0784.mwcnf,-9223372036854775808
data/R/wuf20-78-R1/wuf20-0785.mwcnf,-9223372036854775808
data/R/wuf20-78-R1/wuf20-0786.mwcnf,-9223372036854775808
data/R/wuf20-78-R1/wuf20-0787.mwcnf,-9223372036854775808
data/R/wuf20-78-R1/wuf20-0788.mwcnf,-9223372036854775808
data/R/wuf20-78-R1/wuf20-0789.mwcnf,-9223372036854775808
data/R/wuf20-78-R1/wuf20-079.mwcnf,-9223372036854775808
data/R/wuf20-78-R1/wuf20-0790.mwcnf,-9223372036854775808
data/R/wuf20-78-R1/wuf20-0791.mwcnf,-9223372036854775808
data/R/wuf20-78-R1/wuf20-0792.mwcnf,-9223372036854775808
data/R/wuf20-78-R1/wuf20-0793.mwcnf,-9223372036854775808
data/R/wuf20-78-R1/wuf20-0794.mwcnf,-9223372036854775808
data/R/wuf20-78-R1/wuf20-0795.mwcnf,-9223372036854775808
data/R/wuf20-78-R1/wuf20-0796.mwcnf,-9223372036854775808
data/R/wuf20-78-R1/wuf20-0797.mwcnf,-9223372036854775808
data/R/wuf20-78-R1/wuf20-0798.mwcnf,-9223372036854775808
data/R/wuf20-78-R1/wuf20-0799.mwcnf,-9223372036854775808
data/R/wuf20-78-R1/wuf20-08.mwcnf,-9223372036854775808
data/R/wuf20-78-R1/wuf20-080.mwcnf,-9223372036854775808
data/R/wuf20-78-R1/wuf20-0800.mwcnf,-9223372036854775808
data/R/wuf20-78-R1/wuf20-0801.mwcnf,-9223372036854775808
data/R/wuf20-78-R1/wuf20-0802.mwcnf,-9223372036854775808
data/R/wuf20-78-R1/wuf20-0803.mwcnf,-9223372036854775808
data/R/wuf20-78-R1/wuf20-0804.mwcnf,-9223372036854775808
data/R/wuf20-78-R1/wuf20-0805.mwcnf,-9223372036854775808
data/R/wuf20-78-R1/wuf20-0806.mwcnf,-9223372036854775808
data/R/wuf20-78-R1/wuf20-0807.mwcnf,-9223372036854775808
data/R/wuf20-78-R1/wuf20-0808.mwcnf,-9223372036854775808
data/R/wuf20-78-R1/wuf20-0809.mwcnf,-9223372036854775808
data/R/wuf20-78-R1/wuf20-081.mwcnf,-9223372036854775808
data/R/wuf20-78-R1/wuf20-0810.mwcnf,-9223372036854775808
data/R/wuf20-78-R1/wuf20-0811.mwcnf,-9223372036854775808
data/R/wuf20-78-R1/wuf20-0812.mwcnf,-9223372036854775808
data/R/wuf20-78-R1/wuf20-0813.mwcnf,-9223372036854775808
data/R/wuf20-78-R1/wuf20-0814.mwcnf,-9223372036854775808
data/R/wuf20-78-R1/wuf20-0815.mwcnf,-9223372036854775808
data/R/wuf20-78-R1/wuf20-0816.mwcnf,-9223372036854775808
data/R/wuf20-78-R1/wuf20-0817.mwcnf,-9223372036854775808
data/R/wuf20-78-R1/wuf20-0818.mwcnf,-9223372036854775808
data/R/wuf20-78-R1/wuf20-0819.mwcnf,-9223372036854775808
data/R/wuf20-78-R1/wuf20-082.mwcnf,-9223372036854775808
data/R/wuf20-78-R1/wuf20-0820.mwcnf,-9223372036854775808
data/R/wuf20-78-R1/wuf20-0821.mwcnf,-9223372036854775808
data/R/wuf20-78-R1/wuf20-0822.mwcnf,-9223372036854775808
data/R/wuf20-78-R1/wuf20-0823.mwcnf,-9223372036854775808
data/R/wuf20-78-R1/wuf20-0824.mwcnf,-9223372036854775808
data/R/wuf20-78-R1/wuf20-0825.mwcnf,-9223372036854775808
data/R/wuf20-78-R1/wuf20-0826.mwcnf,-9223372036854775808
data/R/wuf20-78-R1/wuf20-0827.mwcnf,-9223372036854775808
data/R/wuf20-78-R1/wuf20-0828.mwcnf,-9223372036854775808
data/R/wuf20-78-R1/wuf20-0829.mwcnf,-9223372036854775808
data/R/wuf20-78-R1/wuf20-083.mwcnf,-9223372036854775808
data/R/wuf20-78-R1/wuf20-0830.mwcnf,-9223372036854775808
data/R/wuf20-78-R1/wuf20-0831.mwcnf,-9223372036854775808
data/R/wuf20-78-R1/wuf20-0832.mwcnf,-9223372036854775808
data/R/wuf20-78-R1/wuf20-0833.mwcnf,-9223372036854775808
data/R/wuf20-78-R1/wuf20-0834.mwcnf,-9223372036854775808
data/R/wuf20-78-R1/wuf20-0835.mwcnf,-9223372036854775808
data/R/wuf20-78-R1/wuf20-0836.mwcnf,-9223372036854775808
data/R/wuf20-78-R1/wuf20-0837.mwcnf,-9223372036854775808
data/R/wuf20-78-R1/wuf20-0838.mwcnf,-9223372036854775808
data/R/wuf20-78-R1/wuf20-0839.mwcnf,-9223372036854775808
data/R/wuf20-78-R1/wuf20-084.mwcnf,-9223372036854775808
data/R/wuf20-78-R1/wuf20-0840.mwcnf,-9223372036854775808
data/R/wuf20-78-R1/wuf20-0841.mwcnf,-9223372036854775808
data/R/wuf20-78-R1/wuf20-0842.mwcnf,-9223372036854775808
data/R/wuf20-78-R1/wuf20-0843.mwcnf,-9223372036854775808
data/R/wuf20-78-R1/wuf20-0844.mwcnf,-9223372036854775808
data/R/wuf20-78-R1/wuf20-0845.mwcnf,-9223372036854775808
data/R/wuf20-78-R1/wuf20-0846.mwcnf,-9223372036854775808
data/R/wuf20-78-R1/wuf20-0847.mwcnf,-9223372036854775808
data/R/wuf20-78-R1/wuf20-0848.mwcnf,-9223372036854775808
data/R/wuf20-78-R1/wuf20-0849.mwcnf,-9223372036854775808
data/R/wuf20-78-R1/wuf20-085.mwcnf,-9223372036854775808
data/R/wuf20-78-R1/wuf20-0850.mwcnf,-9223372036854775808
data/R/wuf20-78-R1/wuf20-0851.mwcnf,-9223372036854775808
data/R/wuf20-78-R1/wuf20-0852.mwcnf,-9223372036854775808
data/R/wuf20-78-R1/wuf20-0853.mwcnf,-9223372036854775808
data/R/wuf20-78-R1/wuf20-0854.mwcnf,-9223372036854775808
data/R/wuf20-78-R1/wuf20-0855.mwcnf,-9223372036854775808
data/R/wuf20-78-R1/wuf20-0856.mwcnf,-9223372036854775808
data/R/wuf20-78-R1/wuf20-0857.mwcnf,-9223372036854775808
data/R/wuf20-78-R1/wuf20-0858.mwcnf,-9223372036854775808
data/R/wuf20-78-R1/wuf20-0859.mwcnf,-9223372036854775808
data/R/wuf20-78-R1/wuf20-086.mwcnf,-9223372036854775808
data/R/wuf20-78-R1/wuf20-0860.mwcnf,-9223372036854775808
data/R/wuf20-78-R1/wuf20-0861.mwcnf,-9223372036854775808
data/R/wuf20-78-R1/wuf20-0862.mwcnf,-9223372036854775808
data/R/wuf20-78-R1/wuf20-0863.mwcnf,-9223372036854775808
data/R/wuf20-78-R1/wuf20-0864.mwcnf,-9223372036854775808
data/R/wuf20-78-R1/wuf20-0865.mwcnf,-9223372036854775808
data/R/wuf20-78-R1/wuf20-0866.mwcnf,-9223372036854775808
data/R/wuf20-78-R1/wuf20-0867.mwcnf,-9223372036854775808
data/R/wuf20-78-R1/wuf20-0868.mwcnf,-9223372036854775808
data/R/wuf20-78-R1/wuf20-0869.mwcnf,-9223372036854775808
data/R/wuf20-78-R1/wuf20-087.mwcnf,-9223372036854775808
data/R/wuf20-78-R1/wuf20-0870.mwcnf,-9223372036854775808
data/R/wuf20-78-R1/wuf20-0871.mwcnf,-9223372036854775808
data/R/wuf20-78-R1/wuf20-0872.mwcnf,-9223372036854775808
data/R/wuf20-78-R1/wuf20-0873.mwcnf,-9223372036854775808
data/R/wuf20-78-R1/wuf20-0874.mwcnf,-9223372036854775808
data/R/wuf20-78-R1/wuf20-0875.mwcnf,-9223372036854775808
data/R/wuf20-78-R1/wuf20-0876.mwcnf,-9223372036854775808
data/R/wuf20-78-R1/wuf20-0877.mwcnf,-9223372036854775808
data/R/wuf20-78-R1/wuf20-0878.mwcnf,-9223372036854775808
data/R/wuf20-78-R1/wuf20-0879.mwcnf,-9223372036854775808
data/R/wuf20-78-R1/wuf20-0880.mwcnf,-9223372036854775808
data/R/wuf20-78-R1/wuf20-0881.mwcnf,-9223372036854775808
data/R/wuf20-78-R1/wuf20-0882.mwcnf,-9223372036854775808
data/R/wuf20-78-R1/wuf20-0883.mwcnf,-9223372036854775808
data/R/wuf20-78-R1/wuf20-0884.mwcnf,-9223372036854775808
data/R/wuf20-78-R1/wuf20-0885.mwcnf,-9223372036854775808
data/R/wuf20-78-R1/wuf20-0886.mwcnf,-9223372036854775808
data/R/wuf20-78-R1/wuf20-0887.mwcnf,-9223372036854775808
data/R/wuf20-78-R1/wuf20-0888.mwcnf,-9223372036854775808
data/R/wuf20-78-R1/wuf20-0889.mwcnf,-9223372036854775808
data/R/wuf20-78-R1/wuf20-089.mwcnf,-9223372036854775808
data/R/wuf20-78-R1/wuf20-0891.mwcnf,-9223372036854775808
data/R/wuf20-78-R1/wuf20-0892.mwcnf,-9223372036854775808
data/R/wuf20-78-R1/wuf20-0893.mwcnf,-9223372036854775808
data/R/wuf20-78-R1/wuf20-0894.mwcnf,-9223372036854775808
data/R/wuf20-78-R1/wuf20-0895.mwcnf,-9223372036854775808
data/R/wuf20-78-R1/wuf20-0896.mwcnf,-9223372036854775808
data/R/wuf20-78-R1/wuf20-0897.mwcnf,-9223372036854775808
data/R/wuf20-78-R1/wuf20-0898.mwcnf,-9223372036854775808
data/R/wuf20-78-R1/wuf20-0899.mwcnf,-9223372036854775808
data/R/wuf20-78-R1/wuf20-09.mwcnf,-9223372036854775808
data/R/wuf20-78-R1/wuf20-090.mwcnf,-9223372036854775808
data/R/wuf20-78-R1/wuf20-0900.mwcnf,-9223372036854775808
data/R/wuf20-78-R1/wuf20-0901.mwcnf,-9223372036854775808
data/R/wuf20-78-R1/wuf20-0902.mwcnf,-9223372036854775808
data/R/wuf20-78-R1/wuf20-0903.mwcnf,-9223372036854775808
data/R/wuf20-78-R1/wuf20-0904.mwcnf,-9223372036854775808
data/R/wuf20-78-R1/wuf20-0905.mwcnf,-9223372036854775808
data/R/wuf20-78-R1/wuf20-0906.mwcnf,-9223372036854775808
data/R/wuf20-78-R1/wuf20-0907.mwcnf,-9223372036854775808
data/R/wuf20-78-R1/wuf20-091.mwcnf,-9223372036854775808
data/R/wuf20-78-R1/wuf20-0910.mwcnf,-9223372036854775808
data/R/wuf20-78-R1/wuf20-0911.mwcnf,-9223372036854775808
data/R/wuf20-78-R1/wuf20-0912.mwcnf,-9223372036854775808
data/R/wuf20-78-R1/wuf20-0913.mwcnf,-9223372036854775808
data/R/wuf20-78-R1/wuf20-0914.mwcnf,-9223372036854775808
data/R/wuf20-78-R1/wuf20-0915.mwcnf,-9223372036854775808
data/R/wuf20-78-R1/wuf20-0916.mwcnf,-9223372036854775808
data/R/wuf20-78-R1/wuf20-0917.mwcnf,-9223372036854775808
data/R/wuf20-78-R1/wuf20-0918.mwcnf,-9223372036854775808
data/R/wuf20-78-R1/wuf20-0919.mwcnf,-9223372036854775808
data/R/wuf20-78-R1/wuf20-092.mwcnf,-9223372036854775808
data/R/wuf20-78-R1/wuf20-0920.mwcnf,-9223372036854775808
data/R/wuf20-78-R1/wuf20-0921.mwcnf,-9223372036854775808
data/R/wuf20-78-R1/wuf20-0922.mwcnf,-9223372036854775808
data/R/wuf20-78-R1/wuf20-0923.mwcnf,-9223372036854775808
data/R/wuf20-78-R1/wuf20-0924.mwcnf,-9223372036854775808
data/R/wuf20-78-R1/wuf20-0925.mwcnf,-9223372036854775808
data/R/wuf20-78-R1/wuf20-0926.mwcnf,-9223372036854775808
data/R/wuf20-78-R1/wuf20-0927.mwcnf,-9223372036854775808
data/R/wuf20-78-R1/wuf20-0928.mwcnf,-9223372036854775808
data/R/wuf20-78-R1/wuf20-0929.mwcnf,-9223372036854775808
data/R/wuf20-78-R1/wuf20-093.mwcnf,-9223372036854775808
data/R/wuf20-78-R1/wuf20-0930.mwcnf,-9223372036854775808
data/R/wuf20-78-R1/wuf20-0931.mwcnf,-9223372036854775808
data/R/wuf20-78-R1/wuf20-0932.mwcnf,-9223372036854775808
data/R/wuf20-78-R1/wuf20-0933.mwcnf,-9223372036854775808
data/R/wuf20-78-R1/wuf20-0934.mwcnf,-9223372036854775808
data/R/wuf20-78-R1/wuf20-0935.mwcnf,-9223372036854775808
data/R/wuf20-78-R1/wuf20-0936.mwcnf,-9223372036854775808
data/R/wuf20-78-R1/wuf20-0937.mwcnf,-9223372036854775808
data/R/wuf20-78-R1/wuf20-0938.mwcnf,-9223372036854775808
data/R/wuf20-78-R1/wuf20-0939.mwcnf,-9223372036854775808
data/R/wuf20-78-R1/wuf20-094.mwcnf,-9223372036854775808
data/R/wuf20-78-R1/wuf20-0940.mwcnf,-9223372036854775808
data/R/wuf20-78-R1/wuf20-0941.mwcnf,-9223372036854775808
data/R/wuf20-78-R1/wuf20-0942.mwcnf,-9223372036854775808
data/R/wuf20-78-R1/wuf20-0943.mwcnf,-9223372036854775808
data/R/wuf20-78-R1/wuf20-0944.mwcnf,-9223372036854775808
data/R/wuf20-78-R1/wuf20-0945.mwcnf,-9223372036854775808
data/R/wuf20-78-R1/wuf20-0946.mwcnf,-9223372036854775808
data/R/wuf20-78-R1/wuf20-0947.mwcnf,-9223372036854775808
data/R/wuf20-78-R1/wuf20-0948.mwcnf,-9223372036854775808
data/R/wuf20-78-R1/wuf20-0949.mwcnf,-9223372036854775808
data/R/wuf20-78-R1/wuf20-095.mwcnf,-9223372036854775808
data/R/wuf20-78-R1/wuf20-0950.mwcnf,-9223372036854775808
data/R/wuf20-78-R1/wuf20-0951.mwcnf,-9223372036854775808
data/R/wuf20-78-R1/wuf20-0952.mwcnf,-9223372036854775808
data/R/wuf20-78-R1/wuf20-0953.mwcnf,-9223372036854775808
data/R/wuf20-78-R1/wuf20-0954.mwcnf,-9223372036854775808
data/R/wuf20-78-R1/wuf20-0955.mwcnf,-9223372036854775808
data/R/wuf20-78-R1/wuf20-0956.mwcnf,-9223372036854775808
data/R/wuf20-78-R1/wuf20-0957.mwcnf,-9223372036854775808
data/R/wuf20-78-R1/wuf20-0958.mwcnf,-9223372036854775808
data/R/wuf20-78-R1/wuf20-0959.mwcnf,-9223372036854775808
data/R/wuf20-78-R1/wuf20-096.mwcnf,-9223372036854775808
data/R/wuf20-78-R1/wuf20-0960.mwcnf,-9223372036854775808
data/R/wuf20-78-R1/wuf20-0961.mwcnf,-9223372036854775808
data/R/wuf20-78-R1/wuf20-0962.mwcnf,-9223372036854775808
data/R/wuf20-78-R1/wuf20-0963.mwcnf,-9223372036854775808
data/R/wuf20-78-R1/wuf20-0964.mwcnf,-9223372036854775808
data/R/wuf20-78-R1/wuf20-0965.mwcnf,-9223372036854775808
data/R/wuf20-78-R1/wuf20-0966.mwcnf,-9223372036854775808
data/R/wuf20-78-R1/wuf20-0967.mwcnf,-9223372036854775808
data/R/wuf20-78-R1/wuf20-0968.mwcnf,-9223372036854775808
data/R/wuf20-78-R1/wuf20-0969.mwcnf,-9223372036854775808
data/R/wuf20-78-R1/wuf20-097.mwcnf,-9223372036854775808
data/R/wuf20-78-R1/wuf20-0970.mwcnf,-9223372036854775808
data/R/wuf20-78-R1/wuf20-0971.mwcnf,-9223372036854775808
data/R/wuf20-78-R1/wuf20-0972.mwcnf,-9223372036854775808
data/R/wuf20-78-R1/wuf20-0973.mwcnf,-9223372036854775808
data/R/wuf20-78-R1/wuf20-0974.mwcnf,-9223372036854775808
data/R/wuf20-78-R1/wuf20-0975.mwcnf,-9223372036854775808
data/R/wuf20-78-R1/wuf20-0976.mwcnf,-9223372036854775808
data/R/wuf20-78-R1/wuf20-0977.mwcnf,-9223372036854775808
data/R/wuf20-78-R1/wuf20-0978.mwcnf,-9223372036854775808
data/R/wuf20-78-R1/wuf20-0979.mwcnf,-9223372036854775808
data/R/wuf20-78-R1/wuf20-098.mwcnf,-9223372036854775808
data/R/wuf20-78-R1/wuf20-0980.mwcnf,-9223372036854775808
data/R/wuf20-78-R1/wuf20-0981.mwcnf,-9223372036854775808
data/R/wuf20-78-R1/wuf20-0982.mwcnf,-9223372036854775808
data/R/wuf20-78-R1/wuf20-0983.mwcnf,-9223372036854775808
data/R/wuf20-78-R1/wuf20-0984.mwcnf,-9223372036854775808
data/R/wuf20-78-R1/wuf20-0985.mwcnf,-9223372036854775808
data/R/wuf20-78-R1/wuf20-0986.mwcnf,-9223372036854775808
data/R/wuf20-78-R1/wuf20-0987.mwcnf,-9223372036854775808
data/R/wuf20-78-R1/wuf20-0988.mwcnf,-9223372036854775808
data/R/wuf20-78-R1/wuf20-0989.mwcnf,-9223372036854775808
data/R/wuf20-78-R1/wuf20-099.mwcnf,-9223372036854775808
data/R/wuf20-78-R1/wuf20-0990.mwcnf,-9223372036854775808
data/R/wuf20-78-R1/wuf20-0991.mwcnf,-9223372036854775808
data/R/wuf20-78-R1/wuf20-0992.mwcnf,-9223372036854775808
data/R/wuf20-78-R1/wuf20-0993.mwcnf,-9223372036854775808
data/R/wuf20-78-R1/wuf20-0994.mwcnf,-9223372036854775808
data/R/wuf20-78-R1/wuf20-0995.mwcnf,-9223372036854775808
data/R/wuf20-78-R1/wuf20-0996.mwcnf,-9223372036854775808
data/R/wuf20-78-R1/wuf20-0997.mwcnf,-9223372036854775808
data/R/wuf20-78-R1/wuf20-0998.mwcnf,-9223372036854775808
data/R/wuf20-78-R1/wuf20-0999.mwcnf,-9223372036854775808
