1 20 3927 857 172 167 259 415 602 435 89 270 486 391 401 458 800 65 334 23 790 172 354 260 877 147 943 45 588 139 833 50 592 39 607 310 708 188 448 257 138 221 867
2 20 3297 233 330 261 950 335 322 19 795 270 839 517 776 228 886 97 784 53 125 325 890 82 635 341 575 344 343 21 642 148 309 68 990 296 518 126 423 58 909 300 183
3 20 3054 176 631 647 67 194 559 20 450 212 124 216 490 179 468 156 990 200 719 11 573 501 659 7 317 56 642 184 58 25 392 402 276 1 6 213 898 19 1 399 773
4 20 2318 28 882 117 904 46 999 40 153 233 815 80 633 212 407 103 393 175 877 203 751 203 865 69 915 290 413 134 860 222 903 214 198 211 415 46 564 22 754 250 738
5 20 4311 138 861 425 133 384 182 549 716 550 619 471 768 277 525 433 977 70 75 408 129 252 284 132 849 181 737 88 230 95 558 152 248 28 419 53 898 389 123 314 157
6 20 2938 402 652 119 294 34 965 643 775 33 653 31 118 10 368 57 735 233 530 22 776 476 495 25 494 406 99 254 793 68 167 35 369 162 329 29 837 23 364 611 798
7 20 3600 544 535 245 393 144 766 18 457 167 848 327 420 281 299 150 678 50 53 87 738 55 871 36 355 423 222 265 864 468 913 576 149 80 503 12 931 214 976 358 736
8 20 3379 33 422 301 946 386 992 145 113 1 5 221 52 600 636 82 783 82 490 353 912 331 513 378 179 3 315 122 558 106 51 95 543 486 196 52 315 121 395 326 187
9 20 2629 358 585 201 756 32 918 85 360 54 369 554 197 58 219 297 133 347 490 252 906 122 18 202 416 43 155 37 490 189 69 63 630 188 54 124 801 40 41 41 632
10 20 2812 49 38 133 41 152 872 122 692 61 419 83 542 161 183 117 275 275 548 192 407 326 569 115 152 363 497 290 624 19 806 586 557 50 201 60 998 226 369 136 50
11 20 3149 248 584 177 382 275 473 94 941 339 201 161 385 62 24 201 142 3 769 138 430 238 849 729 653 103 22 288 778 176 326 175 268 136 62 37 6 97 511 260 45
12 20 3443 10 209 364 895 158 728 12 760 40 701 132 894 221 81 376 449 288 717 451 544 138 746 121 59 202 890 463 959 327 32 9 647 394 840 375 671 203 930 20 329
13 20 3328 233 564 139 123 186 202 432 709 188 209 255 706 206 1 144 518 57 288 473 177 312 49 206 150 283 337 117 973 383 105 153 201 257 173 48 340 5 828 83 447
14 20 3820 623 156 208 569 146 182 82 280 287 647 5 715 113 751 105 101 157 655 397 764 207 70 180 894 183 469 113 599 113 336 284 905 363 321 466 304 724 89 19 780
15 20 2970 571 179 26 690 232 711 142 350 55 231 53 990 194 445 4 239 336 42 43 182 121 665 150 994 21 861 395 561 110 580 229 268 307 905 99 682 404 543 221 471
16 20 3144 108 927 499 333 163 850 383 676 99 359 272 817 58 641 118 378 324 934 199 973 83 164 372 747 143 138 7 900 200 131 30 295 41 179 518 624 186 620 127 441
17 20 2336 4 949 125 850 102 762 45 187 181 690 67 106 138 583 200 743 40 703 259 971 48 424 95 637 548 770 36 501 635 536 60 671 238 814 39 186 36 642 24 694
18 20 2412 211 210 66 134 60 903 177 616 381 698 54 699 5 628 71 809 164 80 117 779 47 23 215 735 32 279 69 939 338 101 305 760 275 399 177 846 41 80 211 302
19 20 3368 50 83 353 519 278 317 89 460 271 342 357 277 254 328 45 278 43 471 361 395 200 743 307 3 386 950 27 41 162 905 10 285 365 142 271 177 209 1000 172 59
20 20 3694 45 8 212 224 652 125 62 283 1 397 136 578 291 48 73 608 253 810 222 217 451 205 498 650 311 550 223 754 5 975 307 915 236 384 163 10 236 80 241 622
21 20 2752 99 974 17 929 321 465 193 966 203 713 128 815 34 957 366 455 325 857 108 85 19 75 64 702 404 658 57 291 184 177 197 736 234 677 50 47 174 462 263 838
22 20 2626 413 258 383 435 88 112 172 506 41 239 53 292 102 662 100 330 202 788 467 598 159 566 118 962 132 848 431 221 59 545 73 699 27 274 130 872 71 4 62 324
23 20 2254 155 632 379 667 92 273 431 915 21 23 155 220 48 9 119 941 101 799 67 328 60 799 366 180 165 471 35 434 3 412 229 757 4 346 184 493 107 878 97 684
24 20 3649 82 766 205 273 229 278 112 712 262 687 156 861 28 254 95 822 47 826 106 660 270 421 52 190 710 911 149 614 54 267 307 1000 545 924 166 938 515 556 472 873
25 20 2560 36 305 118 732 41 76 188 81 84 613 446 611 214 686 158 444 233 903 131 451 161 491 230 130 98 66 146 558 379 565 114 978 49 52 258 110 54 288 62 254
26 20 3217 36 365 431 265 114 112 68 86 465 89 6 524 312 843 151 524 82 298 169 682 385 377 5 459 441 423 100 604 379 433 366 878 56 10 173 70 184 595 99 858
27 20 2866 44 745 164 37 420 210 70 464 2 838 196 121 75 386 325 698 455 337 297 263 17 461 247 785 30 506 723 177 82 468 80 51 58 134 14 656 209 978 75 14
28 20 2765 274 81 670 171 44 682 113 787 219 831 123 540 156 846 53 756 335 914 20 252 254 324 160 522 31 327 11 417 24 146 28 532 115 532 418 915 357 281 52 146
29 20 3927 92 70 203 539 352 505 602 792 159 801 220 84 69 581 43 118 239 965 507 666 56 258 512 27 486 702 204 111 480 202 15 593 52 677 24 617 568 872 26 684
30 20 3792 331 809 147 202 269 68 382 551 336 323 354 194 512 711 143 834 294 408 581 889 89 602 43 919 44 705 169 134 8 323 42 816 135 842 242 755 520 614 99 595
31 20 2856 310 653 597 402 6 668 48 47 17 646 384 744 78 55 110 420 110 461 38 809 65 766 82 965 155 781 109 266 243 860 514 18 340 987 43 119 298 304 23 530
32 20 2609 8 57 306 10 92 160 34 363 149 321 294 938 460 74 31 630 166 975 181 30 284 273 237 391 9 531 278 901 65 509 69 468 342 565 107 532 44 45 106 626
33 20 3610 284 773 35 30 412 205 55 821 10 121 589 620 118 593 381 336 479 159 31 331 51 380 272 144 84 491 476 923 179 835 6 528 144 588 374 35 531 114 2 993
34 20 2517 133 144 72 920 31 811 202 137 200 492 270 784 22 221 41 415 120 456 315 450 110 763 226 435 33 44 105 163 194 238 365 777 94 167 154 235 441 204 19 466
35 20 3146 298 325 263 629 131 703 43 795 330 402 459 732 42 975 60 634 28 93 313 163 157 965 174 772 158 500 232 608 60 808 472 733 446 310 79 598 114 625 74 161
36 20 3746 55 974 166 460 444 29 407 592 15 500 105 380 461 817 356 784 315 173 75 192 73 613 184 50 573 324 261 868 215 456 209 141 147 47 130 619 331 93 161 733
37 20 3588 182 227 52 385 110 204 107 38 127 534 89 223 250 415 68 892 839 401 121 15 363 903 82 239 327 432 819 687 430 631 237 828 39 186 11 833 193 634 40 257
38 20 2180 199 33 354 2 122 279 1 555 85 602 291 441 336 869 72 347 8 343 360 895 169 14 42 49 148 31 61 177 60 491 25 488 139 576 21 739 50 373 182 965
39 20 3011 586 841 103 883 253 663 475 993 59 996 216 900 104 349 34 507 246 977 300 142 101 606 157 236 34 764 128 97 40 588 221 931 157 140 118 522 427 430 5 711
40 20 4027 69 400 349 97 281 578 201 466 200 192 726 77 212 5 21 136 312 508 723 413 474 851 245 867 121 96 76 639 551 119 17 986 331 612 45 12 7 715 73 727
41 20 2163 82 866 182 510 130 387 286 989 41 466 47 712 1 151 57 865 227 958 32 410 433 444 111 797 213 70 101 847 103 544 151 760 19 919 35 232 256 547 197 890
42 20 3471 191 164 67 790 372 224 211 218 88 114 95 570 393 978 146 560 327 698 591 635 441 185 256 108 55 119 157 838 96 330 228 781 78 641 151 708 17 229 379 17
43 20 3156 43 112 4 356 402 516 285 352 235 861 62 977 12 798 150 6 454 938 115 831 55 527 11 840 410 483 102 684 117 246 386 874 186 21 333 42 216 218 367 99
44 20 4080 3 947 590 324 302 372 108 607 464 733 227 624 224 922 140 461 241 735 349 234 26 212 25 609 338 578 252 258 196 985 504 74 73 445 539 115 400 100 99 155
45 20 3277 415 328 227 492 98 822 97 264 181 755 144 278 67 830 224 854 300 374 233 594 184 460 188 526 199 855 93 713 82 824 83 75 328 493 533 818 68 581 353 143
46 20 4031 481 72 77 76 70 210 203 670 10 596 446 537 165 778 34 40 388 428 424 494 272 845 273 121 240 245 188 449 83 61 297 405 157 862 357 960 250 197 624 725
47 20 3163 41 278 307 898 81 371 400 108 19 434 14 457 461 902 97 723 579 618 113 75 313 997 143 642 14 935 118 823 194 611 194 584 375 310 221 558 70 887 200 384
48 20 2983 307 476 353 732 73 418 187 33 240 425 167 619 194 399 330 229 180 541 60 422 224 617 196 948 201 632 286 708 85 500 334 200 60 987 60 305 175 996 17 853
49 20 4139 192 253 342 768 65 822 174 258 345 664 447 261 264 725 118 919 144 235 43 949 901 837 557 970 200 400 205 507 496 968 33 828 35 184 445 271 98 116 70 680
50 20 3790 138 853 183 916 272 747 201 276 68 49 57 682 31 440 24 213 299 84 171 268 448 930 323 30 62 105 287 342 415 413 463 172 348 951 175 675 705 718 68 22
51 20 2748 543 922 15 994 104 64 17 66 317 243 538 418 144 332 30 309 22 243 20 663 11 927 198 335 26 388 221 477 263 628 43 743 6 187 101 840 689 849 127 783
52 20 3380 145 252 385 412 85 476 368 787 309 811 172 264 253 460 192 673 92 279 196 511 184 522 134 517 17 363 317 678 483 660 19 55 84 452 12 422 356 792 423 999
53 20 2736 273 624 15 706 97 52 328 287 570 766 46 373 360 397 69 771 6 502 36 714 169 682 127 294 18 28 27 793 144 909 152 192 509 149 222 28 5 215 247 151
54 20 3338 131 138 384 803 316 606 679 881 161 119 100 260 283 260 102 876 269 741 56 369 44 998 122 319 375 762 336 714 92 395 90 562 461 643 65 172 30 913 77 704
55 20 3620 312 997 25 527 183 885 240 609 46 847 40 790 236 738 254 198 495 9 36 131 141 434 359 881 476 721 44 568 220 512 238 915 280 930 386 989 451 823 64 514
56 20 3069 212 378 199 44 229 675 8 191 248 305 167 468 414 302 175 815 161 939 63 491 108 64 493 803 161 786 16 425 109 627 359 748 74 170 281 95 6 376 354 876
57 20 3710 92 567 237 861 316 241 255 144 222 864 611 72 269 996 135 754 392 19 559 670 89 995 193 507 219 470 30 576 391 170 130 288 274 738 41 982 117 691 66 413
58 20 2949 27 496 180 328 519 509 51 809 17 473 26 73 294 230 805 436 185 772 47 848 462 394 363 501 7 27 76 446 68 949 26 622 260 429 59 581 42 947 173 799
59 20 3111 54 181 59 44 49 578 126 345 20 241 197 590 24 241 133 81 121 157 289 976 30 822 304 41 334 817 149 573 231 673 346 323 421 309 492 892 225 868 285 474
60 20 3043 298 690 131 863 355 594 160 810 34 19 183 772 99 124 397 4 167 772 270 341 15 541 101 814 26 309 280 983 123 366 75 378 31 103 189 567 789 604 81 408
61 20 3456 107 339 135 454 204 98 516 954 105 27 325 359 281 538 567 744 327 392 325 783 215 514 117 561 62 489 22 326 218 145 323 920 158 30 30 966 246 736 37 246
62 20 2659 532 979 24 734 103 588 8 399 74 261 253 860 167 85 22 408 171 59 173 578 132 526 336 841 29 452 325 202 18 237 276 661 462 867 113 168 67 666 39 219
63 20 3086 4 639 3 563 91 461 238 669 331 13 455 619 295 326 277 72 368 310 93 355 125 611 195 742 65 569 460 839 110 188 414 688 70 817 15 571 200 986 49 595
64 20 3034 174 795 69 583 56 273 233 96 19 773 359 432 441 792 128 513 145 25 15 865 178 250 11 155 476 591 57 925 5 706 268 980 301 480 293 257 166 649 399 484
65 20 2698 198 444 239 162 69 228 167 456 111 237 121 113 589 211 82 647 407 539 60 450 116 573 196 789 7 966 230 955 150 454 240 699 204 182 24 116 96 71 67 543
66 20 3316 29 200 351 324 30 250 40 166 211 28 472 344 271 827 640 482 239 483 24 258 4 114 51 514 139 13 179 827 24 955 286 792 207 150 634 631 109 600 206 83
67 20 3421 271 25 76 412 315 470 3 523 139 969 217 846 478 176 480 520 132 366 176 805 56 739 48 126 431 155 428 285 211 13 2 99 533 912 104 287 57 311 120 19
68 20 3622 65 23 310 800 516 381 578 966 286 660 261 548 457 536 223 131 10 500 188 350 504 964 105 142 61 197 35 4 110 717 14 812 406 384 156 405 227 734 16 252
69 20 3081 99 473 59 850 152 76 391 518 42 238 175 914 100 766 73 108 402 198 159 410 38 215 49 642 722 714 330 143 267 37 140 489 144 601 124 37 385 757 1 981
70 20 3311 79 2 28 787 59 380 4 532 403 958 8 224 382 616 589 68 221 611 299 703 563 495 206 613 110 555 313 357 28 541 72 80 166 604 143 921 306 667 160 930
71 20 3355 64 622 221 67 326 280 30 654 257 430 697 933 14 514 64 957 8 298 430 315 208 472 43 612 505 854 165 122 55 252 3 913 266 221 519 422 159 392 160 917
72 20 2791 443 536 158 996 203 468 19 506 212 644 33 964 197 524 24 854 325 951 270 686 41 487 10 133 65 84 267 829 467 186 146 881 113 528 268 73 66 669 162 478
73 20 3755 39 945 414 444 282 209 464 594 299 168 295 330 19 610 41 689 131 82 335 699 296 89 262 399 277 705 168 718 327 212 262 395 79 732 183 550 20 32 501 817
74 20 3777 187 167 55 241 49 705 491 991 164 649 45 359 565 591 539 573 45 586 75 775 327 558 202 452 301 449 108 447 284 132 673 445 32 21 183 622 195 705 202 259
75 20 2602 226 883 60 99 129 450 190 791 210 241 63 619 528 974 87 614 98 635 61 660 351 349 229 294 115 696 62 404 23 350 152 361 185 166 130 389 93 681 261 327
76 20 2626 148 50 227 791 70 239 6 240 7 183 60 55 341 796 217 278 236 503 429 83 206 570 1 42 5 264 72 127 565 775 32 172 195 310 7 611 156 79 303 541
77 20 4406 633 568 229 714 27 311 250 829 265 774 416 816 289 374 717 153 41 662 263 585 376 400 56 254 451 692 60 877 521 456 173 453 215 568 482 263 29 340 15 667
78 20 3787 289 223 429 104 297 556 150 67 26 56 44 314 431 555 299 995 72 306 84 534 202 63 594 820 230 763 253 570 107 475 389 881 1 573 341 980 120 630 376 170
79 20 3276 236 91 25 705 617 638 128 280 594 754 466 630 136 872 41 480 133 532 55 920 283 959 155 113 2 177 602 200 30 979 78 989 27 847 5 727 232 977 251 348
80 20 2720 32 42 307 188 31 25 331 276 209 734 429 542 128 721 90 24 100 218 73 575 93 147 294 556 241 906 7 705 528 199 239 855 26 695 125 893 40 696 78 518
81 20 2984 236 452 375 355 361 696 129 698 7 473 192 845 247 28 176 990 33 858 109 379 138 901 308 916 173 486 101 93 177 393 280 846 256 225 205 292 46 800 182 677
82 20 3376 10 365 416 660 91 458 731 569 104 791 65 981 267 510 592 122 58 627 321 16 24 191 262 725 49 125 84 713 172 507 191 338 274 829 203 330 76 31 230 250
83 20 2603 65 351 105 957 258 221 101 261 173 808 625 537 10 98 55 789 9 473 336 378 232 307 38 883 38 294 6 267 52 697 150 744 464 30 228 752 104 95 205 499
84 20 3660 152 935 475 80 346 127 58 990 19 656 684 930 461 369 219 425 174 593 149 133 149 520 9 224 67 699 465 612 8 196 43 262 147 555 195 229 490 899 265 64
85 20 3170 272 479 603 781 31 780 518 814 423 862 107 359 124 1000 94 343 458 788 2 607 7 527 10 303 182 730 35 664 394 606 171 883 5 706 197 508 139 605 191 334
86 20 3086 57 20 179 255 155 182 238 39 357 171 141 208 38 547 287 1000 41 626 191 300 28 914 412 547 376 873 196 599 138 950 244 697 163 551 24 792 431 306 162 692
87 20 3148 472 465 370 64 161 699 85 778 236 504 8 350 352 65 108 782 250 657 292 136 47 442 440 774 91 367 444 330 44 617 44 854 22 918 2 233 461 822 7 248
88 20 4633 202 289 343 770 169 671 241 409 126 117 117 965 492 71 123 920 126 976 115 722 287 481 591 472 154 419 300 337 398 754 468 424 322 563 508 277 382 966 328 541
89 20 2579 197 869 99 372 412 876 341 667 152 256 199 647 118 528 54 33 172 710 243 409 124 938 45 213 159 763 39 345 108 572 41 679 87 130 22 185 451 665 161 432
90 20 2131 28 363 252 963 67 697 165 875 130 583 158 842 130 760 17 927 104 683 314 731 289 686 38 599 89 364 285 333 5 144 76 150 215 525 207 571 69 438 26 137
91 20 2188 31 278 211 363 40 403 7 725 90 578 146 480 170 711 133 930 504 589 181 872 210 28 25 453 10 676 91 428 72 647 154 994 187 254 105 282 224 402 145 326
92 20 3374 15 735 103 680 482 152 118 972 211 559 522 106 18 570 24 267 328 763 247 75 98 706 7 924 506 444 17 238 262 920 224 805 218 709 115 139 608 870 95 607
93 20 3152 29 573 149 423 397 204 437 151 282 953 286 836 288 979 145 972 95 803 49 503 76 859 132 474 354 51 297 592 77 228 268 902 349 198 53 80 29 925 149 194
94 20 2304 67 911 344 422 155 56 53 386 159 488 130 632 342 12 82 36 100 902 453 351 325 754 5 843 73 982 214 567 37 393 37 414 16 109 126 797 18 956 145 700
95 20 3039 76 530 274 719 150 150 535 974 194 87 46 493 356 253 107 292 171 390 63 217 388 701 19 162 167 207 65 576 185 870 174 633 461 349 92 689 27 212 249 262
96 20 3629 294 589 375 259 460 400 66 226 331 532 190 227 378 828 98 262 149 917 40 713 105 1 27 4 238 154 90 571 215 161 319 392 119 485 375 456 309 167 359 617
97 20 2909 610 276 400 403 57 426 124 135 177 932 204 541 106 495 248 527 198 197 76 323 87 250 317 59 37 385 46 258 292 4 137 7 137 124 37 477 205 670 142 134
98 20 4159 700 801 453 120 206 950 336 591 267 242 281 638 450 688 83 164 334 18 1 770 75 245 356 484 370 153 3 147 122 896 182 865 90 676 468 683 251 22 171 624
99 20 3143 365 894 238 582 66 162 130 655 113 784 156 265 526 895 177 46 44 384 246 554 689 210 326 948 11 542 45 420 78 584 154 409 108 157 74 828 273 931 110 772
100 20 3466 491 689 178 690 221 475 119 764 238 72 353 790 120 126 111 620 73 925 309 997 32 659 352 968 292 10 21 357 66 252 454 521 29 629 380 173 211 739 283 644
101 20 4999 158 289 387 467 66 204 313 963 185 974 217 376 53 350 642 884 203 804 268 875 4 964 339 427 320 686 411 760 432 786 818 28 760 381 38 31 453 222 182 844
102 20 2918 26 545 352 417 222 323 63 452 203 220 612 918 20 812 29 978 58 965 371 591 103 404 205 390 89 471 26 446 437 277 237 908 205 91 140 660 218 763 32 179
103 20 3197 126 319 166 888 58 527 62 399 471 680 86 829 257 267 257 258 360 803 125 124 430 959 162 234 204 919 93 116 37 115 379 70 256 206 219 452 223 240 26 854
104 20 3016 451 789 39 154 71 329 93 440 124 6 226 23 219 598 57 164 192 524 18 984 210 155 860 337 16 623 31 58 132 17 45 893 175 653 377 680 326 889 109 565
105 20 3475 102 558 122 55 177 117 79 125 120 125 496 1 539 578 317 324 218 130 97 125 111 496 476 955 28 516 276 115 342 121 58 766 245 902 257 167 103 353 181 475
106 20 2209 204 77 183 826 64 394 173 58 216 853 69 37 34 797 238 11 39 457 37 408 126 103 80 189 153 632 146 485 1 534 463 868 80 766 129 678 61 708 266 160
107 20 3905 130 760 15 1000 578 238 423 817 105 703 98 968 87 592 224 798 187 494 299 375 623 384 368 915 224 948 344 859 102 247 4 778 194 373 392 494 347 356 138 770
108 20 2767 433 372 283 785 73 611 16 672 76 917 356 171 395 453 64 255 33 624 79 377 117 770 156 209 21 8 27 316 198 272 210 250 62 487 212 57 67 654 581 811
109 20 3386 258 565 310 401 163 607 27 956 230 533 80 983 495 819 174 673 416 200 456 126 190 152 11 94 316 124 329 882 14 570 165 633 251 643 27 839 142 637 179 957
110 20 3316 334 279 93 811 22 135 453 82 98 318 205 779 561 857 150 747 233 5 58 579 85 710 341 843 9 647 332 718 367 749 322 226 76 749 22 388 195 927 189 768
111 20 3372 97 846 231 490 89 585 209 232 118 969 305 849 78 983 34 454 99 275 28 238 361 603 230 190 231 938 147 980 540 819 147 765 562 96 152 615 231 542 327 164
112 20 2689 69 256 87 622 62 590 10 792 54 917 107 143 226 16 32 723 361 896 102 875 464 2 224 366 39 590 208 725 312 670 39 151 71 952 91 944 455 327 349 981
113 20 4032 108 84 83 100 391 848 239 461 554 625 48 782 153 747 249 916 314 413 291 306 214 290 103 238 335 162 362 272 7 435 444 420 761 846 223 978 129 691 33 979
114 20 3344 81 445 58 653 130 345 153 883 494 120 270 229 30 731 283 773 24 3 231 244 265 502 808 239 5 732 197 657 364 381 210 628 44 731 109 499 16 539 408 577
115 20 3361 442 389 511 784 16 645 235 722 90 914 24 665 474 374 262 383 240 487 240 699 144 562 7 760 71 213 13 632 243 705 99 98 131 841 37 453 597 768 326 733
116 20 3220 240 209 9 95 429 171 4 622 444 190 41 1 154 659 392 737 299 394 30 977 299 65 129 455 182 621 105 399 191 623 104 521 228 537 258 461 70 897 418 302
117 20 4100 337 750 279 133 72 33 607 807 217 895 412 290 46 896 192 44 125 818 47 230 210 273 546 783 189 100 216 936 151 775 331 95 65 117 121 102 350 455 613 970
118 20 3673 3 692 391 281 55 339 196 762 289 567 461 768 267 425 435 527 102 320 86 108 173 186 283 885 280 977 57 379 184 573 405 383 139 607 198 320 294 412 294 835
119 20 2524 75 144 123 802 5 942 51 581 188 595 18 621 128 273 217 555 127 244 33 915 433 291 92 416 27 116 273 280 558 306 55 786 62 222 341 935 344 237 5 652
120 20 3264 166 61 597 971 25 801 39 642 408 531 187 40 76 371 119 406 69 99 12 624 626 911 232 841 303 513 16 126 339 974 122 325 278 58 2 903 433 712 31 157
121 20 3052 224 474 117 440 118 712 230 703 129 153 26 910 97 561 328 243 498 562 257 810 226 92 62 189 44 311 131 947 50 875 13 393 224 536 301 938 446 795 294 85
122 20 2314 96 493 175 688 6 864 63 863 530 782 542 164 54 641 87 608 126 448 233 889 19 874 212 594 150 514 17 402 30 665 405 986 107 437 16 150 4 575 21 208
123 20 2808 182 93 405 62 28 910 10 422 121 962 300 347 220 109 193 272 34 736 326 202 2 50 368 527 101 718 155 719 91 742 27 948 25 102 85 132 230 81 608 408
124 20 3022 172 862 400 806 366 446 165 321 76 528 68 457 107 761 8 64 10 833 102 20 67 954 518 378 275 215 2 338 438 158 82 34 231 545 10 989 55 89 626 127
125 20 4319 2 291 90 858 104 432 399 29 335 189 275 726 362 982 175 13 493 457 276 96 321 548 165 877 451 622 107 18 152 296 92 152 351 477 422 875 480 406 347 7
126 20 3064 436 209 240 397 62 891 63 936 602 635 47 572 67 478 230 767 469 142 67 953 93 250 255 913 434 191 175 684 86 418 28 575 248 456 112 609 67 337 50 803
127 20 2408 5 597 39 233 300 412 21 185 26 212 231 54 139 260 279 937 59 602 47 33 259 249 313 187 433 264 5 512 335 397 78 218 30 837 22 206 15 395 374 33
128 20 3948 358 515 75 296 248 576 252 146 299 811 216 707 225 818 431 329 769 113 31 794 406 144 183 785 126 769 339 139 381 982 35 50 13 950 484 459 23 502 42 536
129 20 2844 11 133 327 100 583 918 161 581 151 534 90 251 130 233 140 96 457 727 142 898 91 604 147 392 250 310 7 429 64 46 14 991 127 57 367 931 270 754 26 104
130 20 3128 215 21 61 622 108 229 129 294 99 93 73 308 449 177 90 413 178 547 144 465 314 744 446 495 190 932 338 974 217 257 78 853 88 288 13 516 656 535 24 65
131 20 3264 116 503 222 577 175 507 70 273 59 624 434 150 374 888 99 96 181 846 308 22 487 792 21 432 382 215 162 414 78 978 168 623 134 976 88 758 307 182 216 301
132 20 2795 68 648 119 909 191 109 36 416 202 241 171 244 385 954 278 312 20 808 188 38 356 221 54 937 224 565 219 824 131 602 68 907 371 815 236 613 149 910 28 730
133 20 3682 34 927 86 345 150 98 233 391 422 841 41 95 159 843 376 498 12 764 132 302 13 371 212 604 387 590 279 274 405 571 446 421 164 560 502 393 527 612 23 976
134 20 3510 208 366 21 967 138 855 73 598 97 786 71 879 70 49 52 54 230 420 110 318 83 662 90 859 331 537 630 253 465 298 717 85 352 108 376 18 238 864 36 14
135 20 3220 20 331 380 65 14 320 9 553 90 957 192 375 508 384 261 199 344 226 42 349 76 377 93 381 267 343 152 571 3 441 220 891 713 313 282 83 351 354 8 85
136 20 2899 256 733 29 38 113 459 110 17 92 372 259 397 424 448 169 576 87 319 32 749 214 574 44 93 136 622 331 210 374 650 61 623 386 560 475 109 16 305 16 974
137 20 3032 187 684 330 2 156 295 250 675 145 239 185 207 250 832 84 797 100 273 49 333 144 228 280 683 139 531 77 712 5 902 451 381 123 867 440 251 26 429 370 762
138 20 3432 83 681 171 187 139 155 121 980 518 814 182 637 31 130 5 982 64 194 129 294 386 452 373 602 103 352 223 959 369 223 86 557 172 353 612 589 236 758 287 943
139 20 4163 474 946 549 956 61 235 491 670 395 362 116 925 275 118 59 676 99 419 382 447 29 456 239 145 159 155 256 380 346 6 756 325 271 166 128 334 92 728 27 185
140 20 3237 114 671 417 790 219 683 251 932 57 911 94 149 73 91 493 274 377 715 201 626 260 523 160 170 100 164 112 137 89 177 499 308 12 483 184 266 230 679 105 609
141 20 2254 14 182 75 252 37 174 237 853 98 148 91 912 58 573 317 30 16 1000 86 157 313 593 73 94 5 761 184 822 153 945 103 539 73 692 283 829 190 54 412 454
142 20 2636 79 26 130 18 226 175 152 169 1 265 21 17 376 402 128 146 146 21 17 618 151 160 65 893 114 584 311 125 221 308 139 536 546 19 158 858 97 141 217 566
143 20 3326 180 188 319 142 15 710 130 196 267 19 5 388 67 731 468 988 1 132 622 601 351 382 34 672 171 520 16 76 70 222 85 318 193 908 564 353 476 877 124 598
144 20 3654 313 739 158 324 3 578 53 849 357 888 384 176 645 44 327 763 73 90 265 819 168 291 516 294 101 865 117 537 53 379 165 687 265 337 138 72 426 677 41 582
145 20 2791 111 886 278 318 492 247 274 135 321 778 413 560 103 859 163 304 58 561 122 476 61 912 71 697 124 937 124 345 80 727 348 21 53 90 48 588 193 654 52 298
146 20 2766 409 942 261 347 51 532 108 553 46 49 184 684 159 348 220 43 548 579 133 226 124 795 13 943 192 247 186 915 218 528 159 866 216 144 71 863 63 879 97 639
147 20 2800 244 727 79 320 60 132 24 934 267 31 307 306 207 270 149 999 193 429 39 955 198 784 3 220 99 926 472 390 60 405 320 50 58 136 418 537 24 587 279 992
148 20 2996 121 182 297 179 295 62 185 374 317 136 129 500 297 500 332 140 83 326 10 108 196 58 55 184 19 898 277 657 15 121 336 362 178 231 420 544 15 205 168 917
149 20 4296 81 849 85 233 601 360 537 70 362 645 153 115 638 271 57 738 70 880 467 754 493 894 170 846 375 678 98 382 439 528 218 94 148 987 178 570 128 228 72 893
150 20 3844 131 385 209 634 127 38 173 232 145 629 249 803 3 614 168 315 415 169 255 349 229 295 396 102 373 58 276 338 256 335 165 829 252 465 422 153 381 142 180 325
151 20 2881 125 394 251 784 19 820 92 863 13 357 13 612 63 930 11 396 547 384 249 110 330 924 379 52 177 686 15 89 202 859 252 625 272 735 157 475 306 376 129 504
152 20 2960 85 308 566 513 19 791 413 177 141 108 74 660 33 599 37 767 227 545 4 454 538 271 246 973 163 575 227 218 180 500 188 449 288 993 34 953 84 617 154 703
153 20 2664 328 604 22 148 100 731 312 3 122 857 67 519 355 377 226 366 79 17 237 627 42 871 195 934 42 650 73 893 122 24 311 7 220 995 5 944 419 320 54 71
154 20 4349 272 677 221 125 291 552 524 725 159 886 87 948 296 909 498 4 2 168 110 857 49 807 470 428 1 304 630 552 442 821 50 680 107 905 551 593 589 432 88 541
155 20 2984 43 242 794 326 66 368 147 903 3 402 13 386 7 404 224 474 45 725 70 191 320 384 29 341 449 890 185 226 102 833 163 319 219 622 36 538 383 224 432 334
156 20 3049 8 832 7 925 122 34 98 34 290 137 245 6 366 547 283 150 87 935 117 710 31 685 482 927 712 696 68 989 207 321 186 630 109 584 106 339 181 666 107 622
157 20 3079 368 655 85 563 459 97 407 917 42 579 135 591 242 609 413 253 35 190 233 5 289 496 28 953 62 818 127 845 265 544 45 521 187 12 191 223 222 771 14 956
158 20 3154 67 423 187 284 241 662 98 804 323 777 28 197 110 949 320 377 602 946 115 650 53 117 89 984 160 372 111 196 104 322 159 320 77 731 505 129 525 440 69 144
159 20 4152 373 848 17 57 291 366 362 136 34 148 419 987 36 769 383 717 52 546 294 633 14 118 214 127 336 934 155 759 464 952 113 589 38 298 307 387 840 186 448 477
160 20 2764 288 402 40 234 118 690 143 750 97 546 276 129 627 583 406 691 137 739 104 211 45 290 204 877 239 84 69 181 233 890 3 567 36 689 156 390 226 203 8 384
161 20 3086 86 466 114 856 62 208 235 833 201 823 497 276 75 346 520 41 194 543 415 108 164 678 7 484 374 427 91 588 167 318 113 511 354 7 3 876 156 573 30 379
162 20 3121 336 567 200 45 110 71 187 759 143 894 144 115 121 181 350 906 249 513 192 862 362 859 31 508 133 70 142 919 246 497 319 804 57 866 148 565 313 930 119 737
163 20 4103 282 225 329 593 545 600 76 379 490 574 71 329 368 49 173 946 227 827 142 8 293 246 380 609 123 376 186 2 311 928 221 291 301 693 411 939 13 812 187 887
164 20 3874 82 561 111 152 256 383 4 638 768 295 181 144 49 454 39 298 124 84 159 661 311 378 131 853 38 542 629 398 631 819 22 860 297 151 556 855 365 160 90 652
165 20 3050 335 17 135 338 98 668 101 119 40 964 279 230 176 634 609 854 135 655 56 319 137 816 129 867 52 247 316 118 152 851 156 105 244 689 163 741 439 307 61 438
166 20 4156 18 998 113 917 791 386 77 417 17 916 279 14 756 182 453 497 343 75 208 791 173 235 16 945 107 513 5 990 210 100 169 195 430 440 441 49 57 509 532 817
167 20 3352 44 606 305 160 562 169 215 810 41 19 363 450 91 707 140 179 12 986 265 237 486 630 20 546 269 471 159 345 80 586 186 669 22 634 576 811 87 95 268 619
168 20 3015 61 619 289 200 27 526 506 729 176 537 152 697 75 406 327 567 67 778 105 529 8 754 221 971 286 645 425 137 264 251 18 387 357 251 25 189 273 596 107 594
169 20 3083 148 128 92 538 108 162 215 593 101 644 198 931 678 254 208 651 150 160 162 165 60 474 380 27 11 556 146 874 88 77 177 425 617 133 50 700 33 990 232 762
170 20 2971 136 691 343 83 289 273 544 211 138 243 270 51 38 880 10 982 152 490 276 876 187 632 47 445 117 396 48 852 489 581 266 428 50 595 181 693 101 622 32 774
171 20 3102 183 699 198 958 84 124 29 317 11 268 607 860 450 86 29 810 166 207 128 635 424 931 377 45 526 269 273 306 16 864 99 844 65 703 20 387 61 50 132 810
172 20 2236 84 33 35 987 42 405 152 242 459 310 7 621 248 428 367 918 255 916 23 43 245 956 68 291 18 99 146 214 41 814 169 410 92 353 45 225 220 673 80 22
173 20 3698 486 140 154 972 280 631 65 248 188 338 257 22 407 957 513 270 324 996 235 466 143 315 75 114 102 58 576 152 268 897 232 499 9 938 26 236 101 823 182 408
174 20 2456 322 950 124 55 136 966 107 444 42 822 24 2 230 299 347 390 62 63 499 841 7 375 87 497 13 216 10 922 229 593 242 353 112 126 369 472 57 70 51 786
175 20 2161 167 586 222 583 24 671 71 493 11 586 457 788 192 337 246 711 22 838 43 463 56 240 149 614 179 268 30 531 10 155 109 241 74 210 513 286 25 825 102 500
176 20 2861 117 303 161 181 98 764 116 616 88 560 113 890 111 200 423 982 27 288 300 985 8 979 136 972 500 62 40 651 249 730 95 130 188 872 88 88 239 184 480 2
177 20 3361 504 521 171 906 137 148 267 93 30 619 170 360 42 6 316 484 93 144 62 735 187 842 206 770 251 385 696 191 429 817 10 921 138 296 265 471 153 615 75 14
178 20 3051 269 609 189 735 86 918 56 663 242 79 123 95 154 737 430 705 440 816 252 469 351 888 7 585 214 733 167 698 148 370 247 924 163 513 37 731 121 660 118 509
179 20 3274 78 560 172 187 63 397 213 579 155 636 517 619 116 800 27 646 145 612 226 202 6 294 342 813 540 977 84 268 81 803 480 547 91 552 168 24 192 357 397 153
180 20 2581 294 529 353 479 112 383 348 642 42 227 77 4 237 431 147 241 124 506 59 194 166 186 144 252 67 752 11 213 401 307 64 611 100 589 101 964 131 596 249 414
181 20 2624 394 515 36 479 146 856 82 646 87 716 29 26 248 227 340 613 479 836 5 77 244 607 5 358 290 225 130 557 38 934 83 413 480 23 42 629 117 475 5 964
182 20 2956 176 649 170 648 248 383 152 708 260 307 27 297 151 93 242 828 227 562 249 754 50 745 389 433 82 453 214 198 96 277 253 198 206 323 317 458 48 305 139 979
183 20 3528 215 638 366 232 76 239 300 118 91 127 108 39 337 653 295 496 113 519 264 388 202 18 12 742 238 344 156 171 154 490 537 204 246 1 181 101 55 544 465 742
184 20 3042 107 158 172 23 64 856 343 849 631 308 230 879 219 842 237 374 148 17 57 698 4 766 362 734 20 735 382 73 450 152 5 270 3 535 1 543 196 947 172 700
185 20 3858 356 449 15 702 318 63 72 37 57 46 25 460 816 931 628 48 122 595 26 361 374 135 44 456 121 85 626 305 167 503 581 998 26 287 37 333 388 307 24 363
186 20 2402 18 684 178 2 125 981 109 639 147 385 101 478 172 517 139 668 432 767 257 870 35 454 109 595 127 757 78 856 114 124 150 140 130 730 36 787 47 957 499 942
187 20 2994 295 539 341 976 205 348 234 317 60 158 51 368 326 103 291 955 382 687 244 504 211 2 346 377 102 67 99 468 75 16 56 621 82 13 16 611 287 558 40 886
188 20 2528 572 180 291 892 127 888 62 735 444 931 76 438 124 281 5 521 341 468 51 96 101 369 23 573 90 124 316 250 187 103 51 369 78 317 83 206 126 34 12 815
189 20 2326 103 900 42 715 87 794 74 357 118 999 48 583 432 464 404 31 22 736 15 469 26 814 284 12 146 639 112 738 74 215 65 349 391 734 81 817 247 712 137 879
190 20 2896 43 758 37 599 152 568 74 782 120 331 60 207 192 872 58 259 37 506 80 664 466 183 104 691 252 616 82 485 82 351 589 783 119 348 244 260 453 75 377 313
191 20 2368 28 854 468 571 240 422 11 321 118 134 195 864 118 196 54 779 51 14 1 984 64 269 96 414 102 226 117 691 439 39 74 486 158 312 115 208 285 532 227 811
192 20 2838 168 868 147 113 284 887 18 218 199 290 79 570 454 949 492 671 117 690 325 474 114 549 37 943 22 543 305 861 85 524 14 390 80 210 90 603 123 123 395 16
193 20 3293 160 951 350 418 273 567 443 590 87 461 658 34 68 925 184 43 23 63 163 168 322 830 78 943 71 958 132 21 248 405 163 428 127 707 249 924 45 701 273 465
194 20 2457 107 113 110 714 424 770 2 144 247 780 305 194 69 885 35 857 35 770 29 37 277 427 96 329 442 220 237 912 59 606 337 706 98 135 56 789 22 167 85 759
195 20 3420 244 358 53 622 344 119 533 330 236 341 260 777 287 707 49 371 65 487 162 992 112 63 184 849 36 735 114 92 395 478 169 778 581 827 287 728 123 265 42 606
196 20 2816 166 531 390 387 41 63 151 126 47 180 32 993 255 27 150 963 606 254 55 126 348 13 10 189 78 335 290 358 194 95 269 542 84 372 223 764 38 365 93 994
197 20 4581 268 136 134 137 534 1 12 598 11 461 573 105 210 281 228 789 105 884 94 592 182 312 519 471 546 479 322 759 11 589 91 682 458 876 329 457 556 198 544 677
198 20 3502 107 893 16 847 177 806 291 259 29 227 218 276 453 574 320 591 192 419 102 40 401 295 330 644 238 534 238 965 299 561 149 159 143 625 261 459 48 543 366 218
199 20 3515 210 572 38 197 480 417 153 111 104 149 349 363 390 825 101 280 475 219 38 695 26 947 489 257 4 392 598 169 346 630 214 315 10 958 19 161 329 46 21 266
200 20 4482 259 539 79 36 284 325 409 963 51 14 51 961 340 442 370 877 43 512 56 176 294 139 101 376 530 779 70 704 818 89 27 361 693 818 186 150 392 800 550 826
201 20 2350 120 947 145 90 247 299 25 574 142 919 47 462 83 394 8 134 109 870 502 539 61 108 16 803 317 903 376 11 97 610 224 673 34 68 8 91 284 720 93 485
202 20 3366 17 852 384 75 267 53 226 531 119 917 346 303 140 80 470 74 2 965 311 246 420 166 200 634 224 216 215 459 205 850 218 463 93 714 129 714 67 842 155 722
203 20 2302 246 372 16 470 82 393 16 56 54 386 95 380 173 538 271 440 151 214 164 75 141 990 46 957 62 939 1 334 101 82 7 685 398 689 743 311 66 666 45 360
204 20 2324 181 56 281 401 69 987 133 518 171 957 149 101 115 129 165 409 128 235 102 881 309 889 36 227 149 225 94 783 286 554 191 627 35 565 107 156 163 364 42 180
205 20 4656 232 962 372 267 458 867 516 912 355 745 487 500 83 803 417 849 316 235 134 172 517 139 506 985 72 48 376 471 61 836 118 289 207 28 145 122 413 251 36 232
206 20 4024 120 575 431 741 74 364 401 150 424 723 396 874 449 254 63 434 351 76 296 425 21 184 53 954 371 62 113 641 354 512 194 302 149 747 134 462 310 209 326 715
207 20 2463 70 433 10 314 31 886 155 850 439 340 128 967 150 108 159 487 580 941 33 502 101 614 225 389 8 380 65 64 79 261 418 659 72 405 57 772 245 960 54 890
208 20 3290 484 256 317 194 455 437 179 231 294 621 74 865 290 553 277 751 192 980 99 301 108 978 39 521 139 91 260 48 4 85 293 732 179 360 62 300 94 718 274 432
209 20 2867 23 662 357 440 32 756 96 484 110 377 483 963 185 703 181 767 494 964 283 270 139 406 77 27 89 673 46 118 22 93 177 907 321 989 127 16 145 661 197 355
210 20 3162 209 379 157 1000 138 757 208 710 1 391 74 236 199 420 302 411 97 185 237 556 91 966 205 373 429 685 489 218 52 147 425 910 108 510 214 122 23 781 295 180
211 20 3793 72 819 199 916 248 146 197 32 227 789 187 870 123 71 585 689 263 954 299 886 186 260 585 479 38 512 3 129 333 958 53 993 288 492 295 41 273 77 288 262
212 20 4394 329 79 263 14 45 595 286 834 300 528 318 736 243 828 351 523 221 663 200 807 258 719 244 454 587 964 239 327 25 53 370 648 281 362 80 42 182 849 671 70
213 20 2385 32 522 132 572 162 644 24 784 172 437 498 36 52 884 172 420 8 427 37 174 5 637 561 707 246 482 159 38 85 383 64 390 209 521 142 562 100 372 122 92
214 20 3231 11 627 463 970 50 436 33 550 378 283 172 718 86 874 124 682 464 91 309 741 324 956 356 812 163 657 125 1000 90 592 379 804 136 856 28 777 225 36 123 948
215 20 3689 15 246 357 580 49 408 180 791 27 147 29 395 490 29 17 319 81 22 61 60 760 703 546 237 206 113 650 659 25 908 55 952 502 617 302 890 194 824 66 191
216 20 3628 330 599 207 223 470 814 221 589 243 478 291 135 23 556 25 742 9 938 273 772 357 905 110 883 66 230 269 605 345 908 20 96 361 947 688 311 103 303 125 940
217 20 3670 235 367 268 841 222 452 260 342 218 786 10 942 432 131 290 469 177 381 130 240 56 71 241 63 583 407 403 957 79 295 305 745 309 56 178 1 84 133 108 91
218 20 3864 451 344 184 74 17 469 298 78 165 329 19 305 508 589 131 744 303 130 591 379 169 231 35 477 304 721 354 671 148 840 374 35 14 822 94 92 129 761 543 132
219 20 2647 30 741 345 782 16 219 14 267 153 364 411 785 269 147 111 53 294 814 215 532 315 319 200 199 129 614 395 581 46 296 66 528 182 200 21 546 16 822 81 457
220 20 3651 13 198 10 990 139 836 158 24 699 908 356 825 70 58 301 444 13 429 298 975 342 684 96 246 299 581 306 30 412 876 82 899 280 973 232 341 26 19 432 109
221 20 3127 327 717 167 117 117 662 43 442 55 891 97 318 65 811 141 967 516 45 184 361 90 240 145 27 585 411 158 809 70 257 533 453 141 524 223 857 219 822 33 3
222 20 3049 40 244 208 46 225 996 379 838 79 249 50 478 42 365 119 307 341 413 249 164 286 662 595 554 89 715 30 914 156 724 269 790 17 612 41 618 15 288 582 678
223 20 2728 238 19 112 647 175 94 64 880 31 841 164 674 93 974 119 100 55 900 433 546 183 701 257 642 158 964 400 649 259 401 129 112 239 134 46 535 137 604 119 686
224 20 3170 43 659 54 271 73 1000 165 86 84 701 82 256 131 947 28 856 617 83 333 711 47 708 51 549 327 474 296 316 241 458 284 728 515 360 185 741 50 753 357 322
225 20 2812 25 918 270 735 16 18 180 152 260 327 35 19 374 982 20 945 9 850 142 131 111 177 70 750 120 123 179 544 493 970 465 135 144 725 106 511 445 305 51 98
226 20 4480 356 627 325 825 585 767 478 9 339 341 487 165 633 309 154 490 7 243 325 583 128 99 175 389 168 533 159 720 343 705 95 432 46 729 295 767 347 114 156 372
227 20 3851 316 667 335 50 62 675 252 116 218 83 233 594 28 969 246 958 25 742 446 793 173 204 693 191 2 820 167 784 498 957 420 447 419 507 75 61 151 136 55 838
228 20 3798 58 465 144 377 657 702 31 262 241 163 42 248 168 761 25 648 5 934 457 21 360 252 470 8 70 687 6 244 531 570 64 643 767 216 216 470 232 32 204 818
229 20 3182 133 175 211 124 250 760 172 194 344 696 117 290 337 292 117 813 25 230 37 810 254 728 310 867 11 295 116 735 285 305 215 398 377 762 428 550 95 819 144 959
230 20 2295 216 283 155 953 170 823 86 960 26 861 512 464 169 417 16 497 109 316 108 239 45 814 254 934 41 158 189 88 9 949 150 268 138 840 239 457 9 209 228 370
231 20 2672 243 227 23 776 172 936 112 55 276 805 99 838 520 945 109 199 15 284 45 8 17 881 109 561 108 250 359 366 51 498 134 926 214 759 55 824 349 395 330 760
232 20 3387 53 820 251 209 432 252 895 542 570 337 66 504 17 968 31 43 218 868 450 458 70 349 75 946 86 840 94 439 79 943 21 962 145 55 361 828 204 81 116 768
233 20 3186 368 373 244 646 73 445 87 50 200 17 134 44 351 441 107 723 140 158 9 54 534 921 129 670 321 795 70 713 4 15 118 887 284 912 246 159 377 250 187 882
234 20 2687 2 872 87 36 38 582 715 181 195 81 8 913 298 350 42 41 362 183 128 872 151 948 138 112 42 210 78 606 75 121 215 663 82 692 62 182 542 721 99 983
235 20 3380 278 312 620 349 116 136 276 380 42 824 321 737 187 104 87 13 29 412 21 80 54 240 35 547 130 402 96 792 161 723 116 735 374 339 321 689 684 250 277 716
236 20 2242 30 267 27 241 754 747 105 443 92 750 9 256 194 580 108 570 91 950 339 282 35 321 214 132 38 161 200 603 92 6 167 335 157 979 21 351 49 975 81 950
237 20 2851 199 549 209 471 204 283 265 255 261 511 112 803 111 225 178 300 80 122 329 601 35 544 254 728 231 732 332 608 84 974 98 473 266 570 122 263 119 471 75 844
238 20 2681 76 853 146 423 33 897 622 701 68 439 46 903 10 116 190 852 73 561 432 417 160 843 402 266 34 700 122 767 136 878 350 417 135 326 243 644 6 667 68 510
239 20 3344 96 179 296 558 335 578 176 145 337 774 219 726 257 804 7 763 511 320 308 395 117 218 84 293 324 608 180 4 199 651 35 5 420 194 161 500 97 282 22 245
240 20 2744 168 222 6 902 5 816 291 575 242 866 446 978 17 863 101 746 152 678 129 295 144 463 1 471 173 949 17 705 37 514 190 244 523 703 423 370 80 427 285 106
241 20 2865 207 729 57 427 181 233 25 576 46 499 41 739 50 73 295 504 153 753 242 483 61 144 51 927 113 61 395 469 247 977 83 411 604 622 128 864 78 767 525 446
242 20 3829 476 641 222 832 299 341 47 474 34 738 34 599 257 309 501 272 467 41 301 235 105 852 321 905 415 80 7 711 128 872 27 475 166 891 371 569 455 308 154 434
243 20 3826 152 355 300 726 139 777 49 161 149 499 72 977 270 402 173 283 146 925 288 726 400 193 592 748 35 695 193 547 325 630 170 41 260 486 347 594 611 830 112 351
244 20 3056 34 974 244 955 84 731 376 370 551 234 20 659 533 877 32 791 308 195 254 744 76 821 75 11 72 58 102 206 115 393 174 352 396 879 127 368 210 619 37 233
245 20 4269 210 577 154 596 116 540 84 581 255 957 91 133 88 850 50 719 291 163 45 607 121 480 685 295 452 511 419 154 322 938 321 222 26 15 96 534 784 786 727 950
246 20 3085 114 70 167 753 76 968 12 151 439 237 278 779 160 496 189 891 432 943 732 908 205 598 45 905 96 276 113 777 100 599 7 229 67 268 78 540 503 177 44 587
247 20 2283 7 706 22 98 113 490 91 432 286 547 141 500 7 43 260 973 211 608 271 971 334 843 121 724 24 654 58 781 291 896 19 816 25 134 99 333 268 613 206 56
248 20 3142 342 479 58 678 215 403 162 242 43 545 30 23 365 587 307 841 2 420 111 85 709 360 305 667 379 568 84 812 85 233 110 674 168 497 245 803 47 370 161 337
249 20 3220 115 388 237 687 23 106 15 607 188 430 149 615 509 41 185 333 196 183 234 253 391 622 227 459 141 908 78 28 69 648 188 289 143 143 172 643 484 533 282 251
250 20 3716 1 784 22 277 310 73 293 223 314 627 29 924 138 402 293 429 122 705 461 285 83 771 401 855 126 670 53 945 98 216 79 989 528 38 169 21 588 836 538 955
251 20 2912 168 704 337 337 351 403 272 999 122 625 148 699 162 377 89 147 296 412 388 803 61 315 82 948 105 230 86 685 97 516 141 101 181 711 320 16 1 303 234 491
252 20 3309 496 509 203 609 122 349 114 692 110 643 88 742 31 463 361 851 357 739 276 653 166 344 313 905 240 430 91 56 390 136 190 755 196 838 223 284 159 799 11 136
253 20 2675 60 342 115 537 451 361 75 667 48 366 298 558 24 57 235 395 244 982 386 128 25 886 58 171 170 995 47 917 82 141 113 111 253 404 30 362 465 159 165 373
254 20 2497 69 754 426 975 220 158 293 448 167 827 77 517 65 600 23 85 304 504 159 868 313 743 41 865 147 758 103 148 26 632 181 496 350 649 1 244 57 365 100 843
255 20 3995 410 55 572 860 53 391 172 536 162 86 226 633 14 10 296 822 52 299 152 708 498 887 134 929 14 150 277 332 243 49 318 542 186 144 396 993 474 616 345 788
256 20 1936 1 129 92 21 206 142 178 993 140 534 51 334 256 102 100 540 242 851 182 891 249 211 6 988 6 38 126 341 21 448 52 365 46 888 209 693 229 878 29 411
257 20 3020 19 79 199 890 229 460 39 344 439 655 73 25 250 449 125 52 492 731 187 101 345 982 14 257 67 182 71 532 43 118 256 300 296 107 369 1000 194 248 69 229
258 20 2444 464 450 237 720 12 876 44 237 273 490 117 646 1 804 260 749 39 651 77 476 14 424 359 832 152 604 59 620 637 795 57 532 6 144 15 752 140 919 93 353
259 20 3920 763 779 697 266 151 218 64 304 126 922 37 195 34 176 239 830 57 79 122 788 81 4 173 926 171 1 313 311 84 375 638 574 304 61 29 588 409 58 408 594
260 20 3410 577 579 355 919 77 343 322 465 66 988 232 53 82 969 231 505 122 66 393 641 293 86 12 698 474 625 41 97 191 63 18 606 8 880 246 137 212 157 311 337
261 20 2860 27 254 126 228 44 986 276 580 17 983 351 91 35 341 104 192 275 873 246 124 35 80 80 619 364 322 274 657 47 831 304 183 77 357 133 339 264 885 496 46
262 20 3902 242 579 430 921 85 765 4 142 370 286 307 602 409 883 503 683 194 644 17 660 450 230 120 209 276 357 93 506 311 959 124 505 142 5 142 917 252 282 407 941
263 20 3306 402 567 139 221 282 534 305 444 318 84 135 254 298 14 207 794 21 343 44 540 299 710 353 544 398 466 211 112 239 794 280 282 37 455 121 305 5 958 39 324
264 20 2852 11 205 299 94 395 946 140 832 3 846 273 150 215 135 89 636 103 873 37 164 389 85 5 537 92 629 19 94 598 516 280 345 162 961 196 571 166 914 94 520
265 20 2370 14 296 51 540 262 701 271 220 33 323 171 277 43 751 241 15 17 137 62 504 164 205 298 122 19 332 122 77 220 875 133 536 540 422 93 423 58 629 151 970
266 20 3707 392 559 91 380 143 819 55 590 83 970 78 207 76 386 48 339 76 558 416 889 557 915 383 777 43 995 684 42 57 544 192 15 402 253 224 204 331 433 303 963
267 20 2438 22 799 67 641 79 512 42 526 30 799 280 289 144 127 98 547 96 271 167 162 553 224 323 537 242 29 3 108 64 782 193 244 21 801 229 99 25 968 370 704
268 20 3535 113 738 102 606 186 568 263 139 40 916 538 390 631 719 29 858 228 890 188 907 134 148 119 301 264 917 710 425 57 15 253 42 64 348 67 813 53 752 380 726
269 20 2915 73 322 149 237 418 262 35 595 124 243 75 145 9 822 283 845 141 462 450 783 371 822 29 764 39 58 254 358 127 183 524 631 43 202 257 238 29 672 214 730
270 20 4164 195 46 113 582 532 106 33 723 40 830 321 9 92 268 535 160 68 473 577 437 30 326 240 456 122 342 151 185 418 183 641 430 170 820 200 387 548 920 180 498
271 20 2840 226 269 28 433 54 876 213 618 412 855 12 825 207 466 154 422 151 209 232 323 118 32 463 712 89 949 57 231 95 12 735 171 87 805 36 949 87 607 95 791
272 20 2826 77 362 311 252 19 191 110 419 109 19 12 830 260 296 289 929 336 482 97 653 225 567 123 443 190 94 22 848 14 914 389 318 349 248 208 767 324 657 69 740
273 20 2307 183 300 40 839 82 524 76 281 462 154 150 61 29 675 285 239 93 751 322 178 61 745 99 489 1 574 103 349 189 277 73 733 5 124 132 647 309 90 190 507
274 20 3032 6 299 453 321 329 300 270 61 143 48 299 747 48 763 25 44 414 619 368 357 225 349 224 45 198 101 102 345 78 455 123 620 103 891 7 571 85 690 290 463
275 20 3357 434 971 4 434 64 122 63 44 226 861 6 148 82 124 405 190 39 591 465 990 35 44 460 547 44 221 76 368 68 690 376 879 265 851 158 51 578 38 349 712
276 20 3099 48 897 377 389 271 414 156 649 222 120 263 809 373 369 53 687 119 716 3 45 323 550 40 952 304 325 271 313 519 100 132 624 215 526 60 123 13 865 112 34
277 20 3281 40 978 8 125 12 46 280 361 101 215 395 532 414 646 1 810 217 93 404 902 83 661 285 189 5 204 689 645 202 356 447 956 76 506 40 672 376 832 27 252
278 20 2608 55 959 700 140 4 317 139 448 271 832 144 39 301 614 78 763 167 570 27 33 134 565 136 362 30 132 288 452 168 633 113 954 111 131 153 490 150 733 92 283
279 20 2518 124 226 126 19 148 442 275 760 56 861 133 92 24 584 360 23 137 203 153 167 183 362 90 183 166 48 428 761 19 330 59 219 197 865 175 482 225 422 70 847
280 20 3748 176 230 113 9 107 762 50 358 380 669 255 207 57 341 114 844 569 9 268 903 541 585 212 657 417 253 124 868 333 237 515 983 172 217 16 638 26 253 241 773
281 20 3099 53 367 331 703 207 714 313 156 15 111 30 919 529 289 174 45 116 820 206 213 149 358 225 695 91 155 164 698 130 787 135 363 174 959 463 593 62 646 307 30
282 20 3129 298 814 158 535 392 614 96 296 235 129 19 895 188 238 69 732 172 477 104 63 292 675 230 375 100 396 169 329 147 233 69 160 408 273 327 558 129 835 310 901
283 20 3529 163 549 498 629 39 19 184 85 437 205 3 697 278 825 357 406 89 555 100 757 145 483 156 812 189 235 33 914 469 295 155 681 39 128 417 681 485 208 176 87
284 20 2472 66 406 79 426 70 214 121 59 9 819 20 366 36 998 303 213 85 525 369 76 342 163 325 890 2 856 75 605 83 372 231 96 516 968 66 619 176 321 116 2
285 20 2276 230 426 122 500 48 249 49 257 6 507 105 799 5 71 117 539 330 425 156 65 263 422 99 511 17 665 252 795 453 933 40 405 91 423 115 891 99 912 249 168
286 20 3193 357 310 42 582 379 612 59 454 106 935 13 601 89 458 259 410 121 7 147 321 417 974 237 430 69 787 97 212 256 64 105 431 189 861 196 409 503 713 351 242
287 20 2570 197 85 102 218 157 587 250 357 25 597 20 516 80 58 121 618 215 392 63 946 319 755 5 331 605 399 20 669 234 893 48 155 172 124 374 823 203 472 3 706
288 20 3746 250 124 183 481 118 831 297 272 399 183 484 499 246 680 218 120 40 684 66 846 405 126 34 159 61 372 86 929 502 460 22 971 328 190 44 662 713 5 187 323
289 20 3294 375 534 16 400 324 337 138 998 187 443 43 475 222 31 163 471 361 205 362 426 55 465 167 442 180 983 22 912 155 914 229 388 571 12 13 443 424 55 111 563
290 20 2764 106 194 156 405 355 97 83 514 92 956 157 512 500 308 152 957 131 60 49 116 44 922 61 566 7 464 17 486 632 380 40 749 44 524 38 511 75 745 717 401
291 20 3153 217 481 165 127 50 348 147 339 230 399 221 461 521 843 22 170 284 334 156 208 173 880 111 984 138 687 37 767 48 135 275 531 284 326 138 169 337 632 388 845
292 20 3136 1 259 41 152 50 756 598 17 176 644 129 159 142 214 18 135 245 300 102 318 537 701 72 138 249 59 52 504 7 679 229 219 193 843 20 347 505 79 554 317
293 20 3489 74 670 196 888 301 608 158 932 237 458 75 558 218 900 92 12 9 306 499 953 194 41 46 97 525 178 191 282 311 956 57 768 248 158 181 871 561 714 189 514
294 20 4252 553 978 189 774 252 247 305 693 632 534 153 315 528 915 6 655 154 485 76 267 170 370 178 729 251 717 280 698 131 863 466 381 57 725 182 466 345 384 408 737
295 20 3463 475 255 236 576 34 780 306 851 353 82 170 124 264 782 90 574 176 302 506 875 322 893 56 527 110 424 26 643 374 447 85 360 280 2 123 698 56 52 287 815
296 20 2825 30 928 235 686 164 603 113 59 257 318 168 452 63 936 73 501 263 83 51 924 203 573 64 184 425 645 514 914 233 903 303 581 157 241 10 562 151 968 55 199
297 20 2297 318 96 121 861 16 424 283 33 93 382 70 251 88 924 208 159 30 336 132 291 318 550 32 17 256 108 64 706 19 776 88 346 327 643 101 703 159 656 149 50
298 20 4114 300 69 299 197 63 452 193 437 576 76 5 20 344 343 542 904 2 359 460 903 531 564 55 866 134 949 151 627 355 722 225 870 694 924 11 488 40 171 163 691
299 20 3175 5 800 109 669 124 884 93 682 200 373 95 894 355 839 234 928 211 594 173 42 409 441 249 947 240 749 125 639 71 959 174 975 135 418 276 161 330 358 361 204
300 20 2948 94 72 52 118 615 651 284 961 374 348 156 420 645 720 29 201 23 916 45 652 126 418 164 669 100 549 103 275 268 16 151 396 99 6 166 486 53 893 139 47
301 20 3816 632 11 478 541 173 282 515 124 166 718 146 864 363 72 458 471 152 736 80 149 34 478 283 742 7 631 188 820 525 819 51 461 287 910 92 81 95 170 46 263
302 20 3181 681 405 48 287 487 84 219 755 106 893 107 518 175 499 34 612 260 87 225 367 469 715 298 359 42 422 174 479 55 602 96 12 214 557 107 155 8 811 172 119
303 20 3372 60 152 99 850 134 966 138 149 288 849 265 388 449 497 127 33 372 636 290 814 136 359 109 812 133 547 76 269 273 700 29 490 194 509 453 772 188 512 403 839
304 20 3759 397 602 672 536 137 304 3 651 647 166 151 208 130 694 69 538 375 996 166 332 159 240 304 831 230 935 7 109 165 195 25 869 310 891 451 947 293 488 8 711
305 20 2958 115 600 53 585 373 353 125 214 293 82 255 90 50 455 61 594 287 610 10 986 86 481 213 370 201 878 218 813 500 319 307 519 28 341 285 429 98 587 140 944
306 20 3172 266 908 289 35 789 849 17 702 25 984 69 702 118 486 61 440 235 421 420 460 38 986 490 738 74 103 91 3 70 625 36 938 6 140 359 317 302 599 211 814
307 20 2940 5 532 215 963 350 118 629 361 15 604 66 575 122 478 551 2 119 109 589 968 27 254 11 129 111 596 252 750 185 597 109 103 132 938 50 689 93 824 44 805
308 20 3077 579 237 228 210 14 688 128 904 94 686 212 989 459 376 432 890 198 758 87 441 15 245 122 584 152 95 49 277 268 701 42 866 180 831 496 146 31 299 61 44
309 20 3106 161 984 76 429 29 158 143 70 327 603 375 37 605 381 109 836 368 670 38 887 318 25 135 659 50 273 253 838 123 411 38 936 388 804 109 488 186 199 52 39
310 20 2613 28 926 276 789 25 841 239 156 196 606 127 320 360 548 131 18 328 978 330 783 216 677 121 699 44 558 119 507 47 612 9 244 222 186 98 111 194 201 157 423
311 20 4476 342 367 367 463 192 761 503 73 531 460 291 975 70 9 600 921 75 579 791 211 320 878 123 308 12 555 279 220 122 791 218 770 18 30 381 1 170 153 190 9
312 20 3245 133 865 88 935 303 935 213 963 94 937 101 972 330 966 488 259 149 657 100 355 60 796 87 261 61 668 421 180 398 580 278 886 482 132 110 934 76 722 85 435
313 20 2603 320 787 185 223 117 504 24 168 6 748 30 286 409 244 141 635 253 731 90 57 76 381 311 994 124 940 65 735 266 79 8 562 391 671 71 862 106 117 261 759
314 20 3655 139 29 210 90 58 899 666 641 155 357 171 166 233 496 226 171 205 503 167 452 292 487 127 789 88 928 382 222 465 199 23 773 178 622 7 682 610 551 167 541
315 20 3164 40 542 347 191 269 812 122 168 138 577 155 346 413 737 398 639 10 342 137 648 69 601 358 628 124 885 35 840 508 12 64 542 224 832 433 378 36 97 75 96
316 20 3360 385 115 152 748 114 534 145 65 477 613 47 670 437 615 86 317 147 561 69 736 206 700 361 263 232 541 299 59 107 583 49 84 1 529 346 168 304 181 237 977
317 20 2856 597 524 54 447 135 727 195 760 81 589 195 230 273 858 156 176 17 700 148 122 324 988 59 895 97 415 179 703 176 686 217 670 43 910 300 693 272 629 52 372
318 20 3362 605 833 563 534 470 612 57 963 131 11 181 127 428 832 278 310 353 32 180 47 26 821 33 809 211 846 10 239 127 433 48 30 76 461 13 962 210 995 203 510
319 20 3456 49 785 544 59 7 47 411 840 332 311 126 579 414 410 92 540 130 185 288 279 159 42 123 326 97 63 36 527 80 905 164 794 890 812 127 464 37 533 214 957
320 20 4630 199 149 481 287 359 333 633 433 381 711 803 934 236 523 313 803 22 450 124 802 527 804 31 797 16 503 29 772 1 58 179 903 315 892 118 396 721 546 300 627
321 20 3403 250 760 163 135 428 395 249 702 237 503 199 378 437 107 48 678 160 114 208 214 38 272 305 600 14 817 210 490 149 735 358 451 104 138 214 652 282 802 201 865
322 20 3249 388 773 74 923 89 272 230 172 320 198 12 54 179 973 372 738 284 976 188 657 264 228 338 534 43 409 222 738 137 639 351 37 87 509 343 388 89 923 52 80
323 20 3356 51 703 10 766 17 181 445 744 82 502 32 445 133 850 178 755 152 889 98 990 415 512 273 103 520 981 411 944 392 854 344 714 81 78 178 616 337 58 47 703
324 20 3077 67 801 16 504 528 307 339 413 345 392 162 836 234 78 66 620 428 495 223 159 81 137 223 636 35 663 65 28 244 106 1 240 98 327 131 324 203 630 358 561
325 20 2611 437 171 378 755 84 499 271 390 71 875 154 867 49 27 124 901 215 400 100 925 104 931 82 161 293 876 263 699 217 538 23 977 210 813 46 336 97 918 46 655
326 20 2985 327 66 178 882 148 212 424 317 12 796 110 931 92 578 404 369 486 891 139 858 57 374 163 796 408 774 203 988 82 967 104 614 25 68 260 684 91 65 19 752
327 20 2980 231 370 452 387 169 56 57 124 23 856 304 100 200 892 42 467 83 81 236 574 511 693 244 590 11 512 352 73 385 607 35 919 35 80 52 460 5 938 299 321
328 20 3055 343 801 181 940 31 578 536 672 177 503 276 595 171 492 11 400 77 13 199 530 63 346 577 48 1 829 96 509 142 94 184 314 108 959 7 464 354 997 285 715
329 20 3231 217 970 62 681 152 185 37 340 54 944 45 825 531 713 303 215 97 175 205 294 269 756 281 573 29 710 178 612 119 543 249 245 330 16 237 634 61 523 583 112
330 20 3850 544 70 136 501 333 458 113 10 437 250 69 560 532 991 44 218 172 39 75 13 148 859 549 391 142 677 142 616 128 129 233 812 453 792 29 459 281 475 253 243
331 20 3693 95 104 97 523 41 801 543 968 70 147 105 719 239 725 369 60 17 610 352 156 277 369 434 301 257 175 450 903 119 184 53 801 612 176 239 758 139 257 109 829
332 20 4925 526 662 687 713 462 541 303 312 141 945 102 459 355 432 371 47 306 543 39 600 10 848 204 758 100 357 271 432 31 177 487 741 475 342 774 432 402 497 111 40
333 20 3561 298 855 223 49 101 827 34 143 158 156 140 927 227 156 456 967 87 798 227 792 31 783 265 454 302 820 198 207 124 224 554 543 229 107 179 799 198 854 421 340
334 20 3111 40 710 160 718 75 96 340 557 208 939 55 748 49 857 43 871 55 792 160 673 46 34 343 656 88 983 38 833 311 756 670 876 22 544 826 670 63 738 297 949
335 20 2948 286 185 189 940 2 546 384 586 17 91 58 200 226 424 37 304 340 986 246 572 189 744 54 372 212 62 33 464 142 23 749 945 3 992 276 790 106 57 136 363
336 20 3832 78 542 127 7 11 667 519 314 185 687 267 894 57 990 214 889 192 145 273 796 733 152 69 640 67 73 188 981 369 889 361 855 7 62 341 923 42 88 690 626
337 20 3408 616 819 270 125 141 683 288 170 45 333 17 897 96 372 446 236 63 914 470 467 138 406 45 817 406 694 431 436 270 948 12 599 199 945 174 615 1 928 132 197
338 20 3292 66 501 364 496 59 514 463 950 230 267 12 682 53 292 354 342 237 534 7 919 63 973 41 132 526 155 410 551 156 361 95 938 313 25 326 259 40 250 301 783
339 20 4157 131 575 131 991 169 500 371 724 358 884 467 265 122 374 84 66 97 430 202 357 673 623 443 892 188 736 66 378 356 691 52 131 299 620 85 482 563 168 340 5
340 20 2797 95 512 101 493 207 210 154 136 349 670 257 205 215 595 439 559 3 918 51 381 201 170 7 641 193 426 216 336 506 90 92 567 282 414 105 180 16 110 8 214
341 20 3063 127 53 297 72 155 783 123 397 195 26 18 118 451 301 114 371 266 355 318 877 5 222 604 666 144 773 80 170 506 670 49 487 54 9 76 182 177 959 70 152
342 20 2922 203 466 142 655 86 673 58 298 49 349 33 660 255 354 208 238 6 217 79 17 10 222 292 343 314 376 237 970 511 451 512 226 111 10 116 445 181 420 250 547
343 20 4356 253 860 80 959 589 312 4 547 238 790 191 821 360 716 516 729 445 765 25 260 20 460 252 407 610 333 104 530 80 927 217 136 265 431 551 816 623 455 23 159
344 20 2467 681 789 235 226 139 465 85 58 23 385 33 993 215 756 75 393 1 112 142 156 251 471 3 446 125 128 28 595 277 387 196 575 239 917 71 134 235 762 30 273
345 20 2610 184 901 262 752 101 546 2 707 31 135 9 688 68 130 504 97 82 152 219 541 506 830 65 410 178 285 65 321 342 65 39 299 154 892 265 95 58 850 129 874
346 20 3168 605 151 57 666 135 9 389 1000 51 33 98 345 46 414 117 449 247 651 23 894 376 617 130 390 77 940 138 195 51 281 619 770 258 635 481 43 4 311 59 969
347 20 4165 178 996 78 796 414 10 63 438 312 378 444 949 277 432 296 499 230 683 250 69 214 69 211 241 276 348 416 802 313 268 370 894 66 373 291 858 494 121 14 1000
348 20 4040 164 244 229 782 41 106 106 169 434 553 526 644 423 514 107 335 136 524 60 379 258 248 57 42 234 146 60 439 599 245 457 886 694 268 63 294 309 298 93 813
349 20 3916 13 790 117 450 260 910 648 310 581 44 463 638 469 636 80 282 395 755 8 146 44 703 279 773 107 718 119 709 191 808 120 173 81 575 374 26 218 696 329 237
350 20 3241 133 273 490 81 129 844 19 629 155 828 8 307 14 590 121 8 162 880 96 833 229 510 526 890 315 160 267 737 85 690 146 466 9 1000 425 410 188 274 535 753
351 20 2334 429 724 17 486 183 19 7 269 112 51 326 390 63 306 80 345 263 890 143 761 144 749 105 166 33 58 60 695 137 933 74 54 12 260 338 660 104 886 288 111
352 20 1801 31 898 159 414 193 10 90 561 162 361 34 574 283 295 69 908 99 850 142 546 21 956 46 954 15 242 92 783 78 937 330 132 23 640 144 800 170 568 71 822
353 20 3791 223 930 11 263 298 534 81 686 128 493 192 451 379 846 375 820 672 572 188 575 279 184 27 265 10 223 115 862 178 700 374 938 215 605 90 20 455 883 449 84
354 20 3009 187 639 209 378 13 233 473 224 375 913 167 346 8 442 192 5 51 118 182 79 538 993 75 508 27 608 50 508 249 12 73 139 367 23 206 210 46 132 274 544
355 20 2713 399 521 97 151 372 591 49 229 434 639 195 474 19 397 139 305 297 744 15 711 70 740 121 270 288 82 139 794 148 248 391 376 58 968 6 736 147 629 8 689
356 20 2429 307 945 5 161 406 640 78 654 253 516 214 977 22 831 87 743 58 790 111 563 7 182 87 757 127 949 157 189 406 202 49 427 81 962 49 281 365 317 168 901
357 20 3112 155 453 195 871 240 560 83 894 10 951 89 184 125 574 281 668 242 371 715 375 191 718 271 540 99 306 33 608 263 839 309 99 138 428 256 423 85 314 110 827
358 20 3605 285 38 64 994 60 872 661 195 27 825 148 725 103 612 389 185 64 98 538 924 10 193 312 194 388 712 515 296 40 208 255 276 27 538 166 151 1 8 454 611
359 20 3900 553 345 4 547 101 16 145 414 745 753 144 377 183 558 270 398 10 502 75 926 105 698 3 900 682 312 35 581 93 841 623 666 274 162 481 978 54 27 296 507
360 20 3592 309 1000 143 581 73 730 625 596 166 326 794 691 24 353 135 875 10 497 62 884 92 869 48 526 305 405 354 733 72 853 281 766 489 66 37 331 236 169 236 535
361 20 4003 688 336 91 7 114 165 236 18 155 279 26 664 678 90 233 683 46 839 277 469 345 17 257 738 34 809 248 355 413 909 65 864 526 836 102 402 210 997 260 350
362 20 2904 590 459 22 646 84 843 369 168 75 273 260 689 130 640 35 34 120 571 200 590 15 537 81 645 432 167 32 470 716 653 47 270 198 118 63 587 20 68 142 823
363 20 2766 143 36 2 131 262 700 439 577 522 954 66 610 382 969 4 184 61 917 78 982 235 277 118 323 21 907 36 887 53 452 78 200 405 182 103 106 308 136 142 757
364 20 2638 22 880 7 961 342 942 373 857 47 27 29 542 193 161 227 938 28 29 24 10 52 755 243 274 227 95 79 672 227 239 380 615 71 569 40 653 389 697 298 631
365 20 2946 442 273 156 624 139 904 54 637 14 24 205 747 72 680 178 46 160 833 71 333 505 403 33 557 256 958 184 8 106 86 360 880 284 371 164 710 150 597 150 136
366 20 3847 186 87 434 390 25 109 29 243 541 133 901 781 235 336 86 269 259 934 38 636 169 197 42 927 545 339 274 884 88 755 445 564 96 115 146 296 177 966 93 821
367 20 2723 5 918 11 917 310 227 8 391 237 170 157 755 197 76 7 347 208 214 48 21 534 359 229 155 317 777 85 120 13 237 11 333 271 743 251 106 321 428 184 865
368 20 3013 385 322 523 475 117 774 129 520 294 649 207 868 229 204 118 647 349 490 106 718 63 473 244 216 395 152 226 916 60 451 188 958 8 801 103 663 4 83 19 661
369 20 3021 81 459 407 220 275 30 373 407 364 403 46 60 166 212 295 432 70 266 151 391 162 348 121 556 230 78 161 843 14 882 175 534 245 711 312 446 85 599 44 995
370 20 2567 125 202 124 615 37 584 659 538 40 81 10 474 280 310 122 409 5 210 2 516 51 794 162 549 358 255 121 589 298 479 43 40 130 237 413 920 14 613 215 543
371 20 3407 181 386 390 164 57 103 152 163 145 632 194 230 32 2 223 206 21 18 466 375 57 647 200 188 21 736 121 897 169 186 502 749 184 539 413 72 262 692 469 991
372 20 2943 85 414 25 787 261 227 270 441 48 154 365 51 144 419 46 260 259 153 344 895 146 901 455 338 84 711 90 817 285 219 68 257 248 559 117 483 35 106 304 864
373 20 2986 255 682 258 959 31 712 169 603 21 438 342 786 5 127 504 977 360 358 534 180 135 231 80 282 472 328 78 461 23 749 192 923 61 465 86 399 87 450 40 916
374 20 3315 85 384 38 172 150 243 72 771 306 535 104 722 23 950 697 471 93 161 155 188 254 895 212 129 47 561 223 171 420 778 4 618 436 535 513 427 93 678 219 298
375 20 3871 58 196 134 666 46 125 303 924 501 625 317 432 329 234 123 923 187 211 466 142 119 511 288 21 347 405 50 757 312 924 384 35 3 748 201 567 337 51 334 3
376 20 3707 345 938 22 704 134 671 124 632 196 847 305 297 212 354 86 514 485 242 363 401 48 370 201 425 8 815 695 410 57 516 87 462 355 64 499 185 163 642 249 567
377 20 3693 869 234 42 592 700 45 299 897 11 575 56 510 37 775 190 787 22 848 457 389 605 69 24 733 3 552 169 213 44 340 202 413 521 295 11 251 109 849 246 733
378 20 3553 268 700 502 185 38 703 17 42 400 43 197 742 304 896 327 660 75 338 59 476 135 924 156 710 364 600 75 798 581 69 316 710 39 437 322 537 143 397 124 845
379 20 3036 350 282 291 730 31 965 47 60 244 291 218 30 7 689 99 669 225 248 344 907 269 886 61 360 96 951 323 981 295 486 108 230 312 396 6 930 235 382 235 59
380 20 3119 17 128 89 619 520 758 9 964 261 211 445 8 646 734 36 499 8 896 56 601 42 55 234 74 13 164 61 562 140 469 143 627 364 109 298 342 2 702 515 689
381 20 2214 6 737 200 122 6 132 72 755 129 929 266 413 77 794 83 11 9 68 154 776 21 421 98 733 299 277 189 379 61 827 219 35 124 883 406 64 69 164 280 231
382 20 3768 243 686 441 403 160 873 272 877 333 269 439 905 520 178 410 705 38 236 133 215 447 441 29 717 101 258 36 65 34 525 217 2 80 371 119 546 304 513 354 767
383 20 3955 183 525 189 373 86 890 106 471 330 267 547 227 315 908 405 895 71 620 223 957 90 385 439 47 62 828 128 39 683 37 138 603 447 612 35 856 289 802 178 811
384 20 3146 102 226 266 624 151 166 36 802 191 806 161 763 127 887 543 817 64 410 98 21 135 301 422 451 125 148 55 666 141 205 356 736 692 720 210 997 41 611 17 472
385 20 3353 166 478 93 262 119 401 422 326 33 354 234 879 324 547 49 485 101 939 147 612 213 346 157 64 343 940 34 779 156 57 104 943 64 892 527 75 399 183 507 316
386 20 3428 164 933 15 171 96 417 257 378 43 45 61 58 76 181 362 389 326 911 251 148 232 863 233 410 685 333 401 869 148 272 73 32 190 92 83 82 468 570 121 763
387 20 3316 49 277 261 654 102 991 486 327 287 6 264 134 53 802 58 774 178 136 210 12 26 961 331 4 27 978 366 996 94 603 71 629 524 528 165 399 330 837 264 290
388 20 2553 299 997 77 501 1 832 40 203 6 54 269 142 506 52 22 858 93 951 66 624 38 943 263 108 305 748 284 336 4 177 103 264 420 659 33 597 293 419 70 442
389 20 3611 475 537 167 89 127 438 90 24 283 907 80 581 340 844 148 961 199 8 454 511 83 61 157 315 352 157 344 153 334 627 362 763 176 598 49 53 149 185 145 454
390 20 2917 93 864 62 929 126 947 615 393 170 77 39 39 434 730 144 522 62 391 90 719 44 129 175 877 530 134 392 997 285 119 48 963 105 768 214 517 11 626 8 469
391 20 4398 238 113 580 530 776 500 589 662 132 526 232 536 198 558 11 708 174 508 196 465 608 696 307 733 252 160 312 957 26 88 165 482 54 750 50 960 84 355 514 524
392 20 3365 93 561 248 364 332 672 146 730 312 459 296 573 104 959 257 188 342 906 126 949 172 516 54 344 12 529 119 822 574 871 405 802 21 237 24 85 422 342 148 659
393 20 3924 413 577 138 364 433 712 125 288 366 826 466 103 359 204 130 225 166 625 307 719 265 772 305 759 62 685 350 876 117 688 10 488 54 450 164 795 99 838 576 727
394 20 2332 51 698 167 791 763 440 137 195 120 123 48 451 40 636 35 163 189 999 14 86 32 284 139 63 60 35 38 722 18 689 47 934 280 268 561 447 153 10 23 972
395 20 3458 74 785 72 149 141 508 175 648 31 532 167 638 541 948 103 267 317 669 475 44 388 12 159 570 112 860 90 975 236 818 464 603 351 885 274 20 37 250 116 272
396 20 3693 82 578 30 486 223 1000 216 918 334 669 123 734 27 921 348 359 199 367 354 797 63 854 23 727 14 596 35 70 747 352 50 908 585 247 480 612 484 960 200 116
397 20 2029 23 202 93 450 53 250 170 177 7 104 199 247 179 2 164 807 17 353 4 473 8 329 212 783 632 979 113 641 63 633 86 98 122 890 99 407 247 876 46 261
398 20 3152 80 271 235 682 240 719 338 648 261 78 34 674 91 737 438 401 301 658 109 834 168 514 135 614 67 755 478 459 78 82 103 269 91 386 88 216 291 73 315 131
399 20 3189 367 642 363 94 29 25 304 869 47 935 112 553 52 982 278 858 501 618 128 868 301 646 118 571 614 339 145 780 28 35 90 106 39 712 345 424 108 628 18 177
400 20 3009 78 388 80 693 32 831 69 928 34 135 187 534 120 394 96 126 554 451 79 71 744 956 97 946 286 985 161 390 383 132 69 328 82 620 138 146 356 980 117 323
401 20 2424 7 729 105 648 75 657 369 276 152 467 314 29 291 681 72 399 300 428 137 969 232 439 16 785 83 709 80 819 184 498 379 596 61 962 28 614 73 339 72 338
402 20 3556 500 539 48 677 343 874 107 490 125 580 42 482 189 582 376 84 449 558 139 645 146 258 566 123 38 285 37 784 148 275 119 822 268 453 207 342 498 327 100 762
403 20 2792 17 849 147 411 52 184 274 542 92 748 61 266 359 137 11 486 89 944 106 451 49 150 110 897 532 255 149 702 558 520 159 654 358 210 100 840 121 915 147 185
404 20 3668 367 928 240 453 64 794 24 470 207 428 240 292 451 302 183 740 110 601 364 310 95 102 99 504 33 857 84 507 346 215 551 745 41 167 341 551 265 767 480 311
405 20 3766 35 255 75 87 421 600 140 40 304 801 379 179 273 619 462 161 109 761 369 304 166 542 146 723 579 13 124 180 81 773 170 439 474 411 130 404 26 432 245 623
406 20 3968 596 846 12 467 226 221 277 550 554 561 146 917 195 904 175 673 132 391 314 892 29 210 57 246 646 629 23 326 237 559 523 644 204 40 547 199 24 965 44 910
407 20 3302 205 850 245 838 309 431 218 453 26 436 255 182 67 705 252 172 44 490 20 85 591 365 122 824 414 283 78 708 66 448 80 230 157 143 577 722 280 251 122 244
408 20 3536 65 280 133 373 57 920 219 595 267 146 99 428 50 653 140 639 377 418 379 237 236 400 111 900 604 169 94 856 570 152 275 565 221 441 293 632 29 11 201 997
409 20 3894 549 384 607 265 89 922 66 54 465 971 70 735 13 179 302 606 245 601 106 952 330 407 295 340 11 631 199 341 11 263 59 420 512 766 303 58 37 521 599 114
410 20 3548 426 673 113 371 385 824 128 308 125 700 14 919 600 458 114 899 148 83 110 519 76 873 107 657 252 253 8 456 167 456 406 221 392 192 54 461 678 642 133 868
411 20 3319 185 406 75 63 114 861 158 908 204 293 287 595 414 627 54 849 151 148 77 819 6 878 41 195 338 275 132 177 244 944 159 530 143 11 671 304 606 832 90 493
412 20 3486 560 831 213 192 11 493 283 473 439 411 292 543 172 111 297 838 113 752 257 466 341 859 46 920 61 784 109 851 189 580 455 264 90 869 387 343 11 357 32 414
413 20 4249 148 251 150 83 229 168 558 112 150 347 792 899 481 726 227 669 291 147 535 295 134 698 48 853 67 4 97 147 90 525 100 989 224 971 614 81 124 220 253 714
414 20 4840 85 106 45 842 540 600 712 992 45 68 148 600 573 774 279 74 607 405 192 993 257 859 63 158 370 912 233 202 537 450 303 773 177 547 118 730 718 508 49 534
415 20 2706 148 785 202 812 72 28 20 841 264 200 50 47 145 571 264 865 78 495 93 87 112 78 164 512 265 500 198 60 355 184 77 301 318 635 288 621 5 923 265 225
416 20 3556 18 237 346 887 88 803 224 518 768 419 146 108 491 435 11 882 22 331 90 381 212 986 515 439 67 858 44 37 388 875 20 131 182 378 336 249 192 551 286 445
417 20 4244 487 933 823 162 487 984 307 932 215 859 531 959 385 13 510 644 250 245 18 177 67 687 347 426 93 229 27 583 182 327 135 49 81 218 222 63 111 112 27 30
418 20 3140 293 858 25 115 44 38 541 733 19 960 306 1000 393 308 98 506 92 567 291 217 184 565 441 63 217 525 51 145 76 641 383 385 48 551 263 984 21 830 139 590
419 20 2850 80 757 77 307 208 385 58 901 206 488 381 448 40 356 10 61 482 258 360 180 337 69 356 411 252 63 70 138 95 425 121 707 42 932 123 743 102 310 163 29
420 20 3052 15 173 102 266 16 595 72 7 192 762 81 960 121 53 397 276 258 932 15 149 397 504 32 584 63 776 47 814 318 272 534 583 21 456 536 169 284 495 315 631
421 20 3705 71 414 484 87 152 660 420 646 393 994 169 642 28 436 592 669 196 264 45 843 495 25 8 627 366 92 194 219 168 52 115 592 429 168 112 929 135 402 60 986
422 20 3548 159 612 50 182 287 648 184 488 86 678 77 95 121 690 312 363 463 355 130 477 107 685 72 279 167 626 135 178 188 58 527 203 11 937 533 541 741 28 86 629
423 20 3380 66 517 66 851 9 758 344 807 443 178 68 789 76 22 105 786 488 518 170 651 294 849 260 998 63 454 122 621 243 787 1 7 24 231 626 438 111 857 647 909
424 20 2745 44 646 193 157 103 303 183 694 287 562 148 332 198 125 91 771 109 960 45 192 334 502 245 932 151 924 31 61 209 306 2 159 129 66 110 921 120 721 700 78
425 20 3414 139 68 164 134 55 614 2 713 535 898 61 623 34 43 159 953 69 283 224 577 167 627 76 855 869 407 238 633 122 328 223 863 60 608 383 430 28 480 660 163
426 20 3109 60 86 468 445 113 421 139 202 14 168 9 168 187 203 13 893 116 624 250 206 385 435 261 559 326 684 60 560 42 975 552 141 159 903 402 881 97 154 234 570
427 20 3359 24 579 268 790 221 400 551 605 84 891 45 188 499 670 45 398 195 245 81 576 241 167 550 412 418 447 276 436 71 688 38 368 3 855 140 487 310 277 139 25
428 20 3520 439 58 179 800 461 151 106 250 48 166 20 498 115 683 253 842 4 593 442 476 802 849 257 738 137 615 249 562 324 340 132 444 153 101 74 617 10 264 195 403
429 20 3404 369 556 61 783 15 564 45 692 24 989 77 680 210 987 111 463 7 725 287 390 12 282 328 507 192 189 580 303 61 937 64 806 869 145 416 136 302 609 226 57
430 20 3357 561 195 76 345 155 191 419 164 106 263 255 973 460 673 39 381 55 681 177 433 6 927 319 52 139 669 145 1 214 836 152 713 39 119 377 174 305 829 198 56
431 20 3588 4 468 85 739 338 164 159 474 16 499 410 520 269 85 101 897 524 355 226 549 89 927 237 810 168 930 193 944 253 289 397 725 399 45 428 874 4 174 186 812
432 20 3550 144 169 37 945 253 580 152 631 694 396 27 261 281 96 147 675 18 73 279 985 159 778 639 642 18 709 172 708 444 729 14 689 136 157 109 677 222 110 493 771
433 20 4381 133 996 275 814 640 956 321 547 232 133 565 732 229 289 342 974 246 906 305 953 91 513 258 268 122 515 427 46 127 207 443 932 392 809 257 848 6 108 66 783
434 20 2900 74 158 68 642 37 523 166 890 30 545 152 622 437 930 45 653 269 907 317 486 112 992 488 889 480 716 106 615 86 739 171 578 245 377 30 624 103 715 210 679
435 20 1711 166 402 48 438 204 9 184 676 90 302 123 62 312 609 19 763 54 895 24 153 23 869 64 742 259 954 175 381 16 187 108 624 132 141 59 481 12 689 67 309
436 20 2658 78 192 15 253 172 17 63 857 146 583 68 629 85 136 307 517 667 421 88 320 70 863 83 521 543 633 47 432 142 783 56 758 79 115 481 215 116 455 17 906
437 20 2224 216 752 207 345 174 856 79 977 136 998 144 287 191 479 275 673 79 360 91 932 39 850 110 624 117 815 19 701 214 411 207 125 152 249 113 2 80 636 138 357
438 20 3720 126 980 151 227 734 995 517 748 313 518 27 551 82 158 116 48 630 424 153 458 164 50 9 601 115 148 420 844 356 533 114 800 248 662 260 959 25 965 90 250
439 20 2868 99 777 90 534 30 892 427 280 89 287 100 186 400 525 484 537 129 879 10 252 155 34 165 974 342 701 131 839 47 844 40 328 657 484 65 82 33 871 92 178
440 20 3726 56 416 250 574 8 817 40 138 190 219 46 711 299 573 227 770 450 702 376 811 569 71 25 814 16 819 415 195 709 950 253 376 113 796 122 647 205 123 289 709
441 20 2828 43 4 121 125 13 674 102 674 221 674 9 730 384 162 73 77 48 671 157 690 117 547 13 49 327 663 21 314 446 845 82 961 644 480 73 4 178 825 463 382
442 20 2300 141 283 203 804 27 962 69 638 549 31 87 940 43 108 444 845 62 939 114 165 42 993 97 765 168 541 55 550 193 713 103 776 386 31 10 236 60 434 23 16
443 20 3250 21 202 563 459 248 566 437 540 22 40 193 651 101 999 23 241 121 18 54 592 366 521 71 22 305 168 222 858 7 614 505 601 9 347 206 183 284 171 305 913
444 20 3059 66 653 2 776 187 852 539 182 229 365 116 101 48 94 267 927 32 985 371 291 21 142 544 149 217 782 335 93 96 999 56 366 539 835 70 526 27 491 62 250
445 20 3359 378 603 215 15 127 977 31 92 604 561 34 581 11 230 404 357 155 204 318 834 34 80 346 453 372 14 184 380 160 297 36 175 23 130 142 537 185 291 440 414
446 20 2067 9 445 241 863 130 579 19 949 5 420 9 706 126 64 239 939 46 597 97 784 56 198 235 998 173 145 132 187 253 443 126 763 382 702 109 685 88 141 109 194
447 20 4053 18 655 12 950 211 1 138 822 293 154 185 122 331 891 182 82 574 428 477 458 77 24 370 357 8 382 696 744 600 710 218 640 2 835 153 465 166 970 356 178
448 20 2978 134 32 89 331 24 447 468 323 7 684 4 489 213 419 111 791 60 933 102 21 161 132 221 252 264 359 75 629 468 921 216 149 531 307 142 63 31 698 402 442
449 20 2532 69 397 60 365 206 258 245 469 281 105 77 163 69 796 94 600 131 934 331 740 196 232 12 238 540 692 205 144 42 178 199 87 97 560 60 305 167 110 84 866
450 20 2876 33 283 403 495 211 443 408 383 31 646 52 630 208 351 132 73 109 546 133 37 17 355 316 341 181 1 27 330 1 237 364 185 742 398 49 410 93 225 85 796
451 20 2179 287 652 40 314 1 960 186 258 22 496 106 918 1 549 150 651 289 73 57 180 67 279 129 941 86 178 167 316 77 999 27 166 96 257 332 911 231 130 373 147
452 20 2832 101 24 17 643 143 297 377 559 93 696 26 574 195 281 416 501 265 507 69 750 177 72 223 688 71 853 499 264 245 406 17 182 227 217 44 369 141 427 195 337
453 20 3277 221 917 61 677 330 515 277 413 236 360 74 890 169 234 40 498 312 225 263 738 128 372 11 512 48 887 133 943 353 113 42 242 261 227 355 311 220 996 563 75
454 20 3464 115 228 205 75 358 80 156 206 584 54 465 765 41 464 256 989 92 324 307 399 13 698 123 260 23 554 36 689 233 617 198 986 326 602 75 628 494 994 230 652
455 20 3445 76 287 170 138 64 615 442 239 68 186 8 950 242 978 85 45 382 815 46 117 605 124 163 521 64 973 416 693 246 128 654 949 143 52 7 140 255 405 171 932
456 20 3168 93 727 54 432 321 728 697 271 237 944 283 490 20 701 47 712 51 871 75 935 102 879 369 93 148 680 107 76 26 241 173 1000 170 676 455 835 163 477 369 852
457 20 3182 256 838 53 333 191 800 215 419 622 840 73 121 58 118 222 486 230 466 2 771 5 374 178 346 408 427 250 430 54 328 374 419 403 687 171 883 189 760 24 73
458 20 3656 41 217 311 576 532 424 143 302 316 33 167 367 16 339 114 418 25 111 142 182 18 332 182 617 312 861 273 231 445 38 529 894 753 978 31 312 94 685 127 933
459 20 4468 133 539 304 700 300 749 344 729 224 44 269 221 280 867 36 606 301 48 460 880 59 554 591 29 590 597 213 675 196 703 78 161 232 628 242 892 629 112 104 688
460 20 2982 255 642 180 474 111 532 110 560 406 90 294 411 233 789 140 9 292 74 333 359 14 34 153 423 11 421 131 165 79 656 436 728 9 653 62 417 184 386 295 881
461 20 3136 127 628 256 677 14 806 49 901 321 238 72 205 314 3 80 178 111 969 410 732 195 41 479 314 469 336 66 610 226 950 58 43 147 72 238 809 48 868 241 268
462 20 3337 3 891 62 282 86 893 171 813 7 185 15 91 133 157 86 459 420 810 22 983 259 931 366 18 435 134 106 177 199 770 174 288 462 572 406 7 579 853 181 840
463 20 3212 179 31 74 364 5 734 172 327 303 496 248 552 53 760 20 417 302 855 221 462 630 991 28 346 166 303 202 968 350 582 168 573 251 390 549 597 77 911 17 56
464 20 3134 40 63 169 304 45 5 267 131 147 213 282 807 82 646 164 142 336 340 301 620 382 849 202 479 149 628 303 97 250 36 44 54 109 491 164 302 234 437 248 828
465 20 3361 86 644 182 439 458 275 188 342 395 797 548 910 48 589 20 212 306 182 147 155 176 343 28 480 267 708 12 44 202 47 286 747 350 688 3 555 26 811 474 638
466 20 3884 541 477 226 19 53 375 69 193 23 123 135 477 421 403 80 353 40 861 29 647 146 52 102 604 201 437 268 883 579 628 398 75 492 563 257 416 287 208 508 639
467 20 3444 288 30 583 240 55 753 185 408 9 779 269 284 168 377 392 47 315 197 317 406 45 566 150 511 91 919 13 241 198 14 54 237 330 230 347 982 311 842 186 170
468 20 3628 230 5 239 610 74 102 6 282 707 333 241 863 19 810 222 469 232 298 567 215 5 620 356 843 411 154 128 851 328 737 69 126 111 68 252 16 42 792 296 546
469 20 3212 274 552 77 594 67 219 152 475 12 981 496 376 373 673 44 234 120 652 165 577 20 206 260 186 228 29 654 671 247 800 3 89 128 338 430 260 100 438 165 176
470 20 2885 1 154 29 581 267 47 161 128 153 2 235 476 304 894 288 155 1 456 135 815 210 811 699 622 226 504 655 797 14 578 84 145 86 734 17 499 32 499 10 425
471 20 2668 60 878 269 486 569 286 114 186 150 280 158 775 155 221 28 601 241 953 100 644 272 741 16 141 109 93 77 837 81 312 150 899 231 13 432 160 10 17 114 950
472 20 3812 413 368 343 765 240 201 94 932 448 622 273 46 587 288 26 495 469 385 81 281 164 231 202 805 177 195 140 865 9 518 364 505 63 751 338 199 152 344 182 608
473 20 5312 245 673 699 582 204 46 406 905 181 677 189 318 528 582 495 477 161 299 410 966 622 764 582 121 374 921 174 285 146 384 249 618 473 650 329 724 97 380 76 989
474 20 4565 371 705 90 136 184 461 289 168 119 787 298 700 52 382 216 754 375 411 593 357 570 592 187 672 378 475 96 171 2 341 465 93 302 95 247 912 507 506 366 124
475 20 4834 16 287 304 569 524 518 49 773 591 792 165 424 94 17 321 201 275 105 401 869 461 878 142 555 202 203 12 287 561 597 713 989 410 305 451 315 109 944 242 505
476 20 2836 54 619 284 531 230 674 104 304 21 71 375 237 14 49 119 396 57 974 133 33 109 211 264 607 416 103 263 181 78 52 119 176 35 909 370 259 174 664 327 17
477 20 2901 12 177 185 20 114 384 65 627 12 609 200 598 121 880 380 83 3 7 59 801 19 406 259 95 74 917 190 471 48 830 248 322 466 504 294 354 657 573 221 643
478 20 3368 234 26 293 370 161 209 109 514 111 675 462 898 216 881 496 825 65 681 140 706 214 703 197 271 29 281 42 841 150 534 418 674 206 828 11 956 343 496 314 248
479 20 3133 101 224 83 855 262 311 144 14 42 948 19 990 208 127 205 416 31 164 50 555 244 811 17 179 463 409 384 532 37 495 718 224 182 63 85 418 539 134 103 300
480 20 4400 75 38 579 715 186 31 9 395 181 777 215 317 341 173 24 711 75 837 414 235 479 211 514 630 529 456 175 262 268 939 126 549 455 330 327 272 38 293 491 146
481 20 3581 326 744 545 981 192 892 343 497 353 474 567 493 68 468 151 305 50 727 49 442 326 886 324 770 135 306 121 132 26 871 567 40 62 604 32 109 68 658 172 798
482 20 2390 78 232 40 138 233 527 306 309 361 386 215 530 80 919 16 288 168 488 53 531 135 503 108 980 175 216 214 527 40 349 99 979 441 365 2 234 183 791 41 674
483 20 3032 19 114 344 259 226 908 31 309 50 162 486 972 268 448 304 621 193 68 237 203 76 33 289 404 209 929 263 162 72 263 141 800 233 18 23 262 129 673 197 370
484 20 3108 17 243 116 857 331 440 322 243 30 249 14 413 297 146 71 716 410 210 3 194 13 627 58 386 371 202 293 284 244 387 15 681 615 669 502 152 156 320 7 522
485 20 2232 412 374 131 859 16 349 213 200 120 543 40 701 21 654 167 809 435 181 329 442 57 23 5 950 9 413 67 206 13 493 33 860 360 860 154 923 103 388 105 100
486 20 3816 199 913 108 454 241 342 162 855 237 695 173 775 318 445 455 158 496 652 677 125 44 110 43 300 109 610 300 435 108 87 240 351 165 129 461 970 78 43 156 204
487 20 3013 246 817 81 662 203 278 411 68 14 803 251 89 187 605 52 541 83 965 466 130 91 135 318 930 143 66 241 961 372 241 18 952 165 674 84 927 38 142 303 593
488 20 3206 658 816 124 568 139 76 9 647 152 397 70 274 101 1000 347 21 35 83 22 375 301 467 137 136 195 478 69 690 436 687 157 508 448 763 185 604 124 375 299 166
489 20 3356 104 169 196 567 388 261 261 944 15 936 347 309 190 245 53 584 370 610 448 823 247 250 122 44 178 656 326 32 140 694 273 868 76 901 232 175 220 846 10 982
490 20 3156 210 480 222 179 15 86 63 90 223 253 651 772 151 577 129 625 649 457 193 686 247 704 99 262 409 758 69 827 203 186 37 716 98 201 125 134 135 328 17 447
491 20 3329 273 183 30 490 310 433 139 804 361 106 102 690 106 635 52 182 397 709 185 875 296 994 299 670 303 590 255 292 430 349 97 742 101 132 293 298 27 749 106 307
492 20 2516 151 608 62 264 41 394 158 659 262 789 334 422 46 673 312 291 200 359 116 264 102 382 237 882 165 478 125 877 17 270 50 537 40 117 179 533 316 5 233 715
493 20 2489 255 792 3 921 42 91 64 259 164 692 215 954 182 86 18 494 188 796 26 620 228 735 536 187 76 462 42 147 114 650 111 18 215 139 47 286 19 211 567 814
494 20 3404 398 712 55 785 474 261 65 923 217 223 217 384 180 263 114 809 287 650 397 283 127 422 205 845 497 370 567 856 68 276 137 761 11 786 8 794 205 900 26 151
495 20 3141 82 102 32 174 577 286 221 254 307 742 177 59 140 368 119 306 226 921 283 214 406 84 284 420 123 270 146 929 214 135 30 759 3 280 143 954 273 289 141 524
496 20 2751 20 147 115 444 499 808 141 238 68 196 92 994 3 772 406 228 285 542 52 562 214 300 184 614 136 806 308 994 77 186 170 137 31 11 261 406 102 51 275 849
497 20 2688 265 981 96 168 84 817 165 694 103 724 154 674 197 662 172 676 39 625 102 45 236 272 481 812 341 558 123 514 23 622 414 345 153 987 70 687 90 250 53 563
498 20 3742 201 647 374 697 357 666 152 504 290 100 68 844 273 247 43 270 489 269 280 693 42 423 499 155 271 248 717 370 177 761 34 462 148 954 96 900 69 209 98 477
499 20 4130 70 88 50 96 18 605 119 408 384 793 60 400 387 817 211 851 193 338 268 868 32 865 468 507 876 176 294 305 501 593 361 760 24 978 315 597 46 348 486 297
500 20 3316 279 653 251 43 357 216 312 290 86 79 105 132 146 939 339 128 80 958 98 958 300 359 185 490 788 809 101 562 254 530 140 398 35 717 48 729 154 5 87 47
