1 20 2772 193 595 167 259 145 269 435 89 270 486 65 334 23 790 172 354 260 877 58 954 45 588 168 216 50 592 39 607 257 138 233 330 261 950 335 322 19 795 270 839
2 20 2086 228 886 97 784 53 125 325 890 82 635 21 642 152 579 68 990 21 992 57 777 58 909 300 183 20 450 212 124 216 490 282 274 11 573 342 928 7 317 56 642
3 20 2125 68 142 184 58 25 392 402 276 1 6 103 260 19 1 28 882 97 302 46 999 40 153 233 815 202 898 124 959 203 751 290 413 134 860 222 903 214 198 22 754
4 20 2532 92 465 138 861 425 133 76 118 233 33 277 525 433 977 70 75 132 849 88 783 88 230 95 558 152 248 28 419 53 898 5 237 402 652 119 294 34 965 226 819
5 20 1776 31 118 10 368 57 735 233 530 22 776 230 815 25 494 406 99 208 858 68 167 35 369 32 552 29 837 23 364 203 37 130 256 144 766 18 457 167 848 150 678
6 20 1622 87 738 55 871 36 355 80 503 12 931 214 976 33 422 55 114 9 840 145 113 1 5 221 52 82 490 89 180 331 513 33 993 3 315 95 543 121 395 326 187
7 20 1592 32 918 85 360 54 369 178 704 347 490 252 906 5 163 28 976 43 155 37 490 40 41 41 632 88 545 49 38 133 41 152 872 122 692 61 419 83 542 161 183
8 20 2452 264 197 117 275 275 548 192 407 19 374 18 800 19 806 586 557 22 386 3 961 226 369 136 50 177 382 275 473 94 941 62 24 201 142 3 769 138 430 238 849
9 20 2262 103 22 10 209 29 840 158 728 12 760 40 701 86 302 288 717 451 544 138 746 121 59 18 74 42 653 192 212 9 647 394 840 375 671 203 930 20 329 139 123
10 20 2523 171 456 186 202 49 864 312 49 206 150 283 337 117 973 16 387 16 112 257 173 48 340 5 828 83 447 190 844 623 156 82 280 287 647 5 715 113 751 105 101
11 20 2492 10 521 157 655 180 894 113 336 466 304 724 89 19 780 26 690 143 396 142 350 55 231 53 990 194 445 4 239 336 42 43 182 21 861 66 28 265 145 99 682
12 20 2352 46 458 383 676 99 359 272 817 73 431 118 378 87 9 316 998 143 138 7 900 200 131 30 295 41 179 40 315 186 620 127 441 125 850 102 762 365 718 181 690
13 20 1834 355 388 67 106 138 583 200 743 48 424 95 637 25 979 60 671 238 814 39 186 144 235 211 210 66 134 60 903 177 616 5 628 71 809 47 23 215 735 32 279
14 20 2424 275 399 177 846 41 80 211 302 89 460 254 328 45 278 43 471 361 395 51 532 27 41 365 142 271 177 209 1000 172 59 224 494 16 411 62 283 1 397 136 578
15 20 2708 37 308 253 810 307 915 272 50 163 10 17 929 321 465 193 966 203 713 108 85 128 106 57 291 234 677 50 47 174 462 263 838 172 506 41 239 53 292 339 814
16 20 1753 202 788 118 962 132 848 73 699 71 4 62 324 28 394 92 273 287 731 252 801 155 220 102 611 119 941 101 799 67 328 60 799 35 434 3 412 229 757 4 346
17 20 2011 107 878 97 684 205 273 229 278 112 712 262 687 156 861 28 254 52 190 26 251 1 533 77 503 166 938 243 920 128 903 242 826 36 305 118 732 41 76 188 81
18 20 2310 90 366 84 613 158 444 233 903 131 451 161 491 146 558 49 52 258 110 54 288 62 254 180 75 36 365 68 86 158 210 151 524 82 298 169 682 379 433 239 581
19 20 1759 311 69 184 595 99 858 164 37 2 838 68 863 30 506 155 685 82 468 14 656 209 978 75 14 113 787 219 831 53 756 335 914 20 252 31 327 11 417 24 146
20 20 2584 115 532 418 915 370 798 159 801 43 118 239 965 335 340 52 677 24 617 568 872 26 684 147 202 269 68 36 111 77 721 103 610 40 64 78 832 89 602 43 919
21 20 1681 42 816 135 842 242 755 141 680 99 595 87 438 47 993 73 882 6 668 48 47 17 646 16 296 78 55 110 420 65 766 82 965 155 781 109 266 36 161 514 18
22 20 1964 43 119 298 304 23 530 51 906 8 57 306 10 165 968 34 363 149 321 294 938 55 202 31 630 166 975 100 673 65 509 69 468 342 565 107 532 44 45 106 626
23 20 2704 284 773 35 30 318 172 55 821 10 121 381 336 51 380 272 144 84 491 78 241 144 588 355 749 531 114 2 993 252 533 133 144 72 920 31 811 92 823 200 492
24 20 2240 164 525 270 784 22 221 41 415 120 456 226 435 33 44 105 163 194 238 154 235 122 365 131 703 43 795 42 975 60 634 28 93 174 772 158 500 268 654 446 310
25 20 2507 114 625 74 161 82 950 55 974 166 460 444 29 407 592 15 500 105 380 315 173 184 50 2 365 261 868 43 115 59 619 147 47 130 619 211 178 268 819 52 385
26 20 2023 52 655 127 534 89 223 250 415 68 892 98 124 82 239 429 459 314 154 39 186 11 833 193 634 40 257 1 555 85 602 72 347 8 343 360 895 169 14 42 49
27 20 1663 61 177 60 491 25 488 139 576 21 739 50 373 182 965 103 883 59 996 101 761 104 349 34 507 246 977 105 406 34 764 219 252 40 588 221 931 157 140 118 522
28 20 3048 5 711 349 97 281 578 201 466 200 192 726 77 143 379 21 136 312 508 245 867 121 96 76 639 551 119 17 986 331 612 45 12 7 715 73 727 25 829 82 866
29 20 1822 130 387 47 712 1 151 57 865 227 958 32 410 130 517 101 847 19 919 35 232 181 365 197 890 67 790 372 224 95 570 23 608 256 108 55 119 157 838 96 330
30 20 1483 78 641 56 564 17 229 43 112 4 356 140 451 62 977 12 798 150 6 63 520 115 831 55 527 11 840 102 199 102 684 117 246 367 99 249 254 3 947 108 607
31 20 3207 307 913 268 273 349 234 26 212 25 609 338 578 252 258 196 985 338 690 400 100 99 155 227 492 98 822 97 264 181 755 144 278 184 460 188 526 199 855 93 713
32 20 2831 155 339 328 493 533 818 68 581 218 42 77 76 70 210 34 40 272 845 67 204 83 61 297 405 157 862 357 960 250 197 276 122 103 377 81 371 14 457 99 908
33 20 2741 143 919 97 723 357 468 206 425 313 997 143 642 14 935 118 823 167 345 221 558 70 887 200 384 135 762 73 418 167 619 78 629 330 229 224 617 286 708 85 500
34 20 1855 14 913 60 305 5 934 17 853 48 298 192 253 174 258 102 694 82 252 144 235 43 949 33 53 33 828 35 184 445 271 98 116 138 853 183 916 272 747 201 276
35 20 2280 244 944 31 440 24 213 71 33 209 978 62 105 463 172 50 696 175 675 212 42 543 922 15 994 104 64 17 66 317 243 132 177 110 691 30 309 22 243 20 663
36 20 2916 80 173 11 927 198 335 263 628 43 743 6 187 101 840 254 832 145 252 385 412 85 476 368 787 190 963 172 264 253 460 192 673 92 279 490 687 184 522 134 517
37 20 1695 182 332 208 136 12 422 7 816 2 24 89 773 273 624 15 706 97 52 46 373 360 397 69 771 6 502 36 714 18 28 27 793 92 272 152 192 206 426 222 28
38 20 2511 169 525 5 215 247 151 38 524 131 138 197 981 161 119 100 260 260 828 56 369 44 998 122 319 375 762 336 714 101 519 65 172 92 102 77 704 251 44 312 997
39 20 2822 183 885 240 609 46 847 40 790 236 738 36 131 141 434 359 881 220 512 238 915 280 930 12 874 451 823 64 514 8 191 414 302 175 815 161 939 63 491 161 786
40 20 2581 204 597 16 425 109 627 359 748 74 170 125 581 140 314 316 241 64 232 222 864 559 670 89 995 30 576 391 170 130 288 149 564 27 496 180 328 17 473 26 73
41 20 1676 47 848 462 394 363 501 7 27 76 446 68 949 26 622 42 947 173 799 23 334 54 181 59 44 49 578 126 345 20 241 197 590 24 241 133 81 121 157 25 966
42 20 2239 69 307 30 822 304 41 77 462 149 573 231 673 109 813 131 863 355 594 183 772 99 124 101 814 26 309 280 983 31 103 189 567 15 438 81 408 135 454 204 98
43 20 2171 418 83 47 221 105 27 35 619 327 392 117 561 62 489 22 326 218 145 323 920 158 30 35 222 246 736 37 246 24 734 38 818 8 399 74 261 253 860 167 85
44 20 1988 171 59 173 578 332 825 160 120 29 452 74 310 18 237 113 168 67 666 39 219 3 563 300 50 93 355 125 611 195 742 65 569 460 839 39 792 15 571 15 886
45 20 2504 200 391 174 795 69 583 142 52 233 96 19 773 120 614 441 792 15 865 178 250 11 155 86 877 57 925 5 706 268 980 301 480 293 257 81 136 198 444 239 162
46 20 1749 256 430 111 237 121 113 167 702 60 450 116 573 196 789 7 966 46 668 150 454 240 699 204 182 24 116 96 71 67 543 184 106 29 200 43 532 30 250 40 166
47 20 1998 28 685 271 827 34 990 239 483 24 258 4 114 51 514 24 955 370 209 109 600 206 83 76 412 32 298 155 367 262 821 48 126 431 155 2 99 28 469 104 287
48 20 1899 134 646 57 311 120 19 35 912 457 536 188 350 61 197 35 4 110 717 14 812 406 384 156 405 114 80 42 238 175 914 100 766 73 108 38 215 49 642 10 688
49 20 1916 47 764 330 143 144 601 124 37 28 787 59 380 4 532 43 827 8 224 221 611 298 854 110 555 313 357 28 541 72 80 24 341 71 937 146 328 257 430 68 710
50 20 1734 64 957 8 298 43 612 55 252 3 913 266 221 160 917 5 933 212 644 33 964 50 550 270 686 41 487 17 291 65 84 267 829 113 528 268 73 66 669 162 478
51 20 2594 39 945 414 444 19 610 41 689 296 89 168 718 327 212 262 395 79 732 183 550 20 32 501 817 92 487 48 922 55 241 49 705 10 493 167 361 428 401 45 586
52 20 2245 221 432 202 452 301 449 108 447 32 21 183 622 195 705 226 883 60 99 129 450 190 791 210 241 63 619 27 839 87 614 98 635 61 660 351 349 40 586 23 350
53 20 2233 185 166 293 756 93 681 148 50 227 791 70 239 183 100 7 183 60 55 341 796 217 278 206 570 1 42 5 264 72 127 195 310 7 611 69 443 303 541 110 9
54 20 3284 229 714 27 311 172 567 265 774 416 816 289 374 494 902 376 400 56 254 451 692 60 877 57 40 482 263 29 340 15 667 179 545 289 223 150 67 26 56 44 314
55 20 2007 299 995 72 306 84 534 51 626 181 712 142 540 253 570 107 475 21 363 25 705 136 872 41 480 133 532 55 920 42 431 155 113 2 177 602 200 30 979 78 989
56 20 2098 5 727 24 380 251 348 224 633 209 734 366 819 128 721 76 838 100 218 73 575 93 147 7 705 528 199 78 518 76 163 24 342 129 698 7 473 192 845 33 858
57 20 2985 43 656 308 916 173 486 101 93 382 328 37 588 256 225 182 677 21 924 10 365 65 981 267 510 592 122 58 627 321 16 172 507 191 338 274 829 203 330 76 31
58 20 2744 62 373 65 351 105 957 258 221 101 261 173 808 625 537 10 98 55 789 9 473 336 378 232 307 38 883 65 454 150 744 464 30 38 787 104 95 66 553 475 80
59 20 1408 11 686 19 656 163 971 57 597 149 133 149 520 9 224 67 699 59 561 101 25 43 262 147 555 195 229 102 438 148 380 107 359 124 1000 94 343 7 527 10 303
60 20 2004 358 244 394 606 171 883 5 706 57 20 179 255 85 996 141 208 38 547 1 317 41 626 142 274 28 914 139 583 128 168 196 599 138 950 24 792 79 998 162 692
61 20 2443 236 504 8 350 223 605 219 853 47 442 440 774 91 367 44 854 22 918 2 233 461 822 7 248 137 144 202 289 343 770 169 671 117 965 180 977 81 314 25 453
62 20 2396 154 419 157 366 190 619 415 266 35 228 197 869 99 372 125 405 341 667 156 330 199 647 118 528 54 33 116 278 45 213 108 572 41 679 87 130 22 185 336 507
63 20 1954 252 963 67 697 165 875 20 142 29 956 130 760 17 927 104 683 270 989 289 686 38 599 5 144 28 777 215 525 26 137 7 725 170 711 133 930 297 947 181 872
64 20 1846 25 453 10 676 91 428 72 647 154 994 187 254 105 282 224 402 145 326 29 331 18 570 24 267 148 352 247 75 98 706 7 924 221 306 17 238 262 920 224 805
65 20 2805 115 139 96 863 29 573 149 423 397 204 437 151 48 143 142 337 354 51 268 902 169 540 51 197 29 925 149 194 460 465 155 56 53 386 224 224 82 36 100 902
66 20 2134 325 754 5 843 73 982 37 414 16 109 126 797 18 956 76 530 274 719 12 366 27 94 167 243 107 292 388 701 19 162 167 207 65 576 131 485 174 633 461 349
67 20 2684 27 212 412 346 150 869 460 400 66 226 331 532 190 227 378 828 98 262 149 917 40 713 105 1 27 4 91 617 41 875 400 403 57 426 204 541 106 495 24 917
68 20 2873 76 323 87 250 317 59 109 298 46 258 9 802 191 702 205 670 142 134 336 591 267 242 363 637 450 688 1 770 6 474 356 484 370 153 3 147 122 896 136 309
69 20 2520 468 683 251 22 365 894 238 582 66 162 130 655 113 784 156 265 106 795 46 476 11 542 45 420 78 584 154 409 108 157 74 828 273 931 110 772 127 978 232 272
70 20 2769 341 583 311 981 221 475 237 774 90 449 4 613 32 659 33 189 126 480 422 718 262 150 158 289 387 467 66 204 313 963 27 193 217 376 186 33 25 431 4 964
71 20 2944 320 686 241 993 158 365 105 437 202 208 85 659 453 222 182 844 352 417 222 323 63 452 203 220 83 181 20 812 29 978 58 965 26 446 437 277 237 908 205 91
72 20 2225 357 248 140 660 218 763 32 179 166 888 360 803 125 124 204 919 26 854 50 42 65 575 39 154 71 329 93 440 124 6 226 23 219 598 57 164 192 524 18 984
73 20 2258 23 56 365 438 31 58 132 17 45 893 175 653 177 297 112 861 109 565 217 828 102 558 37 49 120 125 317 324 111 496 46 296 28 516 276 115 342 121 58 766
74 20 1600 108 513 99 348 181 475 64 289 2 894 183 826 64 394 69 37 34 797 238 11 39 457 37 408 47 444 80 189 153 632 146 485 1 534 129 678 61 708 266 160
75 20 2140 105 703 98 968 87 592 224 798 507 200 299 375 53 920 142 133 102 247 4 778 68 195 138 770 16 672 76 917 69 305 395 453 64 255 33 624 79 377 117 770
76 20 1991 61 775 91 269 5 487 34 521 66 281 67 625 62 487 258 565 310 401 43 365 80 983 182 281 174 673 416 200 11 94 14 570 27 839 142 637 179 957 267 186
77 20 2207 93 811 22 135 453 82 98 318 205 779 94 581 150 747 233 5 58 579 85 710 341 843 9 647 22 388 195 927 189 768 231 490 120 874 34 454 99 275 28 238
78 20 2176 230 190 231 938 147 980 108 307 152 615 231 542 69 256 87 622 62 590 10 792 54 917 107 143 226 16 32 723 226 179 235 207 312 670 39 151 71 952 91 944
79 20 2184 121 355 178 160 349 981 201 210 108 84 83 100 153 747 249 916 214 290 103 238 65 536 196 925 7 435 142 693 129 691 33 979 131 405 81 445 58 653 130 345
80 20 3378 494 120 270 229 30 731 283 773 24 3 231 244 265 502 197 657 364 381 210 628 16 539 408 577 208 376 16 645 235 722 90 914 24 665 474 374 240 699 144 562
81 20 2352 39 927 7 760 71 213 13 632 243 705 99 98 131 841 37 453 597 768 326 733 9 95 95 119 41 1 154 659 392 737 299 394 30 977 182 621 105 399 70 897
82 20 2538 153 834 71 329 47 230 210 273 216 936 151 775 150 107 65 117 613 970 50 610 55 339 196 762 102 320 86 108 173 186 116 353 280 977 57 379 184 573 198 320
83 20 1531 93 387 123 802 5 942 51 581 127 244 33 915 27 116 273 280 62 222 66 669 43 330 5 652 34 843 207 882 30 262 25 801 39 642 408 531 187 40 76 371
84 20 2517 69 99 12 624 121 382 20 263 278 58 2 903 433 712 31 157 117 440 289 37 230 703 129 153 26 910 97 561 91 272 498 562 257 810 187 278 216 245 44 311
85 20 1701 50 875 13 393 224 536 63 600 81 300 294 85 3 572 117 890 175 688 6 864 138 246 35 707 215 700 54 641 87 608 35 380 233 889 19 874 17 402 268 998
86 20 1728 107 437 16 150 4 575 21 208 131 672 28 910 10 422 39 436 300 347 34 736 326 202 2 50 259 634 101 718 155 719 91 742 27 948 25 102 85 132 400 806
87 20 2024 165 321 76 528 68 457 107 761 8 64 10 833 102 20 67 954 2 338 237 369 159 953 456 299 10 989 55 89 2 291 90 858 104 432 275 726 362 982 175 13
88 20 2434 40 733 7 82 186 400 321 548 165 877 451 622 107 18 152 296 92 152 351 477 347 7 65 680 67 478 48 845 93 250 255 913 7 830 175 684 86 418 28 575
89 20 1499 112 609 68 734 50 803 249 946 5 597 39 233 300 412 21 185 19 568 33 295 76 778 64 835 59 602 47 33 229 40 78 218 30 837 22 206 15 395 358 515
90 20 2469 248 576 216 707 225 818 431 329 406 144 37 623 13 950 98 814 23 502 42 536 458 918 83 877 90 251 130 233 142 898 91 604 195 251 88 569 7 429 64 46
91 20 2942 64 580 14 991 127 57 367 931 247 659 26 104 194 157 108 229 129 294 99 93 73 308 449 177 110 530 314 744 446 495 190 932 338 974 217 257 78 853 88 288
92 20 2303 48 150 13 516 656 535 24 65 222 577 59 624 346 773 8 56 308 22 87 925 21 432 78 978 168 623 134 976 243 982 50 507 68 648 119 909 191 109 36 416
93 20 2038 534 63 202 241 171 244 47 813 188 38 131 602 94 601 149 910 28 730 8 403 34 927 9 968 150 98 233 391 160 706 41 95 12 764 132 302 13 371 212 604
94 20 1641 15 218 164 560 104 347 21 967 138 855 73 598 97 786 71 879 45 437 52 54 230 420 110 318 331 537 76 552 121 587 104 646 238 864 36 14 6 680 20 331
95 20 2564 14 320 9 553 90 957 192 375 508 384 261 199 344 226 42 349 76 377 93 381 163 928 220 891 351 354 8 85 234 936 256 733 29 38 113 459 110 17 92 372
96 20 2032 87 319 32 749 214 574 44 93 136 622 61 623 77 354 16 974 247 30 431 480 172 398 145 239 84 797 100 273 49 333 144 228 280 683 139 531 77 712 5 902
97 20 2526 123 867 370 762 24 272 139 155 21 59 187 694 79 712 64 194 129 294 73 399 42 217 26 963 86 557 172 353 287 943 180 484 55 967 549 956 61 235 491 670
98 20 3174 237 334 395 362 76 232 99 419 297 258 159 155 256 380 346 6 128 334 208 931 27 185 238 656 114 671 251 932 57 911 94 149 73 91 493 274 260 523 160 170
99 20 2087 112 137 89 177 84 404 12 483 184 266 230 679 105 609 75 252 37 174 237 853 98 148 91 912 16 1000 86 157 362 804 179 746 153 945 103 539 73 692 283 829
100 20 2745 412 454 260 289 79 26 130 18 1 265 21 17 376 402 128 146 146 21 17 618 151 160 65 893 114 584 311 125 221 308 139 536 426 802 158 858 97 141 180 188
101 20 2585 15 710 130 196 267 19 5 388 67 731 468 988 1 132 34 672 171 520 16 76 70 222 85 318 193 908 564 353 476 877 124 598 133 14 3 578 53 849 357 888
102 20 2724 192 677 327 763 73 90 265 819 168 291 117 537 53 379 165 687 265 337 138 72 53 899 321 778 92 973 103 859 302 219 58 561 525 535 61 912 48 99 80 727
103 20 2067 53 90 48 588 193 654 52 298 108 553 46 49 184 684 159 348 220 43 192 247 186 915 218 528 159 866 225 414 71 863 63 879 244 727 79 320 60 132 24 934
104 20 1952 149 999 13 584 39 955 198 784 3 220 99 926 20 568 24 587 279 992 185 374 297 500 10 108 19 898 146 937 178 231 420 544 15 205 168 917 97 901 81 849
105 20 2481 141 599 85 233 61 734 153 115 70 880 43 816 107 886 170 846 375 678 98 382 279 848 178 570 128 228 72 893 209 634 127 38 173 232 145 629 73 31 415 169
106 20 1970 43 974 42 14 373 58 41 124 151 783 180 325 33 383 19 820 92 863 13 357 13 612 63 930 11 396 330 924 15 89 202 859 38 732 306 376 85 308 413 177
107 20 1843 299 795 141 108 74 660 33 599 37 767 227 545 4 454 42 310 246 973 163 575 188 449 8 808 34 953 84 617 154 703 233 472 122 857 67 519 10 911 138 739
108 20 2756 556 412 207 22 195 934 42 650 73 893 122 24 311 7 220 995 5 944 419 320 54 71 87 948 92 742 110 857 49 807 189 550 149 403 50 680 107 905 408 922
109 20 1809 199 95 316 383 88 541 177 344 66 862 39 884 66 368 13 386 7 404 70 191 320 384 29 341 111 196 185 226 102 833 163 319 219 622 36 538 48 121 8 832
110 20 2397 366 547 283 150 87 935 117 710 7 891 74 457 207 321 186 630 109 584 106 339 181 666 459 97 84 798 42 579 135 591 242 609 28 953 62 818 156 203 66 417
111 20 2128 100 161 45 521 187 12 191 223 222 771 14 956 113 919 67 423 187 284 241 662 98 804 110 949 73 34 55 478 115 650 104 322 159 320 362 898 69 144 149 58
112 20 2693 98 349 241 591 17 57 291 366 362 136 34 148 14 723 14 118 214 127 336 934 155 759 38 298 307 387 124 840 448 477 40 234 118 690 143 750 97 546 276 129
113 20 2870 205 990 137 739 104 211 45 290 69 181 111 153 3 567 36 689 156 390 235 833 178 145 520 41 458 66 415 108 164 678 7 484 374 427 91 588 167 318 113 511
114 20 2277 21 374 354 7 3 876 156 573 30 379 219 576 110 71 187 759 143 894 144 115 11 183 95 701 249 513 192 862 399 350 31 508 156 495 142 919 57 866 148 565
115 20 3333 147 296 329 593 284 793 71 329 369 750 173 946 227 827 142 8 228 443 380 609 117 566 186 2 311 928 221 291 13 812 187 887 111 152 618 276 4 638 49 454
116 20 2716 126 532 46 437 311 378 131 853 38 542 629 398 61 72 349 485 101 119 40 964 279 230 135 655 56 319 137 816 129 867 52 247 163 741 439 307 61 438 112 54
117 20 1961 41 799 18 998 113 917 17 916 210 788 173 235 16 945 210 100 169 195 50 101 44 606 305 160 41 19 50 591 12 986 265 237 269 471 183 968 80 586 186 669
118 20 2592 2 976 22 634 576 811 87 95 61 619 289 200 27 526 307 502 176 537 152 697 75 406 105 529 8 754 30 812 356 369 18 387 273 596 107 594 422 714 148 128
119 20 2681 305 919 92 538 108 162 198 931 119 396 350 914 150 160 128 881 11 556 146 874 88 77 177 425 11 712 232 762 343 83 50 493 544 211 138 243 10 982 152 490
120 20 1630 115 695 47 445 117 396 48 852 50 595 32 774 68 343 183 699 43 446 84 124 29 317 11 268 607 860 70 790 273 306 16 864 99 844 65 703 20 387 61 50
121 20 1873 216 931 132 810 35 987 42 405 7 621 248 428 367 918 255 916 23 43 245 956 52 963 18 99 146 214 41 814 45 225 220 673 80 22 109 952 32 977 29 964
122 20 2208 24 48 370 214 65 248 188 338 257 22 44 62 235 466 194 856 75 114 102 58 26 458 268 897 232 499 9 938 26 236 101 823 182 408 187 190 51 269 124 55
123 20 1890 220 80 136 966 24 2 230 299 351 156 7 375 87 497 13 216 10 922 229 593 242 353 111 569 21 425 57 70 51 786 222 583 24 671 71 493 11 586 246 711
124 20 1360 43 463 113 446 41 602 179 268 30 531 122 993 109 241 74 210 102 500 22 982 117 303 161 181 98 764 116 616 88 560 113 890 111 200 19 905 27 288 16 278
125 20 2000 136 972 11 661 40 651 292 813 88 88 14 1000 504 521 95 503 137 148 12 618 30 619 186 658 93 144 62 735 187 842 206 770 184 363 10 921 138 296 75 14
126 20 2147 269 609 189 735 86 918 56 663 242 79 123 95 154 737 89 771 214 733 37 731 121 660 63 397 213 579 155 636 153 151 116 800 27 646 145 612 226 202 6 294
127 20 2146 540 977 84 268 81 803 35 947 192 357 18 785 53 388 112 383 348 642 42 227 77 4 22 319 59 194 166 186 144 252 259 677 8 890 100 589 261 418 82 646
128 20 2063 108 831 87 716 29 26 248 227 340 613 165 682 5 77 69 66 5 358 38 934 42 629 38 503 4 956 170 648 248 383 152 708 260 307 27 297 227 562 317 458
129 20 2655 46 378 48 305 139 979 239 67 215 638 366 232 76 239 205 344 91 127 108 39 337 653 295 496 113 519 94 574 202 18 12 742 238 344 259 50 172 23 64 856
130 20 2319 631 308 122 418 219 842 511 46 39 778 57 698 4 766 362 734 20 735 5 270 3 535 1 543 196 947 172 700 15 702 318 63 72 37 57 46 25 460 70 45
131 20 1648 122 595 26 361 374 135 44 456 121 85 91 908 64 8 3 137 26 287 37 333 163 712 18 684 109 639 147 385 56 810 172 517 139 668 113 298 109 595 127 757
132 20 1716 160 874 78 856 114 124 150 140 130 730 36 787 47 957 59 191 341 976 60 158 15 216 211 2 24 768 102 67 99 468 75 16 56 621 82 13 16 611 291 892
133 20 1266 62 735 78 511 51 96 101 369 51 369 78 317 169 195 126 34 12 815 42 715 87 794 74 357 118 999 48 583 22 736 15 469 26 814 284 12 74 215 65 349
134 20 2014 93 392 267 433 137 879 37 599 155 208 74 782 192 872 58 259 466 183 101 195 82 351 244 260 11 321 118 134 195 864 118 196 54 779 51 14 1 984 64 269
135 20 2556 439 39 74 486 158 312 33 341 147 113 454 949 325 474 114 549 37 943 22 543 305 861 85 524 14 390 80 210 90 603 123 123 160 951 350 418 87 461 98 673
136 20 1832 137 219 65 783 78 943 71 958 132 21 24 788 163 428 45 701 273 465 20 896 424 770 2 144 12 655 144 184 35 770 29 37 9 487 96 329 442 220 89 326
137 20 2008 135 314 59 606 62 557 98 135 56 789 22 167 85 759 5 754 344 119 168 697 294 289 49 371 65 487 162 992 112 63 184 849 36 735 114 92 174 23 287 728
138 20 2149 42 606 397 325 166 531 8 880 255 27 150 963 70 47 55 126 348 13 10 189 78 335 223 764 38 365 93 994 134 137 11 461 228 789 105 884 94 592 182 312
139 20 2864 42 304 519 471 11 589 329 457 16 847 29 227 155 885 192 419 102 40 401 295 36 652 299 561 149 159 143 625 261 459 48 543 366 218 38 197 104 149 341 933
140 20 2252 101 280 26 947 328 653 10 958 19 161 73 701 259 539 79 36 284 325 51 961 313 302 56 176 103 310 101 376 333 708 120 947 145 90 247 299 25 574 142 919
141 20 1961 228 548 236 633 109 870 16 803 98 928 1 526 97 610 80 975 34 68 8 91 284 720 93 485 112 556 17 852 384 75 267 53 226 531 119 917 41 947 2 965
142 20 1784 224 43 200 634 205 850 3 437 119 959 129 714 37 313 246 372 16 470 82 393 16 56 54 386 95 380 173 538 271 440 151 214 46 957 62 939 1 334 101 82
143 20 2235 128 805 7 685 67 374 45 360 149 239 181 56 149 101 115 129 165 409 128 235 102 881 149 225 94 783 35 565 107 156 163 364 42 180 372 267 80 446 516 912
144 20 3032 5 378 355 745 487 500 83 803 134 172 49 103 283 625 61 836 118 289 207 28 145 122 493 132 120 575 431 741 74 364 63 434 351 76 258 606 21 184 53 954
145 20 1910 113 641 149 747 134 462 310 209 286 931 10 314 31 886 155 850 23 383 34 821 150 108 159 487 101 614 225 389 8 380 65 64 79 261 57 772 245 960 54 890
146 20 2283 38 283 179 231 43 344 136 189 283 189 277 751 192 980 99 301 108 978 39 521 4 85 293 732 94 718 274 432 139 509 23 662 357 440 32 756 134 701 110 377
147 20 1806 185 703 181 767 37 274 77 27 83 401 46 118 22 93 177 907 12 622 209 379 1 782 138 757 208 710 1 391 74 236 199 420 302 411 97 185 205 373 4 762
148 20 2525 296 406 91 197 108 510 214 122 23 781 72 819 85 785 248 146 299 886 38 512 3 129 43 406 53 993 273 77 288 262 68 497 361 873 263 14 45 595 286 834
149 20 2826 200 807 282 480 370 101 37 566 239 327 25 53 353 689 281 362 80 42 182 849 32 522 132 572 357 935 24 784 172 437 498 36 52 884 172 420 8 427 37 174
150 20 2604 63 195 5 637 561 707 246 482 159 38 85 383 64 390 209 521 439 147 100 372 122 92 84 960 50 436 33 550 378 283 124 682 57 698 189 890 163 657 125 1000
151 20 2251 175 887 90 592 219 888 136 856 28 777 225 36 15 246 421 123 49 408 6 652 81 22 61 60 76 27 55 952 492 704 111 121 194 824 66 191 291 135 23 556
152 20 2751 9 938 110 883 41 660 199 497 54 11 125 940 201 278 235 367 260 342 218 786 10 942 390 328 290 469 177 381 130 240 56 71 241 63 79 295 305 745 309 56
153 20 2256 7 947 451 344 184 74 17 469 19 305 303 130 35 477 280 305 354 671 148 840 374 35 14 822 30 741 219 77 16 219 14 267 33 327 20 700 294 814 9 596
154 20 2415 395 581 135 428 21 546 16 822 13 198 10 990 139 836 158 24 93 840 93 636 13 429 298 975 299 581 82 899 280 973 232 341 26 19 432 109 167 117 117 662
155 20 2224 55 891 97 318 65 811 141 967 90 240 145 27 116 284 158 809 70 257 223 857 179 610 33 3 163 390 79 249 50 478 42 365 119 307 341 413 275 179 339 877
156 20 2512 63 41 87 782 156 724 211 417 17 612 238 19 112 647 175 94 121 910 31 841 164 674 93 974 119 100 55 900 433 546 12 187 257 642 158 964 400 649 239 134
157 20 2304 137 604 315 958 54 271 73 1000 165 86 84 701 28 856 47 708 51 549 327 474 296 316 241 458 284 728 248 666 25 918 270 735 16 18 180 152 19 518 20 945
158 20 2555 150 757 9 850 142 131 111 177 70 750 120 123 179 544 493 970 106 511 168 51 51 98 217 696 180 840 346 813 7 243 159 720 343 705 2 831 46 729 295 767
159 20 2620 156 372 252 116 218 83 233 594 28 969 246 958 25 742 208 104 364 354 75 61 151 136 55 838 144 377 241 163 42 248 5 934 6 244 531 570 64 643 232 32
160 20 2639 105 108 133 175 172 194 344 696 117 290 337 292 188 939 25 230 37 810 254 728 310 867 11 295 116 735 285 305 215 398 95 819 144 959 155 953 170 823 86 960
161 20 1501 161 928 26 861 11 627 169 417 16 497 109 316 157 851 41 158 189 88 9 949 239 457 9 209 33 915 23 776 172 936 112 55 15 284 45 8 17 881 324 367
162 20 2236 3 941 108 250 55 824 349 395 330 760 8 116 53 820 251 209 432 252 66 504 17 968 31 43 218 868 450 458 70 349 75 946 86 840 94 439 79 943 21 962
163 20 2510 368 373 244 646 73 445 87 50 140 158 9 54 80 535 129 670 4 15 118 887 284 912 187 882 72 20 2 872 87 36 38 582 715 181 195 81 8 913 298 350
164 20 1926 151 948 138 112 42 210 78 606 75 121 114 38 542 721 99 983 63 463 42 824 264 817 187 104 87 13 29 412 21 80 54 240 35 547 130 402 96 792 161 723
165 20 2473 374 339 321 689 152 752 30 267 105 443 92 750 108 570 51 124 387 834 157 979 21 351 49 975 81 950 3 171 261 511 112 803 111 225 388 436 35 544 254 728
166 20 2296 332 608 84 974 98 473 119 471 76 853 167 295 33 897 84 186 137 624 46 903 10 116 190 852 73 561 402 266 34 700 122 767 136 878 350 417 135 326 243 644
167 20 2028 68 510 27 190 96 179 137 919 335 578 176 145 257 804 7 763 30 413 141 257 117 218 84 293 324 608 180 4 199 651 35 5 39 918 161 500 97 282 25 597
168 20 1878 5 816 446 978 17 863 101 746 152 678 1 471 52 386 17 705 37 514 40 437 523 703 207 729 57 427 181 233 25 576 46 499 41 739 50 73 102 478 248 234
169 20 2126 61 144 85 179 247 977 83 411 234 241 211 746 222 832 34 738 34 599 152 588 113 67 104 943 301 235 105 852 321 905 23 424 7 711 128 872 27 475 166 891
170 20 3156 455 308 154 434 300 726 224 72 49 161 149 499 72 977 146 925 275 907 400 193 193 547 207 6 170 41 315 728 347 594 244 955 84 731 10 791 76 821 75 11
171 20 2672 392 406 115 393 174 352 210 619 37 233 64 387 116 540 91 133 151 503 50 719 322 938 96 534 332 594 114 70 12 151 439 237 278 779 100 615 189 891 58 625
172 20 1608 14 695 45 905 96 276 113 777 100 599 7 229 67 268 78 540 29 588 7 706 22 98 113 490 91 432 7 43 260 973 211 608 271 971 334 843 121 724 24 654
173 20 2543 171 685 58 781 127 598 19 816 25 134 99 333 268 613 342 479 58 678 382 463 162 242 290 113 30 23 2 420 111 85 709 360 84 812 85 233 110 674 47 370
174 20 2586 146 872 23 106 15 607 188 430 149 615 196 183 123 858 379 981 227 459 93 473 78 28 69 648 172 643 22 277 310 73 29 924 138 402 293 429 122 705 461 285
175 20 2957 401 855 126 670 53 945 98 216 79 989 528 38 169 21 165 512 46 833 272 999 122 625 148 699 162 377 89 147 589 289 82 948 105 230 316 197 97 516 50 665
176 20 2606 320 16 1 303 396 329 114 692 110 643 88 742 31 463 41 72 166 344 91 56 98 410 190 755 159 799 11 136 269 565 451 361 75 667 48 366 405 601 194 388
177 20 2053 33 499 235 395 244 982 386 128 25 886 47 917 82 141 30 362 87 698 69 754 26 219 174 504 77 517 65 600 23 85 304 504 159 868 313 743 41 865 147 758
178 20 2144 26 632 144 266 350 649 1 244 57 365 100 843 226 55 410 55 141 171 53 391 172 536 162 86 226 633 14 10 179 672 52 299 152 708 14 150 15 781 186 144
179 20 2118 474 616 1 129 178 993 256 102 51 206 150 377 182 891 6 38 126 341 21 448 52 365 46 888 209 693 229 878 29 411 163 372 19 79 199 890 218 40 39 344
180 20 1665 126 747 346 643 73 25 77 841 125 52 19 444 14 257 67 182 71 532 43 118 51 346 254 870 5 991 44 237 273 490 117 646 1 804 260 749 39 651 77 476
181 20 1970 150 488 110 202 359 832 159 184 59 620 206 776 57 532 6 144 249 737 82 930 93 353 64 304 126 922 37 195 34 176 239 830 57 79 122 788 81 4 173 926
182 20 3634 776 123 180 488 181 836 304 61 29 588 409 58 408 594 67 989 577 579 355 919 91 274 331 79 66 988 2 163 32 632 231 505 122 66 77 796 293 86 12 698
183 20 2396 41 97 191 63 18 606 8 880 246 137 126 228 44 986 276 580 17 983 55 686 35 341 104 192 275 873 269 222 221 232 80 619 364 322 274 657 47 831 304 183
184 20 2512 85 765 4 142 24 230 17 660 311 959 124 505 142 5 142 917 252 282 318 84 135 254 298 14 207 794 21 343 44 540 299 710 353 544 239 794 121 305 5 958
185 20 2130 47 672 11 205 299 94 395 946 140 832 3 846 89 636 103 873 37 164 92 629 19 94 598 516 196 571 141 821 94 520 10 116 14 296 51 540 262 701 62 504
186 20 3372 140 638 220 875 291 116 58 629 151 970 10 715 392 559 91 380 231 249 124 938 76 386 48 339 76 558 112 1000 557 915 684 42 57 544 192 15 402 253 303 963
187 20 2004 22 799 67 641 79 512 42 526 30 799 280 289 103 766 98 547 96 271 167 162 119 403 323 537 242 29 3 108 64 782 193 244 21 801 113 738 102 606 341 901
188 20 1810 40 916 60 963 134 450 159 359 64 348 67 813 53 752 73 322 149 237 112 519 227 65 124 243 75 145 9 822 290 592 141 462 66 853 39 58 254 358 127 183
189 20 1767 43 202 257 238 29 672 214 730 113 582 40 830 22 714 183 180 77 125 122 342 151 185 110 312 132 741 81 919 180 498 28 433 54 876 12 825 207 466 154 422
190 20 1852 111 140 58 722 2 715 89 949 57 231 87 805 36 949 87 607 95 791 102 707 77 362 281 576 109 19 12 830 260 296 72 944 336 482 97 653 225 567 123 443
191 20 2161 22 848 14 914 234 267 324 657 69 740 56 658 183 300 162 504 82 524 76 281 462 154 150 61 29 675 160 174 93 751 322 178 61 745 99 489 1 574 103 349
192 20 2239 73 733 5 124 309 460 105 817 6 299 174 964 329 300 270 61 143 48 299 747 48 763 25 44 225 349 102 345 78 455 123 620 103 891 7 571 85 690 290 463
193 20 2698 434 971 4 434 64 122 63 44 140 127 6 148 82 124 460 547 44 221 76 368 68 690 376 879 243 2 289 953 153 997 373 369 53 687 119 716 3 45 323 550
194 20 2405 215 526 60 123 13 865 112 34 8 125 12 46 395 532 414 646 1 810 13 846 404 902 83 661 285 189 5 204 248 747 202 356 45 151 76 506 40 672 376 832
195 20 2579 706 126 27 252 13 324 55 959 139 448 301 614 78 763 257 243 27 33 134 565 136 362 30 132 288 452 168 633 113 954 111 131 92 283 126 19 148 442 275 760
196 20 2251 133 92 24 584 380 402 137 203 153 167 183 362 90 183 166 48 112 477 119 888 59 219 136 195 175 482 136 646 70 847 113 9 107 762 27 798 380 669 114 844
197 20 2662 268 903 417 253 124 868 129 411 18 108 68 266 16 638 26 253 241 773 331 703 287 541 313 156 15 111 30 919 116 820 206 213 149 358 225 695 214 942 135 363
198 20 2907 368 761 174 959 298 814 96 296 29 269 19 895 188 238 69 732 172 477 104 63 100 396 169 329 68 419 69 160 408 273 327 558 129 835 310 901 498 629 39 19
199 20 2555 437 205 3 697 278 825 100 757 145 483 156 812 189 235 33 914 39 128 417 681 485 208 176 87 20 366 36 998 4 255 85 525 325 890 2 856 231 96 33 907
200 20 1697 176 321 116 2 253 849 48 249 49 257 6 507 105 799 5 71 117 539 263 422 99 511 17 665 40 405 91 423 115 891 99 912 43 947 42 582 379 612 59 454
201 20 2464 13 601 89 458 259 410 121 7 147 321 27 249 237 430 503 713 351 242 102 218 25 597 20 516 120 677 121 618 215 392 70 93 108 511 202 331 172 124 178 834
202 20 1988 3 706 183 337 250 124 218 120 40 684 66 846 61 372 86 929 126 131 44 662 16 400 187 443 43 475 222 31 362 426 55 465 167 442 180 983 22 912 155 914
203 20 1608 83 514 92 956 157 512 30 782 152 957 131 60 49 116 44 922 61 566 7 464 17 486 44 524 38 511 75 745 217 481 165 127 50 348 147 339 230 399 221 461
204 20 1580 22 170 284 334 111 984 138 687 37 767 48 135 138 169 41 152 50 756 28 916 142 214 18 135 245 300 102 318 283 147 52 504 7 679 17 860 193 843 20 347
205 20 3095 331 376 196 888 301 608 75 558 218 900 92 12 9 306 48 993 194 41 46 97 525 178 57 768 189 774 252 247 305 693 632 534 153 315 86 144 6 655 154 485
206 20 3550 170 370 178 729 251 717 280 698 131 863 182 466 345 384 408 737 216 74 475 255 306 851 353 82 40 162 264 782 427 800 108 803 56 527 110 424 26 643 112 483
207 20 2598 124 895 123 698 56 52 287 815 235 686 257 318 168 452 63 936 73 501 263 83 77 499 428 825 64 184 233 903 303 581 157 241 10 562 151 968 55 199 121 861
208 20 1970 283 97 16 424 283 33 93 382 70 251 77 670 123 63 318 550 32 17 256 108 64 706 15 75 101 703 159 656 300 69 5 20 71 12 97 759 2 359 98 208
209 20 2306 55 866 134 949 151 627 58 577 225 870 292 796 11 488 40 171 5 800 109 669 124 884 93 682 162 448 234 928 391 458 173 42 132 946 249 947 71 959 174 975
210 20 2422 151 193 391 701 3 241 52 118 374 348 29 201 23 916 45 652 126 418 164 669 100 549 103 275 138 821 336 992 99 6 139 47 166 632 173 282 53 307 363 72
211 20 2018 46 933 80 149 34 478 283 742 7 631 188 820 525 819 51 461 91 387 92 81 107 518 260 87 225 367 42 422 174 479 55 602 96 12 8 811 60 152 99 850
212 20 1961 265 388 79 82 109 812 133 547 76 269 273 700 29 490 188 512 162 604 3 651 130 694 463 257 5 171 39 329 66 533 7 109 165 195 25 869 181 748 54 946
213 20 2252 8 711 53 585 373 353 125 214 261 497 61 594 287 610 10 986 86 481 213 370 201 878 272 70 28 341 140 944 289 35 179 852 17 702 25 984 69 702 118 486
214 20 1243 235 421 27 926 38 986 91 3 70 625 36 938 6 140 80 621 74 582 8 19 349 771 15 604 66 575 89 82 69 646 119 109 33 287 27 254 11 129 111 596
215 20 2338 185 597 109 103 132 938 50 689 93 824 196 777 290 442 371 44 228 210 14 688 128 904 94 686 212 989 71 77 111 346 198 758 122 584 152 95 42 866 125 174
216 20 2328 31 299 161 984 375 37 368 670 38 887 50 273 253 838 123 411 38 936 186 199 52 39 114 561 28 926 239 156 515 673 121 699 44 558 119 507 47 612 9 244
217 20 2048 98 111 66 107 240 338 503 73 70 9 86 116 122 791 218 770 18 30 275 394 88 935 66 58 101 972 35 543 87 261 61 668 278 886 5 411 67 743 76 722
218 20 1951 161 139 117 504 24 168 6 748 30 286 253 731 90 57 76 381 311 994 124 940 65 735 67 424 8 562 330 831 71 862 106 117 190 422 84 375 155 357 171 166
219 20 2898 114 335 205 503 194 238 292 487 212 739 88 928 23 773 178 622 7 682 347 191 413 737 398 639 10 342 137 648 69 601 205 532 124 885 35 840 508 12 64 542
220 20 2967 359 598 229 705 477 613 47 670 437 615 100 876 206 700 361 263 232 541 299 59 107 583 49 84 1 529 6 309 215 365 135 727 195 760 81 589 156 176 17 700
221 20 2034 260 583 148 122 324 988 59 895 176 686 217 670 43 910 52 372 188 781 87 691 57 963 20 293 278 310 17 243 174 377 26 821 33 809 211 846 10 239 163 652
222 20 2320 210 995 491 460 96 391 49 785 109 331 332 311 461 145 130 185 123 326 97 63 36 527 80 905 164 794 37 533 44 28 67 850 22 450 124 802 197 829 31 797
223 20 2921 494 604 16 503 29 772 1 58 98 484 249 702 237 503 199 378 437 107 48 678 160 114 401 217 14 817 214 652 282 802 201 865 74 923 89 272 230 172 179 973
224 20 1956 284 976 162 272 43 409 222 738 137 639 60 802 87 509 52 80 10 766 17 181 445 744 82 502 32 445 133 850 98 990 20 54 57 348 147 911 178 616 180 86
225 20 2258 74 501 67 801 16 504 345 392 162 836 234 78 66 620 81 137 65 28 244 106 1 240 98 327 131 324 101 299 358 561 382 36 71 875 154 867 49 27 124 901
226 20 2595 100 925 104 931 82 161 125 879 263 699 217 538 23 977 243 338 46 336 97 918 46 655 103 355 327 66 178 882 148 212 62 673 92 578 363 744 486 891 139 858
227 20 2036 33 913 57 374 163 796 227 147 203 988 82 967 104 614 25 68 19 752 10 588 169 56 57 124 23 856 304 100 200 892 42 467 83 81 236 574 473 506 35 919
228 20 1523 25 979 35 80 52 460 5 938 299 321 181 940 31 578 11 400 77 13 199 530 63 346 211 287 1 829 96 509 108 959 7 464 4 101 285 715 62 681 152 185
229 20 1611 54 944 45 825 36 167 229 720 97 175 205 294 29 710 76 309 61 523 333 458 113 10 10 625 75 13 148 859 142 616 128 129 29 459 40 87 95 104 69 445
230 20 2573 33 438 70 147 105 719 239 725 369 60 17 610 19 193 119 184 200 804 85 297 109 829 303 167 462 541 303 312 56 936 102 459 306 543 39 600 10 848 271 432
231 20 2622 198 20 34 143 158 156 74 316 227 156 456 967 87 798 227 792 31 783 265 454 302 820 179 799 198 854 40 710 525 797 75 96 55 748 49 857 43 871 55 792
232 20 1432 46 34 38 833 22 544 19 709 63 738 297 949 61 466 2 546 71 943 15 987 33 464 142 23 56 284 3 992 276 790 106 57 136 363 127 7 11 667 267 894
233 20 2546 214 889 192 145 205 6 67 73 188 981 112 760 146 508 7 62 341 923 42 88 182 414 270 125 45 333 17 897 96 372 534 503 307 543 12 599 199 945 7 749
234 20 1735 132 197 23 789 66 501 239 701 59 514 51 390 53 292 7 919 63 973 41 132 40 451 52 908 156 361 95 938 131 991 358 884 84 66 97 430 66 378 356 691
235 20 2324 45 662 52 131 83 787 85 482 180 460 95 512 101 493 207 210 154 136 349 670 257 205 215 595 162 550 3 918 51 381 201 170 7 641 193 426 216 336 249 696
236 20 1708 16 110 8 214 297 72 155 783 123 397 195 26 18 118 70 583 84 802 57 965 124 652 5 222 19 4 331 243 49 487 54 9 76 182 177 959 70 152 207 839
237 20 1961 155 29 203 466 142 655 86 673 58 298 49 349 33 660 255 354 208 238 6 217 79 17 10 222 133 139 111 10 116 445 168 837 250 547 80 959 285 628 25 260
238 20 2298 102 125 105 211 252 407 80 927 217 136 142 470 23 159 235 226 139 465 85 58 23 385 33 993 215 756 75 393 1 112 142 156 125 128 406 524 277 387 196 575
239 20 2528 30 273 54 383 184 901 262 752 101 546 2 707 31 135 9 688 68 130 504 97 82 152 219 541 506 830 65 410 178 285 65 321 342 65 39 299 154 892 265 95
240 20 2311 129 874 57 666 51 33 98 345 46 414 23 894 376 617 130 390 77 940 138 195 258 635 481 43 4 311 59 969 78 796 67 685 63 438 277 432 308 212 169 628
241 20 3301 57 154 107 173 66 373 291 858 494 121 14 1000 267 912 164 244 40 352 41 106 106 169 156 603 107 335 477 775 60 379 258 248 57 42 599 245 457 886 309 298
242 20 2182 323 831 93 813 14 795 91 167 41 234 84 311 80 282 44 703 279 773 107 718 119 709 191 808 120 173 218 696 329 237 113 117 133 273 186 182 155 828 8 307
243 20 2584 8 608 121 250 526 890 315 160 267 737 126 732 146 466 9 1000 535 753 86 138 183 19 7 269 112 51 80 345 263 890 143 761 33 58 60 695 137 933 74 54
244 20 2191 43 663 104 886 288 111 466 66 193 10 34 574 283 295 69 908 99 850 142 546 21 956 46 954 15 242 92 783 78 937 71 822 11 263 298 534 81 686 305 943
245 20 2048 155 846 375 820 10 223 115 862 178 700 63 801 118 643 13 233 192 5 8 148 75 508 27 608 50 508 81 383 73 139 367 23 206 210 46 132 274 544 134 874
246 20 1979 97 151 58 939 49 229 434 639 195 474 19 397 139 305 297 744 15 711 70 740 121 270 288 82 139 794 2 176 6 736 147 629 8 689 78 251 307 945 5 161
247 20 2002 79 194 361 382 78 654 22 831 87 743 58 790 111 563 7 182 244 255 127 949 49 427 81 962 49 281 365 317 168 901 195 871 240 560 83 894 10 951 89 184
248 20 2260 147 522 191 718 271 540 99 306 33 608 263 839 309 99 138 428 256 423 85 314 110 827 83 617 27 825 77 750 10 193 56 101 223 357 255 276 27 538 166 151
249 20 1943 101 16 12 16 51 896 144 377 183 558 75 926 93 841 23 568 18 838 309 1000 143 581 73 730 405 989 166 326 310 752 24 353 135 875 10 497 62 884 92 869
250 20 3378 72 853 281 766 177 765 688 336 91 7 114 165 26 664 46 839 277 469 345 17 257 738 34 809 248 355 413 909 65 864 165 15 102 402 210 997 590 459 22 646
251 20 2148 369 168 75 273 48 645 166 226 35 34 120 571 200 590 15 537 104 66 354 847 47 270 20 68 142 823 412 265 110 848 2 131 262 700 66 610 61 917 78 982
252 20 1669 118 323 21 907 36 887 53 452 78 200 405 182 103 106 308 136 142 757 123 294 22 880 7 961 59 100 29 542 193 161 227 938 28 29 24 10 52 755 59 692
253 20 2182 79 672 114 374 1 532 71 569 40 653 389 697 288 597 27 279 97 384 54 637 14 24 205 747 72 680 178 46 160 833 33 557 12 295 428 938 106 86 360 880
254 20 2173 354 187 284 371 164 710 150 597 150 136 29 243 235 336 86 269 259 934 38 636 169 197 74 173 88 755 87 170 177 966 93 821 67 966 5 918 11 917 197 76
255 20 2719 18 15 7 347 208 214 48 21 534 359 229 155 13 237 11 333 321 428 184 865 129 520 294 649 207 868 229 204 118 647 349 490 244 216 60 451 188 958 8 801
256 20 2358 4 83 19 661 281 223 81 459 407 220 275 30 373 407 216 13 230 388 162 348 41 388 14 882 64 41 245 711 44 995 46 428 125 202 33 13 37 584 251 178
257 20 1735 40 504 40 81 10 474 51 261 122 409 5 210 2 516 207 88 162 549 113 416 50 267 14 613 215 543 323 287 145 632 194 230 32 2 223 206 21 18 200 188
258 20 2962 453 220 21 736 121 897 169 186 413 72 262 692 10 916 25 787 261 227 365 51 144 419 46 260 259 153 344 895 146 901 90 817 285 219 117 483 35 106 137 252
259 20 2116 255 682 258 959 31 712 355 821 21 438 342 786 5 127 504 977 268 869 80 282 23 749 86 399 87 450 40 916 14 643 85 384 38 172 23 950 19 484 112 105
260 20 2660 47 561 329 743 198 492 513 427 93 678 219 298 177 4 46 125 303 924 28 653 317 432 347 405 50 757 77 12 40 753 3 748 201 567 80 706 134 671 124 632
261 20 2676 154 953 196 847 305 297 212 354 86 514 485 242 55 494 57 516 87 462 355 64 499 185 163 642 313 575 42 592 11 575 56 510 37 775 190 787 22 848 21 139
262 20 2496 196 89 3 552 169 213 44 340 202 413 464 673 11 251 109 849 246 733 83 267 298 459 17 42 75 338 59 476 135 924 156 710 364 600 75 798 99 814 316 710
263 20 2383 290 577 143 397 124 845 291 730 36 496 47 60 244 291 218 30 7 689 99 669 225 248 344 907 269 886 61 360 96 951 20 390 39 934 108 230 312 396 6 930
264 20 2136 235 59 599 391 17 128 45 63 243 721 9 964 261 211 63 808 8 896 56 601 42 55 116 680 140 469 143 627 280 579 6 737 200 122 6 132 72 755 129 929
265 20 2382 48 14 429 373 77 794 83 11 9 68 154 776 21 421 98 733 299 277 189 379 61 827 219 35 69 164 243 686 124 33 520 178 10 643 38 236 133 215 154 632
266 20 3174 208 927 29 717 101 258 36 65 34 525 217 2 80 371 119 546 488 584 354 767 189 373 86 890 405 895 71 620 223 957 90 385 128 39 683 37 138 603 289 802
267 20 1842 92 589 178 811 36 802 191 806 161 763 127 887 98 21 135 301 46 663 41 611 17 472 335 959 119 401 185 740 33 354 122 70 203 475 49 485 101 939 34 779
268 20 2692 143 451 58 59 104 943 64 892 507 316 20 945 164 933 15 171 96 417 257 378 43 45 61 58 76 181 362 389 90 746 251 148 232 863 233 410 468 570 121 763
269 20 2505 254 456 261 654 102 991 264 134 178 136 210 12 26 961 331 4 27 978 366 996 94 603 71 629 210 190 165 399 150 936 299 997 77 501 1 832 40 203 6 54
270 20 2396 50 663 33 694 4 177 103 264 466 802 70 442 167 89 127 438 90 24 94 117 80 581 157 590 40 608 83 61 157 315 352 157 344 153 41 198 362 763 176 598
271 20 2353 62 929 126 947 39 39 62 391 90 719 44 129 124 61 64 798 4 905 11 626 8 469 580 530 776 500 229 257 132 526 232 536 2 691 120 376 41 626 196 465
272 20 2883 165 482 54 750 50 960 84 355 148 522 296 573 104 959 257 188 74 556 119 822 130 373 405 802 21 237 24 85 115 904 433 712 125 288 175 578 466 103 359 204
273 20 3073 201 202 130 225 166 625 307 719 573 676 242 317 62 685 350 876 117 688 10 488 54 450 458 34 99 838 576 727 71 116 51 698 167 791 120 123 48 451 40 636
274 20 1712 189 999 14 86 32 284 38 722 18 689 47 934 280 268 23 972 24 710 74 785 72 149 141 508 175 648 31 532 167 638 53 535 103 267 317 669 159 570 183 327
275 20 2968 200 599 464 603 351 885 139 760 37 250 82 578 30 486 1 55 216 918 160 685 18 262 199 367 354 797 63 854 23 727 14 596 35 70 747 352 93 9 484 960
276 20 1905 93 450 53 250 123 353 7 104 550 630 17 353 4 473 8 329 218 986 22 587 113 641 63 633 86 98 122 890 99 407 125 692 46 261 338 648 261 78 34 674
277 20 1848 76 921 264 905 109 834 168 514 135 614 67 705 88 216 70 112 29 25 304 869 47 935 112 553 52 982 278 858 219 287 118 571 28 35 90 106 39 712 18 177
278 20 2221 78 388 69 928 34 135 345 929 89 276 96 126 272 362 55 807 16 59 69 328 82 620 138 146 21 56 117 323 105 648 94 362 314 29 291 681 72 399 420 809
279 20 2189 83 709 80 819 249 981 379 596 61 962 28 614 73 339 72 338 50 58 57 254 48 677 127 750 107 490 125 580 42 482 111 251 311 996 449 558 139 645 146 258
280 20 2150 38 285 37 784 148 275 119 822 268 453 100 762 434 355 17 849 274 542 92 748 61 266 55 390 11 486 89 944 106 451 49 150 110 897 410 355 149 702 121 915
281 20 3077 240 453 64 794 24 470 207 428 259 264 451 302 183 740 110 601 31 377 300 931 99 504 33 857 348 81 265 767 480 311 82 464 35 255 75 87 421 600 140 40
282 20 2652 73 479 273 619 462 161 109 761 369 304 166 542 146 723 81 773 130 404 26 432 226 221 84 477 195 904 175 673 132 391 57 246 237 559 205 850 102 746 67 705
283 20 2804 8 277 252 172 44 490 20 85 414 283 78 708 66 448 12 342 157 143 577 722 188 868 57 920 219 595 267 146 140 639 125 31 111 900 604 169 138 562 29 11
284 20 1989 66 54 30 586 70 735 13 179 106 952 155 552 199 341 11 263 59 420 512 766 426 673 113 371 177 474 128 308 66 823 14 919 148 83 110 519 76 873 8 456
285 20 2298 406 221 223 981 133 868 75 63 244 678 54 849 6 878 132 177 244 944 159 530 143 11 170 634 44 574 3 181 71 427 172 111 163 193 113 752 257 466 61 784
286 20 2264 189 580 455 264 90 869 387 343 11 357 32 414 7 710 229 168 22 628 291 147 129 62 134 698 48 853 67 4 97 147 90 525 100 989 224 971 104 928 124 220
287 20 2707 500 28 85 106 45 842 45 68 227 307 25 764 192 993 257 859 63 158 177 547 60 299 136 115 148 785 202 812 72 28 20 841 251 517 264 865 336 812 279 469
288 20 2507 120 422 112 78 164 512 265 500 198 60 355 184 77 301 5 923 18 237 114 902 88 803 224 518 249 371 146 108 22 331 92 416 212 986 562 875 67 858 44 37
289 20 3154 211 270 23 680 20 131 182 378 336 249 192 551 286 445 150 570 487 933 307 932 385 13 510 644 29 458 27 583 182 327 135 49 81 218 222 63 151 377 27 30
290 20 2576 44 38 541 733 19 960 1 155 77 917 291 217 436 527 43 111 217 525 51 145 76 641 383 385 48 551 263 984 21 830 80 757 77 307 206 488 10 61 337 69
291 20 1948 325 60 356 411 174 357 70 138 95 425 121 707 42 932 43 816 102 310 163 29 152 564 108 687 102 266 16 595 72 7 192 762 81 960 121 53 31 65 69 567
292 20 2156 63 776 47 814 318 272 315 631 57 768 71 414 484 87 152 660 164 188 7 180 97 892 28 436 45 843 495 25 8 627 34 433 115 592 33 788 112 929 50 182
293 20 1924 202 686 287 648 77 95 121 690 130 477 107 685 72 279 188 58 86 629 66 851 9 758 68 789 76 22 215 594 170 720 170 651 294 849 3 570 63 454 1 7
294 20 1672 22 447 24 231 92 39 60 964 44 646 193 157 103 303 148 332 198 125 91 771 41 592 45 192 92 928 245 932 77 690 31 61 209 306 2 159 234 105 139 68
295 20 1556 103 767 61 623 34 43 159 953 69 283 224 577 167 627 76 855 40 907 223 863 60 608 60 86 38 906 113 421 179 610 14 168 9 168 187 203 13 893 116 624
296 20 3124 385 435 261 559 317 476 60 560 42 975 120 729 97 154 234 570 268 790 221 400 396 783 84 891 45 188 195 245 170 527 241 167 5 631 418 447 276 436 71 688
297 20 1728 16 717 38 368 3 855 139 25 106 250 48 166 20 498 115 683 159 637 4 593 70 791 152 801 222 473 137 615 439 47 153 101 74 617 10 264 195 403 61 783
298 20 1782 95 821 15 564 45 692 24 989 77 680 14 701 29 471 7 725 328 507 192 189 64 806 41 16 134 271 419 164 106 263 255 973 55 681 177 433 6 927 145 1
299 20 2294 288 800 39 119 9 748 305 829 4 468 85 739 338 164 159 474 16 499 57 362 315 196 101 897 74 921 237 810 168 930 193 944 4 174 186 812 37 945 253 580
300 20 2503 281 96 147 675 18 73 279 985 159 778 172 708 136 157 109 677 42 641 232 133 27 390 244 170 106 590 122 515 241 46 90 348 69 606 392 809 257 848 6 108
301 20 1912 9 519 66 783 68 642 37 523 166 890 30 545 152 622 437 930 45 653 269 907 317 486 9 536 112 27 86 739 30 624 103 715 322 25 40 516 44 853 48 438
302 20 2014 576 476 90 302 123 62 54 895 24 153 23 869 64 742 259 954 175 381 16 187 108 624 132 141 59 481 12 689 67 309 15 253 172 17 63 857 418 657 68 629
303 20 2241 219 63 85 136 307 517 142 783 56 758 79 115 184 642 207 345 174 856 79 977 136 998 144 287 191 479 275 673 79 360 91 932 39 850 110 624 186 236 19 701
304 20 1702 110 628 80 636 126 980 151 227 6 850 253 344 26 422 113 985 82 158 116 48 164 50 9 601 248 662 260 959 25 965 90 250 50 374 99 777 90 534 30 892
305 20 2440 203 838 185 523 89 287 100 186 400 525 484 537 122 778 10 252 155 34 165 974 342 701 131 839 47 844 40 328 33 871 56 416 250 574 8 817 40 138 190 219
306 20 2641 299 109 376 811 285 80 25 814 16 819 415 195 51 867 122 647 205 123 289 709 121 125 13 674 102 674 221 674 9 730 173 539 73 77 48 671 13 49 446 845
307 20 2260 176 143 421 662 203 804 27 962 69 638 43 108 156 426 62 939 114 165 42 993 97 765 96 805 103 776 84 541 23 16 436 515 21 202 437 540 22 40 193 651
308 20 2005 23 241 121 18 71 22 7 614 128 330 55 149 206 183 284 171 66 653 2 776 149 823 116 101 48 94 267 927 32 985 56 366 27 491 62 250 409 83 378 603
309 20 2522 11 230 167 456 34 80 346 453 23 130 142 537 308 798 440 414 241 863 130 579 19 949 5 420 9 706 126 64 239 939 46 597 555 729 56 198 3 685 253 443
310 20 1851 299 88 109 685 3 463 18 655 12 950 459 156 138 822 206 453 1 726 110 901 182 82 8 382 28 854 166 970 134 32 89 331 24 447 4 489 213 419 111 791
311 20 2176 100 467 60 933 102 21 241 294 140 244 468 921 216 149 29 635 142 63 31 698 69 397 60 365 206 258 77 163 69 796 94 600 131 934 331 740 142 362 12 238
312 20 2396 205 144 42 178 238 875 97 560 60 305 167 110 84 866 214 277 33 283 408 383 31 646 52 630 208 351 132 73 109 546 30 82 17 355 604 302 237 959 27 330
313 20 1496 116 941 1 237 49 410 93 225 8 332 186 258 22 496 106 918 1 549 150 651 70 452 129 941 86 178 167 316 77 999 27 166 96 257 373 147 12 670 101 24
314 20 1848 65 150 17 643 143 297 26 574 177 72 223 688 71 853 17 182 80 484 44 369 61 677 87 544 74 890 169 234 40 498 312 225 263 738 48 887 133 943 261 227
315 20 2711 220 996 46 162 205 75 158 745 291 828 41 464 256 989 92 324 572 430 13 698 123 260 23 554 36 689 233 617 198 986 326 602 75 628 7 739 230 652 244 290
316 20 2111 8 950 23 104 85 45 382 815 46 117 39 817 302 921 239 125 7 140 94 281 274 6 68 605 57 876 283 490 20 701 115 60 51 871 75 935 102 879 369 93
317 20 1892 173 1000 106 645 166 139 163 477 256 838 4 485 201 482 215 419 76 327 73 121 58 118 2 771 5 374 178 346 110 947 250 430 54 328 63 367 189 760 24 73
318 20 2613 41 217 167 367 16 339 114 418 25 111 142 182 18 332 182 617 312 861 273 231 23 681 31 312 29 779 211 397 304 700 300 749 344 729 224 44 269 221 242 780
319 20 2596 301 48 121 367 59 554 78 161 232 628 242 892 267 448 104 688 62 960 359 997 180 474 111 532 110 560 491 576 140 9 14 34 153 423 11 421 131 165 79 656
320 20 1427 9 653 62 417 49 901 321 238 72 205 314 3 106 21 111 969 7 833 226 950 3 891 62 282 7 185 15 91 133 157 86 459 87 512 22 983 70 950 22 664
321 20 2580 106 177 199 770 174 288 462 572 181 840 148 455 70 552 74 364 5 734 17 628 53 760 20 417 302 855 221 462 10 269 28 346 350 582 168 573 88 927 549 597
322 20 2272 17 56 102 439 40 63 169 304 45 5 267 131 147 213 194 168 82 646 164 142 336 340 202 479 149 628 44 54 109 491 248 828 182 439 204 348 91 257 48 589
323 20 2572 427 78 147 155 176 343 28 480 267 708 12 44 202 47 286 747 350 688 3 555 26 811 302 127 69 193 23 123 135 477 421 403 127 639 40 861 29 647 146 52
324 20 1968 18 826 102 604 201 437 118 41 185 408 9 779 392 47 29 227 150 511 82 916 13 241 198 14 54 237 31 825 19 863 311 842 230 5 239 610 74 102 6 282
325 20 2088 138 741 19 810 36 971 5 620 356 843 328 737 69 126 111 68 252 16 42 792 274 552 77 594 12 981 141 747 373 673 44 234 120 652 165 577 20 206 29 830
326 20 2404 144 958 247 800 3 89 100 438 165 176 195 282 1 154 29 581 267 47 512 642 304 894 288 155 1 456 135 815 210 811 204 637 14 578 84 145 86 734 17 499
327 20 1816 10 425 133 127 155 221 28 601 241 953 100 644 260 556 16 141 109 93 77 837 81 312 150 899 231 13 114 950 94 932 64 803 81 281 177 195 140 865 9 518
328 20 2911 63 751 30 954 152 344 245 673 96 380 181 677 189 318 161 299 410 966 80 871 174 285 146 384 249 618 473 650 329 724 97 380 76 989 27 918 371 705 90 136
329 20 2895 289 168 119 787 298 700 52 382 216 754 375 411 96 171 2 341 247 912 371 814 16 287 49 773 209 428 82 861 94 17 321 201 123 623 446 850 202 203 12 287
330 20 2192 73 729 292 174 12 130 57 92 242 505 284 531 14 49 119 396 57 974 263 181 78 52 119 176 35 909 370 259 337 629 12 177 185 20 114 384 65 627 12 609
331 20 3616 227 373 403 908 121 880 380 83 3 7 59 801 19 406 259 95 74 917 248 322 466 504 294 354 428 430 111 675 462 898 216 881 496 825 65 681 140 706 49 283
332 20 2038 190 686 197 271 29 281 42 841 150 534 11 956 96 686 314 248 47 726 101 224 83 855 503 959 19 990 208 127 205 416 31 164 50 555 244 811 17 179 11 245
333 20 2240 37 495 85 418 166 43 75 38 9 395 224 87 215 317 75 837 514 630 62 890 126 549 38 293 192 892 108 209 68 468 151 305 50 727 49 442 326 886 231 639
334 20 2064 121 132 26 871 567 40 62 604 32 109 68 658 172 798 112 716 78 232 86 286 92 704 215 530 80 919 16 288 168 488 53 531 135 503 108 980 175 216 214 527
335 20 2460 99 979 441 365 2 234 183 791 41 674 89 801 19 114 84 901 226 908 31 309 50 162 29 621 553 846 304 621 110 646 237 203 76 33 289 404 72 263 141 800
336 20 2044 23 262 328 502 197 370 21 158 17 243 116 857 80 178 322 243 30 249 14 413 410 210 3 194 13 627 58 386 615 669 30 831 97 788 120 543 40 701 21 654
337 20 1952 47 783 167 809 57 23 5 950 9 413 67 206 13 493 33 860 261 159 154 923 103 388 105 100 312 744 237 695 173 775 318 445 43 300 109 610 63 296 165 129
338 20 2280 78 43 246 817 81 662 14 803 6 694 187 605 52 541 83 965 466 130 91 135 318 930 143 66 40 269 372 241 18 952 165 674 74 386 38 142 303 593 75 3
339 20 3024 124 568 139 76 9 647 101 1000 22 375 436 687 185 604 124 375 299 166 104 491 104 169 196 567 388 261 261 944 15 936 347 309 326 801 53 584 370 610 178 409
340 20 2740 273 868 76 901 10 982 222 179 15 86 63 90 223 253 229 396 409 758 69 827 101 695 320 150 335 677 125 134 135 328 17 447 249 455 310 433 139 804 106 635
341 20 2356 135 132 52 182 296 994 299 670 303 590 255 292 306 593 161 481 27 749 106 307 62 264 41 394 7 371 46 673 312 291 200 359 116 264 40 117 179 533 3 921
342 20 2653 197 640 42 91 64 259 164 692 215 954 182 86 18 494 266 487 536 187 76 462 42 147 215 139 47 286 19 211 173 414 217 384 180 263 114 809 153 758 397 283
343 20 1940 145 968 68 276 29 737 11 786 8 794 205 900 26 151 177 813 82 102 32 174 307 742 177 59 140 368 119 306 226 921 284 420 214 135 30 759 3 280 143 954
344 20 1725 141 524 3 952 20 147 115 444 11 153 141 238 68 196 92 994 3 772 406 228 21 597 52 562 214 300 184 614 31 11 20 649 96 168 84 817 352 630 103 724
345 20 2055 197 662 102 45 341 558 123 514 23 622 20 571 14 523 47 124 90 250 53 563 39 921 357 666 152 504 290 100 157 837 273 247 43 270 42 423 29 726 177 761
346 20 2162 148 954 96 900 69 209 98 477 110 370 70 88 50 96 18 605 60 400 193 338 133 56 32 865 468 507 225 812 294 305 24 978 357 216 67 59 86 79 105 132
347 20 1515 106 465 80 958 98 958 264 15 101 562 90 59 140 398 35 717 48 729 154 5 87 47 17 818 66 516 155 712 93 7 77 188 243 273 33 310 4 435 3 44
348 20 3116 413 423 145 732 6 224 273 74 201 105 58 119 37 992 50 620 65 735 327 473 12 703 24 390 313 923 310 471 670 415 224 466 178 210 294 821 142 145 153 209
349 20 2212 344 793 41 964 38 471 43 838 172 985 127 428 162 765 575 270 160 576 67 873 21 117 187 873 64 234 132 479 32 903 30 44 178 967 111 623 120 983 161 115
350 20 2124 24 748 30 737 24 740 25 402 378 901 11 933 144 398 260 866 101 848 79 714 311 882 156 145 191 905 50 464 78 188 298 222 130 734 19 136 189 889 158 613
351 20 1836 29 51 279 754 7 641 88 529 240 535 210 650 61 962 104 778 117 503 216 942 27 703 290 627 64 206 97 827 170 238 131 246 89 522 36 814 31 738 10 95
352 20 1525 41 840 9 409 60 6 33 712 210 699 14 189 180 21 201 794 98 250 187 302 195 139 1 699 124 77 40 886 156 106 169 304 168 244 5 241 12 394 4 470
353 20 2180 88 998 50 66 42 926 101 993 80 901 452 348 105 63 55 552 189 909 226 277 125 485 106 951 158 247 106 63 159 57 157 912 161 419 78 365 38 109 249 824
354 20 1876 222 831 82 410 98 751 144 180 138 343 136 63 110 811 34 792 187 621 44 89 78 298 76 835 39 93 255 338 9 598 314 316 98 661 82 126 76 936 124 591
355 20 3280 410 63 44 376 132 164 68 719 400 833 89 239 79 480 361 423 79 344 388 705 342 345 446 164 86 843 156 659 196 205 355 300 55 270 84 484 255 124 76 891
356 20 2190 69 627 226 582 219 300 236 838 108 20 69 712 22 814 182 270 384 812 11 631 316 396 240 689 71 218 86 563 75 787 94 776 4 334 241 42 39 451 46 76
357 20 1839 31 53 60 854 24 582 311 935 176 225 237 966 121 855 44 377 1 948 61 780 18 949 100 8 53 582 106 827 428 904 247 270 113 417 88 367 17 314 63 211
358 20 2476 344 336 3 88 130 246 151 16 241 48 49 932 3 54 2 56 156 727 271 971 202 660 155 124 184 559 249 470 279 209 129 737 19 41 139 339 275 278 114 391
359 20 1801 164 711 103 378 60 330 194 60 79 778 81 371 306 593 126 939 212 136 142 53 23 753 74 924 130 124 45 580 30 246 44 705 138 798 173 652 86 303 42 61
360 20 1966 52 251 65 407 180 984 68 90 121 924 101 384 82 341 21 304 24 517 142 1 464 582 14 447 423 451 251 663 76 100 199 307 10 853 8 297 77 809 80 779
361 20 2475 641 241 94 673 186 705 198 921 172 680 166 423 93 241 57 474 20 823 93 131 32 321 273 597 241 345 1 792 95 986 50 375 82 791 414 338 158 845 28 894
362 20 2899 84 638 383 454 286 782 29 254 573 566 211 800 156 280 115 506 107 884 68 538 330 727 52 607 182 206 244 198 44 975 29 361 64 89 453 328 139 721 75 445
363 20 2060 332 739 47 525 89 333 162 442 88 839 51 755 142 530 122 211 17 245 48 269 75 467 119 351 269 529 16 677 350 43 107 72 252 21 62 392 92 561 136 260
364 20 2328 227 915 7 865 200 996 97 822 376 131 13 406 298 802 211 915 27 598 92 506 182 257 36 105 69 653 238 484 2 698 61 239 9 826 168 437 266 685 332 72
365 20 1636 85 855 87 846 65 11 104 502 33 348 166 826 170 156 174 110 28 716 87 246 96 622 34 159 135 363 83 126 29 742 114 821 143 875 24 802 36 420 352 721
366 20 2892 13 614 369 245 182 878 247 786 12 510 431 374 259 898 150 481 42 402 104 914 89 409 67 614 364 413 216 830 128 271 447 894 11 318 50 949 378 414 56 978
367 20 2036 16 14 176 897 306 702 3 19 184 208 127 920 59 622 126 261 244 967 68 39 46 818 19 775 123 713 112 11 215 397 339 48 13 663 21 545 160 5 188 470
368 20 1469 198 196 25 379 85 356 43 633 155 682 62 285 27 41 34 664 228 822 40 485 31 553 220 910 38 543 145 873 12 643 18 925 80 47 273 359 33 706 90 166
369 20 2177 14 329 43 984 50 785 176 209 582 767 395 904 135 890 187 750 15 731 254 367 87 9 43 380 98 245 87 105 197 663 48 352 53 342 38 335 59 419 161 174
370 20 1698 119 362 233 309 51 346 46 935 290 87 404 775 1 641 53 826 17 74 7 126 99 380 9 817 46 485 53 708 86 563 27 303 389 917 124 604 36 607 33 309
371 20 1918 168 126 271 404 77 418 72 903 202 74 34 430 10 963 202 826 267 876 50 437 8 799 315 738 171 236 145 432 22 161 152 213 41 44 28 740 10 380 153 275
372 20 3198 443 207 34 951 142 89 316 706 31 231 298 391 242 543 128 54 129 905 43 95 89 327 241 392 318 599 704 734 55 952 335 170 21 114 215 647 204 736 10 519
373 20 2188 41 430 150 77 69 794 31 298 441 967 202 288 69 922 174 27 62 358 34 982 94 556 64 135 43 828 148 261 277 775 435 115 156 311 67 260 10 482 169 368
374 20 1613 193 866 3 843 4 134 106 525 187 317 294 163 42 938 71 154 220 692 76 708 13 469 109 248 45 289 25 694 120 496 66 225 57 87 170 525 162 454 54 961
375 20 2067 67 542 42 450 1 348 108 260 96 391 16 57 16 963 21 814 125 122 37 785 234 389 664 856 52 762 224 455 160 110 383 236 1 831 39 825 141 498 157 163
376 20 2323 195 260 396 125 156 23 87 50 296 428 54 238 91 409 23 512 276 810 13 165 389 773 74 864 73 723 174 734 199 302 130 615 50 984 151 470 7 899 70 796
377 20 3154 58 30 191 846 164 890 163 399 184 12 150 35 107 486 116 900 9 485 100 775 274 251 102 503 507 738 229 886 303 542 104 599 219 868 267 982 228 642 468 356
378 20 2710 338 312 410 331 35 368 86 685 298 322 1 288 261 770 104 140 47 449 102 860 542 774 220 867 80 526 85 853 10 824 59 21 174 423 85 461 184 721 267 819
379 20 3416 374 288 66 151 110 719 158 914 524 74 103 599 356 988 105 187 185 230 401 549 121 650 454 350 39 680 267 460 30 556 370 483 231 724 198 702 156 576 22 565
380 20 3181 388 660 122 225 114 608 80 621 577 530 408 800 245 121 289 480 229 640 155 143 30 860 21 458 56 909 133 777 261 73 162 734 5 838 85 892 588 261 29 51
381 20 2482 110 123 126 430 76 937 445 960 6 860 12 389 119 275 336 142 86 480 296 81 72 490 151 4 9 208 94 195 413 813 173 843 315 450 200 846 11 369 53 395
382 20 2096 38 861 134 202 5 780 38 748 144 193 233 318 241 450 48 390 60 399 158 75 243 224 126 659 76 605 135 387 144 847 45 966 127 895 222 638 48 646 356 640
383 20 2511 105 46 122 569 365 278 35 81 124 844 345 912 329 992 196 652 178 977 6 947 176 407 337 12 76 185 45 19 311 54 74 565 95 279 47 313 89 515 84 987
384 20 2728 86 361 187 616 161 459 42 384 161 966 208 331 65 773 236 142 103 391 11 270 370 180 391 619 59 514 18 621 373 248 244 202 3 926 279 574 94 617 319 698
385 20 2491 107 240 33 354 336 924 122 125 102 976 134 231 40 355 224 543 256 180 137 972 63 992 185 505 65 797 30 75 194 690 606 914 9 803 79 186 99 149 293 418
386 20 2117 83 380 52 417 89 582 160 693 231 556 104 2 91 634 111 473 397 230 35 766 119 47 85 566 349 547 110 332 37 430 115 8 167 579 87 198 20 452 205 619
387 20 2353 75 510 281 13 177 175 1 469 143 340 1 975 20 395 408 570 459 160 45 506 51 849 66 688 41 31 473 170 132 609 179 280 34 717 127 83 196 729 33 278
388 20 2437 45 115 123 131 125 936 133 473 12 512 245 194 111 429 25 448 278 264 28 913 23 337 346 812 163 199 207 420 414 374 73 410 261 370 193 50 10 300 232 399
389 20 1913 197 667 64 811 1 190 196 788 29 301 104 902 251 976 31 175 81 166 327 169 65 557 149 170 1 292 377 785 162 571 79 444 1 732 67 859 129 992 81 159
390 20 2122 52 344 79 323 150 787 158 751 4 900 51 614 110 373 305 970 31 275 68 51 187 604 222 34 217 330 110 770 21 701 169 672 312 990 112 161 269 542 26 733
391 20 2142 30 523 203 366 88 836 228 398 109 937 6 981 30 271 79 127 257 415 517 892 26 146 30 811 37 372 89 134 83 578 320 220 248 158 50 173 87 451 161 959
392 20 2210 153 743 194 231 9 566 446 633 30 704 382 68 118 312 71 265 11 934 84 311 238 973 132 642 268 587 177 45 65 657 11 501 93 561 22 541 162 441 97 94
393 20 2567 69 232 481 388 134 614 202 816 33 730 20 153 520 911 180 427 191 544 64 435 70 628 35 33 130 273 294 792 28 58 19 439 202 8 187 119 211 599 139 97
394 20 2841 385 791 239 87 74 139 133 975 45 128 135 32 276 769 40 572 14 432 161 622 328 963 63 590 145 459 280 226 16 887 17 421 54 491 767 242 210 258 170 468
395 20 2436 305 631 115 143 107 464 141 608 301 917 263 600 5 778 41 112 82 898 136 423 61 154 22 222 108 384 180 789 17 332 290 53 310 125 88 390 59 121 414 222
396 20 1880 68 324 25 319 274 264 49 938 8 361 197 365 91 745 5 192 26 703 105 647 167 488 100 836 110 913 277 298 133 664 22 838 70 378 123 891 286 362 214 527
397 20 2533 68 46 131 988 422 453 64 131 78 986 252 34 56 768 48 5 435 102 67 576 23 424 46 875 175 903 349 22 45 833 34 63 205 810 242 282 308 222 119 485
398 20 2556 81 492 153 737 212 968 10 596 134 91 161 73 144 939 581 615 144 265 120 966 302 744 109 232 125 989 39 752 33 930 35 18 20 22 55 493 521 452 216 367
399 20 3252 55 407 136 713 28 398 24 212 17 834 233 673 136 705 246 898 183 124 321 260 148 573 286 908 546 209 404 394 33 924 558 424 200 738 241 428 64 917 206 957
400 20 2434 214 4 427 718 43 208 404 113 21 928 148 629 76 439 52 673 184 10 170 623 295 871 58 337 91 321 74 474 89 299 92 152 129 3 66 993 236 367 174 216
401 20 2687 149 438 79 136 123 550 14 719 101 868 372 42 238 989 41 567 16 47 86 134 489 314 219 215 292 582 274 330 32 973 386 619 235 827 189 804 3 427 21 960
402 20 2390 86 504 251 284 177 120 155 110 40 754 227 883 91 586 145 508 131 334 273 565 151 125 8 909 31 790 69 652 124 736 113 194 133 735 302 207 452 109 29 889
403 20 1929 428 635 72 77 61 320 59 508 5 893 217 34 357 588 6 551 221 192 57 29 15 660 60 761 162 77 3 992 89 43 50 891 108 510 88 850 283 188 71 244
404 20 1673 141 528 52 416 119 246 100 149 181 313 43 329 162 443 18 739 135 850 12 898 34 152 70 814 161 357 99 310 74 802 105 872 20 431 264 422 85 776 217 908
405 20 2698 36 255 11 481 389 310 87 722 442 176 332 313 36 165 18 585 520 425 177 519 510 177 86 988 191 52 50 226 147 320 51 466 3 456 153 894 81 41 53 459
406 20 1932 103 381 155 403 211 32 100 130 197 930 86 924 5 199 25 370 23 793 8 604 86 925 149 44 103 273 88 659 35 325 43 210 328 362 489 310 44 444 137 405
407 20 2154 401 877 18 77 185 787 246 689 116 172 154 499 283 761 28 517 239 442 57 691 66 928 315 689 28 578 29 834 24 159 136 454 116 351 108 458 105 346 39 851
408 20 1851 15 490 67 13 58 705 142 81 41 492 141 584 14 70 164 980 172 315 39 755 224 362 149 326 18 518 164 436 476 100 32 209 52 721 93 835 225 655 28 103
409 20 2056 109 965 31 843 275 374 264 779 208 299 417 744 19 623 267 507 78 182 15 799 292 103 134 434 36 390 148 437 16 719 67 127 24 138 73 845 53 819 45 730
410 20 2388 256 905 50 948 91 472 125 262 186 311 181 840 13 850 9 301 434 857 237 744 86 650 462 984 60 363 61 677 53 65 298 429 24 491 156 896 115 4 89 990
411 20 2805 96 554 306 831 10 919 142 328 250 190 226 993 352 339 266 472 150 146 148 109 124 332 570 374 65 78 16 300 190 169 189 199 22 857 115 279 234 323 36 230
412 20 2381 342 632 123 856 21 383 204 584 100 176 279 706 290 300 91 854 14 727 296 142 236 243 221 43 23 654 56 88 116 913 22 7 100 455 15 102 314 997 114 144
413 20 2016 191 391 6 712 17 828 199 262 34 915 48 449 61 569 46 222 236 708 198 488 6 446 10 420 225 222 244 696 133 586 208 155 299 689 252 691 20 388 87 218
414 20 1928 6 53 45 246 375 992 36 495 212 861 55 856 66 630 151 756 150 424 173 641 57 888 65 478 132 740 47 638 144 43 306 955 17 690 65 559 1 295 307 884
415 20 2024 39 616 135 310 31 458 72 813 130 312 47 186 158 111 314 552 5 85 460 883 29 407 30 498 13 319 73 765 86 415 87 657 37 277 128 537 8 784 648 795
416 20 2365 81 750 161 7 172 965 296 537 22 514 410 652 47 61 41 988 136 340 53 245 52 258 263 744 43 911 72 425 169 966 109 881 132 827 157 193 190 676 351 434
417 20 2695 107 519 469 671 26 545 258 343 11 887 427 472 53 169 624 849 103 193 122 58 79 509 22 724 82 744 31 147 96 989 314 800 111 568 104 844 199 22 131 250
418 20 2497 114 577 118 341 6 81 22 780 172 855 274 803 331 293 53 591 25 683 194 331 112 904 102 15 25 68 323 158 104 879 325 506 254 474 369 393 75 956 124 434
419 20 2277 341 823 139 493 22 383 153 274 27 484 138 441 159 188 409 896 36 404 323 202 257 218 39 953 58 717 24 799 190 402 2 254 22 513 175 795 218 681 115 892
420 20 2564 258 246 479 757 92 485 84 894 27 640 26 833 101 977 46 491 665 352 102 149 29 859 94 194 88 22 27 895 236 562 17 612 169 777 204 777 396 662 65 119
421 20 2022 1 612 161 305 272 748 237 121 393 723 193 57 223 423 58 233 26 432 48 774 104 594 26 450 15 507 2 860 5 923 16 747 230 19 250 831 194 822 74 420
422 20 1778 16 418 95 423 112 485 281 881 58 791 41 352 32 285 83 921 186 103 110 11 125 243 5 67 252 929 27 341 198 560 81 676 184 312 110 488 65 843 162 263
423 20 2876 40 698 337 993 370 284 81 4 390 800 106 410 68 888 199 439 58 337 79 567 185 982 134 933 39 258 549 161 226 308 92 126 73 16 473 319 75 996 21 651
424 20 2656 168 244 236 745 333 136 12 754 8 149 173 632 72 63 276 838 406 930 151 954 225 919 242 271 127 269 127 278 41 69 153 411 183 936 109 6 188 638 90 326
425 20 2375 106 186 134 495 132 337 8 150 387 664 21 450 103 675 25 63 16 375 286 908 152 220 101 987 303 893 475 880 95 215 278 263 60 815 9 969 5 110 273 913
426 20 2630 187 573 458 92 78 110 17 839 30 951 63 316 204 749 368 762 141 228 114 977 387 824 266 479 22 983 54 573 152 681 227 981 42 876 184 429 239 466 55 311
427 20 2130 4 711 753 194 173 565 30 847 115 159 15 304 58 697 52 712 309 95 45 130 208 118 17 101 37 615 17 778 96 885 36 149 188 39 194 224 70 580 246 302
428 20 1686 6 554 48 419 27 955 106 667 26 593 18 751 93 175 113 224 134 735 126 326 25 891 187 675 464 724 110 297 2 511 28 112 110 918 114 22 227 652 144 230
429 20 2217 2 894 68 961 357 212 40 669 362 421 96 918 281 317 126 842 123 746 174 307 55 824 402 300 107 96 76 250 13 663 168 50 69 140 16 353 66 716 171 834
430 20 2482 308 653 158 227 33 756 163 27 55 898 135 468 63 233 81 174 114 19 144 275 7 456 591 517 149 317 154 398 28 329 46 889 144 653 133 698 196 103 401 620
431 20 2288 128 993 65 742 1 790 465 310 268 701 527 430 289 568 113 188 42 582 107 733 120 438 129 418 11 9 178 22 115 626 100 325 65 390 2 853 29 902 107 137
432 20 3074 158 654 96 105 9 705 74 722 7 260 93 543 413 88 11 33 277 525 20 537 455 965 200 19 265 42 291 610 102 769 413 557 6 819 303 532 298 53 352 845
433 20 1558 11 51 30 240 44 257 9 791 16 15 72 794 75 808 174 736 83 180 333 964 158 979 57 789 31 138 349 563 29 385 5 403 32 256 10 214 300 743 130 234
434 20 2459 6 763 474 360 128 17 55 775 145 119 139 653 171 579 47 290 99 838 8 96 100 331 65 63 456 212 62 628 256 120 18 790 84 532 652 451 60 230 49 297
435 20 2560 150 919 359 542 38 415 135 157 223 238 81 300 31 748 267 181 175 296 179 31 43 283 35 921 75 206 250 370 144 767 81 459 539 969 74 35 224 363 98 261
436 20 2746 139 141 27 813 87 300 55 734 252 920 347 731 110 570 122 611 243 620 15 145 111 728 250 161 144 385 178 577 64 412 212 686 90 575 586 916 397 67 4 607
437 20 2525 201 105 159 529 339 909 107 68 47 26 219 408 181 968 228 176 186 30 254 339 230 931 227 519 12 441 26 874 176 472 9 196 171 948 160 634 94 615 131 726
438 20 2823 496 153 57 94 96 470 46 47 269 175 412 638 109 22 44 833 220 263 105 191 221 161 168 35 228 108 99 598 102 466 326 447 173 985 129 912 135 940 94 474
439 20 1663 169 906 30 32 103 703 33 13 227 717 62 193 68 110 40 284 120 663 9 759 18 355 74 560 346 107 231 634 85 460 108 58 211 230 33 973 64 288 48 522
440 20 3080 246 767 210 750 51 481 97 889 314 616 107 809 107 703 520 962 98 414 676 368 79 170 85 262 136 421 140 841 292 83 211 998 195 489 44 140 176 142 66 663
441 20 2724 128 221 257 198 79 847 10 136 99 520 42 521 254 843 495 233 412 282 33 565 95 700 48 856 147 304 55 702 103 963 246 595 273 628 249 79 256 421 124 111
442 20 2932 504 57 126 586 157 39 22 170 12 349 4 389 114 342 134 340 280 384 480 348 691 343 58 174 4 987 88 304 101 173 198 340 89 356 114 962 147 40 343 829
443 20 2564 205 438 148 721 225 161 678 277 167 213 44 653 28 31 11 824 439 559 35 333 173 787 103 127 167 762 7 68 90 112 152 987 51 477 47 477 318 377 117 137
444 20 2064 133 137 58 776 85 379 23 93 12 568 110 805 240 716 30 589 190 254 28 808 5 160 470 671 83 511 52 260 248 36 268 316 53 145 324 194 98 295 71 340
445 20 1606 93 607 25 173 6 571 113 294 85 728 201 171 224 369 33 895 128 746 9 690 84 663 148 982 36 714 135 197 65 329 198 275 175 75 16 129 124 396 110 122
446 20 2031 183 994 67 117 37 199 77 409 83 158 81 895 196 332 205 709 50 340 209 71 184 675 192 849 67 297 2 746 212 527 180 123 64 498 36 265 270 359 144 410
447 20 1993 33 183 54 585 94 604 152 127 171 605 130 432 284 568 22 98 79 531 139 20 30 98 37 925 135 2 135 547 335 588 270 59 39 736 295 800 23 997 35 849
448 20 1892 14 507 193 512 277 500 107 363 86 885 182 542 92 722 121 934 56 904 48 231 157 32 149 461 28 315 114 718 107 933 216 134 34 625 182 770 72 333 130 30
449 20 2181 94 421 95 505 105 136 186 60 303 791 172 863 77 452 3 575 465 849 304 12 63 968 86 801 184 187 40 982 177 657 257 218 15 132 20 538 26 297 55 211
450 20 1555 18 796 55 853 82 967 135 916 53 129 55 652 80 277 10 529 429 782 179 82 37 53 196 561 90 611 118 810 3 343 52 76 260 872 59 150 10 351 23 114
451 20 1668 22 272 22 383 424 785 72 275 29 621 126 119 328 67 32 53 20 873 61 523 323 697 97 394 76 566 150 903 146 30 14 366 5 855 81 911 22 275 35 763
452 20 2807 121 325 355 898 544 132 199 889 1 987 96 591 74 40 103 191 382 404 52 851 15 249 169 892 114 667 245 83 416 280 215 609 76 603 150 430 7 420 175 681
453 20 1777 13 25 8 581 69 586 45 490 196 763 173 180 148 678 15 641 392 959 28 467 96 314 18 871 14 419 34 750 6 883 82 399 116 579 213 710 268 340 288 541
454 20 2018 47 537 77 170 58 899 86 903 83 120 117 875 133 144 223 126 128 167 138 132 103 50 54 791 524 226 137 15 235 681 2 739 174 526 121 330 67 358 16 611
455 20 2175 105 726 17 474 309 738 293 122 108 92 41 310 53 570 23 551 159 234 52 190 15 874 349 776 156 826 354 233 131 615 284 983 54 949 32 105 53 836 131 315
456 20 2784 320 846 9 52 254 480 103 646 190 773 240 135 285 706 141 154 48 978 32 793 430 761 97 191 74 847 113 425 116 168 187 9 278 649 267 58 291 140 5 897
457 20 2573 63 518 205 478 139 536 108 32 6 762 145 205 201 696 83 533 31 93 222 553 343 455 86 862 100 981 44 234 376 160 24 131 137 225 189 539 125 303 590 850
458 20 2116 6 125 84 699 100 816 223 342 188 406 21 232 6 201 123 828 148 184 91 15 20 761 434 267 475 291 1 889 101 193 6 561 3 382 160 202 178 854 278 900
459 20 2268 176 660 47 929 228 418 263 901 154 816 2 694 60 492 5 552 39 485 183 958 183 784 312 410 41 209 255 976 8 82 399 53 105 391 180 168 74 144 121 46
460 20 1894 22 54 176 31 49 948 272 639 276 614 208 79 12 568 54 303 167 81 10 614 161 967 19 848 331 171 68 642 93 497 12 574 165 617 105 911 122 660 46 545
461 20 2183 408 211 107 645 9 339 244 298 320 384 67 271 82 749 6 775 19 365 62 118 59 7 59 916 132 783 27 571 59 135 63 386 110 260 245 513 30 855 621 316
462 20 2314 326 385 61 326 314 727 18 295 32 879 246 208 354 570 46 52 228 647 71 5 181 912 145 951 75 385 92 968 61 662 93 122 147 122 90 94 21 57 292 229
463 20 2130 186 511 35 127 91 656 298 234 17 602 125 253 276 208 81 918 72 607 190 440 90 766 345 645 194 266 104 717 35 412 29 696 140 141 176 738 159 679 20 648
464 20 2598 289 998 190 623 273 604 40 926 99 199 7 443 77 955 18 504 57 389 297 352 454 141 82 80 160 932 338 59 370 68 152 850 77 225 142 62 52 478 74 549
465 20 2328 562 833 210 309 46 284 115 520 321 718 142 615 82 722 100 469 18 664 1 942 161 402 62 540 525 820 45 914 302 449 54 196 46 993 69 451 42 138 7 69
466 20 2302 170 530 51 735 397 946 74 868 22 135 7 793 188 245 100 328 29 256 172 590 288 173 189 562 93 774 167 58 26 973 219 677 251 152 243 664 74 864 118 896
467 20 2112 138 984 112 229 136 561 109 644 15 319 176 574 135 977 334 213 103 534 152 913 87 253 147 871 169 741 27 672 141 121 116 77 152 419 65 589 103 618 223 255
468 20 2650 121 471 303 901 213 569 23 669 101 523 42 407 184 173 193 322 180 522 102 135 214 913 318 623 272 874 122 26 190 587 274 1 6 250 119 793 231 847 105 844
469 20 2650 115 504 109 52 356 720 304 716 53 635 76 161 178 94 73 539 65 919 111 276 512 710 177 63 205 419 31 485 132 434 30 122 221 529 51 735 254 522 260 567
470 20 2488 30 151 19 58 177 61 95 924 16 371 125 303 435 507 277 505 399 983 265 181 260 341 214 805 236 228 87 606 65 52 101 767 20 522 128 676 10 887 151 334
471 20 2955 331 574 23 563 210 254 406 468 7 64 365 399 330 945 123 103 12 490 50 93 232 716 57 443 5 380 75 202 219 647 60 291 314 7 222 281 382 615 271 623
472 20 2320 482 961 161 110 64 451 115 328 177 224 149 147 94 815 35 644 311 44 108 743 50 337 387 809 4 63 123 188 49 383 213 709 70 776 21 806 182 420 106 929
473 20 2137 85 982 2 388 624 730 166 650 213 471 111 298 17 220 39 304 60 198 102 75 229 764 84 916 11 289 56 610 155 967 247 214 44 68 175 211 155 602 97 508
474 20 2350 56 656 94 612 258 907 166 68 381 479 79 119 43 17 39 242 136 682 84 30 191 194 95 353 45 616 49 558 274 150 211 51 48 453 225 56 147 282 317 72
475 20 1956 25 136 42 632 154 938 240 592 112 710 160 935 198 452 24 866 78 629 50 312 25 882 25 591 175 867 144 568 25 442 185 779 322 869 131 254 157 426 173 396
476 20 1278 66 184 210 596 164 334 21 486 24 337 134 129 58 75 59 219 65 326 23 243 19 271 120 973 68 467 13 581 27 908 35 912 90 501 16 74 338 337 48 363
477 20 2285 15 517 462 253 120 571 89 118 211 378 261 741 483 431 49 822 93 760 262 866 40 227 137 569 26 815 55 891 83 606 104 767 227 430 10 622 116 175 14 315
478 20 2219 178 902 12 690 3 885 165 266 60 397 71 551 168 574 189 927 90 723 93 564 123 618 200 807 242 717 210 468 61 635 398 715 158 574 77 624 35 602 241 332
479 20 2412 85 813 123 629 333 609 208 338 324 54 119 288 130 937 160 499 189 4 76 617 24 877 57 470 113 483 533 859 133 804 11 413 47 908 254 763 47 222 49 737
480 20 1718 61 376 48 616 219 790 250 301 161 830 9 532 190 916 181 262 135 146 235 226 6 8 267 174 12 564 39 170 60 494 86 399 31 280 57 631 47 762 54 180
481 20 1628 160 499 34 509 113 496 157 257 248 271 250 783 9 252 101 498 113 328 105 512 98 397 58 694 90 379 7 619 54 394 35 378 83 744 27 921 180 96 114 977
482 20 2022 147 225 332 283 352 521 97 214 81 30 47 752 112 787 185 51 18 226 7 101 161 452 206 415 24 37 248 859 50 131 10 196 49 351 398 615 1 826 3 612
483 20 1592 26 440 202 554 268 829 44 117 47 177 127 735 291 133 97 116 56 562 79 100 11 922 17 696 14 409 243 982 100 771 39 175 26 216 174 230 27 181 102 693
484 20 2486 36 984 53 696 215 796 179 793 50 120 87 356 140 399 8 858 352 514 133 323 216 221 256 395 86 498 43 934 185 915 232 234 297 611 178 271 75 998 287 313
485 20 1598 191 171 47 486 3 36 20 793 101 97 20 985 75 971 89 82 87 403 75 753 2 453 270 247 406 592 12 897 87 190 11 550 67 422 300 20 131 419 4 259
486 20 2854 238 391 34 489 77 24 159 951 224 80 458 179 3 441 629 30 159 930 180 607 183 129 4 428 7 444 432 156 29 390 141 625 324 366 59 916 67 251 161 341
487 20 2633 178 606 4 987 219 824 68 754 45 523 415 484 72 64 129 801 70 208 184 692 143 732 58 622 311 854 37 253 324 120 45 971 106 795 435 821 396 344 53 222
488 20 3193 106 588 284 654 174 784 323 115 56 851 40 748 116 908 284 903 78 640 48 805 268 960 235 620 145 314 8 298 204 881 230 655 355 690 70 559 463 221 505 741
489 20 2808 82 527 433 520 163 544 135 815 436 124 124 390 85 123 185 160 173 354 244 740 8 730 10 77 312 458 8 729 374 379 129 846 141 686 204 150 51 814 214 861
490 20 1741 80 75 179 568 10 559 27 518 71 162 221 563 215 527 163 544 53 26 40 123 342 376 337 991 4 3 120 288 38 761 107 354 28 111 106 303 35 269 1 78
491 20 2280 105 62 60 728 54 512 61 227 162 920 22 891 367 372 118 785 288 897 215 482 152 587 13 662 73 607 165 433 209 321 145 17 218 302 119 392 12 869 292 508
492 20 2789 444 639 503 111 36 301 59 257 189 92 252 679 244 3 90 771 430 555 88 973 118 182 54 208 52 13 48 994 115 51 267 691 189 264 68 474 61 939 180 830
493 20 1754 78 784 90 202 167 612 71 383 26 68 82 782 13 763 223 536 146 319 13 281 26 389 270 380 130 647 123 191 80 110 127 79 255 420 252 344 12 160 9 887
494 20 2270 31 61 160 158 57 407 36 537 334 838 605 914 218 493 99 477 108 484 44 335 7 846 10 225 56 260 150 221 522 47 92 884 73 743 18 296 133 956 85 284
495 20 2621 62 286 52 353 69 768 5 975 346 263 217 361 162 435 39 582 165 582 11 209 176 228 136 655 395 272 149 904 22 657 281 166 199 187 240 818 33 59 518 926
496 20 2431 83 228 83 819 413 542 50 744 140 271 86 867 4 717 164 581 20 152 206 636 281 136 69 432 166 818 204 644 383 234 19 273 85 379 145 514 241 992 197 546
497 20 2740 257 537 179 943 170 390 19 548 150 739 223 938 232 375 114 634 211 525 84 151 126 147 64 203 66 477 135 478 142 486 47 836 133 475 155 364 360 237 558 35
498 20 2251 243 759 52 964 254 366 22 468 577 539 42 675 148 997 36 74 88 421 352 272 15 46 185 411 110 627 4 846 212 203 277 43 78 425 14 568 104 630 1 890
499 20 2179 374 9 69 98 38 663 15 504 42 585 9 927 237 910 233 95 41 849 349 167 174 343 62 88 190 61 2 491 211 80 21 404 381 25 99 632 138 895 39 480
500 20 2183 146 330 274 694 194 180 12 517 157 560 3 887 51 291 233 834 203 868 206 982 265 268 5 375 48 70 140 622 196 817 59 392 4 313 341 308 35 678 157 855
