file,meanIter,meanPrice,bestPrice,meanTime
data/R/wuf75-310-R1/wuf75-01.mwcnf,718683.50000000000000000000,-149.30000000000000000000,-4,5.56922507030000000000
data/R/wuf75-310-R1/wuf75-010.mwcnf,579405.50000000000000000000,-442.70000000000000000000,-206,4.41352178330000000000
data/R/wuf75-310-R1/wuf75-0100.mwcnf,456460.10000000000000000000,-4211.00000000000000000000,-2736,3.39604514230000000000
data/R/wuf75-310-R1/wuf75-011.mwcnf,682210.70000000000000000000,-1546.20000000000000000000,-1485,4.88668216740000000000
data/R/wuf75-310-R1/wuf75-012.mwcnf,714174.50000000000000000000,-270.90000000000000000000,-3,5.37436548620000000000
data/R/wuf75-310-R1/wuf75-013.mwcnf,673593.50000000000000000000,-487.10000000000000000000,-2,5.05355236420000000000
data/R/wuf75-310-R1/wuf75-014.mwcnf,521339.60000000000000000000,-1305.30000000000000000000,-1053,4.21580324800000000000
data/R/wuf75-310-R1/wuf75-015.mwcnf,715527.20000000000000000000,-38.00000000000000000000,-18,5.21766760740000000000
data/R/wuf75-310-R1/wuf75-016.mwcnf,719134.40000000000000000000,-251.70000000000000000000,-2,5.20966685630000000000
data/R/wuf75-310-R1/wuf75-017.mwcnf,609816.20000000000000000000,-4.10000000000000000000,-1,4.61582046100000000000
data/R/wuf75-310-R1/wuf75-018.mwcnf,696038.30000000000000000000,-1879.50000000000000000000,-1288,4.94981644350000000000
data/R/wuf75-310-R1/wuf75-019.mwcnf,720787.70000000000000000000,-249.30000000000000000000,-187,5.55568081510000000000
data/R/wuf75-310-R1/wuf75-02.mwcnf,608463.50000000000000000000,-1331.70000000000000000000,-984,4.49092968020000000000
data/R/wuf75-310-R1/wuf75-020.mwcnf,704605.40000000000000000000,-1830.80000000000000000000,-1423,5.24940113370000000000
data/R/wuf75-310-R1/wuf75-021.mwcnf,586970.60000000000000000000,-1843.70000000000000000000,-1770,4.36984176620000000000
data/R/wuf75-310-R1/wuf75-022.mwcnf,713122.40000000000000000000,-408.20000000000000000000,0,5.24102904020000000000
data/R/wuf75-310-R1/wuf75-023.mwcnf,713523.20000000000000000000,-2025.10000000000000000000,-4,5.24614361220000000000
data/R/wuf75-310-R1/wuf75-024.mwcnf,547541.90000000000000000000,-1683.30000000000000000000,-1127,4.15902819440000000000
data/R/wuf75-310-R1/wuf75-025.mwcnf,644285.00000000000000000000,-1714.80000000000000000000,-1043,4.73162698470000000000
data/R/wuf75-310-R1/wuf75-026.mwcnf,616930.40000000000000000000,-322.70000000000000000000,0,4.81610032030000000000
data/R/wuf75-310-R1/wuf75-027.mwcnf,723042.20000000000000000000,-429.90000000000000000000,-4,5.48352391040000000000
data/R/wuf75-310-R1/wuf75-028.mwcnf,493333.70000000000000000000,-3675.70000000000000000000,-2357,3.73484966790000000000
data/R/wuf75-310-R1/wuf75-029.mwcnf,727551.20000000000000000000,-3238.40000000000000000000,-1612,5.21475362930000000000
data/R/wuf75-310-R1/wuf75-03.mwcnf,588573.80000000000000000000,-742.70000000000000000000,-261,4.40735984820000000000
data/R/wuf75-310-R1/wuf75-030.mwcnf,414426.20000000000000000000,-319.70000000000000000000,-196,3.16939718540000000000
data/R/wuf75-310-R1/wuf75-031.mwcnf,413674.70000000000000000000,1575.00000000000000000000,28971,3.04925867050000000000
data/R/wuf75-310-R1/wuf75-032.mwcnf,730457.00000000000000000000,-1213.50000000000000000000,-8,5.34359778600000000000
data/R/wuf75-310-R1/wuf75-033.mwcnf,579555.80000000000000000000,-1644.70000000000000000000,-396,4.16561071030000000000
data/R/wuf75-310-R1/wuf75-034.mwcnf,481209.50000000000000000000,-1489.70000000000000000000,-126,3.62873508920000000000
data/R/wuf75-310-R1/wuf75-035.mwcnf,622341.20000000000000000000,-1658.80000000000000000000,-1504,4.51789129270000000000
data/R/wuf75-310-R1/wuf75-036.mwcnf,707861.90000000000000000000,-9.20000000000000000000,0,5.36361942500000000000
data/R/wuf75-310-R1/wuf75-037.mwcnf,703653.50000000000000000000,-99.40000000000000000000,0,5.27964352110000000000
data/R/wuf75-310-R1/wuf75-038.mwcnf,717881.90000000000000000000,-313.50000000000000000000,0,5.15142669910000000000
data/R/wuf75-310-R1/wuf75-039.mwcnf,705507.20000000000000000000,-1200.70000000000000000000,-1076,5.15565198230000000000
data/R/wuf75-310-R1/wuf75-04.mwcnf,659465.30000000000000000000,0,0,4.79124602410000000000
data/R/wuf75-310-R1/wuf75-040.mwcnf,650948.30000000000000000000,-3023.40000000000000000000,-2267,4.80546454800000000000
data/R/wuf75-310-R1/wuf75-041.mwcnf,709665.50000000000000000000,-873.90000000000000000000,-418,5.22992299230000000000
data/R/wuf75-310-R1/wuf75-042.mwcnf,620237.00000000000000000000,-4723.30000000000000000000,-3194,4.48118722610000000000
data/R/wuf75-310-R1/wuf75-043.mwcnf,691028.30000000000000000000,-33.90000000000000000000,-1,5.10799003020000000000
data/R/wuf75-310-R1/wuf75-044.mwcnf,726749.60000000000000000000,-113.90000000000000000000,-85,5.39919335980000000000
data/R/wuf75-310-R1/wuf75-045.mwcnf,702000.20000000000000000000,-1178.30000000000000000000,-151,5.18781416640000000000
data/R/wuf75-310-R1/wuf75-046.mwcnf,712120.40000000000000000000,-3247.90000000000000000000,-2425,5.17717662300000000000
data/R/wuf75-310-R1/wuf75-047.mwcnf,725246.60000000000000000000,-1627.20000000000000000000,-115,5.36197058240000000000
data/R/wuf75-310-R1/wuf75-048.mwcnf,508463.90000000000000000000,-1495.40000000000000000000,-672,3.87597518870000000000
data/R/wuf75-310-R1/wuf75-049.mwcnf,574595.90000000000000000000,-3889.20000000000000000000,-3889,4.22086070040000000000
data/R/wuf75-310-R1/wuf75-05.mwcnf,398043.50000000000000000000,-1330.20000000000000000000,-692,2.90292755270000000000
data/R/wuf75-310-R1/wuf75-050.mwcnf,694284.80000000000000000000,-3280.40000000000000000000,-2137,5.04050698940000000000
data/R/wuf75-310-R1/wuf75-051.mwcnf,363775.10000000000000000000,12077.10000000000000000000,46196,2.70554416220000000000
data/R/wuf75-310-R1/wuf75-052.mwcnf,612170.90000000000000000000,-5870.10000000000000000000,-3100,4.42257295140000000000
data/R/wuf75-310-R1/wuf75-053.mwcnf,693533.30000000000000000000,-73.60000000000000000000,-29,4.91673319780000000000
data/R/wuf75-310-R1/wuf75-054.mwcnf,436720.70000000000000000000,-3092.90000000000000000000,-2969,3.41858120050000000000
data/R/wuf75-310-R1/wuf75-055.mwcnf,572141.00000000000000000000,-1083.70000000000000000000,0,4.27787638920000000000
data/R/wuf75-310-R1/wuf75-056.mwcnf,723392.90000000000000000000,-272.80000000000000000000,-1,5.38958942530000000000
data/R/wuf75-310-R1/wuf75-057.mwcnf,720286.70000000000000000000,-3763.30000000000000000000,0,5.25203946030000000000
data/R/wuf75-310-R1/wuf75-058.mwcnf,482361.80000000000000000000,-23.10000000000000000000,0,3.60317493390000000000
data/R/wuf75-310-R1/wuf75-059.mwcnf,695036.30000000000000000000,-59.40000000000000000000,-10,4.93971240030000000000
data/R/wuf75-310-R1/wuf75-06.mwcnf,538874.60000000000000000000,-748.80000000000000000000,-333,3.90491205150000000000
data/R/wuf75-310-R1/wuf75-060.mwcnf,711118.40000000000000000000,-140.40000000000000000000,0,5.24917568510000000000
data/R/wuf75-310-R1/wuf75-061.mwcnf,685868.00000000000000000000,-196.70000000000000000000,0,5.03828376850000000000
data/R/wuf75-310-R1/wuf75-062.mwcnf,712671.50000000000000000000,-319.10000000000000000000,-166,4.97635449480000000000
data/R/wuf75-310-R1/wuf75-063.mwcnf,706859.90000000000000000000,-1787.30000000000000000000,-110,5.10041559850000000000
data/R/wuf75-310-R1/wuf75-064.mwcnf,727300.70000000000000000000,-88.40000000000000000000,-61,5.41123337400000000000
data/R/wuf75-310-R1/wuf75-065.mwcnf,638573.60000000000000000000,-230.40000000000000000000,-9,4.70032760700000000000
data/R/wuf75-310-R1/wuf75-066.mwcnf,358214.00000000000000000000,-741.40000000000000000000,-157,2.64154402520000000000
data/R/wuf75-310-R1/wuf75-067.mwcnf,617932.40000000000000000000,-843.30000000000000000000,-251,4.49278618920000000000
data/R/wuf75-310-R1/wuf75-068.mwcnf,648643.70000000000000000000,2903.60000000000000000000,29196,4.75647268510000000000
data/R/wuf75-310-R1/wuf75-069.mwcnf,706759.70000000000000000000,-1952.40000000000000000000,-176,5.22219002940000000000
data/R/wuf75-310-R1/wuf75-07.mwcnf,649044.50000000000000000000,-523.90000000000000000000,-235,4.72321938580000000000
data/R/wuf75-310-R1/wuf75-070.mwcnf,648543.50000000000000000000,-623.00000000000000000000,-11,4.87772691520000000000
data/R/wuf75-310-R1/wuf75-071.mwcnf,618683.90000000000000000000,-36.00000000000000000000,0,4.90065396690000000000
data/R/wuf75-310-R1/wuf75-072.mwcnf,638874.20000000000000000000,-356.50000000000000000000,-29,4.82355242020000000000
data/R/wuf75-310-R1/wuf75-073.mwcnf,713322.80000000000000000000,-1309.70000000000000000000,-56,5.20000426950000000000
data/R/wuf75-310-R1/wuf75-074.mwcnf,684164.60000000000000000000,-3458.50000000000000000000,-590,5.10154324080000000000
data/R/wuf75-310-R1/wuf75-075.mwcnf,702150.50000000000000000000,-56.70000000000000000000,0,5.01870162710000000000
data/R/wuf75-310-R1/wuf75-076.mwcnf,716980.10000000000000000000,-1002.60000000000000000000,-168,5.30772824330000000000
data/R/wuf75-310-R1/wuf75-077.mwcnf,707310.80000000000000000000,-1657.00000000000000000000,-1548,5.09952156510000000000
data/R/wuf75-310-R1/wuf75-078.mwcnf,665427.20000000000000000000,-1122.00000000000000000000,-542,4.76368211220000000000
data/R/wuf75-310-R1/wuf75-079.mwcnf,545137.10000000000000000000,-3403.00000000000000000000,-1732,4.06887107030000000000
data/R/wuf75-310-R1/wuf75-08.mwcnf,694385.00000000000000000000,-627.40000000000000000000,-310,5.06815892680000000000
data/R/wuf75-310-R1/wuf75-080.mwcnf,522491.90000000000000000000,-98.60000000000000000000,-35,3.72464402180000000000
data/R/wuf75-310-R1/wuf75-081.mwcnf,736970.00000000000000000000,-1149.80000000000000000000,-53,5.52374145360000000000
data/R/wuf75-310-R1/wuf75-082.mwcnf,620387.30000000000000000000,-269.70000000000000000000,-117,4.62624161690000000000
data/R/wuf75-310-R1/wuf75-083.mwcnf,726248.60000000000000000000,-2996.70000000000000000000,-2128,5.34301668550000000000
data/R/wuf75-310-R1/wuf75-084.mwcnf,705807.80000000000000000000,-501.00000000000000000000,-83,5.10724499020000000000
data/R/wuf75-310-R1/wuf75-085.mwcnf,724645.40000000000000000000,0,0,5.85529892800000000000
data/R/wuf75-310-R1/wuf75-086.mwcnf,694334.90000000000000000000,-1.90000000000000000000,0,4.96743384720000000000
data/R/wuf75-310-R1/wuf75-087.mwcnf,424245.80000000000000000000,10006.40000000000000000000,36198,3.07848034890000000000
data/R/wuf75-310-R1/wuf75-088.mwcnf,163425.20000000000000000000,17247.20000000000000000000,39234,1.21259668910000000000
data/R/wuf75-310-R1/wuf75-089.mwcnf,456810.80000000000000000000,-890.90000000000000000000,34168,3.46845930150000000000
data/R/wuf75-310-R1/wuf75-09.mwcnf,522241.40000000000000000000,-1352.40000000000000000000,-364,3.91073691000000000000
data/R/wuf75-310-R1/wuf75-090.mwcnf,648242.90000000000000000000,-933.90000000000000000000,-833,5.20295230590000000000
data/R/wuf75-310-R1/wuf75-091.mwcnf,712521.20000000000000000000,-1748.10000000000000000000,-1575,5.33702518900000000000
data/R/wuf75-310-R1/wuf75-092.mwcnf,577852.40000000000000000000,-3121.60000000000000000000,-2113,4.15862708890000000000
data/R/wuf75-310-R1/wuf75-093.mwcnf,591078.80000000000000000000,-2642.30000000000000000000,-1910,4.47170669420000000000
data/R/wuf75-310-R1/wuf75-094.mwcnf,696990.20000000000000000000,-18.30000000000000000000,0,5.11761579700000000000
data/R/wuf75-310-R1/wuf75-095.mwcnf,601299.20000000000000000000,-611.40000000000000000000,-242,4.54486713800000000000
data/R/wuf75-310-R1/wuf75-096.mwcnf,448794.80000000000000000000,-573.80000000000000000000,0,3.33088909900000000000
data/R/wuf75-310-R1/wuf75-097.mwcnf,360368.30000000000000000000,11360.20000000000000000000,46618,2.67106056820000000000
data/R/wuf75-310-R1/wuf75-098.mwcnf,623994.50000000000000000000,-2098.90000000000000000000,-195,4.84696870080000000000
data/R/wuf75-310-R1/wuf75-099.mwcnf,707160.50000000000000000000,-1481.20000000000000000000,-794,5.56960831710000000000
