iters,price,time
699395,0,5.082793404
655808,0,4.792544789
649295,0,4.763220578
661319,0,4.534358759
631259,0,4.597003230
622241,0,4.526117965
667331,0,4.890647576
673844,0,4.909550687
672341,0,4.934000203
661820,0,4.882223050
