iters,price,time
603203,-103,4.553449930
669335,-920,5.037585082
698393,-885,5.285250747
613223,-1074,4.634654044
613724,-11,4.581918148
605207,-105,4.564298067
690377,-920,5.205474899
676349,-375,5.104400217
688874,-919,5.139596275
626750,-918,4.670641743
