iters,price,time
706409,-269,4.884225571
709916,-704,4.838922714
744986,-238,5.225150583
757010,-258,5.257369171
693383,-211,4.773025609
667832,-635,4.828496449
703403,-166,4.960352549
703403,-210,4.925074078
721940,-320,4.994598270
718433,-180,5.076329954
