iters,price,time
702401,-2378,5.261987215
688874,-1592,5.198355625
727952,-1662,5.517904319
702902,-2464,5.159857725
731960,-1424,5.353180575
708413,-1485,5.272907410
695888,-2461,5.188236457
714425,-1618,5.265304997
699896,-1801,5.260988033
673343,-1423,5.015288981
