iters,price,time
455408,-3095,3.526848359
416831,-3084,3.251349351
446891,-2969,3.473242233
439376,-3155,3.529792126
419336,-3166,3.300875341
459917,-3155,3.695287863
433364,-2971,3.408939073
455909,-3133,3.518596569
437873,-3046,3.292485638
402302,-3155,3.188395452
