iters,price,time
536069,0,4.055555611
565628,-1302,4.277434387
550097,0,4.084364797
597191,-1781,4.474417914
582662,-1781,4.316472691
574646,-43,4.510884839
600197,-1244,4.442283728
546089,-1781,4.058631771
616730,-1781,4.494343757
552101,-1124,4.064374397
