iters,price,time
718934,-2,5.336737210
696890,-72,5.096995537
700397,-229,5.147503101
725447,-2,5.333082919
722942,-106,5.402890513
728954,-72,5.335936437
708914,-98,5.213237684
695888,-4,5.167204058
724445,0,5.353144636
688373,-819,5.105024756
