iters,price,time
731960,-1179,5.294160506
730457,-993,5.133967203
736469,-2208,5.402068641
721439,-2036,5.267014116
750497,-8,5.363231427
729956,-1185,5.574829686
719936,-1299,5.332507392
742982,-869,5.389296162
726449,-1179,5.390985764
714425,-1179,5.287916963
