iters,price,time
728453,0,6.127567648
745487,0,5.923844483
733964,0,6.009985543
737972,0,5.847868809
705908,0,5.634412010
720938,0,5.955447729
711920,0,5.720743664
696890,0,5.488602271
726449,0,6.051337096
738473,0,5.793180027
