iters,price,time
559616,-5030,3.977993928
614726,-6363,4.318544214
687872,-3809,4.997225436
638273,-3809,4.636974459
643784,-5073,4.580425127
602201,-3194,4.317394865
627251,-3822,4.591054270
620738,-5955,4.458743694
564125,-6489,4.268588626
643784,-3689,4.664927642
