iters,price,time
698393,-251,5.164554295
545588,-920,3.973045277
606209,-1017,4.368149627
635768,-701,4.594750306
622742,-1087,4.541476304
610718,-787,4.461505063
695888,-1260,5.068141560
627752,-829,4.561150896
551099,-535,4.010891686
585167,-1046,4.184196878
