iters,price,time
521540,-1624,4.004949158
549095,-1495,4.153335510
498494,-1933,3.730998050
505508,-453,3.725758672
502001,-417,3.852203962
548594,-1434,4.072654441
576650,-409,4.383113297
543584,-2774,3.979663237
478955,-364,3.574120614
497993,-2621,3.630572159
