iters,price,time
708914,-353,5.280601463
723944,-168,5.384420715
698894,-1087,5.096995076
727952,-539,5.325857777
718934,-1544,5.340652664
765527,-1560,5.629932886
708413,-1275,5.338574333
696389,-1273,5.138057172
702401,-1248,5.172806496
718433,-979,5.369383851
