iters,price,time
531560,-4295,3.816614181
553103,-3750,3.939881596
595187,-2649,4.392595306
587672,-3522,4.200123805
607211,-2113,4.402565629
541079,-3799,3.849352577
613223,-2459,4.414309019
574145,-2336,4.175208744
578153,-2676,4.123359878
597191,-3617,4.272260154
