iters,price,time
698894,-43,5.047984827
702902,-251,4.970122634
707912,-33,4.845835808
691379,-190,4.955065791
698393,-36,4.683123260
681860,-35,4.834758172
692882,-36,4.958592422
668333,-30,4.796767363
700397,-29,5.159694523
692381,-53,4.915387178
