file,opt
data/N/wuf50-201-N1/wuf50-01.mwcnf,-9223372036854775808
data/N/wuf50-201-N1/wuf50-010.mwcnf,-9223372036854775808
data/N/wuf50-201-N1/wuf50-0100.mwcnf,-9223372036854775808
data/N/wuf50-201-N1/wuf50-01000.mwcnf,-9223372036854775808
data/N/wuf50-201-N1/wuf50-0101.mwcnf,-9223372036854775808
data/N/wuf50-201-N1/wuf50-0102.mwcnf,-9223372036854775808
data/N/wuf50-201-N1/wuf50-0103.mwcnf,-9223372036854775808
data/N/wuf50-201-N1/wuf50-0104.mwcnf,-9223372036854775808
data/N/wuf50-201-N1/wuf50-0105.mwcnf,-9223372036854775808
data/N/wuf50-201-N1/wuf50-0106.mwcnf,-9223372036854775808
data/N/wuf50-201-N1/wuf50-0107.mwcnf,-9223372036854775808
data/N/wuf50-201-N1/wuf50-0108.mwcnf,-9223372036854775808
data/N/wuf50-201-N1/wuf50-0109.mwcnf,-9223372036854775808
data/N/wuf50-201-N1/wuf50-011.mwcnf,-9223372036854775808
data/N/wuf50-201-N1/wuf50-0110.mwcnf,-9223372036854775808
data/N/wuf50-201-N1/wuf50-0111.mwcnf,-9223372036854775808
data/N/wuf50-201-N1/wuf50-0112.mwcnf,-9223372036854775808
data/N/wuf50-201-N1/wuf50-0113.mwcnf,-9223372036854775808
data/N/wuf50-201-N1/wuf50-0114.mwcnf,-9223372036854775808
data/N/wuf50-201-N1/wuf50-0115.mwcnf,-9223372036854775808
data/N/wuf50-201-N1/wuf50-0116.mwcnf,-9223372036854775808
data/N/wuf50-201-N1/wuf50-0117.mwcnf,-9223372036854775808
data/N/wuf50-201-N1/wuf50-0118.mwcnf,-9223372036854775808
data/N/wuf50-201-N1/wuf50-0119.mwcnf,-9223372036854775808
data/N/wuf50-201-N1/wuf50-012.mwcnf,-9223372036854775808
data/N/wuf50-201-N1/wuf50-0120.mwcnf,-9223372036854775808
data/N/wuf50-201-N1/wuf50-0121.mwcnf,-9223372036854775808
data/N/wuf50-201-N1/wuf50-0122.mwcnf,-9223372036854775808
data/N/wuf50-201-N1/wuf50-0123.mwcnf,-9223372036854775808
data/N/wuf50-201-N1/wuf50-0124.mwcnf,-9223372036854775808
data/N/wuf50-201-N1/wuf50-0125.mwcnf,-9223372036854775808
data/N/wuf50-201-N1/wuf50-0126.mwcnf,-9223372036854775808
data/N/wuf50-201-N1/wuf50-0127.mwcnf,-9223372036854775808
data/N/wuf50-201-N1/wuf50-0128.mwcnf,-9223372036854775808
data/N/wuf50-201-N1/wuf50-0129.mwcnf,-9223372036854775808
data/N/wuf50-201-N1/wuf50-013.mwcnf,-9223372036854775808
data/N/wuf50-201-N1/wuf50-0130.mwcnf,-9223372036854775808
data/N/wuf50-201-N1/wuf50-0131.mwcnf,-9223372036854775808
data/N/wuf50-201-N1/wuf50-0132.mwcnf,-9223372036854775808
data/N/wuf50-201-N1/wuf50-0133.mwcnf,-9223372036854775808
data/N/wuf50-201-N1/wuf50-0134.mwcnf,-9223372036854775808
data/N/wuf50-201-N1/wuf50-0135.mwcnf,-9223372036854775808
data/N/wuf50-201-N1/wuf50-0136.mwcnf,-9223372036854775808
data/N/wuf50-201-N1/wuf50-0137.mwcnf,-9223372036854775808
data/N/wuf50-201-N1/wuf50-0138.mwcnf,-9223372036854775808
data/N/wuf50-201-N1/wuf50-0139.mwcnf,-9223372036854775808
data/N/wuf50-201-N1/wuf50-014.mwcnf,-9223372036854775808
data/N/wuf50-201-N1/wuf50-0140.mwcnf,-9223372036854775808
data/N/wuf50-201-N1/wuf50-0141.mwcnf,-9223372036854775808
data/N/wuf50-201-N1/wuf50-0142.mwcnf,-9223372036854775808
data/N/wuf50-201-N1/wuf50-0143.mwcnf,-9223372036854775808
data/N/wuf50-201-N1/wuf50-0144.mwcnf,-9223372036854775808
data/N/wuf50-201-N1/wuf50-0145.mwcnf,-9223372036854775808
data/N/wuf50-201-N1/wuf50-0146.mwcnf,-9223372036854775808
data/N/wuf50-201-N1/wuf50-0147.mwcnf,-9223372036854775808
data/N/wuf50-201-N1/wuf50-0148.mwcnf,-9223372036854775808
data/N/wuf50-201-N1/wuf50-0149.mwcnf,-9223372036854775808
data/N/wuf50-201-N1/wuf50-015.mwcnf,-9223372036854775808
data/N/wuf50-201-N1/wuf50-0150.mwcnf,-9223372036854775808
data/N/wuf50-201-N1/wuf50-0151.mwcnf,-9223372036854775808
data/N/wuf50-201-N1/wuf50-0152.mwcnf,-9223372036854775808
data/N/wuf50-201-N1/wuf50-0153.mwcnf,-9223372036854775808
data/N/wuf50-201-N1/wuf50-0154.mwcnf,-9223372036854775808
data/N/wuf50-201-N1/wuf50-0155.mwcnf,-9223372036854775808
data/N/wuf50-201-N1/wuf50-0156.mwcnf,-9223372036854775808
data/N/wuf50-201-N1/wuf50-0157.mwcnf,-9223372036854775808
data/N/wuf50-201-N1/wuf50-0158.mwcnf,-9223372036854775808
data/N/wuf50-201-N1/wuf50-0159.mwcnf,-9223372036854775808
data/N/wuf50-201-N1/wuf50-016.mwcnf,-9223372036854775808
data/N/wuf50-201-N1/wuf50-0160.mwcnf,-9223372036854775808
data/N/wuf50-201-N1/wuf50-0161.mwcnf,-9223372036854775808
data/N/wuf50-201-N1/wuf50-0162.mwcnf,-9223372036854775808
data/N/wuf50-201-N1/wuf50-0163.mwcnf,-9223372036854775808
data/N/wuf50-201-N1/wuf50-0164.mwcnf,-9223372036854775808
data/N/wuf50-201-N1/wuf50-0165.mwcnf,-9223372036854775808
data/N/wuf50-201-N1/wuf50-0166.mwcnf,-9223372036854775808
data/N/wuf50-201-N1/wuf50-0167.mwcnf,-9223372036854775808
data/N/wuf50-201-N1/wuf50-0168.mwcnf,-9223372036854775808
data/N/wuf50-201-N1/wuf50-0169.mwcnf,-9223372036854775808
data/N/wuf50-201-N1/wuf50-017.mwcnf,-9223372036854775808
data/N/wuf50-201-N1/wuf50-0170.mwcnf,-9223372036854775808
data/N/wuf50-201-N1/wuf50-0171.mwcnf,-9223372036854775808
data/N/wuf50-201-N1/wuf50-0172.mwcnf,-9223372036854775808
data/N/wuf50-201-N1/wuf50-0173.mwcnf,-9223372036854775808
data/N/wuf50-201-N1/wuf50-0174.mwcnf,-9223372036854775808
data/N/wuf50-201-N1/wuf50-0175.mwcnf,-9223372036854775808
data/N/wuf50-201-N1/wuf50-0176.mwcnf,-9223372036854775808
data/N/wuf50-201-N1/wuf50-0177.mwcnf,-9223372036854775808
data/N/wuf50-201-N1/wuf50-0178.mwcnf,-9223372036854775808
data/N/wuf50-201-N1/wuf50-0179.mwcnf,-9223372036854775808
data/N/wuf50-201-N1/wuf50-018.mwcnf,-9223372036854775808
data/N/wuf50-201-N1/wuf50-0180.mwcnf,-9223372036854775808
data/N/wuf50-201-N1/wuf50-0181.mwcnf,-9223372036854775808
data/N/wuf50-201-N1/wuf50-0182.mwcnf,-9223372036854775808
data/N/wuf50-201-N1/wuf50-0183.mwcnf,-9223372036854775808
data/N/wuf50-201-N1/wuf50-0184.mwcnf,-9223372036854775808
data/N/wuf50-201-N1/wuf50-0185.mwcnf,-9223372036854775808
data/N/wuf50-201-N1/wuf50-0186.mwcnf,-9223372036854775808
data/N/wuf50-201-N1/wuf50-0187.mwcnf,-9223372036854775808
data/N/wuf50-201-N1/wuf50-0188.mwcnf,-9223372036854775808
data/N/wuf50-201-N1/wuf50-0189.mwcnf,-9223372036854775808
data/N/wuf50-201-N1/wuf50-019.mwcnf,-9223372036854775808
data/N/wuf50-201-N1/wuf50-0190.mwcnf,-9223372036854775808
data/N/wuf50-201-N1/wuf50-0191.mwcnf,-9223372036854775808
data/N/wuf50-201-N1/wuf50-0192.mwcnf,-9223372036854775808
data/N/wuf50-201-N1/wuf50-0193.mwcnf,-9223372036854775808
data/N/wuf50-201-N1/wuf50-0194.mwcnf,-9223372036854775808
data/N/wuf50-201-N1/wuf50-0195.mwcnf,-9223372036854775808
data/N/wuf50-201-N1/wuf50-0196.mwcnf,-9223372036854775808
data/N/wuf50-201-N1/wuf50-0197.mwcnf,-9223372036854775808
data/N/wuf50-201-N1/wuf50-0198.mwcnf,-9223372036854775808
data/N/wuf50-201-N1/wuf50-0199.mwcnf,-9223372036854775808
data/N/wuf50-201-N1/wuf50-02.mwcnf,-9223372036854775808
data/N/wuf50-201-N1/wuf50-020.mwcnf,-9223372036854775808
data/N/wuf50-201-N1/wuf50-0200.mwcnf,-9223372036854775808
data/N/wuf50-201-N1/wuf50-0201.mwcnf,-9223372036854775808
data/N/wuf50-201-N1/wuf50-0202.mwcnf,-9223372036854775808
data/N/wuf50-201-N1/wuf50-0203.mwcnf,-9223372036854775808
data/N/wuf50-201-N1/wuf50-0204.mwcnf,-9223372036854775808
data/N/wuf50-201-N1/wuf50-0205.mwcnf,-9223372036854775808
data/N/wuf50-201-N1/wuf50-0206.mwcnf,-9223372036854775808
data/N/wuf50-201-N1/wuf50-0207.mwcnf,-9223372036854775808
data/N/wuf50-201-N1/wuf50-0208.mwcnf,-9223372036854775808
data/N/wuf50-201-N1/wuf50-0209.mwcnf,-9223372036854775808
data/N/wuf50-201-N1/wuf50-021.mwcnf,-9223372036854775808
data/N/wuf50-201-N1/wuf50-0210.mwcnf,-9223372036854775808
data/N/wuf50-201-N1/wuf50-0211.mwcnf,-9223372036854775808
data/N/wuf50-201-N1/wuf50-0212.mwcnf,-9223372036854775808
data/N/wuf50-201-N1/wuf50-0213.mwcnf,-9223372036854775808
data/N/wuf50-201-N1/wuf50-0214.mwcnf,-9223372036854775808
data/N/wuf50-201-N1/wuf50-0215.mwcnf,-9223372036854775808
data/N/wuf50-201-N1/wuf50-0216.mwcnf,-9223372036854775808
data/N/wuf50-201-N1/wuf50-0217.mwcnf,-9223372036854775808
data/N/wuf50-201-N1/wuf50-0218.mwcnf,-9223372036854775808
data/N/wuf50-201-N1/wuf50-0219.mwcnf,-9223372036854775808
data/N/wuf50-201-N1/wuf50-022.mwcnf,-9223372036854775808
data/N/wuf50-201-N1/wuf50-0220.mwcnf,-9223372036854775808
data/N/wuf50-201-N1/wuf50-0221.mwcnf,-9223372036854775808
data/N/wuf50-201-N1/wuf50-0222.mwcnf,-9223372036854775808
data/N/wuf50-201-N1/wuf50-0223.mwcnf,-9223372036854775808
data/N/wuf50-201-N1/wuf50-0224.mwcnf,-9223372036854775808
data/N/wuf50-201-N1/wuf50-0225.mwcnf,-9223372036854775808
data/N/wuf50-201-N1/wuf50-0226.mwcnf,-9223372036854775808
data/N/wuf50-201-N1/wuf50-0227.mwcnf,-9223372036854775808
data/N/wuf50-201-N1/wuf50-0228.mwcnf,-9223372036854775808
data/N/wuf50-201-N1/wuf50-0229.mwcnf,-9223372036854775808
data/N/wuf50-201-N1/wuf50-023.mwcnf,-9223372036854775808
data/N/wuf50-201-N1/wuf50-0230.mwcnf,-9223372036854775808
data/N/wuf50-201-N1/wuf50-0231.mwcnf,-9223372036854775808
data/N/wuf50-201-N1/wuf50-0232.mwcnf,-9223372036854775808
data/N/wuf50-201-N1/wuf50-0233.mwcnf,-9223372036854775808
data/N/wuf50-201-N1/wuf50-0234.mwcnf,-9223372036854775808
data/N/wuf50-201-N1/wuf50-0235.mwcnf,-9223372036854775808
data/N/wuf50-201-N1/wuf50-0236.mwcnf,-9223372036854775808
data/N/wuf50-201-N1/wuf50-0237.mwcnf,-9223372036854775808
data/N/wuf50-201-N1/wuf50-0238.mwcnf,-9223372036854775808
data/N/wuf50-201-N1/wuf50-0239.mwcnf,-9223372036854775808
data/N/wuf50-201-N1/wuf50-024.mwcnf,-9223372036854775808
data/N/wuf50-201-N1/wuf50-0240.mwcnf,-9223372036854775808
data/N/wuf50-201-N1/wuf50-0241.mwcnf,-9223372036854775808
data/N/wuf50-201-N1/wuf50-0242.mwcnf,-9223372036854775808
data/N/wuf50-201-N1/wuf50-0243.mwcnf,-9223372036854775808
data/N/wuf50-201-N1/wuf50-0244.mwcnf,-9223372036854775808
data/N/wuf50-201-N1/wuf50-0245.mwcnf,-9223372036854775808
data/N/wuf50-201-N1/wuf50-0246.mwcnf,-9223372036854775808
data/N/wuf50-201-N1/wuf50-0247.mwcnf,-9223372036854775808
data/N/wuf50-201-N1/wuf50-0248.mwcnf,-9223372036854775808
data/N/wuf50-201-N1/wuf50-0249.mwcnf,-9223372036854775808
data/N/wuf50-201-N1/wuf50-025.mwcnf,-9223372036854775808
data/N/wuf50-201-N1/wuf50-0250.mwcnf,-9223372036854775808
data/N/wuf50-201-N1/wuf50-0251.mwcnf,-9223372036854775808
data/N/wuf50-201-N1/wuf50-0252.mwcnf,-9223372036854775808
data/N/wuf50-201-N1/wuf50-0253.mwcnf,-9223372036854775808
data/N/wuf50-201-N1/wuf50-0254.mwcnf,-9223372036854775808
data/N/wuf50-201-N1/wuf50-0255.mwcnf,-9223372036854775808
data/N/wuf50-201-N1/wuf50-0256.mwcnf,-9223372036854775808
data/N/wuf50-201-N1/wuf50-0257.mwcnf,-9223372036854775808
data/N/wuf50-201-N1/wuf50-0258.mwcnf,-9223372036854775808
data/N/wuf50-201-N1/wuf50-0259.mwcnf,-9223372036854775808
data/N/wuf50-201-N1/wuf50-026.mwcnf,-9223372036854775808
data/N/wuf50-201-N1/wuf50-0260.mwcnf,-9223372036854775808
data/N/wuf50-201-N1/wuf50-0261.mwcnf,-9223372036854775808
data/N/wuf50-201-N1/wuf50-0262.mwcnf,-9223372036854775808
data/N/wuf50-201-N1/wuf50-0263.mwcnf,-9223372036854775808
data/N/wuf50-201-N1/wuf50-0264.mwcnf,-9223372036854775808
data/N/wuf50-201-N1/wuf50-0265.mwcnf,-9223372036854775808
data/N/wuf50-201-N1/wuf50-0266.mwcnf,-9223372036854775808
data/N/wuf50-201-N1/wuf50-0267.mwcnf,-9223372036854775808
data/N/wuf50-201-N1/wuf50-0268.mwcnf,-9223372036854775808
data/N/wuf50-201-N1/wuf50-0269.mwcnf,-9223372036854775808
data/N/wuf50-201-N1/wuf50-027.mwcnf,-9223372036854775808
data/N/wuf50-201-N1/wuf50-0270.mwcnf,-9223372036854775808
data/N/wuf50-201-N1/wuf50-0271.mwcnf,-9223372036854775808
data/N/wuf50-201-N1/wuf50-0272.mwcnf,-9223372036854775808
data/N/wuf50-201-N1/wuf50-0273.mwcnf,-9223372036854775808
data/N/wuf50-201-N1/wuf50-0274.mwcnf,-9223372036854775808
data/N/wuf50-201-N1/wuf50-0275.mwcnf,-9223372036854775808
data/N/wuf50-201-N1/wuf50-0276.mwcnf,-9223372036854775808
data/N/wuf50-201-N1/wuf50-0277.mwcnf,-9223372036854775808
data/N/wuf50-201-N1/wuf50-0278.mwcnf,-9223372036854775808
data/N/wuf50-201-N1/wuf50-0279.mwcnf,-9223372036854775808
data/N/wuf50-201-N1/wuf50-028.mwcnf,-9223372036854775808
data/N/wuf50-201-N1/wuf50-0280.mwcnf,-9223372036854775808
data/N/wuf50-201-N1/wuf50-0281.mwcnf,-9223372036854775808
data/N/wuf50-201-N1/wuf50-0282.mwcnf,-9223372036854775808
data/N/wuf50-201-N1/wuf50-0283.mwcnf,-9223372036854775808
data/N/wuf50-201-N1/wuf50-0284.mwcnf,-9223372036854775808
data/N/wuf50-201-N1/wuf50-0285.mwcnf,-9223372036854775808
data/N/wuf50-201-N1/wuf50-0286.mwcnf,-9223372036854775808
data/N/wuf50-201-N1/wuf50-0287.mwcnf,-9223372036854775808
data/N/wuf50-201-N1/wuf50-0288.mwcnf,-9223372036854775808
data/N/wuf50-201-N1/wuf50-0289.mwcnf,-9223372036854775808
data/N/wuf50-201-N1/wuf50-029.mwcnf,-9223372036854775808
data/N/wuf50-201-N1/wuf50-0290.mwcnf,-9223372036854775808
data/N/wuf50-201-N1/wuf50-0291.mwcnf,-9223372036854775808
data/N/wuf50-201-N1/wuf50-0292.mwcnf,-9223372036854775808
data/N/wuf50-201-N1/wuf50-0293.mwcnf,-9223372036854775808
data/N/wuf50-201-N1/wuf50-0294.mwcnf,-9223372036854775808
data/N/wuf50-201-N1/wuf50-0295.mwcnf,-9223372036854775808
data/N/wuf50-201-N1/wuf50-0296.mwcnf,-9223372036854775808
data/N/wuf50-201-N1/wuf50-0297.mwcnf,-9223372036854775808
data/N/wuf50-201-N1/wuf50-0298.mwcnf,-9223372036854775808
data/N/wuf50-201-N1/wuf50-0299.mwcnf,-9223372036854775808
data/N/wuf50-201-N1/wuf50-03.mwcnf,-9223372036854775808
data/N/wuf50-201-N1/wuf50-030.mwcnf,-9223372036854775808
data/N/wuf50-201-N1/wuf50-0300.mwcnf,-9223372036854775808
data/N/wuf50-201-N1/wuf50-0301.mwcnf,-9223372036854775808
data/N/wuf50-201-N1/wuf50-0302.mwcnf,-9223372036854775808
data/N/wuf50-201-N1/wuf50-0303.mwcnf,-9223372036854775808
data/N/wuf50-201-N1/wuf50-0304.mwcnf,-9223372036854775808
data/N/wuf50-201-N1/wuf50-0305.mwcnf,-9223372036854775808
data/N/wuf50-201-N1/wuf50-0306.mwcnf,-9223372036854775808
data/N/wuf50-201-N1/wuf50-0307.mwcnf,-9223372036854775808
data/N/wuf50-201-N1/wuf50-0308.mwcnf,-9223372036854775808
data/N/wuf50-201-N1/wuf50-0309.mwcnf,-9223372036854775808
data/N/wuf50-201-N1/wuf50-031.mwcnf,-9223372036854775808
data/N/wuf50-201-N1/wuf50-0310.mwcnf,-9223372036854775808
data/N/wuf50-201-N1/wuf50-0311.mwcnf,-9223372036854775808
data/N/wuf50-201-N1/wuf50-0312.mwcnf,-9223372036854775808
data/N/wuf50-201-N1/wuf50-0313.mwcnf,-9223372036854775808
data/N/wuf50-201-N1/wuf50-0314.mwcnf,-9223372036854775808
data/N/wuf50-201-N1/wuf50-0315.mwcnf,-9223372036854775808
data/N/wuf50-201-N1/wuf50-0316.mwcnf,-9223372036854775808
data/N/wuf50-201-N1/wuf50-0317.mwcnf,-9223372036854775808
data/N/wuf50-201-N1/wuf50-0318.mwcnf,-9223372036854775808
data/N/wuf50-201-N1/wuf50-0319.mwcnf,-9223372036854775808
data/N/wuf50-201-N1/wuf50-032.mwcnf,-9223372036854775808
data/N/wuf50-201-N1/wuf50-0320.mwcnf,-9223372036854775808
data/N/wuf50-201-N1/wuf50-0321.mwcnf,-9223372036854775808
data/N/wuf50-201-N1/wuf50-0322.mwcnf,-9223372036854775808
data/N/wuf50-201-N1/wuf50-0323.mwcnf,-9223372036854775808
data/N/wuf50-201-N1/wuf50-0324.mwcnf,-9223372036854775808
data/N/wuf50-201-N1/wuf50-0325.mwcnf,-9223372036854775808
data/N/wuf50-201-N1/wuf50-0326.mwcnf,-9223372036854775808
data/N/wuf50-201-N1/wuf50-0327.mwcnf,-9223372036854775808
data/N/wuf50-201-N1/wuf50-0328.mwcnf,-9223372036854775808
data/N/wuf50-201-N1/wuf50-0329.mwcnf,-9223372036854775808
data/N/wuf50-201-N1/wuf50-033.mwcnf,-9223372036854775808
data/N/wuf50-201-N1/wuf50-0330.mwcnf,-9223372036854775808
data/N/wuf50-201-N1/wuf50-0331.mwcnf,-9223372036854775808
data/N/wuf50-201-N1/wuf50-0332.mwcnf,-9223372036854775808
data/N/wuf50-201-N1/wuf50-0333.mwcnf,-9223372036854775808
data/N/wuf50-201-N1/wuf50-0334.mwcnf,-9223372036854775808
data/N/wuf50-201-N1/wuf50-0335.mwcnf,-9223372036854775808
data/N/wuf50-201-N1/wuf50-0336.mwcnf,-9223372036854775808
data/N/wuf50-201-N1/wuf50-0337.mwcnf,-9223372036854775808
data/N/wuf50-201-N1/wuf50-0338.mwcnf,-9223372036854775808
data/N/wuf50-201-N1/wuf50-0339.mwcnf,-9223372036854775808
data/N/wuf50-201-N1/wuf50-034.mwcnf,-9223372036854775808
data/N/wuf50-201-N1/wuf50-0340.mwcnf,-9223372036854775808
data/N/wuf50-201-N1/wuf50-0341.mwcnf,-9223372036854775808
data/N/wuf50-201-N1/wuf50-0342.mwcnf,-9223372036854775808
data/N/wuf50-201-N1/wuf50-0343.mwcnf,-9223372036854775808
data/N/wuf50-201-N1/wuf50-0344.mwcnf,-9223372036854775808
data/N/wuf50-201-N1/wuf50-0345.mwcnf,-9223372036854775808
data/N/wuf50-201-N1/wuf50-0346.mwcnf,-9223372036854775808
data/N/wuf50-201-N1/wuf50-0347.mwcnf,-9223372036854775808
data/N/wuf50-201-N1/wuf50-0348.mwcnf,-9223372036854775808
data/N/wuf50-201-N1/wuf50-0349.mwcnf,-9223372036854775808
data/N/wuf50-201-N1/wuf50-035.mwcnf,-9223372036854775808
data/N/wuf50-201-N1/wuf50-0350.mwcnf,-9223372036854775808
data/N/wuf50-201-N1/wuf50-0351.mwcnf,-9223372036854775808
data/N/wuf50-201-N1/wuf50-0352.mwcnf,-9223372036854775808
data/N/wuf50-201-N1/wuf50-0353.mwcnf,-9223372036854775808
data/N/wuf50-201-N1/wuf50-0354.mwcnf,-9223372036854775808
data/N/wuf50-201-N1/wuf50-0355.mwcnf,-9223372036854775808
data/N/wuf50-201-N1/wuf50-0356.mwcnf,-9223372036854775808
data/N/wuf50-201-N1/wuf50-0357.mwcnf,-9223372036854775808
data/N/wuf50-201-N1/wuf50-0358.mwcnf,-9223372036854775808
data/N/wuf50-201-N1/wuf50-0359.mwcnf,-9223372036854775808
data/N/wuf50-201-N1/wuf50-036.mwcnf,-9223372036854775808
data/N/wuf50-201-N1/wuf50-0360.mwcnf,-9223372036854775808
data/N/wuf50-201-N1/wuf50-0361.mwcnf,-9223372036854775808
data/N/wuf50-201-N1/wuf50-0362.mwcnf,-9223372036854775808
data/N/wuf50-201-N1/wuf50-0363.mwcnf,-9223372036854775808
data/N/wuf50-201-N1/wuf50-0364.mwcnf,-9223372036854775808
data/N/wuf50-201-N1/wuf50-0365.mwcnf,-9223372036854775808
data/N/wuf50-201-N1/wuf50-0366.mwcnf,-9223372036854775808
data/N/wuf50-201-N1/wuf50-0367.mwcnf,-9223372036854775808
data/N/wuf50-201-N1/wuf50-0368.mwcnf,-9223372036854775808
data/N/wuf50-201-N1/wuf50-0369.mwcnf,-9223372036854775808
data/N/wuf50-201-N1/wuf50-037.mwcnf,-9223372036854775808
data/N/wuf50-201-N1/wuf50-0370.mwcnf,-9223372036854775808
data/N/wuf50-201-N1/wuf50-0371.mwcnf,-9223372036854775808
data/N/wuf50-201-N1/wuf50-0372.mwcnf,-9223372036854775808
data/N/wuf50-201-N1/wuf50-0373.mwcnf,-9223372036854775808
data/N/wuf50-201-N1/wuf50-0374.mwcnf,-9223372036854775808
data/N/wuf50-201-N1/wuf50-0375.mwcnf,-9223372036854775808
data/N/wuf50-201-N1/wuf50-0376.mwcnf,-9223372036854775808
data/N/wuf50-201-N1/wuf50-0377.mwcnf,-9223372036854775808
data/N/wuf50-201-N1/wuf50-0378.mwcnf,-9223372036854775808
data/N/wuf50-201-N1/wuf50-0379.mwcnf,-9223372036854775808
data/N/wuf50-201-N1/wuf50-038.mwcnf,-9223372036854775808
data/N/wuf50-201-N1/wuf50-0380.mwcnf,-9223372036854775808
data/N/wuf50-201-N1/wuf50-0381.mwcnf,-9223372036854775808
data/N/wuf50-201-N1/wuf50-0382.mwcnf,-9223372036854775808
data/N/wuf50-201-N1/wuf50-0383.mwcnf,-9223372036854775808
data/N/wuf50-201-N1/wuf50-0384.mwcnf,-9223372036854775808
data/N/wuf50-201-N1/wuf50-0385.mwcnf,-9223372036854775808
data/N/wuf50-201-N1/wuf50-0386.mwcnf,-9223372036854775808
data/N/wuf50-201-N1/wuf50-0387.mwcnf,-9223372036854775808
data/N/wuf50-201-N1/wuf50-0388.mwcnf,-9223372036854775808
data/N/wuf50-201-N1/wuf50-0389.mwcnf,-9223372036854775808
data/N/wuf50-201-N1/wuf50-039.mwcnf,-9223372036854775808
data/N/wuf50-201-N1/wuf50-0390.mwcnf,-9223372036854775808
data/N/wuf50-201-N1/wuf50-0391.mwcnf,-9223372036854775808
data/N/wuf50-201-N1/wuf50-0392.mwcnf,-9223372036854775808
data/N/wuf50-201-N1/wuf50-0393.mwcnf,-9223372036854775808
data/N/wuf50-201-N1/wuf50-0394.mwcnf,-9223372036854775808
data/N/wuf50-201-N1/wuf50-0395.mwcnf,-9223372036854775808
data/N/wuf50-201-N1/wuf50-0396.mwcnf,-9223372036854775808
data/N/wuf50-201-N1/wuf50-0397.mwcnf,-9223372036854775808
data/N/wuf50-201-N1/wuf50-0398.mwcnf,-9223372036854775808
data/N/wuf50-201-N1/wuf50-0399.mwcnf,-9223372036854775808
data/N/wuf50-201-N1/wuf50-04.mwcnf,-9223372036854775808
data/N/wuf50-201-N1/wuf50-040.mwcnf,-9223372036854775808
data/N/wuf50-201-N1/wuf50-0400.mwcnf,-9223372036854775808
data/N/wuf50-201-N1/wuf50-0401.mwcnf,-9223372036854775808
data/N/wuf50-201-N1/wuf50-0402.mwcnf,-9223372036854775808
data/N/wuf50-201-N1/wuf50-0403.mwcnf,-9223372036854775808
data/N/wuf50-201-N1/wuf50-0404.mwcnf,-9223372036854775808
data/N/wuf50-201-N1/wuf50-0405.mwcnf,-9223372036854775808
data/N/wuf50-201-N1/wuf50-0406.mwcnf,-9223372036854775808
data/N/wuf50-201-N1/wuf50-0407.mwcnf,-9223372036854775808
data/N/wuf50-201-N1/wuf50-0408.mwcnf,-9223372036854775808
data/N/wuf50-201-N1/wuf50-0409.mwcnf,-9223372036854775808
data/N/wuf50-201-N1/wuf50-041.mwcnf,-9223372036854775808
data/N/wuf50-201-N1/wuf50-0410.mwcnf,-9223372036854775808
data/N/wuf50-201-N1/wuf50-0411.mwcnf,-9223372036854775808
data/N/wuf50-201-N1/wuf50-0412.mwcnf,-9223372036854775808
data/N/wuf50-201-N1/wuf50-0413.mwcnf,-9223372036854775808
data/N/wuf50-201-N1/wuf50-0414.mwcnf,-9223372036854775808
data/N/wuf50-201-N1/wuf50-0415.mwcnf,-9223372036854775808
data/N/wuf50-201-N1/wuf50-0416.mwcnf,-9223372036854775808
data/N/wuf50-201-N1/wuf50-0417.mwcnf,-9223372036854775808
data/N/wuf50-201-N1/wuf50-0418.mwcnf,-9223372036854775808
data/N/wuf50-201-N1/wuf50-0419.mwcnf,-9223372036854775808
data/N/wuf50-201-N1/wuf50-042.mwcnf,-9223372036854775808
data/N/wuf50-201-N1/wuf50-0420.mwcnf,-9223372036854775808
data/N/wuf50-201-N1/wuf50-0421.mwcnf,-9223372036854775808
data/N/wuf50-201-N1/wuf50-0422.mwcnf,-9223372036854775808
data/N/wuf50-201-N1/wuf50-0423.mwcnf,-9223372036854775808
data/N/wuf50-201-N1/wuf50-0424.mwcnf,-9223372036854775808
data/N/wuf50-201-N1/wuf50-0425.mwcnf,-9223372036854775808
data/N/wuf50-201-N1/wuf50-0426.mwcnf,-9223372036854775808
data/N/wuf50-201-N1/wuf50-0427.mwcnf,-9223372036854775808
data/N/wuf50-201-N1/wuf50-0428.mwcnf,-9223372036854775808
data/N/wuf50-201-N1/wuf50-0429.mwcnf,-9223372036854775808
data/N/wuf50-201-N1/wuf50-043.mwcnf,-9223372036854775808
data/N/wuf50-201-N1/wuf50-0430.mwcnf,-9223372036854775808
data/N/wuf50-201-N1/wuf50-0431.mwcnf,-9223372036854775808
data/N/wuf50-201-N1/wuf50-0432.mwcnf,-9223372036854775808
data/N/wuf50-201-N1/wuf50-0433.mwcnf,-9223372036854775808
data/N/wuf50-201-N1/wuf50-0434.mwcnf,-9223372036854775808
data/N/wuf50-201-N1/wuf50-0435.mwcnf,-9223372036854775808
data/N/wuf50-201-N1/wuf50-0436.mwcnf,-9223372036854775808
data/N/wuf50-201-N1/wuf50-0437.mwcnf,-9223372036854775808
data/N/wuf50-201-N1/wuf50-0438.mwcnf,-9223372036854775808
data/N/wuf50-201-N1/wuf50-0439.mwcnf,-9223372036854775808
data/N/wuf50-201-N1/wuf50-044.mwcnf,-9223372036854775808
data/N/wuf50-201-N1/wuf50-0440.mwcnf,-9223372036854775808
data/N/wuf50-201-N1/wuf50-0441.mwcnf,-9223372036854775808
data/N/wuf50-201-N1/wuf50-0442.mwcnf,-9223372036854775808
data/N/wuf50-201-N1/wuf50-0443.mwcnf,-9223372036854775808
data/N/wuf50-201-N1/wuf50-0444.mwcnf,-9223372036854775808
data/N/wuf50-201-N1/wuf50-0445.mwcnf,-9223372036854775808
data/N/wuf50-201-N1/wuf50-0446.mwcnf,-9223372036854775808
data/N/wuf50-201-N1/wuf50-0447.mwcnf,-9223372036854775808
data/N/wuf50-201-N1/wuf50-0448.mwcnf,-9223372036854775808
data/N/wuf50-201-N1/wuf50-0449.mwcnf,-9223372036854775808
data/N/wuf50-201-N1/wuf50-045.mwcnf,-9223372036854775808
data/N/wuf50-201-N1/wuf50-0450.mwcnf,-9223372036854775808
data/N/wuf50-201-N1/wuf50-0451.mwcnf,-9223372036854775808
data/N/wuf50-201-N1/wuf50-0452.mwcnf,-9223372036854775808
data/N/wuf50-201-N1/wuf50-0453.mwcnf,-9223372036854775808
data/N/wuf50-201-N1/wuf50-0454.mwcnf,-9223372036854775808
data/N/wuf50-201-N1/wuf50-0455.mwcnf,-9223372036854775808
data/N/wuf50-201-N1/wuf50-0456.mwcnf,-9223372036854775808
data/N/wuf50-201-N1/wuf50-0457.mwcnf,-9223372036854775808
data/N/wuf50-201-N1/wuf50-0458.mwcnf,-9223372036854775808
data/N/wuf50-201-N1/wuf50-0459.mwcnf,-9223372036854775808
data/N/wuf50-201-N1/wuf50-046.mwcnf,-9223372036854775808
data/N/wuf50-201-N1/wuf50-0460.mwcnf,-9223372036854775808
data/N/wuf50-201-N1/wuf50-0461.mwcnf,-9223372036854775808
data/N/wuf50-201-N1/wuf50-0462.mwcnf,-9223372036854775808
data/N/wuf50-201-N1/wuf50-0463.mwcnf,-9223372036854775808
data/N/wuf50-201-N1/wuf50-0464.mwcnf,-9223372036854775808
data/N/wuf50-201-N1/wuf50-0465.mwcnf,-9223372036854775808
data/N/wuf50-201-N1/wuf50-0466.mwcnf,-9223372036854775808
data/N/wuf50-201-N1/wuf50-0467.mwcnf,-9223372036854775808
data/N/wuf50-201-N1/wuf50-0468.mwcnf,-9223372036854775808
data/N/wuf50-201-N1/wuf50-0469.mwcnf,-9223372036854775808
data/N/wuf50-201-N1/wuf50-047.mwcnf,-9223372036854775808
data/N/wuf50-201-N1/wuf50-0470.mwcnf,-9223372036854775808
data/N/wuf50-201-N1/wuf50-0471.mwcnf,-9223372036854775808
data/N/wuf50-201-N1/wuf50-0472.mwcnf,-9223372036854775808
data/N/wuf50-201-N1/wuf50-0473.mwcnf,-9223372036854775808
data/N/wuf50-201-N1/wuf50-0474.mwcnf,-9223372036854775808
data/N/wuf50-201-N1/wuf50-0475.mwcnf,-9223372036854775808
data/N/wuf50-201-N1/wuf50-0476.mwcnf,-9223372036854775808
data/N/wuf50-201-N1/wuf50-0477.mwcnf,-9223372036854775808
data/N/wuf50-201-N1/wuf50-0478.mwcnf,-9223372036854775808
data/N/wuf50-201-N1/wuf50-0479.mwcnf,-9223372036854775808
data/N/wuf50-201-N1/wuf50-048.mwcnf,-9223372036854775808
data/N/wuf50-201-N1/wuf50-0480.mwcnf,-9223372036854775808
data/N/wuf50-201-N1/wuf50-0481.mwcnf,-9223372036854775808
data/N/wuf50-201-N1/wuf50-0482.mwcnf,-9223372036854775808
data/N/wuf50-201-N1/wuf50-0483.mwcnf,-9223372036854775808
data/N/wuf50-201-N1/wuf50-0484.mwcnf,-9223372036854775808
data/N/wuf50-201-N1/wuf50-0485.mwcnf,-9223372036854775808
data/N/wuf50-201-N1/wuf50-0486.mwcnf,-9223372036854775808
data/N/wuf50-201-N1/wuf50-0487.mwcnf,-9223372036854775808
data/N/wuf50-201-N1/wuf50-0488.mwcnf,-9223372036854775808
data/N/wuf50-201-N1/wuf50-0489.mwcnf,-9223372036854775808
data/N/wuf50-201-N1/wuf50-049.mwcnf,-9223372036854775808
data/N/wuf50-201-N1/wuf50-0490.mwcnf,-9223372036854775808
data/N/wuf50-201-N1/wuf50-0491.mwcnf,-9223372036854775808
data/N/wuf50-201-N1/wuf50-0492.mwcnf,-9223372036854775808
data/N/wuf50-201-N1/wuf50-0493.mwcnf,-9223372036854775808
data/N/wuf50-201-N1/wuf50-0494.mwcnf,-9223372036854775808
data/N/wuf50-201-N1/wuf50-0495.mwcnf,-9223372036854775808
data/N/wuf50-201-N1/wuf50-0496.mwcnf,-9223372036854775808
data/N/wuf50-201-N1/wuf50-0497.mwcnf,-9223372036854775808
data/N/wuf50-201-N1/wuf50-0498.mwcnf,-9223372036854775808
data/N/wuf50-201-N1/wuf50-0499.mwcnf,-9223372036854775808
data/N/wuf50-201-N1/wuf50-05.mwcnf,-9223372036854775808
data/N/wuf50-201-N1/wuf50-050.mwcnf,-9223372036854775808
data/N/wuf50-201-N1/wuf50-0500.mwcnf,-9223372036854775808
data/N/wuf50-201-N1/wuf50-0501.mwcnf,-9223372036854775808
data/N/wuf50-201-N1/wuf50-0502.mwcnf,-9223372036854775808
data/N/wuf50-201-N1/wuf50-0503.mwcnf,-9223372036854775808
data/N/wuf50-201-N1/wuf50-0504.mwcnf,-9223372036854775808
data/N/wuf50-201-N1/wuf50-0505.mwcnf,-9223372036854775808
data/N/wuf50-201-N1/wuf50-0506.mwcnf,-9223372036854775808
data/N/wuf50-201-N1/wuf50-0507.mwcnf,-9223372036854775808
data/N/wuf50-201-N1/wuf50-0508.mwcnf,-9223372036854775808
data/N/wuf50-201-N1/wuf50-0509.mwcnf,-9223372036854775808
data/N/wuf50-201-N1/wuf50-051.mwcnf,-9223372036854775808
data/N/wuf50-201-N1/wuf50-0510.mwcnf,-9223372036854775808
data/N/wuf50-201-N1/wuf50-0511.mwcnf,-9223372036854775808
data/N/wuf50-201-N1/wuf50-0512.mwcnf,-9223372036854775808
data/N/wuf50-201-N1/wuf50-0513.mwcnf,-9223372036854775808
data/N/wuf50-201-N1/wuf50-0514.mwcnf,-9223372036854775808
data/N/wuf50-201-N1/wuf50-0515.mwcnf,-9223372036854775808
data/N/wuf50-201-N1/wuf50-0516.mwcnf,-9223372036854775808
data/N/wuf50-201-N1/wuf50-0517.mwcnf,-9223372036854775808
data/N/wuf50-201-N1/wuf50-0518.mwcnf,-9223372036854775808
data/N/wuf50-201-N1/wuf50-0519.mwcnf,-9223372036854775808
data/N/wuf50-201-N1/wuf50-052.mwcnf,-9223372036854775808
data/N/wuf50-201-N1/wuf50-0520.mwcnf,-9223372036854775808
data/N/wuf50-201-N1/wuf50-0521.mwcnf,-9223372036854775808
data/N/wuf50-201-N1/wuf50-0522.mwcnf,-9223372036854775808
data/N/wuf50-201-N1/wuf50-0523.mwcnf,-9223372036854775808
data/N/wuf50-201-N1/wuf50-0524.mwcnf,-9223372036854775808
data/N/wuf50-201-N1/wuf50-0525.mwcnf,-9223372036854775808
data/N/wuf50-201-N1/wuf50-0526.mwcnf,-9223372036854775808
data/N/wuf50-201-N1/wuf50-0527.mwcnf,-9223372036854775808
data/N/wuf50-201-N1/wuf50-0528.mwcnf,-9223372036854775808
data/N/wuf50-201-N1/wuf50-0529.mwcnf,-9223372036854775808
data/N/wuf50-201-N1/wuf50-053.mwcnf,-9223372036854775808
data/N/wuf50-201-N1/wuf50-0530.mwcnf,-9223372036854775808
data/N/wuf50-201-N1/wuf50-0531.mwcnf,-9223372036854775808
data/N/wuf50-201-N1/wuf50-0532.mwcnf,-9223372036854775808
data/N/wuf50-201-N1/wuf50-0533.mwcnf,-9223372036854775808
data/N/wuf50-201-N1/wuf50-0534.mwcnf,-9223372036854775808
data/N/wuf50-201-N1/wuf50-0535.mwcnf,-9223372036854775808
data/N/wuf50-201-N1/wuf50-0536.mwcnf,-9223372036854775808
data/N/wuf50-201-N1/wuf50-0537.mwcnf,-9223372036854775808
data/N/wuf50-201-N1/wuf50-0538.mwcnf,-9223372036854775808
data/N/wuf50-201-N1/wuf50-0539.mwcnf,-9223372036854775808
data/N/wuf50-201-N1/wuf50-054.mwcnf,-9223372036854775808
data/N/wuf50-201-N1/wuf50-0540.mwcnf,-9223372036854775808
data/N/wuf50-201-N1/wuf50-0541.mwcnf,-9223372036854775808
data/N/wuf50-201-N1/wuf50-0542.mwcnf,-9223372036854775808
data/N/wuf50-201-N1/wuf50-0543.mwcnf,-9223372036854775808
data/N/wuf50-201-N1/wuf50-0544.mwcnf,-9223372036854775808
data/N/wuf50-201-N1/wuf50-0545.mwcnf,-9223372036854775808
data/N/wuf50-201-N1/wuf50-0546.mwcnf,-9223372036854775808
data/N/wuf50-201-N1/wuf50-0547.mwcnf,-9223372036854775808
data/N/wuf50-201-N1/wuf50-0548.mwcnf,-9223372036854775808
data/N/wuf50-201-N1/wuf50-0549.mwcnf,-9223372036854775808
data/N/wuf50-201-N1/wuf50-055.mwcnf,-9223372036854775808
data/N/wuf50-201-N1/wuf50-0550.mwcnf,-9223372036854775808
data/N/wuf50-201-N1/wuf50-0551.mwcnf,-9223372036854775808
data/N/wuf50-201-N1/wuf50-0552.mwcnf,-9223372036854775808
data/N/wuf50-201-N1/wuf50-0553.mwcnf,-9223372036854775808
data/N/wuf50-201-N1/wuf50-0554.mwcnf,-9223372036854775808
data/N/wuf50-201-N1/wuf50-0555.mwcnf,-9223372036854775808
data/N/wuf50-201-N1/wuf50-0556.mwcnf,-9223372036854775808
data/N/wuf50-201-N1/wuf50-0557.mwcnf,-9223372036854775808
data/N/wuf50-201-N1/wuf50-0558.mwcnf,-9223372036854775808
data/N/wuf50-201-N1/wuf50-0559.mwcnf,-9223372036854775808
data/N/wuf50-201-N1/wuf50-056.mwcnf,-9223372036854775808
data/N/wuf50-201-N1/wuf50-0560.mwcnf,-9223372036854775808
data/N/wuf50-201-N1/wuf50-0561.mwcnf,-9223372036854775808
data/N/wuf50-201-N1/wuf50-0562.mwcnf,-9223372036854775808
data/N/wuf50-201-N1/wuf50-0563.mwcnf,-9223372036854775808
data/N/wuf50-201-N1/wuf50-0564.mwcnf,-9223372036854775808
data/N/wuf50-201-N1/wuf50-0565.mwcnf,-9223372036854775808
data/N/wuf50-201-N1/wuf50-0566.mwcnf,-9223372036854775808
data/N/wuf50-201-N1/wuf50-0567.mwcnf,-9223372036854775808
data/N/wuf50-201-N1/wuf50-0568.mwcnf,-9223372036854775808
data/N/wuf50-201-N1/wuf50-0569.mwcnf,-9223372036854775808
data/N/wuf50-201-N1/wuf50-057.mwcnf,-9223372036854775808
data/N/wuf50-201-N1/wuf50-0570.mwcnf,-9223372036854775808
data/N/wuf50-201-N1/wuf50-0571.mwcnf,-9223372036854775808
data/N/wuf50-201-N1/wuf50-0572.mwcnf,-9223372036854775808
data/N/wuf50-201-N1/wuf50-0573.mwcnf,-9223372036854775808
data/N/wuf50-201-N1/wuf50-0574.mwcnf,-9223372036854775808
data/N/wuf50-201-N1/wuf50-0575.mwcnf,-9223372036854775808
data/N/wuf50-201-N1/wuf50-0576.mwcnf,-9223372036854775808
data/N/wuf50-201-N1/wuf50-0577.mwcnf,-9223372036854775808
data/N/wuf50-201-N1/wuf50-0578.mwcnf,-9223372036854775808
data/N/wuf50-201-N1/wuf50-0579.mwcnf,-9223372036854775808
data/N/wuf50-201-N1/wuf50-058.mwcnf,-9223372036854775808
data/N/wuf50-201-N1/wuf50-0580.mwcnf,-9223372036854775808
data/N/wuf50-201-N1/wuf50-0581.mwcnf,-9223372036854775808
data/N/wuf50-201-N1/wuf50-0582.mwcnf,-9223372036854775808
data/N/wuf50-201-N1/wuf50-0583.mwcnf,-9223372036854775808
data/N/wuf50-201-N1/wuf50-0584.mwcnf,-9223372036854775808
data/N/wuf50-201-N1/wuf50-0585.mwcnf,-9223372036854775808
data/N/wuf50-201-N1/wuf50-0586.mwcnf,-9223372036854775808
data/N/wuf50-201-N1/wuf50-0587.mwcnf,-9223372036854775808
data/N/wuf50-201-N1/wuf50-0588.mwcnf,-9223372036854775808
data/N/wuf50-201-N1/wuf50-0589.mwcnf,-9223372036854775808
data/N/wuf50-201-N1/wuf50-059.mwcnf,-9223372036854775808
data/N/wuf50-201-N1/wuf50-0590.mwcnf,-9223372036854775808
data/N/wuf50-201-N1/wuf50-0591.mwcnf,-9223372036854775808
data/N/wuf50-201-N1/wuf50-0592.mwcnf,-9223372036854775808
data/N/wuf50-201-N1/wuf50-0593.mwcnf,-9223372036854775808
data/N/wuf50-201-N1/wuf50-0594.mwcnf,-9223372036854775808
data/N/wuf50-201-N1/wuf50-0595.mwcnf,-9223372036854775808
data/N/wuf50-201-N1/wuf50-0596.mwcnf,-9223372036854775808
data/N/wuf50-201-N1/wuf50-0597.mwcnf,-9223372036854775808
data/N/wuf50-201-N1/wuf50-0598.mwcnf,-9223372036854775808
data/N/wuf50-201-N1/wuf50-0599.mwcnf,-9223372036854775808
data/N/wuf50-201-N1/wuf50-06.mwcnf,-9223372036854775808
data/N/wuf50-201-N1/wuf50-060.mwcnf,-9223372036854775808
data/N/wuf50-201-N1/wuf50-0600.mwcnf,-9223372036854775808
data/N/wuf50-201-N1/wuf50-0601.mwcnf,-9223372036854775808
data/N/wuf50-201-N1/wuf50-0602.mwcnf,-9223372036854775808
data/N/wuf50-201-N1/wuf50-0603.mwcnf,-9223372036854775808
data/N/wuf50-201-N1/wuf50-0604.mwcnf,-9223372036854775808
data/N/wuf50-201-N1/wuf50-0605.mwcnf,-9223372036854775808
data/N/wuf50-201-N1/wuf50-0606.mwcnf,-9223372036854775808
data/N/wuf50-201-N1/wuf50-0607.mwcnf,-9223372036854775808
data/N/wuf50-201-N1/wuf50-0608.mwcnf,-9223372036854775808
data/N/wuf50-201-N1/wuf50-0609.mwcnf,-9223372036854775808
data/N/wuf50-201-N1/wuf50-061.mwcnf,-9223372036854775808
data/N/wuf50-201-N1/wuf50-0610.mwcnf,-9223372036854775808
data/N/wuf50-201-N1/wuf50-0611.mwcnf,-9223372036854775808
data/N/wuf50-201-N1/wuf50-0612.mwcnf,-9223372036854775808
data/N/wuf50-201-N1/wuf50-0613.mwcnf,-9223372036854775808
data/N/wuf50-201-N1/wuf50-0614.mwcnf,-9223372036854775808
data/N/wuf50-201-N1/wuf50-0615.mwcnf,-9223372036854775808
data/N/wuf50-201-N1/wuf50-0616.mwcnf,-9223372036854775808
data/N/wuf50-201-N1/wuf50-0617.mwcnf,-9223372036854775808
data/N/wuf50-201-N1/wuf50-0618.mwcnf,-9223372036854775808
data/N/wuf50-201-N1/wuf50-0619.mwcnf,-9223372036854775808
data/N/wuf50-201-N1/wuf50-062.mwcnf,-9223372036854775808
data/N/wuf50-201-N1/wuf50-0620.mwcnf,-9223372036854775808
data/N/wuf50-201-N1/wuf50-0621.mwcnf,-9223372036854775808
data/N/wuf50-201-N1/wuf50-0622.mwcnf,-9223372036854775808
data/N/wuf50-201-N1/wuf50-0623.mwcnf,-9223372036854775808
data/N/wuf50-201-N1/wuf50-0624.mwcnf,-9223372036854775808
data/N/wuf50-201-N1/wuf50-0625.mwcnf,-9223372036854775808
data/N/wuf50-201-N1/wuf50-0626.mwcnf,-9223372036854775808
data/N/wuf50-201-N1/wuf50-0627.mwcnf,-9223372036854775808
data/N/wuf50-201-N1/wuf50-0628.mwcnf,-9223372036854775808
data/N/wuf50-201-N1/wuf50-0629.mwcnf,-9223372036854775808
data/N/wuf50-201-N1/wuf50-063.mwcnf,-9223372036854775808
data/N/wuf50-201-N1/wuf50-0630.mwcnf,-9223372036854775808
data/N/wuf50-201-N1/wuf50-0631.mwcnf,-9223372036854775808
data/N/wuf50-201-N1/wuf50-0632.mwcnf,-9223372036854775808
data/N/wuf50-201-N1/wuf50-0633.mwcnf,-9223372036854775808
data/N/wuf50-201-N1/wuf50-0634.mwcnf,-9223372036854775808
data/N/wuf50-201-N1/wuf50-0635.mwcnf,-9223372036854775808
data/N/wuf50-201-N1/wuf50-0636.mwcnf,-9223372036854775808
data/N/wuf50-201-N1/wuf50-0637.mwcnf,-9223372036854775808
data/N/wuf50-201-N1/wuf50-0638.mwcnf,-9223372036854775808
data/N/wuf50-201-N1/wuf50-0639.mwcnf,-9223372036854775808
data/N/wuf50-201-N1/wuf50-064.mwcnf,-9223372036854775808
data/N/wuf50-201-N1/wuf50-0640.mwcnf,-9223372036854775808
data/N/wuf50-201-N1/wuf50-0641.mwcnf,-9223372036854775808
data/N/wuf50-201-N1/wuf50-0642.mwcnf,-9223372036854775808
data/N/wuf50-201-N1/wuf50-0643.mwcnf,-9223372036854775808
data/N/wuf50-201-N1/wuf50-0644.mwcnf,-9223372036854775808
data/N/wuf50-201-N1/wuf50-0645.mwcnf,-9223372036854775808
data/N/wuf50-201-N1/wuf50-0646.mwcnf,-9223372036854775808
data/N/wuf50-201-N1/wuf50-0647.mwcnf,-9223372036854775808
data/N/wuf50-201-N1/wuf50-0648.mwcnf,-9223372036854775808
data/N/wuf50-201-N1/wuf50-0649.mwcnf,-9223372036854775808
data/N/wuf50-201-N1/wuf50-065.mwcnf,-9223372036854775808
data/N/wuf50-201-N1/wuf50-0650.mwcnf,-9223372036854775808
data/N/wuf50-201-N1/wuf50-0651.mwcnf,-9223372036854775808
data/N/wuf50-201-N1/wuf50-0652.mwcnf,-9223372036854775808
data/N/wuf50-201-N1/wuf50-0653.mwcnf,-9223372036854775808
data/N/wuf50-201-N1/wuf50-0654.mwcnf,-9223372036854775808
data/N/wuf50-201-N1/wuf50-0655.mwcnf,-9223372036854775808
data/N/wuf50-201-N1/wuf50-0656.mwcnf,-9223372036854775808
data/N/wuf50-201-N1/wuf50-0657.mwcnf,-9223372036854775808
data/N/wuf50-201-N1/wuf50-0658.mwcnf,-9223372036854775808
data/N/wuf50-201-N1/wuf50-0659.mwcnf,-9223372036854775808
data/N/wuf50-201-N1/wuf50-066.mwcnf,-9223372036854775808
data/N/wuf50-201-N1/wuf50-0660.mwcnf,-9223372036854775808
data/N/wuf50-201-N1/wuf50-0661.mwcnf,-9223372036854775808
data/N/wuf50-201-N1/wuf50-0662.mwcnf,-9223372036854775808
data/N/wuf50-201-N1/wuf50-0663.mwcnf,-9223372036854775808
data/N/wuf50-201-N1/wuf50-0664.mwcnf,-9223372036854775808
data/N/wuf50-201-N1/wuf50-0665.mwcnf,-9223372036854775808
data/N/wuf50-201-N1/wuf50-0666.mwcnf,-9223372036854775808
data/N/wuf50-201-N1/wuf50-0667.mwcnf,-9223372036854775808
data/N/wuf50-201-N1/wuf50-0668.mwcnf,-9223372036854775808
data/N/wuf50-201-N1/wuf50-0669.mwcnf,-9223372036854775808
data/N/wuf50-201-N1/wuf50-067.mwcnf,-9223372036854775808
data/N/wuf50-201-N1/wuf50-0670.mwcnf,-9223372036854775808
data/N/wuf50-201-N1/wuf50-0671.mwcnf,-9223372036854775808
data/N/wuf50-201-N1/wuf50-0672.mwcnf,-9223372036854775808
data/N/wuf50-201-N1/wuf50-0673.mwcnf,-9223372036854775808
data/N/wuf50-201-N1/wuf50-0674.mwcnf,-9223372036854775808
data/N/wuf50-201-N1/wuf50-0675.mwcnf,-9223372036854775808
data/N/wuf50-201-N1/wuf50-0676.mwcnf,-9223372036854775808
data/N/wuf50-201-N1/wuf50-0677.mwcnf,-9223372036854775808
data/N/wuf50-201-N1/wuf50-0678.mwcnf,-9223372036854775808
data/N/wuf50-201-N1/wuf50-0679.mwcnf,-9223372036854775808
data/N/wuf50-201-N1/wuf50-068.mwcnf,-9223372036854775808
data/N/wuf50-201-N1/wuf50-0680.mwcnf,-9223372036854775808
data/N/wuf50-201-N1/wuf50-0681.mwcnf,-9223372036854775808
data/N/wuf50-201-N1/wuf50-0682.mwcnf,-9223372036854775808
data/N/wuf50-201-N1/wuf50-0683.mwcnf,-9223372036854775808
data/N/wuf50-201-N1/wuf50-0684.mwcnf,-9223372036854775808
data/N/wuf50-201-N1/wuf50-0685.mwcnf,-9223372036854775808
data/N/wuf50-201-N1/wuf50-0686.mwcnf,-9223372036854775808
data/N/wuf50-201-N1/wuf50-0687.mwcnf,-9223372036854775808
data/N/wuf50-201-N1/wuf50-0688.mwcnf,-9223372036854775808
data/N/wuf50-201-N1/wuf50-0689.mwcnf,-9223372036854775808
data/N/wuf50-201-N1/wuf50-069.mwcnf,-9223372036854775808
data/N/wuf50-201-N1/wuf50-0690.mwcnf,-9223372036854775808
data/N/wuf50-201-N1/wuf50-0691.mwcnf,-9223372036854775808
data/N/wuf50-201-N1/wuf50-0692.mwcnf,-9223372036854775808
data/N/wuf50-201-N1/wuf50-0693.mwcnf,-9223372036854775808
data/N/wuf50-201-N1/wuf50-0694.mwcnf,-9223372036854775808
data/N/wuf50-201-N1/wuf50-0695.mwcnf,-9223372036854775808
data/N/wuf50-201-N1/wuf50-0696.mwcnf,-9223372036854775808
data/N/wuf50-201-N1/wuf50-0697.mwcnf,-9223372036854775808
data/N/wuf50-201-N1/wuf50-0698.mwcnf,-9223372036854775808
data/N/wuf50-201-N1/wuf50-0699.mwcnf,-9223372036854775808
data/N/wuf50-201-N1/wuf50-07.mwcnf,-9223372036854775808
data/N/wuf50-201-N1/wuf50-070.mwcnf,-9223372036854775808
data/N/wuf50-201-N1/wuf50-0700.mwcnf,-9223372036854775808
data/N/wuf50-201-N1/wuf50-0701.mwcnf,-9223372036854775808
data/N/wuf50-201-N1/wuf50-0702.mwcnf,-9223372036854775808
data/N/wuf50-201-N1/wuf50-0703.mwcnf,-9223372036854775808
data/N/wuf50-201-N1/wuf50-0704.mwcnf,-9223372036854775808
data/N/wuf50-201-N1/wuf50-0705.mwcnf,-9223372036854775808
data/N/wuf50-201-N1/wuf50-0706.mwcnf,-9223372036854775808
data/N/wuf50-201-N1/wuf50-0707.mwcnf,-9223372036854775808
data/N/wuf50-201-N1/wuf50-0708.mwcnf,-9223372036854775808
data/N/wuf50-201-N1/wuf50-0709.mwcnf,-9223372036854775808
data/N/wuf50-201-N1/wuf50-071.mwcnf,-9223372036854775808
data/N/wuf50-201-N1/wuf50-0710.mwcnf,-9223372036854775808
data/N/wuf50-201-N1/wuf50-0711.mwcnf,-9223372036854775808
data/N/wuf50-201-N1/wuf50-0712.mwcnf,-9223372036854775808
data/N/wuf50-201-N1/wuf50-0713.mwcnf,-9223372036854775808
data/N/wuf50-201-N1/wuf50-0714.mwcnf,-9223372036854775808
data/N/wuf50-201-N1/wuf50-0715.mwcnf,-9223372036854775808
data/N/wuf50-201-N1/wuf50-0716.mwcnf,-9223372036854775808
data/N/wuf50-201-N1/wuf50-0717.mwcnf,-9223372036854775808
data/N/wuf50-201-N1/wuf50-0718.mwcnf,-9223372036854775808
data/N/wuf50-201-N1/wuf50-0719.mwcnf,-9223372036854775808
data/N/wuf50-201-N1/wuf50-072.mwcnf,-9223372036854775808
data/N/wuf50-201-N1/wuf50-0720.mwcnf,-9223372036854775808
data/N/wuf50-201-N1/wuf50-0721.mwcnf,-9223372036854775808
data/N/wuf50-201-N1/wuf50-0722.mwcnf,-9223372036854775808
data/N/wuf50-201-N1/wuf50-0723.mwcnf,-9223372036854775808
data/N/wuf50-201-N1/wuf50-0724.mwcnf,-9223372036854775808
data/N/wuf50-201-N1/wuf50-0725.mwcnf,-9223372036854775808
data/N/wuf50-201-N1/wuf50-0726.mwcnf,-9223372036854775808
data/N/wuf50-201-N1/wuf50-0727.mwcnf,-9223372036854775808
data/N/wuf50-201-N1/wuf50-0728.mwcnf,-9223372036854775808
data/N/wuf50-201-N1/wuf50-0729.mwcnf,-9223372036854775808
data/N/wuf50-201-N1/wuf50-073.mwcnf,-9223372036854775808
data/N/wuf50-201-N1/wuf50-0730.mwcnf,-9223372036854775808
data/N/wuf50-201-N1/wuf50-0731.mwcnf,-9223372036854775808
data/N/wuf50-201-N1/wuf50-0732.mwcnf,-9223372036854775808
data/N/wuf50-201-N1/wuf50-0733.mwcnf,-9223372036854775808
data/N/wuf50-201-N1/wuf50-0734.mwcnf,-9223372036854775808
data/N/wuf50-201-N1/wuf50-0735.mwcnf,-9223372036854775808
data/N/wuf50-201-N1/wuf50-0736.mwcnf,-9223372036854775808
data/N/wuf50-201-N1/wuf50-0737.mwcnf,-9223372036854775808
data/N/wuf50-201-N1/wuf50-0738.mwcnf,-9223372036854775808
data/N/wuf50-201-N1/wuf50-0739.mwcnf,-9223372036854775808
data/N/wuf50-201-N1/wuf50-074.mwcnf,-9223372036854775808
data/N/wuf50-201-N1/wuf50-0740.mwcnf,-9223372036854775808
data/N/wuf50-201-N1/wuf50-0741.mwcnf,-9223372036854775808
data/N/wuf50-201-N1/wuf50-0742.mwcnf,-9223372036854775808
data/N/wuf50-201-N1/wuf50-0743.mwcnf,-9223372036854775808
data/N/wuf50-201-N1/wuf50-0744.mwcnf,-9223372036854775808
data/N/wuf50-201-N1/wuf50-0745.mwcnf,-9223372036854775808
data/N/wuf50-201-N1/wuf50-0746.mwcnf,-9223372036854775808
data/N/wuf50-201-N1/wuf50-0747.mwcnf,-9223372036854775808
data/N/wuf50-201-N1/wuf50-0748.mwcnf,-9223372036854775808
data/N/wuf50-201-N1/wuf50-0749.mwcnf,-9223372036854775808
data/N/wuf50-201-N1/wuf50-075.mwcnf,-9223372036854775808
data/N/wuf50-201-N1/wuf50-0750.mwcnf,-9223372036854775808
data/N/wuf50-201-N1/wuf50-0751.mwcnf,-9223372036854775808
data/N/wuf50-201-N1/wuf50-0752.mwcnf,-9223372036854775808
data/N/wuf50-201-N1/wuf50-0753.mwcnf,-9223372036854775808
data/N/wuf50-201-N1/wuf50-0754.mwcnf,-9223372036854775808
data/N/wuf50-201-N1/wuf50-0755.mwcnf,-9223372036854775808
data/N/wuf50-201-N1/wuf50-0756.mwcnf,-9223372036854775808
data/N/wuf50-201-N1/wuf50-0757.mwcnf,-9223372036854775808
data/N/wuf50-201-N1/wuf50-0758.mwcnf,-9223372036854775808
data/N/wuf50-201-N1/wuf50-0759.mwcnf,-9223372036854775808
data/N/wuf50-201-N1/wuf50-076.mwcnf,-9223372036854775808
data/N/wuf50-201-N1/wuf50-0760.mwcnf,-9223372036854775808
data/N/wuf50-201-N1/wuf50-0761.mwcnf,-9223372036854775808
data/N/wuf50-201-N1/wuf50-0762.mwcnf,-9223372036854775808
data/N/wuf50-201-N1/wuf50-0763.mwcnf,-9223372036854775808
data/N/wuf50-201-N1/wuf50-0764.mwcnf,-9223372036854775808
data/N/wuf50-201-N1/wuf50-0765.mwcnf,-9223372036854775808
data/N/wuf50-201-N1/wuf50-0766.mwcnf,-9223372036854775808
data/N/wuf50-201-N1/wuf50-0767.mwcnf,-9223372036854775808
data/N/wuf50-201-N1/wuf50-0768.mwcnf,-9223372036854775808
data/N/wuf50-201-N1/wuf50-0769.mwcnf,-9223372036854775808
data/N/wuf50-201-N1/wuf50-077.mwcnf,-9223372036854775808
data/N/wuf50-201-N1/wuf50-0770.mwcnf,-9223372036854775808
data/N/wuf50-201-N1/wuf50-0771.mwcnf,-9223372036854775808
data/N/wuf50-201-N1/wuf50-0772.mwcnf,-9223372036854775808
data/N/wuf50-201-N1/wuf50-0773.mwcnf,-9223372036854775808
data/N/wuf50-201-N1/wuf50-0774.mwcnf,-9223372036854775808
data/N/wuf50-201-N1/wuf50-0775.mwcnf,-9223372036854775808
data/N/wuf50-201-N1/wuf50-0776.mwcnf,-9223372036854775808
data/N/wuf50-201-N1/wuf50-0777.mwcnf,-9223372036854775808
data/N/wuf50-201-N1/wuf50-0778.mwcnf,-9223372036854775808
data/N/wuf50-201-N1/wuf50-0779.mwcnf,-9223372036854775808
data/N/wuf50-201-N1/wuf50-078.mwcnf,-9223372036854775808
data/N/wuf50-201-N1/wuf50-0780.mwcnf,-9223372036854775808
data/N/wuf50-201-N1/wuf50-0781.mwcnf,-9223372036854775808
data/N/wuf50-201-N1/wuf50-0782.mwcnf,-9223372036854775808
data/N/wuf50-201-N1/wuf50-0783.mwcnf,-9223372036854775808
data/N/wuf50-201-N1/wuf50-0784.mwcnf,-9223372036854775808
data/N/wuf50-201-N1/wuf50-0785.mwcnf,-9223372036854775808
data/N/wuf50-201-N1/wuf50-0786.mwcnf,-9223372036854775808
data/N/wuf50-201-N1/wuf50-0787.mwcnf,-9223372036854775808
data/N/wuf50-201-N1/wuf50-0788.mwcnf,-9223372036854775808
data/N/wuf50-201-N1/wuf50-0789.mwcnf,-9223372036854775808
data/N/wuf50-201-N1/wuf50-079.mwcnf,-9223372036854775808
data/N/wuf50-201-N1/wuf50-0790.mwcnf,-9223372036854775808
data/N/wuf50-201-N1/wuf50-0791.mwcnf,-9223372036854775808
data/N/wuf50-201-N1/wuf50-0792.mwcnf,-9223372036854775808
data/N/wuf50-201-N1/wuf50-0793.mwcnf,-9223372036854775808
data/N/wuf50-201-N1/wuf50-0794.mwcnf,-9223372036854775808
data/N/wuf50-201-N1/wuf50-0795.mwcnf,-9223372036854775808
data/N/wuf50-201-N1/wuf50-0796.mwcnf,-9223372036854775808
data/N/wuf50-201-N1/wuf50-0797.mwcnf,-9223372036854775808
data/N/wuf50-201-N1/wuf50-0798.mwcnf,-9223372036854775808
data/N/wuf50-201-N1/wuf50-0799.mwcnf,-9223372036854775808
data/N/wuf50-201-N1/wuf50-08.mwcnf,-9223372036854775808
data/N/wuf50-201-N1/wuf50-080.mwcnf,-9223372036854775808
data/N/wuf50-201-N1/wuf50-0800.mwcnf,-9223372036854775808
data/N/wuf50-201-N1/wuf50-0801.mwcnf,-9223372036854775808
data/N/wuf50-201-N1/wuf50-0802.mwcnf,-9223372036854775808
data/N/wuf50-201-N1/wuf50-0803.mwcnf,-9223372036854775808
data/N/wuf50-201-N1/wuf50-0804.mwcnf,-9223372036854775808
data/N/wuf50-201-N1/wuf50-0805.mwcnf,-9223372036854775808
data/N/wuf50-201-N1/wuf50-0806.mwcnf,-9223372036854775808
data/N/wuf50-201-N1/wuf50-0807.mwcnf,-9223372036854775808
data/N/wuf50-201-N1/wuf50-0808.mwcnf,-9223372036854775808
data/N/wuf50-201-N1/wuf50-0809.mwcnf,-9223372036854775808
data/N/wuf50-201-N1/wuf50-081.mwcnf,-9223372036854775808
data/N/wuf50-201-N1/wuf50-0810.mwcnf,-9223372036854775808
data/N/wuf50-201-N1/wuf50-0811.mwcnf,-9223372036854775808
data/N/wuf50-201-N1/wuf50-0812.mwcnf,-9223372036854775808
data/N/wuf50-201-N1/wuf50-0813.mwcnf,-9223372036854775808
data/N/wuf50-201-N1/wuf50-0814.mwcnf,-9223372036854775808
data/N/wuf50-201-N1/wuf50-0815.mwcnf,-9223372036854775808
data/N/wuf50-201-N1/wuf50-0816.mwcnf,-9223372036854775808
data/N/wuf50-201-N1/wuf50-0817.mwcnf,-9223372036854775808
data/N/wuf50-201-N1/wuf50-0818.mwcnf,-9223372036854775808
data/N/wuf50-201-N1/wuf50-0819.mwcnf,-9223372036854775808
data/N/wuf50-201-N1/wuf50-082.mwcnf,-9223372036854775808
data/N/wuf50-201-N1/wuf50-0820.mwcnf,-9223372036854775808
data/N/wuf50-201-N1/wuf50-0821.mwcnf,-9223372036854775808
data/N/wuf50-201-N1/wuf50-0822.mwcnf,-9223372036854775808
data/N/wuf50-201-N1/wuf50-0823.mwcnf,-9223372036854775808
data/N/wuf50-201-N1/wuf50-0824.mwcnf,-9223372036854775808
data/N/wuf50-201-N1/wuf50-0825.mwcnf,-9223372036854775808
data/N/wuf50-201-N1/wuf50-0826.mwcnf,-9223372036854775808
data/N/wuf50-201-N1/wuf50-0827.mwcnf,-9223372036854775808
data/N/wuf50-201-N1/wuf50-0828.mwcnf,-9223372036854775808
data/N/wuf50-201-N1/wuf50-0829.mwcnf,-9223372036854775808
data/N/wuf50-201-N1/wuf50-083.mwcnf,-9223372036854775808
data/N/wuf50-201-N1/wuf50-0830.mwcnf,-9223372036854775808
data/N/wuf50-201-N1/wuf50-0831.mwcnf,-9223372036854775808
data/N/wuf50-201-N1/wuf50-0832.mwcnf,-9223372036854775808
data/N/wuf50-201-N1/wuf50-0833.mwcnf,-9223372036854775808
data/N/wuf50-201-N1/wuf50-0834.mwcnf,-9223372036854775808
data/N/wuf50-201-N1/wuf50-0835.mwcnf,-9223372036854775808
data/N/wuf50-201-N1/wuf50-0836.mwcnf,-9223372036854775808
data/N/wuf50-201-N1/wuf50-0837.mwcnf,-9223372036854775808
data/N/wuf50-201-N1/wuf50-0838.mwcnf,-9223372036854775808
data/N/wuf50-201-N1/wuf50-0839.mwcnf,-9223372036854775808
data/N/wuf50-201-N1/wuf50-084.mwcnf,-9223372036854775808
data/N/wuf50-201-N1/wuf50-0840.mwcnf,-9223372036854775808
data/N/wuf50-201-N1/wuf50-0841.mwcnf,-9223372036854775808
data/N/wuf50-201-N1/wuf50-0842.mwcnf,-9223372036854775808
data/N/wuf50-201-N1/wuf50-0843.mwcnf,-9223372036854775808
data/N/wuf50-201-N1/wuf50-0844.mwcnf,-9223372036854775808
data/N/wuf50-201-N1/wuf50-0845.mwcnf,-9223372036854775808
data/N/wuf50-201-N1/wuf50-0846.mwcnf,-9223372036854775808
data/N/wuf50-201-N1/wuf50-0847.mwcnf,-9223372036854775808
data/N/wuf50-201-N1/wuf50-0848.mwcnf,-9223372036854775808
data/N/wuf50-201-N1/wuf50-0849.mwcnf,-9223372036854775808
data/N/wuf50-201-N1/wuf50-085.mwcnf,-9223372036854775808
data/N/wuf50-201-N1/wuf50-0850.mwcnf,-9223372036854775808
data/N/wuf50-201-N1/wuf50-0851.mwcnf,-9223372036854775808
data/N/wuf50-201-N1/wuf50-0852.mwcnf,-9223372036854775808
data/N/wuf50-201-N1/wuf50-0853.mwcnf,-9223372036854775808
data/N/wuf50-201-N1/wuf50-0854.mwcnf,-9223372036854775808
data/N/wuf50-201-N1/wuf50-0855.mwcnf,-9223372036854775808
data/N/wuf50-201-N1/wuf50-0856.mwcnf,-9223372036854775808
data/N/wuf50-201-N1/wuf50-0857.mwcnf,-9223372036854775808
data/N/wuf50-201-N1/wuf50-0858.mwcnf,-9223372036854775808
data/N/wuf50-201-N1/wuf50-0859.mwcnf,-9223372036854775808
data/N/wuf50-201-N1/wuf50-086.mwcnf,-9223372036854775808
data/N/wuf50-201-N1/wuf50-0860.mwcnf,-9223372036854775808
data/N/wuf50-201-N1/wuf50-0861.mwcnf,-9223372036854775808
data/N/wuf50-201-N1/wuf50-0862.mwcnf,-9223372036854775808
data/N/wuf50-201-N1/wuf50-0863.mwcnf,-9223372036854775808
data/N/wuf50-201-N1/wuf50-0864.mwcnf,-9223372036854775808
data/N/wuf50-201-N1/wuf50-0865.mwcnf,-9223372036854775808
data/N/wuf50-201-N1/wuf50-0866.mwcnf,-9223372036854775808
data/N/wuf50-201-N1/wuf50-0867.mwcnf,-9223372036854775808
data/N/wuf50-201-N1/wuf50-0868.mwcnf,-9223372036854775808
data/N/wuf50-201-N1/wuf50-0869.mwcnf,-9223372036854775808
data/N/wuf50-201-N1/wuf50-087.mwcnf,-9223372036854775808
data/N/wuf50-201-N1/wuf50-0870.mwcnf,-9223372036854775808
data/N/wuf50-201-N1/wuf50-0871.mwcnf,-9223372036854775808
data/N/wuf50-201-N1/wuf50-0872.mwcnf,-9223372036854775808
data/N/wuf50-201-N1/wuf50-0873.mwcnf,-9223372036854775808
data/N/wuf50-201-N1/wuf50-0874.mwcnf,-9223372036854775808
data/N/wuf50-201-N1/wuf50-0875.mwcnf,-9223372036854775808
data/N/wuf50-201-N1/wuf50-0876.mwcnf,-9223372036854775808
data/N/wuf50-201-N1/wuf50-0877.mwcnf,-9223372036854775808
data/N/wuf50-201-N1/wuf50-0878.mwcnf,-9223372036854775808
data/N/wuf50-201-N1/wuf50-0879.mwcnf,-9223372036854775808
data/N/wuf50-201-N1/wuf50-088.mwcnf,-9223372036854775808
data/N/wuf50-201-N1/wuf50-0880.mwcnf,-9223372036854775808
data/N/wuf50-201-N1/wuf50-0881.mwcnf,-9223372036854775808
data/N/wuf50-201-N1/wuf50-0882.mwcnf,-9223372036854775808
data/N/wuf50-201-N1/wuf50-0883.mwcnf,-9223372036854775808
data/N/wuf50-201-N1/wuf50-0884.mwcnf,-9223372036854775808
data/N/wuf50-201-N1/wuf50-0885.mwcnf,-9223372036854775808
data/N/wuf50-201-N1/wuf50-0886.mwcnf,-9223372036854775808
data/N/wuf50-201-N1/wuf50-0887.mwcnf,-9223372036854775808
data/N/wuf50-201-N1/wuf50-0888.mwcnf,-9223372036854775808
data/N/wuf50-201-N1/wuf50-0889.mwcnf,-9223372036854775808
data/N/wuf50-201-N1/wuf50-089.mwcnf,-9223372036854775808
data/N/wuf50-201-N1/wuf50-0890.mwcnf,-9223372036854775808
data/N/wuf50-201-N1/wuf50-0891.mwcnf,-9223372036854775808
data/N/wuf50-201-N1/wuf50-0892.mwcnf,-9223372036854775808
data/N/wuf50-201-N1/wuf50-0893.mwcnf,-9223372036854775808
data/N/wuf50-201-N1/wuf50-0894.mwcnf,-9223372036854775808
data/N/wuf50-201-N1/wuf50-0895.mwcnf,-9223372036854775808
data/N/wuf50-201-N1/wuf50-0896.mwcnf,-9223372036854775808
data/N/wuf50-201-N1/wuf50-0897.mwcnf,-9223372036854775808
data/N/wuf50-201-N1/wuf50-0898.mwcnf,-9223372036854775808
data/N/wuf50-201-N1/wuf50-0899.mwcnf,-9223372036854775808
data/N/wuf50-201-N1/wuf50-09.mwcnf,-9223372036854775808
data/N/wuf50-201-N1/wuf50-090.mwcnf,-9223372036854775808
data/N/wuf50-201-N1/wuf50-0900.mwcnf,-9223372036854775808
data/N/wuf50-201-N1/wuf50-0901.mwcnf,-9223372036854775808
data/N/wuf50-201-N1/wuf50-0902.mwcnf,-9223372036854775808
data/N/wuf50-201-N1/wuf50-0903.mwcnf,-9223372036854775808
data/N/wuf50-201-N1/wuf50-0904.mwcnf,-9223372036854775808
data/N/wuf50-201-N1/wuf50-0905.mwcnf,-9223372036854775808
data/N/wuf50-201-N1/wuf50-0906.mwcnf,-9223372036854775808
data/N/wuf50-201-N1/wuf50-0907.mwcnf,-9223372036854775808
data/N/wuf50-201-N1/wuf50-0908.mwcnf,-9223372036854775808
data/N/wuf50-201-N1/wuf50-0909.mwcnf,-9223372036854775808
data/N/wuf50-201-N1/wuf50-091.mwcnf,-9223372036854775808
data/N/wuf50-201-N1/wuf50-0910.mwcnf,-9223372036854775808
data/N/wuf50-201-N1/wuf50-0911.mwcnf,-9223372036854775808
data/N/wuf50-201-N1/wuf50-0912.mwcnf,-9223372036854775808
data/N/wuf50-201-N1/wuf50-0913.mwcnf,-9223372036854775808
data/N/wuf50-201-N1/wuf50-0914.mwcnf,-9223372036854775808
data/N/wuf50-201-N1/wuf50-0915.mwcnf,-9223372036854775808
data/N/wuf50-201-N1/wuf50-0916.mwcnf,-9223372036854775808
data/N/wuf50-201-N1/wuf50-0917.mwcnf,-9223372036854775808
data/N/wuf50-201-N1/wuf50-0918.mwcnf,-9223372036854775808
data/N/wuf50-201-N1/wuf50-0919.mwcnf,-9223372036854775808
data/N/wuf50-201-N1/wuf50-092.mwcnf,-9223372036854775808
data/N/wuf50-201-N1/wuf50-0920.mwcnf,-9223372036854775808
data/N/wuf50-201-N1/wuf50-0921.mwcnf,-9223372036854775808
data/N/wuf50-201-N1/wuf50-0922.mwcnf,-9223372036854775808
data/N/wuf50-201-N1/wuf50-0923.mwcnf,-9223372036854775808
data/N/wuf50-201-N1/wuf50-0924.mwcnf,-9223372036854775808
data/N/wuf50-201-N1/wuf50-0925.mwcnf,-9223372036854775808
data/N/wuf50-201-N1/wuf50-0926.mwcnf,-9223372036854775808
data/N/wuf50-201-N1/wuf50-0927.mwcnf,-9223372036854775808
data/N/wuf50-201-N1/wuf50-0928.mwcnf,-9223372036854775808
data/N/wuf50-201-N1/wuf50-0929.mwcnf,-9223372036854775808
data/N/wuf50-201-N1/wuf50-093.mwcnf,-9223372036854775808
data/N/wuf50-201-N1/wuf50-0930.mwcnf,-9223372036854775808
data/N/wuf50-201-N1/wuf50-0931.mwcnf,-9223372036854775808
data/N/wuf50-201-N1/wuf50-0932.mwcnf,-9223372036854775808
data/N/wuf50-201-N1/wuf50-0933.mwcnf,-9223372036854775808
data/N/wuf50-201-N1/wuf50-0934.mwcnf,-9223372036854775808
data/N/wuf50-201-N1/wuf50-0935.mwcnf,-9223372036854775808
data/N/wuf50-201-N1/wuf50-0936.mwcnf,-9223372036854775808
data/N/wuf50-201-N1/wuf50-0937.mwcnf,-9223372036854775808
data/N/wuf50-201-N1/wuf50-0938.mwcnf,-9223372036854775808
data/N/wuf50-201-N1/wuf50-0939.mwcnf,-9223372036854775808
data/N/wuf50-201-N1/wuf50-094.mwcnf,-9223372036854775808
data/N/wuf50-201-N1/wuf50-0940.mwcnf,-9223372036854775808
data/N/wuf50-201-N1/wuf50-0941.mwcnf,-9223372036854775808
data/N/wuf50-201-N1/wuf50-0942.mwcnf,-9223372036854775808
data/N/wuf50-201-N1/wuf50-0943.mwcnf,-9223372036854775808
data/N/wuf50-201-N1/wuf50-0944.mwcnf,-9223372036854775808
data/N/wuf50-201-N1/wuf50-0945.mwcnf,-9223372036854775808
data/N/wuf50-201-N1/wuf50-0946.mwcnf,-9223372036854775808
data/N/wuf50-201-N1/wuf50-0947.mwcnf,-9223372036854775808
data/N/wuf50-201-N1/wuf50-0948.mwcnf,-9223372036854775808
data/N/wuf50-201-N1/wuf50-0949.mwcnf,-9223372036854775808
data/N/wuf50-201-N1/wuf50-095.mwcnf,-9223372036854775808
data/N/wuf50-201-N1/wuf50-0950.mwcnf,-9223372036854775808
data/N/wuf50-201-N1/wuf50-0951.mwcnf,-9223372036854775808
data/N/wuf50-201-N1/wuf50-0952.mwcnf,-9223372036854775808
data/N/wuf50-201-N1/wuf50-0953.mwcnf,-9223372036854775808
data/N/wuf50-201-N1/wuf50-0954.mwcnf,-9223372036854775808
data/N/wuf50-201-N1/wuf50-0955.mwcnf,-9223372036854775808
data/N/wuf50-201-N1/wuf50-0956.mwcnf,-9223372036854775808
data/N/wuf50-201-N1/wuf50-0957.mwcnf,-9223372036854775808
data/N/wuf50-201-N1/wuf50-0958.mwcnf,-9223372036854775808
data/N/wuf50-201-N1/wuf50-0959.mwcnf,-9223372036854775808
data/N/wuf50-201-N1/wuf50-096.mwcnf,-9223372036854775808
data/N/wuf50-201-N1/wuf50-0960.mwcnf,-9223372036854775808
data/N/wuf50-201-N1/wuf50-0961.mwcnf,-9223372036854775808
data/N/wuf50-201-N1/wuf50-0962.mwcnf,-9223372036854775808
data/N/wuf50-201-N1/wuf50-0963.mwcnf,-9223372036854775808
data/N/wuf50-201-N1/wuf50-0964.mwcnf,-9223372036854775808
data/N/wuf50-201-N1/wuf50-0965.mwcnf,-9223372036854775808
data/N/wuf50-201-N1/wuf50-0966.mwcnf,-9223372036854775808
data/N/wuf50-201-N1/wuf50-0967.mwcnf,-9223372036854775808
data/N/wuf50-201-N1/wuf50-0968.mwcnf,-9223372036854775808
data/N/wuf50-201-N1/wuf50-0969.mwcnf,-9223372036854775808
data/N/wuf50-201-N1/wuf50-097.mwcnf,-9223372036854775808
data/N/wuf50-201-N1/wuf50-0970.mwcnf,-9223372036854775808
data/N/wuf50-201-N1/wuf50-0971.mwcnf,-9223372036854775808
data/N/wuf50-201-N1/wuf50-0972.mwcnf,-9223372036854775808
data/N/wuf50-201-N1/wuf50-0973.mwcnf,-9223372036854775808
data/N/wuf50-201-N1/wuf50-0974.mwcnf,-9223372036854775808
data/N/wuf50-201-N1/wuf50-0975.mwcnf,-9223372036854775808
data/N/wuf50-201-N1/wuf50-0976.mwcnf,-9223372036854775808
data/N/wuf50-201-N1/wuf50-0977.mwcnf,-9223372036854775808
data/N/wuf50-201-N1/wuf50-0978.mwcnf,-9223372036854775808
data/N/wuf50-201-N1/wuf50-0979.mwcnf,-9223372036854775808
data/N/wuf50-201-N1/wuf50-098.mwcnf,-9223372036854775808
data/N/wuf50-201-N1/wuf50-0980.mwcnf,-9223372036854775808
data/N/wuf50-201-N1/wuf50-0981.mwcnf,-9223372036854775808
data/N/wuf50-201-N1/wuf50-0982.mwcnf,-9223372036854775808
data/N/wuf50-201-N1/wuf50-0983.mwcnf,-9223372036854775808
data/N/wuf50-201-N1/wuf50-0984.mwcnf,-9223372036854775808
data/N/wuf50-201-N1/wuf50-0985.mwcnf,-9223372036854775808
data/N/wuf50-201-N1/wuf50-0986.mwcnf,-9223372036854775808
data/N/wuf50-201-N1/wuf50-0987.mwcnf,-9223372036854775808
data/N/wuf50-201-N1/wuf50-0988.mwcnf,-9223372036854775808
data/N/wuf50-201-N1/wuf50-0989.mwcnf,-9223372036854775808
data/N/wuf50-201-N1/wuf50-099.mwcnf,-9223372036854775808
data/N/wuf50-201-N1/wuf50-0990.mwcnf,-9223372036854775808
data/N/wuf50-201-N1/wuf50-0991.mwcnf,-9223372036854775808
data/N/wuf50-201-N1/wuf50-0992.mwcnf,-9223372036854775808
data/N/wuf50-201-N1/wuf50-0993.mwcnf,-9223372036854775808
data/N/wuf50-201-N1/wuf50-0994.mwcnf,-9223372036854775808
data/N/wuf50-201-N1/wuf50-0995.mwcnf,-9223372036854775808
data/N/wuf50-201-N1/wuf50-0996.mwcnf,-9223372036854775808
data/N/wuf50-201-N1/wuf50-0997.mwcnf,-9223372036854775808
data/N/wuf50-201-N1/wuf50-0998.mwcnf,-9223372036854775808
data/N/wuf50-201-N1/wuf50-0999.mwcnf,-9223372036854775808
