iters,price,time
65259,97574,.116048541
67518,97574,.194947888
86092,97574,.167878625
101905,97574,.219902351
89606,97574,.143728016
54717,97574,.092010026
101152,97574,.222553030
101403,97574,.156320871
65259,97574,.154769393
74546,97574,.138859112
