iters,price,time
56976,23755,.164632737
36896,23755,.110043404
75801,23755,.167181882
85088,23755,.170091353
83582,23755,.160611709
71534,23755,.169446951
84837,23755,.238764813
39908,23755,.098632975
56725,23755,.162067509
72538,23755,.205210655
