iters,price,time
68271,30654,.202238435
59235,30654,.181423936
65761,30654,.186982581
49446,30654,.146410042
47187,30654,.134320645
56223,30654,.170100450
35139,30654,.109003345
74546,30654,.187937237
78311,30654,.205094483
87598,30654,.213045392
