iters,price,time
97889,22197,.235755932
69275,22197,.169469705
86343,22197,.131946714
92618,22197,.180255407
55219,22197,.101648114
25601,22197,.077539961
46183,22197,.093594539
33131,22197,.056214422
50199,22197,.136325816
62749,22197,.169554070
