iters,price,time
7278,37707,.044797952
12298,37783,.043829449
49697,37783,.094161633
3764,37707,.021634457
14055,37783,.051656066
31876,37783,.101278502
1254,37783,.012726716
45681,37783,.138619344
19828,37783,.065499237
35139,37783,.107036907
