iters,price,time
60992,36209,.118711295
53462,36209,.189330583
78562,36209,.168071860
59235,36209,.100056860
82829,36209,.185984276
72538,36209,.226640079
13553,36209,.047041053
11294,36209,.055817041
74044,36209,.221453307
84335,36209,.190503897
