iters,price,time
57980,91642,.151909131
52709,91642,.142638573
59235,91642,.141220114
12549,91642,.040289492
49446,91642,.137544988
47689,91642,.132717884
3011,89285,.015998855
13553,91642,.054758401
49948,91642,.193569386
20832,91642,.083648498
