iters,price,time
84335,98790,.172487913
48693,98790,.138488785
57729,98790,.179905017
92869,98790,.166173213
53964,98790,.164799887
50701,98790,.102305511
87347,98790,.184663500
86343,98790,.201819027
78311,98790,.218213660
76303,98790,.189358521
