iters,price,time
80821,29184,.228700776
81574,29184,.208576495
115459,29184,.264939865
91363,29184,.204507539
64004,29184,.178300402
90359,29184,.182853447
99897,29184,.243543235
45932,29184,.139812119
94626,29184,.272613454
70530,29184,.185509768
