iters,price,time
93120,27615,.243251066
83331,27615,.145905783
79566,27615,.162087228
114204,27615,.266708324
92618,27615,.190615440
88351,27615,.210508125
87849,27615,.173677869
73542,27615,.157831966
123993,27615,.231559730
97889,27615,.191133120
