iters,price,time
72789,36961,.146803905
54968,36961,.145914143
61494,36961,.160242287
112447,36961,.248137132
63753,36961,.108178006
63000,36961,.136852268
79566,36961,.211872149
48191,36961,.139016197
14808,36961,.047754212
79817,36961,.205195842
