iters,price,time
52458,44424,.169464214
34135,44424,.102439794
30119,44424,.101508116
1756,44210,.013233736
89104,44424,.212813834
25601,44424,.077764491
42167,44424,.124299791
74044,44424,.219948914
17569,44424,.065523929
63000,44424,.140602667
