iters,price,time
99646,130842,.310759056
85841,130842,.266503671
80821,130842,.153155857
59737,130842,.135540574
76554,130842,.197011410
78060,130842,.218927911
70530,130842,.208711933
94124,130842,.194105882
106423,130842,.252217537
96383,130842,.167071756
