iters,price,time
35892,18219,.102368046
17067,18219,.053385024
16063,18219,.050345484
50952,18219,.128045772
60239,18219,.168968510
26354,18219,.075818592
54466,18219,.105108468
14306,18219,.045655057
14055,18219,.044879938
7529,18219,.027035598
