iters,price,time
35641,28347,.130485063
85088,28347,.242822676
37900,28347,.083541040
36896,28347,.113940328
45179,28347,.131263908
57227,28347,.156814710
47187,28347,.141423668
69526,28347,.155280345
110188,28347,.202871250
33131,28347,.073443334
