iters,price,time
17820,38287,.060023633
103913,38287,.190983164
2007,38287,.015055441
74546,38287,.133291638
81323,38287,.199451724
46183,38287,.092027790
65761,38287,.131493432
97387,38287,.168353634
114706,38287,.240875590
63753,38287,.142257949
