iters,price,time
5772,25279,.031184358
20832,25279,.059626744
57729,25279,.147853884
14306,25279,.047653971
2007,25279,.020598739
25852,25279,.080556688
501,23107,.009787308
1505,24626,.013302999
34888,25279,.105145775
29366,25279,.086142563
