iters,price,time
64004,34760,.193729828
23593,34760,.071861474
13553,34760,.028434780
6274,34760,.029523497
48191,34760,.224073845
73542,34760,.196168954
82829,34760,.171226975
40159,34760,.086144872
26103,34760,.083148269
33382,34760,.122199072
