iters,price,time
29366,108937,.081086921
12298,108937,.048536683
29617,108937,.096910251
4015,108937,.020939667
46183,108937,.099659450
29617,108937,.084602546
27358,108937,.088312734
85339,108937,.171908384
53713,108937,.132538601
57227,108937,.155060710
