iters,price,time
114957,46539,.201329185
78311,46539,.240582205
97638,46539,.228545750
112196,46539,.256558452
85590,46539,.193698899
22840,46539,.077656514
105419,46539,.258011305
80821,46539,.156321948
110439,46539,.188385830
98391,46539,.252286860
