iters,price,time
70781,113880,.224678717
80068,113880,.191756478
46936,113880,.146447805
58733,113880,.176039061
6274,113880,.027018060
86845,113880,.271647181
80068,113880,.145031339
91614,113880,.163515048
82327,113880,.187978947
60992,113880,.155125239
