iters,price,time
85339,31119,.227514807
47438,31119,.149731206
46434,31119,.150649662
65259,31119,.194899916
77307,31119,.195848150
50952,31119,.114657657
72789,31119,.129639511
67769,31119,.173683440
57980,31119,.178645632
19828,31119,.065934936
