iters,price,time
74546,41124,.156453810
56223,41124,.160809192
72036,41124,.136900911
61494,41124,.172174388
46434,41124,.140996807
25852,41124,.076610924
83080,41124,.197556388
28613,41124,.085774578
83582,41124,.210483437
112949,41124,.178976706
