iters,price,time
53211,27441,.150885499
25601,27441,.081942998
53462,27441,.138211338
47940,27441,.085389211
76052,27441,.202002393
29868,27441,.078242745
54215,27441,.109330936
11545,27441,.042138995
43924,27441,.127042071
25852,27441,.060003595
