iters,price,time
13553,54625,.061515502
73542,54625,.247180698
49948,54625,.169928756
94877,54625,.261782681
112698,54625,.450958541
20581,54625,.102678346
85590,54625,.237849262
53964,54625,.167487598
56725,54625,.167253599
74295,54625,.217286446
