iters,price,time
109686,134973,.225703448
113702,134973,.244973095
115208,134973,.218054360
110439,134973,.227928739
50952,134973,.153712626
102156,134973,.189899310
72789,134973,.243998736
114957,134973,.193860623
82578,134973,.159055998
83331,134973,.239787840
