iters,price,time
61745,49074,.198091893
61243,49074,.126491187
27107,49074,.088229184
48944,49074,.140282560
32378,49074,.066436706
4266,49074,.021401706
36143,49074,.072734073
36896,49074,.118964899
55470,49074,.122321166
68020,49074,.153546559
