iters,price,time
80319,102034,.160070354
80570,102034,.144256378
92116,102034,.255159169
66012,102034,.185828238
60490,102034,.166395864
77307,102034,.167297408
18824,102034,.057764041
14808,102034,.048622183
45179,102034,.125375984
22338,102034,.067730591
