iters,price,time
65008,27806,.198021688
34386,27806,.101696196
54717,27806,.160054714
98642,27806,.224449358
83582,27806,.203722643
99897,27806,.217185673
64004,27806,.133876962
61745,27806,.158960375
93371,27806,.227269848
66765,27806,.173792874
