iters,price,time
35892,135275,.119173785
33633,135275,.106311701
61494,135275,.179551466
85590,135275,.179833219
46434,135275,.136501082
55219,135275,.166335714
501,72862,.009267008
66263,135275,.125201486
27358,135275,.084821224
43924,135275,.135535288
