iters,price,time
43171,41383,.097262930
92367,41383,.199549451
108431,41383,.254465959
51956,41383,.136155170
32378,41383,.094368153
74546,41383,.188436457
103662,41383,.215954167
36645,41383,.111290526
59235,41383,.109432945
73040,41383,.190037214
