iters,price,time
69526,86191,.143730632
25350,86191,.072461060
28362,86191,.092829189
35641,86191,.097138176
1756,80491,.014148125
56725,86191,.126472488
57980,86191,.135592714
25852,86191,.074279865
52960,86191,.149717278
46183,86191,.147163959
