iters,price,time
54717,44090,.157378463
48191,44090,.142760866
38151,44090,.090217733
45179,44090,.135174043
54968,44090,.153632839
52458,44090,.135203534
51203,44090,.123903453
59235,44090,.188883683
46936,44090,.133975675
68271,44090,.196926138
