iters,price,time
21585,30400,.071264472
90861,30400,.253909685
98140,30400,.164448008
98140,30400,.269241499
87598,30400,.209420785
56223,30400,.177153242
66263,30400,.191444546
77558,30400,.147237660
84586,30400,.217360913
48944,30400,.116418649
