iters,price,time
34386,26674,.086120465
91614,26674,.154765410
65761,26674,.183336541
51956,26674,.154429988
84084,26674,.171456315
58733,26674,.137564360
79064,26674,.148737529
43924,26674,.131409181
34386,26674,.107223064
26856,26674,.083101516
