iters,price,time
80821,142661,.201672101
30621,142661,.104264569
82076,142661,.217543327
56474,142661,.199998620
55219,142661,.128103085
39406,142661,.138244662
79817,142661,.209997077
101905,142661,.231174669
74044,142661,.212257351
96885,142661,.229203363
