iters,price,time
101403,33180,.214006056
50701,33180,.141161877
38904,33180,.125989859
27107,33180,.088505708
89606,33180,.238810726
109435,33180,.250751964
99395,33180,.205226500
101905,33180,.214222369
84084,33180,.221958664
104164,33180,.201206380
