iters,price,time
71283,22371,.194438740
50952,22371,.113107571
33633,22371,.069304702
77558,22371,.141790138
18322,22371,.039575787
2258,21603,.015451934
69777,22371,.209806011
58733,22371,.130593917
62247,22371,.188301870
13302,22371,.051619046
