iters,price,time
62247,52284,.194553714
46936,52284,.146651119
52207,52284,.165361411
87598,52284,.196862329
91614,52284,.270134172
87598,52284,.203146988
83331,52284,.216431576
57227,52284,.108362283
69526,52284,.170661204
94124,52284,.212680339
