iters,price,time
40661,28020,.112539563
84586,28020,.182422081
50701,28020,.154510568
71534,28020,.173762025
70530,28020,.175651835
59737,28020,.114547685
35641,28020,.104479545
56223,28020,.159678779
36394,28020,.074899165
58482,28020,.142220683
