iters,price,time
67769,131905,.221527453
104164,131905,.163719543
13553,131905,.049688377
77307,131905,.212762842
64004,131905,.172572594
65761,131905,.164877144
104164,131905,.188144934
70028,131905,.144469299
86092,131905,.170565285
33884,131905,.108925500
