iters,price,time
52960,28975,.158069566
74295,28975,.169215954
94877,28975,.220727243
24848,28975,.078677388
59988,28975,.127513103
77809,28975,.187191385
27107,28975,.081621288
65259,28975,.195277934
60992,28975,.165331243
93873,28975,.203504541
