iters,price,time
73542,101821,.172774201
74044,101821,.176921865
53964,101821,.128338566
27609,101821,.090440504
91865,101821,.215862177
106674,101821,.210821414
47689,101821,.141905685
72036,101821,.121125468
67769,101821,.208454490
44175,101821,.165571232
