iters,price,time
67016,121771,.208360706
56474,121771,.138262567
61996,121771,.174532910
64506,121771,.171011433
98140,121771,.246133564
73040,121771,.194895333
84335,121771,.239904093
54968,121771,.161004500
55470,121771,.104922378
71785,121771,.127112967
