iters,price,time
43924,29286,.091063321
96132,29286,.197921918
118220,29286,.188735544
76554,29286,.177170505
72538,29286,.159077945
83331,29286,.226715748
107427,29286,.241916493
83582,29286,.173273736
80821,29286,.139116871
81323,29286,.172531502
