iters,price,time
80068,43249,.257820045
89355,43249,.181990341
50952,43249,.156470493
48944,43249,.151722485
111945,43249,.296372470
118722,43249,.252210129
90610,43249,.177217661
68271,43249,.214991225
63753,43249,.214589011
82578,43249,.206934813
