iters,price,time
70530,114457,.143429711
18071,114457,.052134687
45179,114457,.138139300
62247,114457,.185921586
18824,114457,.065857773
46183,114457,.140586617
1756,114457,.014325820
23091,114457,.055978474
27860,114457,.054183366
60490,114457,.175082947
