iters,price,time
54968,52773,.244123670
87347,52773,.204074868
122989,52773,.272524315
105168,52773,.284283914
78311,52773,.137221069
76303,52773,.211980836
17067,52773,.086277796
83833,52773,.239709115
91112,52773,.196350516
106925,52773,.196485444
