iters,price,time
50952,42174,.170922188
80068,42174,.150059178
32127,42174,.100621019
68271,42174,.141199855
79817,42174,.181719142
62247,42174,.182197467
29115,42174,.066571112
14306,42174,.051345677
54466,42174,.164180381
74295,42174,.188408684
