iters,price,time
49446,23599,.101657482
106674,23599,.205167228
82829,23599,.137867295
89355,23599,.200337117
111945,23599,.225369744
102658,23599,.215088972
52960,23599,.152477664
12549,23599,.043144448
87096,23599,.140684605
47940,23599,.111255763
