iters,price,time
79817,27847,.140519555
68522,27847,.133175490
69777,27847,.170741182
89104,27847,.181523267
111443,27847,.233807089
94124,27847,.152458763
85841,27847,.230566184
85088,27847,.215508830
80821,27847,.200952279
45430,27847,.084007864
