iters,price,time
1254,23787,.019949533
11043,24771,.038161442
15561,24771,.049866713
5019,24771,.022539217
15561,24771,.051381120
11796,24771,.041920563
59235,24771,.153488137
58482,24771,.118930169
22840,24771,.069449660
7027,24771,.027112165
