iters,price,time
73040,35097,.194668538
72287,35097,.131408345
67267,35097,.166884804
87347,35097,.185808370
91112,35097,.173723291
51454,35097,.150991857
44175,35097,.095494623
53211,35097,.088965679
61745,35097,.171207113
52709,35097,.104129290
