iters,price,time
28864,22705,.095870982
12298,22705,.045010488
29868,22705,.063705020
77056,22705,.173409953
47438,22705,.134796169
37900,22705,.112557688
47689,22705,.133964509
18322,22705,.061344109
92869,22705,.158364986
42920,22705,.127005857
