iters,price,time
92618,126595,.255776350
70530,126595,.139182947
102407,126595,.211540399
130770,126595,.265956525
84837,126595,.148995814
56976,126595,.179689400
89857,126595,.252444166
69275,126595,.181947058
89355,126595,.154206451
74044,126595,.181064860
