iters,price,time
105670,90245,.192006351
81574,90245,.186235276
96885,90245,.202274189
98893,90245,.184212090
130017,90245,.322095061
101654,90245,.262660490
81574,90245,.169635336
106172,90245,.221520240
74295,90245,.177408271
105419,90245,.233297925
