iters,price,time
78060,126624,.178462126
52458,126624,.120332156
100148,126624,.198574175
28111,126624,.077365823
61494,126624,.158828173
61745,126624,.125330182
36394,126624,.110148280
58733,126624,.170619969
16063,126624,.055629067
11545,126624,.040706099
