iters,price,time
84084,23193,.206660279
93371,23193,.198097488
96885,23193,.153505575
99646,23193,.228059554
74546,23193,.173188473
99144,23193,.224891770
61996,23193,.114065814
60992,23193,.159469009
30872,23193,.091681407
75299,23193,.133442406
