iters,price,time
84837,35837,.130780884
71534,35837,.156721166
12047,35837,.039738328
51203,35837,.139639500
70781,35837,.182409718
41163,35837,.115263690
85841,35837,.236734128
103411,35837,.267373966
93622,35837,.211009988
65259,35837,.121642898
