iters,price,time
51203,132173,.182254977
111443,132173,.201536402
77307,132173,.192268473
33382,132173,.107010873
58482,132173,.195419980
74295,132173,.159553996
43422,132173,.153546077
100148,132173,.190750238
82327,132173,.204517204
16314,132173,.056037999
