iters,price,time
80821,38280,.154998692
87347,38280,.174758411
101403,38280,.240420100
56223,38280,.148772706
85590,38280,.184855722
50450,38280,.143493122
89606,38280,.220047347
73793,38280,.188176438
55972,38280,.165626707
59486,38280,.133928099
