iters,price,time
18322,101488,.075756269
2007,101488,.015384229
12047,101488,.042359713
45681,101488,.111048797
1003,101488,.011573139
37398,101488,.109132060
16314,101488,.054763311
14557,101488,.050043121
59486,101488,.141496728
68020,101488,.190782073
