iters,price,time
87347,58717,.213421248
106172,58717,.206945950
58482,58717,.142878922
45179,58717,.147885905
67769,58717,.148614469
50450,58717,.150128425
46183,58717,.147326541
46183,58717,.124262224
79064,58717,.160239522
23593,58717,.082294156
