iters,price,time
48693,45963,.155930534
75048,45963,.188504823
98893,45963,.186874870
49446,45963,.143781980
65510,45963,.116288101
60490,45963,.182840528
106674,45963,.220874330
56223,45963,.174481952
79315,45963,.164024202
89355,45963,.207374685
