iters,price,time
85339,23229,.184257227
101403,23229,.190627473
56474,23229,.102017076
105419,23229,.180823103
95128,23229,.218917596
80570,23229,.180818549
57980,23229,.157331309
88853,23229,.232991574
118471,23229,.252409786
100148,23229,.194819608
