iters,price,time
31374,102099,.117002667
68020,102099,.197652182
59486,102099,.156210309
47438,102099,.130466769
60239,102099,.190120373
59486,102099,.174971790
86594,102099,.189792400
32127,102099,.098155147
73040,102099,.169522570
48191,102099,.111543554
