iters,price,time
83582,94082,.208135615
91614,94082,.167594817
70530,94082,.179316205
115961,94082,.199716316
92367,94082,.231090638
63753,94082,.173173880
81072,94082,.204826816
112196,94082,.229518566
83331,94082,.163555120
94375,94082,.154998432
