iters,price,time
89104,142394,.173731823
105921,142394,.247481688
134786,142394,.277000266
120228,142394,.212212319
90108,142394,.240581083
90359,142394,.174700145
99897,142394,.175642968
85088,142394,.248678618
114204,142394,.248107050
117467,142394,.280840563
