iters,price,time
43171,87037,.127329392
52709,87037,.143683481
4768,87037,.021395894
36394,87037,.082751952
34135,87037,.103483250
81825,87037,.197729505
42920,87037,.075142515
39155,87037,.093307464
51203,87037,.145858792
1756,85892,.012753652
