iters,price,time
74797,43783,.134458665
27358,43783,.097314470
99144,43783,.243339765
87849,43783,.183448641
92618,43783,.193942916
87598,43783,.193802542
75299,43783,.159184850
59235,43783,.164797867
57980,43783,.158692768
50450,43783,.112516214
