iters,price,time
25601,135460,.080181424
77558,135460,.199353947
50701,135460,.154664573
111694,135460,.239890352
67518,135460,.175229117
85590,135460,.203957828
114204,135460,.221713114
55219,135460,.169047771
44426,135460,.126474365
101152,135460,.275603203
