iters,price,time
92367,45550,.167562526
98642,45550,.255421331
101403,45550,.170112569
113702,45550,.175701616
88853,45550,.237945726
44677,45550,.131394854
96885,45550,.235200895
98642,45550,.198223950
72789,45550,.208306177
91112,45550,.194566027
