iters,price,time
86845,48908,.232960580
93873,48908,.207358644
99646,48908,.227113319
55219,48908,.114718346
78562,48908,.229608722
69024,48908,.144584650
10792,48908,.036342457
48191,48908,.119963110
93873,48908,.235650254
79064,48908,.152116137
