iters,price,time
62247,23868,.117793780
93873,23868,.201881672
67769,23868,.174112657
73793,23868,.214181877
79817,23868,.127061569
90610,23868,.237404711
59486,23868,.177912971
54968,23868,.183527311
75299,23868,.166954227
51454,23868,.142874744
