iters,price,time
53462,35797,.147720319
98391,35797,.219286732
97889,35797,.207481224
56976,35797,.166120348
65008,35797,.168287367
52207,35797,.093135339
66765,35797,.187937572
62749,35797,.140304538
78060,35797,.174499516
77558,35797,.151060929
