iters,price,time
35892,30100,.123087141
14557,30100,.048397508
10541,30100,.026842088
4517,30100,.020539481
46685,30100,.113463157
25350,30100,.048659859
21585,30100,.068024845
12298,30100,.041720901
25601,30100,.080553040
23844,30100,.071323279
