iters,price,time
52709,22096,.128360253
33633,22096,.098010270
6274,22096,.024679626
15310,22096,.048195381
3764,20837,.017937475
2007,22096,.012939007
46685,22096,.131080232
21585,22096,.070088326
53211,22096,.146959533
38653,22096,.110898810
