iters,price,time
35892,44824,.130869789
22589,44824,.076206636
43171,44824,.141145116
18824,44824,.064033414
35139,44824,.117245837
43422,44824,.093630091
752,42370,.010825875
21585,44824,.073181734
501,41102,.009878362
14557,44824,.055152580
