iters,price,time
59737,52374,.171208315
97387,52374,.257352581
58984,52374,.134893862
101654,52374,.196156034
98642,52374,.203259638
102407,52374,.202532467
55219,52374,.157128881
68773,52374,.255428419
117969,52374,.329725137
31374,52374,.116035130
