iters,price,time
102658,92907,.211384470
40410,92907,.103220627
80319,92907,.184163564
25852,92907,.074385277
19828,92907,.064201009
61745,92907,.176892579
79064,92907,.209335456
63251,92907,.131681627
61494,92907,.148243735
50450,92907,.147936652
