iters,price,time
113200,108479,.292697239
94877,108479,.258005911
99897,108479,.258254075
72287,108479,.123843393
64255,108479,.173351260
54466,108479,.120813903
112698,108479,.243607132
59235,108479,.107452753
55972,108479,.122279411
61243,108479,.121218006
