iters,price,time
72036,44380,.201184384
70781,44380,.179984659
93622,44380,.169119820
92116,44380,.186141471
97136,44380,.181265183
87096,44380,.154712890
122236,44380,.231145643
106423,44380,.214640745
86343,44380,.180044679
85088,44380,.158211522
