iters,price,time
68020,30824,.146505781
82829,30824,.174222215
93873,30824,.158585569
51705,30824,.110392928
54466,30824,.108821887
84335,30824,.206043758
69275,30824,.209079997
75801,30824,.137715956
79566,30824,.202200221
56223,30824,.122127731
