iters,price,time
96383,30972,.191928588
80319,30972,.172908248
103160,30972,.212984366
69777,30972,.168928880
69024,30972,.114520889
38402,30972,.082179562
84335,30972,.175289192
88351,30972,.210091453
98893,30972,.214144781
60239,30972,.169136337
