iters,price,time
46183,47914,.134161606
125499,47914,.276553131
81574,47914,.156923088
71785,47914,.171245316
59235,47914,.144577011
20330,47914,.066613454
84335,47914,.208214733
5019,47914,.021819019
92367,47914,.239416820
51705,47914,.158351937
