iters,price,time
105168,30739,.193819063
95128,30739,.201714186
78060,30739,.136883048
116965,30739,.243347089
90610,30739,.191097972
81072,30739,.204381509
99144,30739,.216290892
94124,30739,.173070834
110941,30739,.240881673
86845,30739,.240806845
