iters,price,time
8533,75522,.035782621
59737,76548,.172829216
501,73375,.009954342
64506,76548,.181800768
50952,76548,.145276333
56474,76548,.162416732
64757,76548,.129390740
79064,76548,.181667584
43673,76548,.125321571
40410,76548,.115313735
