iters,price,time
53462,107633,.180972859
99144,107633,.237698534
97136,107633,.232312751
81574,107633,.176633328
83331,107633,.218513990
93622,107633,.169750651
94877,107633,.155044119
86343,107633,.170841498
65510,107633,.176622964
93371,107633,.148624067
