iters,price,time
54717,49530,.101751080
62247,49530,.130628347
25852,49530,.079227229
72036,49530,.173879475
41916,49530,.091294183
23593,49530,.058230443
48442,49530,.142343838
30872,49530,.092090010
57980,49530,.165517955
46183,49530,.129769424
