iters,price,time
98642,103062,.253731474
102909,103062,.218929229
78562,103062,.178133023
81825,103062,.133069357
95881,103062,.221291863
89104,103062,.147382507
116714,103062,.260819368
93873,103062,.221632945
67769,103062,.169681490
109937,103062,.247983347
