iters,price,time
77809,97061,.211856013
11545,97061,.039444591
79064,97061,.212086714
50450,97061,.153022888
5521,97061,.027061132
59988,97061,.100707138
68773,97061,.193584906
59988,97061,.158978314
67016,97061,.203869641
45681,97061,.110678389
