iters,price,time
42669,105380,.091655128
79817,105380,.179199947
61745,105380,.114359175
78813,105380,.171490740
91865,105380,.220504702
80068,105380,.213409674
19075,105380,.074179262
59988,105380,.136774624
88853,105380,.254616492
60741,105380,.179979940
