iters,price,time
15059,27256,.069095753
60490,27256,.098171283
48944,27256,.142561690
30119,27256,.078764278
25099,27256,.061055627
38904,27256,.118010354
30621,27256,.095119956
30370,27256,.057154905
41916,27256,.099489355
45430,27256,.136390190
