iters,price,time
30119,23973,.096036675
19577,23973,.062530428
3011,23973,.017382127
501,18997,.009917808
71534,23973,.141138487
38151,23973,.109960916
2007,23973,.014599264
65008,23973,.149817720
18322,23973,.059840643
35139,23973,.094145356
