iters,price,time
35892,49115,.122499296
88351,49115,.230060903
48191,49115,.101932999
99897,49115,.209818329
41665,49115,.120158449
51454,49115,.107580552
36394,49115,.118543314
33131,49115,.096375017
98391,49115,.249295147
76805,49115,.136490236
