iters,price,time
26856,28596,.080106195
48442,28596,.117691951
17318,28596,.051259447
18322,28596,.054488053
1003,28460,.012222075
73291,28596,.181424422
44928,28596,.107109721
30119,28596,.082592982
11796,28596,.036881407
43422,28596,.119498262
