iters,price,time
99897,21211,.248125470
21083,21211,.066104470
73291,21211,.188460833
73291,21211,.200599886
15310,21211,.052838238
95881,21211,.156631977
79566,21211,.217427586
61494,21211,.159577691
30370,21211,.090679803
23342,21211,.079455389
