iters,price,time
20330,43807,.089327179
67769,43807,.226899585
32127,43807,.101375943
22087,43807,.078050188
38151,43807,.122114721
70530,43807,.212387981
49697,43807,.128123325
35641,43807,.098791374
23091,43807,.075707436
17067,43807,.060487520
