iters,price,time
59988,28347,.168681676
94626,28347,.231017317
37398,28347,.117511186
48693,28347,.174200529
84837,28347,.181102392
89857,28347,.211941641
68522,28347,.123338317
82076,28347,.194486861
99646,28347,.208569972
81072,28347,.204720127
