iters,price,time
102658,35811,.268223953
73793,35811,.178548327
34135,35811,.102310190
41665,35811,.083057831
83833,35811,.192992196
84335,35811,.207425718
60239,35811,.159229285
61494,35811,.181129445
81574,35811,.191136157
14557,35811,.047211099
