iters,price,time
79817,113450,.215526930
83080,113450,.208870546
66514,113450,.194227956
59235,113450,.130995795
25099,113450,.074084205
25350,113450,.057625616
50701,113450,.137062806
37398,113450,.067367957
47689,113450,.114491954
70028,113450,.194132033
