iters,price,time
73291,38133,.183911320
52960,38133,.127805517
20079,38133,.074539020
59737,38133,.174158388
30370,38133,.094872553
41916,38133,.087479105
14306,38133,.047694237
80319,38133,.217614078
62498,38133,.174381025
96132,38133,.234217529
