iters,price,time
39406,123890,.126860228
63502,123890,.188453735
44928,123890,.136123689
21836,123890,.057737294
33131,123890,.086549850
27860,123890,.085525712
63251,123890,.179997228
85590,123890,.182111939
129766,123890,.326191732
98893,123890,.222098982
