iters,price,time
43171,89301,.137676235
77307,89301,.179735518
49446,89301,.142644323
51203,89301,.154569165
18824,89301,.057888573
18071,89301,.057109172
43673,89301,.122865201
39908,89301,.093359919
72287,89301,.190857969
17569,89301,.052903156
