iters,price,time
80570,38939,.242883277
16314,38939,.050583184
54215,38939,.150217956
41665,38939,.118851939
67016,38939,.185961778
48944,38939,.135305099
18824,38939,.057763756
4266,38939,.019887409
31123,38939,.092656854
66012,38939,.170269795
