iters,price,time
34637,21515,.107702841
29115,21515,.073797678
58482,21515,.144713411
36394,21515,.105320168
16314,21515,.049561349
5019,21515,.023527598
65259,21515,.181338179
73040,21515,.141207455
42418,21515,.097908646
67769,21515,.140837306
