iters,price,time
56976,115943,.159589574
30370,115943,.090987080
46434,115943,.108206806
45932,115943,.129887986
48693,115943,.143374225
18824,115943,.061762654
53211,115943,.151355121
33884,115943,.099972253
26605,115943,.079248524
32378,115943,.097268702
