iters,price,time
72789,31085,.174809253
78060,31085,.177437987
88602,31085,.201334636
84335,31085,.140452239
76805,31085,.209758640
84084,31085,.207564253
28111,31085,.065042489
97387,31085,.158274677
31625,31085,.097054878
16314,31085,.053029969
