iters,price,time
501,85703,.027533135
48442,86765,.133129878
50952,86765,.109339383
26354,86765,.069615537
84837,86765,.208755541
1505,85703,.012816072
50450,86765,.144817010
66012,86765,.097348745
46434,86765,.128866803
35892,86765,.081305710
