iters,price,time
54968,42755,.182538499
86594,42755,.221903984
4517,42641,.023563756
33884,42755,.108710724
67016,42755,.129361825
80068,42755,.212911872
52458,42755,.098872264
79817,42755,.153684833
16063,42755,.052410694
90610,42755,.257609082
