iters,price,time
65008,118462,.117623309
54215,118462,.165328317
37649,118462,.093734526
9035,118462,.033827370
63000,118462,.182350505
40410,118462,.154376803
82327,118462,.161816559
47438,118462,.123881321
39155,118462,.119416394
28613,118462,.088949912
