iters,price,time
51203,119307,.108524684
9035,119307,.030209135
3011,119307,.017535504
23091,119307,.073952919
35892,119307,.113293481
73040,119307,.224411045
26354,119307,.084843142
4266,119307,.021729388
5521,119307,.023623436
26103,119307,.062325677
