iters,price,time
94124,20502,.203113107
68271,20502,.198468307
98391,20502,.262492027
74044,20502,.213213840
93873,20502,.165830312
83080,20502,.237603567
79064,20502,.200108625
93873,20502,.223329751
84084,20502,.153056756
84837,20502,.190064687
