iters,price,time
38904,45856,.141126895
72789,45856,.133977023
76052,45856,.120519324
34888,45856,.102661248
23593,45856,.072393061
93622,45856,.149992210
100901,45856,.181344435
49446,45856,.123788057
95128,45856,.281495661
83582,45856,.221877557
