iters,price,time
47438,22270,.152466708
76805,22270,.210990036
9537,21875,.032525891
76805,22270,.136127412
35139,22270,.148161262
66765,22270,.242686801
32880,22270,.084099930
93622,22270,.184762534
44426,22270,.121209054
66012,22270,.135866573
