iters,price,time
51956,84557,.168086483
96383,84557,.183276030
68522,84557,.196191603
66012,84557,.192005189
31374,84557,.099357066
49697,84557,.144269101
82829,84557,.233599437
70530,84557,.147470776
59235,84557,.139777014
31374,84557,.097276256
