iters,price,time
6776,25927,.042756663
33884,25927,.073805822
4768,25927,.019835374
46434,25927,.139954864
3262,25475,.018654962
15561,25927,.051680814
14557,25927,.047873060
23342,25927,.070953292
28362,25927,.067350329
1756,24983,.013766359
