iters,price,time
64004,44879,.124494574
43171,44879,.122521014
18071,44879,.059376536
73793,44879,.129060207
73542,44879,.177822583
68773,44879,.131323206
76805,44879,.206265087
21585,44879,.064911048
44426,44879,.137178393
71032,44879,.157901060
