iters,price,time
59235,111667,.115138235
90610,111667,.189589839
30872,111667,.091443593
57478,111667,.167808496
31123,111667,.056675097
64757,111667,.177632077
59235,111667,.146590172
58984,111667,.118200098
75550,111667,.176097828
43924,111667,.125501064
