iters,price,time
65510,24505,.181423021
65761,24505,.125622823
83582,24505,.144268099
61243,24505,.161988549
57980,24505,.124427580
57478,24505,.115621640
32378,24505,.091795577
12298,24505,.041714885
48693,24505,.136300068
38151,24505,.114342513
