iters,price,time
54215,27813,.099270887
18573,27813,.057832045
43924,27813,.123113517
93371,27813,.229065434
63251,27813,.105239509
72287,27813,.126940647
78813,27813,.199922755
46183,27813,.132190100
46434,27813,.131678111
51203,27813,.145872810
