iters,price,time
74797,42554,.157176693
67769,42554,.190441422
67518,42554,.187923666
23342,42554,.084613031
50701,42554,.168466867
44175,42554,.132487174
69777,42554,.188585983
79315,42554,.165029861
27860,42554,.081962887
73793,42554,.171827319
