iters,price,time
79315,57534,.201224309
112447,57534,.256676302
95379,57534,.242467696
134535,57534,.264050474
67016,57534,.150783373
109686,57534,.221106860
103662,57534,.233720864
105419,57534,.314957697
76052,57534,.176053559
28362,57534,.115400797
