iters,price,time
56223,35663,.144409469
33131,35663,.100139393
21334,35663,.067896794
64004,35663,.158178781
36645,35663,.066910046
69526,35663,.183231595
57980,35663,.120421036
51956,35663,.143391808
46936,35663,.128421376
76052,35663,.168065233
