iters,price,time
60490,53639,.189072363
108682,53639,.241957606
66263,53639,.218421737
78813,53639,.237847609
21083,53639,.069117474
37147,53639,.096274530
53462,53639,.131461381
62749,53639,.118402440
50952,53639,.114639105
80068,53639,.216526426
