iters,price,time
48191,49034,.162026050
66263,49034,.192500116
77307,49034,.193163144
28864,49034,.082655617
47689,49034,.156191638
63502,49034,.183595131
47689,49034,.169044436
101654,49034,.221557416
25099,49034,.079235554
46685,49034,.137501525
