iters,price,time
72036,26830,.154013101
44928,26830,.138048541
92869,26830,.197811366
38904,26830,.129516480
63502,26830,.140157836
49697,26830,.135494085
34637,26830,.100585066
78813,26830,.166695858
53462,26830,.145869017
10792,26830,.042839530
