iters,price,time
111443,36556,.212569478
46685,36556,.136354256
60490,36556,.131594981
124495,36556,.271598468
83080,36556,.234989412
85590,36556,.213371837
87598,36556,.168227904
56474,36556,.154685988
100650,36556,.201851334
71283,36556,.125418216
