iters,price,time
20832,26827,.055580483
87096,26827,.245889132
74546,26827,.125930360
52709,26827,.159802577
62749,26827,.169726005
62247,26827,.147959696
79566,26827,.155541219
54717,26827,.091195859
64757,26827,.129264724
66263,26827,.158717746
