iters,price,time
5521,24750,.039259381
1254,24750,.011531514
14557,24750,.047669440
15059,24750,.048776417
69024,24750,.176677407
7529,24750,.030014321
58231,24750,.161449752
13804,24750,.043560280
2509,24750,.014642531
36394,24750,.089135533
