iters,price,time
100399,41671,.284094397
27107,41671,.094990804
91614,41671,.191167837
100650,41671,.193376978
103913,41671,.252849041
63753,41671,.138345500
55470,41671,.155197292
76805,41671,.143806967
114455,41671,.198179249
105419,41671,.228261516
