iters,price,time
40159,32081,.120268654
9537,32081,.034874584
7027,31337,.033702691
38653,32081,.107426728
26856,32081,.110904291
26103,32081,.117674181
40912,32081,.168205811
11545,32081,.064438773
38402,32081,.065122497
4768,32081,.023523870
