iters,price,time
22087,24189,.081147252
60239,24189,.231376084
39155,24189,.074459167
24346,24189,.078741059
87849,24189,.193004591
104164,24189,.185239516
62749,24189,.135064794
25099,24189,.073316057
41414,24189,.129830250
48944,24189,.148372792
