iters,price,time
63000,32465,.179490503
57227,32465,.178778326
70279,32465,.186016553
56725,32465,.107287687
40159,32465,.076975325
54717,32465,.152409644
52960,32465,.151275724
59235,32465,.114133558
69024,32465,.137245797
38904,32465,.116382981
