iters,price,time
17318,89471,.058483217
79315,89471,.141191885
4266,89471,.018726628
23342,89471,.072151764
31625,89471,.091113652
72036,89471,.129770271
45932,89471,.097011349
35139,89471,.099021529
2007,89471,.014362455
65259,89471,.182580245
