iters,price,time
93873,22831,.212951714
12549,22831,.042898042
88853,22831,.135556374
68020,22831,.193508455
92618,22831,.203303763
42669,22831,.106048056
87598,22831,.200943773
33884,22831,.097771027
31374,22831,.093712038
43171,22831,.135146005
