iters,price,time
100901,25932,.261379299
73040,25932,.171187120
64255,25932,.190176806
73040,25932,.142265023
65259,25932,.190086118
16565,25932,.052565936
53462,25932,.154348543
106423,25932,.255479062
74295,25932,.142322408
92367,25932,.218532690
