iters,price,time
77558,49820,.168593403
109686,49820,.186172541
1003,49820,.011101606
57227,49820,.134114601
69275,49820,.157809403
95128,49820,.232046487
65008,49820,.155496414
78311,49820,.219402750
69024,49820,.177424341
36143,49820,.115402571
