iters,price,time
78060,93261,.132723916
86343,93261,.173558956
82327,93261,.161938256
67518,93261,.182697734
62498,93261,.103414023
34637,93261,.096557225
105168,93261,.171979791
45681,93261,.111100773
59486,93261,.114789177
46434,93261,.085715200
