iters,price,time
25350,78880,.077657906
23844,78880,.072840021
4768,78880,.021700478
30370,78880,.088516183
5772,77836,.021806905
14055,78880,.043243959
48944,78880,.134879315
27358,78880,.057951229
33382,78880,.054951395
40661,78880,.111928995
