iters,price,time
48442,38199,.118142011
86845,38199,.238962140
65008,38199,.101639557
69777,38199,.128389013
77056,38199,.212523444
110439,38199,.204438899
83833,38199,.179633727
40661,38199,.124641970
73793,38199,.212833573
99646,38199,.247737788
