iters,price,time
58733,132924,.171685267
106674,132924,.254553406
65510,132924,.172746177
66012,132924,.199279125
96132,132924,.207755238
82076,132924,.228158424
107929,132924,.197686982
104917,132924,.261673882
43924,132924,.147150433
78060,132924,.256255723
