iters,price,time
91614,25597,.231302889
68020,25597,.203145039
96383,25597,.247247505
11796,25597,.042211334
42920,25597,.129632337
15561,25597,.052373684
51956,25597,.131985974
5019,25597,.016784959
55470,25597,.168505630
107678,25597,.272448579
