iters,price,time
76303,39820,.203910163
752,38051,.010874373
57980,39820,.155989247
57729,39820,.173309114
58482,39820,.176671997
70279,39820,.179092983
54717,39820,.153388762
27358,39820,.070586325
35892,39820,.110423953
52207,39820,.164600074
