iters,price,time
74797,30428,.213316827
57729,30428,.167431971
94124,30428,.222061405
63251,30428,.169791375
83582,30428,.200331341
19577,30428,.068074969
76303,30428,.174074487
70781,30428,.159844166
57729,30428,.145025183
74797,30428,.180597586
