iters,price,time
62247,98155,.173273025
78311,98155,.169806213
66012,98155,.143544635
52960,98155,.146566005
71283,98155,.191141246
74546,98155,.120626815
84586,98155,.151590927
74044,98155,.153220460
62247,98155,.163328451
57980,98155,.163113766
