iters,price,time
21585,81702,.091572735
52709,81702,.112618029
25099,81702,.073294705
35892,81702,.101405430
35390,81702,.130875309
97889,81702,.249974357
52709,81702,.145826726
7027,81702,.027667947
49446,81702,.092949510
47940,81702,.135092598
