iters,price,time
70028,32075,.128286858
47940,32075,.143777135
40159,32075,.125779527
71283,32075,.200100660
65510,32075,.177688611
46936,32075,.147151230
97638,32075,.290383853
19326,32075,.065935276
88351,32075,.187505081
58733,32075,.183223765
