iters,price,time
72789,44706,.213137639
55721,44706,.164907497
114957,44706,.183175618
75048,44706,.150086630
84335,44706,.204717071
87096,44706,.190233239
77056,44706,.150913246
109435,44706,.227142360
87849,44706,.185737469
40410,44706,.104992712
