iters,price,time
7278,36402,.032706812
44426,36402,.084979273
31123,36402,.088577976
67769,36402,.126130783
24597,36402,.071399455
26354,36402,.077431443
34888,36402,.096903999
40912,36402,.111645083
50450,36402,.081343628
39657,36402,.103625907
