iters,price,time
29366,29945,.107392272
72789,29945,.149203841
59737,29945,.158424981
53462,29945,.164546967
111443,29945,.228290822
76805,29945,.248496675
57980,29945,.129427175
94626,29945,.272492718
17569,29945,.057047890
9537,29880,.033337027
