iters,price,time
83582,20393,.141279913
82829,20393,.195345333
2007,19167,.014455367
24095,20393,.070513405
50450,20393,.137757926
13051,20393,.052743140
46183,20393,.126878974
55721,20393,.149797893
76303,20393,.123214840
37900,20393,.125251331
