iters,price,time
30872,98495,.095829439
46183,98495,.130456038
62498,98495,.179718921
46183,98495,.122275429
85841,98495,.206704343
63502,98495,.164563123
66514,98495,.188260160
30119,98495,.092343900
51203,98495,.122166971
45430,98495,.123813912
