iters,price,time
94626,27295,.174227516
95128,27295,.181552759
86594,27295,.217137116
73542,27295,.228189077
96132,27295,.191515683
63502,27295,.154615719
114706,27295,.213713777
98391,27295,.227565309
95881,27295,.201454726
77809,27295,.198495209
