iters,price,time
61996,30319,.147543880
23342,30319,.077129145
98642,30319,.226600904
55219,30319,.171739055
83331,30319,.184790202
51203,30319,.136382400
77056,30319,.184323148
58984,30319,.160973089
87096,30319,.160155808
76303,30319,.161055383
