iters,price,time
24597,81111,.066942378
63753,81111,.141986364
53964,81111,.100061318
29115,81111,.085174075
73291,81111,.185356104
58733,81111,.150844269
35390,81111,.073190982
46434,81111,.074704182
84084,81111,.172607938
27860,81111,.077381247
