iters,price,time
119475,109585,.274055593
75550,109585,.182809448
110690,109585,.266806310
62247,109585,.225417080
73291,109585,.215640037
92367,109585,.270446614
54466,109585,.182538305
75299,109585,.230653667
76303,109585,.152893259
96383,109585,.230620449
