iters,price,time
63251,34373,.168478684
55219,34373,.136413329
26856,34373,.085832539
79064,34373,.220193267
75550,34373,.155779896
15059,34373,.052689493
61996,34373,.116239757
79315,34373,.187051498
31876,34373,.085525923
71032,34373,.207451317
