iters,price,time
105168,30174,.194311120
98893,30174,.165586165
94626,30174,.229123305
72287,30174,.179108909
90861,30174,.237150811
89104,30174,.205668988
44426,30174,.114262710
83080,30174,.228041926
105670,30174,.183508770
115710,30174,.226134502
