iters,price,time
51203,24620,.116182694
33884,24620,.068691694
34888,24620,.105002926
48944,24620,.148428233
51203,24620,.095436171
70279,24620,.167378819
52709,24620,.136546298
2509,23689,.015269394
61996,24620,.217854748
7278,23709,.034709332
