iters,price,time
25601,26523,.103336559
27860,26523,.102494158
74295,26523,.233942633
81072,26523,.217541178
76805,26523,.177338852
63000,26523,.198469439
48693,26523,.190049568
56725,26523,.159158309
62247,26523,.187287829
52458,26523,.149254453
