iters,price,time
41414,119717,.150210768
57980,119717,.205403434
82076,119717,.208796369
51705,119717,.181794286
43673,119717,.151239666
84084,119717,.220548321
64506,119717,.183175162
75299,119717,.213422309
91112,119717,.187066566
102909,119717,.235171699
