iters,price,time
89355,33425,.159221564
63502,33425,.123986016
58984,33425,.163602877
91112,33425,.197056241
10039,33425,.035426650
45430,33425,.078196006
83080,33425,.179717830
71032,33425,.202639481
84335,33425,.225120337
100901,33425,.163003565
