iters,price,time
65259,21527,.207363123
82327,21527,.230829408
4768,21307,.020986957
101654,21527,.239524321
75801,21527,.174692620
66263,21527,.183402302
90610,21527,.148999135
11545,21527,.039828625
3764,21279,.016880371
84586,21527,.162049259
