iters,price,time
97638,35715,.234063138
102658,35715,.209926432
106423,35715,.229186350
117969,35715,.194499525
135037,35715,.327367983
93622,35715,.184883580
127758,35715,.250516439
105670,35715,.214544004
92116,35715,.199242774
119977,35715,.253530269
