iters,price,time
65510,126497,.199072458
68773,126497,.169938611
104415,126497,.186895044
116714,126497,.194569615
107929,126497,.302057715
86594,126497,.235203375
112447,126497,.252696309
104164,126497,.192656044
121232,126497,.235691961
105670,126497,.250651697
