iters,price,time
58984,28913,.161520783
89104,28913,.226449243
27107,28913,.090575217
94626,28913,.192022568
27609,28913,.087380020
59235,28913,.176376562
76805,28913,.184072103
98642,28913,.231613344
101905,28913,.174638062
18824,28913,.043046516
