iters,price,time
49446,36459,.157328548
15561,36459,.051135922
14306,36459,.050550371
61243,36459,.163776469
80319,36459,.170023293
56976,36459,.151907974
22840,36459,.071615397
46434,36459,.144667013
87347,36459,.157436571
61996,36459,.158664810
