iters,price,time
46183,48732,.121408159
91363,48732,.206859925
70530,48732,.143292298
88351,48732,.239009652
45179,48732,.154861845
61243,48732,.116100301
98391,48732,.184517636
69526,48732,.175286822
100399,48732,.180516938
93120,48732,.174623433
