iters,price,time
18071,101084,.074344333
15812,101084,.056566894
32378,101084,.106647724
41163,101084,.123426261
41163,101084,.080122506
17569,101084,.062382952
24346,101084,.079207546
6525,101084,.027622445
72287,101084,.199526201
74044,101084,.195381683
