iters,price,time
85590,45552,.231938685
43924,45552,.108438314
52207,45552,.156435635
61243,45552,.168231130
28613,45552,.089656599
45179,45552,.085671421
11294,45552,.043050640
33382,45552,.106076666
74797,45552,.180708970
75299,45552,.195255582
