iters,price,time
69024,105938,.174476182
45681,105938,.129061736
35390,105938,.107490240
30370,105938,.095102253
7278,105938,.031331005
20581,105938,.064928216
74295,105938,.215565528
54968,105938,.151888883
51203,105938,.123501139
55721,105938,.161153500
