iters,price,time
69275,35449,.222352878
49948,35449,.159625794
45179,35449,.137239399
88100,35449,.157062489
97638,35449,.150888269
65761,35449,.153749593
67769,35449,.194996281
13804,34557,.047146410
78311,35449,.202417357
71534,35449,.194184612
