iters,price,time
97889,37652,.202652533
81825,37652,.205570569
92869,37652,.208656978
49948,37652,.163846377
84586,37652,.237323576
78311,37652,.199159239
90861,37652,.174643687
40661,37652,.133606364
92618,37652,.184207913
102407,37652,.245391900
