iters,price,time
10792,21174,.052738922
27107,21174,.077307697
16816,21174,.048893292
33884,21174,.092107328
54717,21174,.113034049
47438,21174,.107478377
3262,20633,.015915061
35139,21174,.099537817
27609,21174,.079356000
26354,21174,.077682444
