iters,price,time
49697,57131,.154797121
52458,57131,.158700213
50450,57131,.146306373
73040,57131,.181082204
77307,57131,.192966929
89355,57131,.207172658
84586,57131,.207269734
89355,57131,.152940088
99646,57131,.206398778
91112,57131,.184516072
