iters,price,time
63000,19371,.180767437
59235,19371,.102790644
37649,19371,.114864398
29115,19371,.083788780
31876,19371,.094499499
21585,19371,.067056582
63753,19371,.176700262
51454,19371,.151854627
36645,19371,.107668857
54717,19371,.156046225
