iters,price,time
71283,108216,.149277191
15812,108216,.049302594
98391,108216,.195774028
64757,108216,.151340849
61243,108216,.173438432
39908,108216,.094965395
34888,108216,.104269369
22840,108216,.072606444
15059,108216,.047386283
48693,108216,.143779045
