iters,price,time
27609,42087,.092129275
72789,42087,.223007309
83331,42087,.232228479
62498,42087,.171103460
76805,42087,.218400933
97889,42087,.232487080
93371,42087,.154363447
45932,42087,.114230885
87598,42087,.212541769
94626,42087,.242004020
