iters,price,time
27609,41384,.098614250
74797,41384,.215055884
11796,41384,.040756090
74044,41384,.226431496
99646,41384,.260590646
30872,41384,.096040136
26354,41384,.081935249
70781,41384,.114544124
63502,41384,.163602566
52709,41384,.120490044
