iters,price,time
123491,51115,.268626908
114957,51115,.279819314
84084,51115,.192871847
104164,51115,.238254326
92869,51115,.227957789
109686,51115,.172844109
81825,51115,.235239289
106172,51115,.206755912
88853,51115,.257088401
17067,51115,.048991238
