iters,price,time
38904,44507,.147203340
81072,44507,.246399984
48944,44507,.141178509
87347,44507,.234096728
63502,44507,.179311316
72036,44507,.218853619
76805,44507,.205233214
116463,44507,.251844559
74044,44507,.126811500
82076,44507,.141388316
