iters,price,time
40159,25684,.138364130
35390,25684,.101820328
54717,25684,.176557002
39155,25684,.153620099
29617,25684,.107175348
35139,25684,.070087550
65008,25684,.152521443
38151,25684,.097973129
37900,25684,.126708874
61996,25684,.185502829
