iters,price,time
67016,19212,.177761491
54717,19212,.147276505
101905,19212,.223775405
80068,19212,.187651115
69526,19212,.123617541
41414,19212,.119636215
72789,19212,.175119437
66765,19212,.180357037
33633,19212,.076303201
56976,19212,.150291833
