iters,price,time
5019,79823,.035521161
6023,79568,.020971072
8031,79823,.030342194
26103,79823,.077173549
25601,79823,.075744947
1756,78634,.013409301
13302,79823,.043706179
58733,79823,.092229972
1756,79823,.013005830
5521,79568,.021663668
