iters,price,time
85088,28830,.254511932
85841,28830,.244411910
99897,28830,.249321698
64757,28830,.178092570
41414,28830,.130489592
56223,28830,.166223760
107929,28830,.240601221
47940,28830,.143301079
77307,28830,.217106847
52458,28830,.153474832
