iters,price,time
35641,31753,.113975936
83080,31753,.165973431
74295,31753,.203252213
78562,31753,.161145300
83833,31753,.153651780
57980,31753,.179933236
75299,31753,.143860840
95128,31753,.241001212
79817,31753,.206701883
42167,31753,.098999923
