iters,price,time
47438,18807,.129343424
7529,17131,.028997726
77558,18807,.167570605
64255,18807,.132630573
49446,18807,.133975340
2258,17080,.012512220
34386,18807,.097829731
89606,18807,.200200015
13302,18807,.043907293
12298,18807,.024697285
