iters,price,time
21083,75506,.049713765
26856,75506,.078833736
2007,70537,.013090683
33131,75506,.069062584
501,58576,.009065122
36645,75506,.110327146
9035,75506,.032198149
49697,75506,.083364338
6023,75506,.023862824
35892,75506,.104372461
