iters,price,time
4768,97220,.035397294
49446,97220,.104239942
34135,97220,.101351662
45681,97220,.143834365
39406,97220,.081156339
25099,97220,.078021016
59988,97220,.113648841
13804,97220,.046977602
64255,97220,.178217263
47940,97220,.118061026
