iters,price,time
32880,17485,.091864294
37398,17485,.073460948
8282,17485,.029962066
50701,17485,.100427544
21836,17485,.065246499
32127,17485,.061376541
60239,17485,.139877947
29617,17485,.099757828
17820,17485,.049682660
24597,17485,.071937745
