iters,price,time
59737,20031,.161895616
28362,20031,.086973823
36896,20031,.085988132
27358,19195,.080563390
17067,20031,.054858193
51956,20031,.168749436
83582,20031,.194676464
33884,20031,.102861069
31625,20031,.093207953
32880,20031,.097115259
