iters,price,time
11545,17641,.046430990
12047,15746,.039206050
8031,17641,.030545828
40159,17641,.089064968
13804,17641,.043609283
2007,15746,.011856375
57729,17641,.169794210
7027,17641,.025671869
15059,17641,.046852356
9286,16256,.031302891
