iters,price,time
70028,88401,.201504952
66263,88401,.172576092
5019,88401,.021989269
14557,88401,.031684236
16314,88401,.058224997
54466,88401,.162544651
57729,88401,.156883488
38653,88401,.124815176
22087,88401,.075414620
52207,88401,.164514555
