iters,price,time
30621,55622,.059620587
29868,55622,.079798842
75550,55622,.212466820
12549,55622,.042720397
75048,55622,.156395303
7027,52313,.027795632
37147,55622,.097799286
12549,55622,.043169141
25099,55622,.077719635
22338,55622,.069247163
