iters,price,time
36896,56914,.101563297
60992,56914,.182095542
74295,56914,.228557577
22840,56914,.074594211
38653,56914,.100826538
59486,56914,.180058339
73291,56914,.158347768
91614,56914,.154544628
63000,56914,.146302886
42669,56914,.108550559
