iters,price,time
1254,84983,.027793172
752,84983,.008524903
1254,76615,.009783731
2007,84983,.012334395
3513,84983,.012019522
1505,84983,.011277704
501,30570,.007481732
1756,77876,.011526009
5772,84983,.022830664
4768,84983,.020688797
