iters,price,time
6525,54327,.042324320
26856,54327,.079896083
19326,54327,.058172461
19326,54327,.068471042
25099,54327,.068457491
11294,54327,.026435675
4266,54327,.018584902
3011,54327,.015691357
8784,54327,.030994561
10039,54327,.033106291
