iters,price,time
81072,67764,.203811534
11545,66260,.042046153
36645,67764,.099826064
3262,67764,.015823144
40661,67764,.117941683
31123,67764,.094348861
71283,67764,.141686942
75048,67764,.205419836
32629,67764,.098294088
46183,67764,.134853059
