iters,price,time
12800,65132,.057999862
1003,60945,.009742643
21334,65132,.071466513
3011,65132,.015640776
14055,65132,.047320383
2509,65132,.013766960
1505,44996,.010252883
15561,65132,.050563011
10290,65132,.035247332
2258,65132,.012873807
