iters,price,time
30872,17353,.111681889
9286,16443,.034023967
10541,17353,.036282212
49697,17353,.140077399
14306,17353,.049099761
26605,17353,.084754253
14055,17353,.047867604
28613,17024,.086892627
38151,17353,.113837087
48693,17353,.111912635
