iters,price,time
26856,57741,.083859675
27609,60382,.080074750
32127,60382,.098269666
27358,60382,.068096155
41916,60382,.116199345
84335,60382,.213040358
44928,60382,.086137557
18322,60382,.055649490
36143,60382,.086256555
40661,60382,.114274222
