iters,price,time
3262,16423,.031664433
4768,16423,.020465526
7278,15361,.024558520
4266,16423,.019892694
8282,16423,.028443652
16314,16423,.035393441
34386,16423,.092977418
20079,15361,.062133484
17820,16423,.054618884
501,13929,.007901115
