iters,price,time
33884,48466,.106074998
1003,45438,.009780014
36143,48466,.065608727
24597,48466,.068509882
3011,48466,.017353461
13051,48466,.040490256
7027,48466,.032308525
39406,48466,.117011243
8282,47870,.029284701
23091,48466,.068336585
