iters,price,time
7780,62860,.042204149
43422,62860,.081754428
45681,60125,.095870892
40912,62860,.117332653
33382,62860,.090079744
44928,62860,.127625332
63251,62860,.174583466
51454,62860,.145486967
53713,62860,.110019638
46434,62860,.099919187
