iters,price,time
40159,18737,.106423263
8784,18737,.032946109
66012,18737,.199200499
67016,18737,.180620636
6274,18083,.024868502
50952,18737,.095182155
45932,18737,.132371953
10541,18737,.039409839
66765,18737,.160895578
24597,18737,.060636832
