iters,price,time
89104,17720,.223559802
63000,17720,.112035575
44928,17720,.128708199
84335,17720,.143286242
81072,17720,.142960348
67518,17720,.188039428
60992,17720,.135303355
41414,17720,.117989349
90861,17720,.165718183
77056,17720,.130871387
