iters,price,time
21334,66138,.079455486
32629,66138,.095698993
45932,69906,.097519241
74044,69906,.186861424
53462,69906,.151671072
26856,69906,.079799213
47187,66138,.121231703
49697,69906,.134713613
42669,66138,.121224833
19577,66138,.057540939
