iters,price,time
33633,72877,.098706171
15561,72877,.045860514
23593,68302,.036702481
18322,72877,.052678517
5772,72877,.023193287
19828,72877,.059906032
2258,62585,.012083159
19828,72877,.061787557
5270,72877,.020737584
9537,72877,.023995122
