iters,price,time
9035,93141,.050388682
10290,93141,.038815323
69024,93141,.205286345
2509,89447,.013574483
3513,93141,.016371003
19577,93141,.038854868
19075,93141,.063215454
59235,93141,.185182041
18322,93141,.060607705
64506,93141,.162420470
