iters,price,time
38904,17525,.086427077
37649,17525,.110939323
30872,17525,.071234097
64255,17525,.158119862
4517,17525,.022835308
14808,15754,.068961943
10541,17525,.043068574
58482,17525,.157195033
54717,17525,.160695855
2007,16557,.013649792
