iters,price,time
42920,61335,.133084215
31374,61335,.099550992
26354,61335,.079849795
2760,53611,.015494325
11796,61335,.036545735
1003,57885,.011553446
22087,61335,.069715543
13553,57885,.047638234
8282,61335,.029308787
11796,61335,.025405500
