iters,price,time
21334,78484,.074038408
3513,78484,.016379253
18071,78484,.058078462
6525,78484,.026125783
1254,78484,.010369146
24848,78484,.052163116
5019,78484,.019817110
9788,74701,.032942718
4768,74701,.020150202
42920,78484,.113107450
