iters,price,time
501,48348,.024036145
29617,46661,.086859919
35892,46661,.104321893
501,39058,.009395023
32880,46661,.098928156
36143,46661,.104307791
8282,46661,.034554567
53211,46661,.119910379
40159,46661,.128756371
18824,46661,.068166901
