iters,price,time
10290,17885,.053747832
10290,17885,.039166610
1254,12966,.011760147
3262,12966,.016642132
752,15230,.008842135
501,17885,.009352807
4517,17885,.020876141
501,17885,.008684082
2258,12713,.013585884
4015,12966,.014759479
