iters,price,time
16063,64657,.063701288
27358,64657,.075334508
9286,62489,.032455392
5772,64657,.023740826
10541,64657,.035096633
6023,59625,.026831126
3764,62208,.019113033
1003,62489,.011487705
56976,64657,.169625363
3262,62489,.016115860
