iters,price,time
3262,14683,.031770600
15561,14798,.046695902
25601,14798,.077266968
7529,15435,.027544316
16063,15435,.052316554
4517,14798,.032783845
24848,14798,.115278719
14808,15435,.069838384
47689,15435,.110243667
38151,15435,.120170516
