iters,price,time
52207,14470,.165316013
63753,14470,.144510152
15059,14470,.047095452
21083,13970,.061030193
11043,14470,.036872260
39908,14470,.115777728
21585,14470,.063818166
51454,14470,.150058992
8282,14470,.029554006
59737,14470,.176609182
