iters,price,time
17067,93336,.062190964
16565,93336,.055213342
22589,93336,.069995513
3764,93336,.019333880
5019,93336,.023552199
3764,78807,.018641706
18322,93336,.058808754
2509,83918,.013858996
43673,93336,.137386545
16063,93336,.051227572
