iters,price,time
14306,59074,.080957384
5521,54446,.046510101
23593,59074,.092850820
6776,59074,.037866778
22338,59074,.090563775
13051,59074,.053986238
9286,59074,.040958262
19326,59074,.067040892
6776,59074,.026383545
16314,59074,.056000462
