iters,price,time
15561,15983,.056352151
4517,14726,.014940209
10039,15983,.037130955
2760,15695,.014925562
18824,15983,.064074878
33382,15983,.102934836
17067,15983,.056752490
30370,15983,.096142798
29115,15983,.090743504
43422,15983,.081670848
