iters,price,time
9537,15076,.041172846
2007,14427,.012864300
18824,15076,.036307605
2258,15076,.014078867
17820,15076,.057039359
8784,14754,.032591271
2007,14754,.013356621
7780,15076,.020059207
3513,15076,.016825070
14306,15076,.045260476
