iters,price,time
18573,68722,.060939264
27358,68722,.083479929
41163,68722,.097896773
10290,68722,.036168755
36394,68722,.103426020
24095,68722,.069901319
64757,68722,.173619838
27107,68722,.077337083
4768,68722,.020697704
33131,68722,.085354093
