iters,price,time
3011,56250,.032569174
12047,59991,.038393865
14808,59991,.046069795
7278,59632,.019410321
50952,59991,.140783734
14808,59991,.048279772
501,57676,.008995888
32378,59991,.061632135
3011,57232,.014993232
9788,59991,.035313815
