iters,price,time
71283,18480,.125205848
43673,18480,.127345287
12549,17661,.038482140
56976,18480,.144526819
13804,18480,.043723030
44677,18480,.128201354
27609,18480,.080962393
27860,18480,.078367228
27860,18480,.047642608
2007,16125,.012365119
