iters,price,time
22589,12842,.049321400
11796,12842,.039417835
22589,12842,.068811909
3764,12842,.017021436
39406,12842,.097498676
2007,12155,.014184895
1254,12842,.011327594
5521,12842,.021412707
501,11943,.008528019
3513,12155,.018254791
