iters,price,time
8784,13757,.055475077
4768,13757,.019654027
14557,13757,.047107374
29617,13757,.087427661
57478,13757,.167294539
34637,13757,.102717660
10039,13757,.036205355
49195,13757,.089511672
18573,13757,.063641062
11796,13757,.041319333
