iters,price,time
6274,60539,.028689597
14055,60539,.043474215
63502,60539,.175001421
48693,60539,.121367521
40410,60539,.079676057
15059,60539,.046053819
26103,60539,.075511275
9035,60539,.029633719
68522,60539,.175692643
34135,60539,.095219216
