iters,price,time
1003,20269,.014837369
3262,20998,.016047854
14306,20998,.049510120
7529,20998,.029287886
5019,20269,.019300306
1756,20998,.011995362
4768,20998,.021695683
1003,20998,.009676785
2007,20998,.011720696
2509,20998,.014095700
