iters,price,time
70028,15479,.133765608
47689,15479,.130115797
50701,15479,.114600141
66263,15479,.171818728
56976,15479,.161092734
37900,15479,.112301965
70530,15479,.168785054
17067,15479,.051575713
15310,15479,.048044718
48944,15479,.118278387
