iters,price,time
6023,93687,.037113252
13302,99261,.026423382
38904,99261,.116807188
4266,93025,.018768603
1756,79963,.010962767
8282,99261,.032363325
18071,99261,.035486244
34637,99261,.114153046
36896,99261,.115065842
11294,99261,.039118342
