iters,price,time
5270,92405,.027306447
4015,76159,.018224547
19075,106621,.064442466
1003,100126,.009574405
9035,106621,.030303724
10290,106621,.033018423
1254,92405,.010234458
26605,106621,.081388162
752,106621,.007988573
25099,106621,.062256624
