iters,price,time
7529,52995,.031188944
4266,52834,.017992884
49446,52995,.140878164
4768,52995,.015868410
6023,52995,.022895417
32127,52995,.063460894
4768,52834,.018706805
26103,52995,.079013721
47187,52995,.131283941
37398,52995,.108733724
