iters,price,time
2258,54147,.018738331
12298,55966,.039898450
51454,55966,.085119430
14055,55966,.044372252
11796,55966,.038459331
41916,55966,.076676319
24095,55966,.071507607
9788,55966,.033996268
752,54147,.008529747
3262,55966,.015616814
