iters,price,time
1756,16583,.028636321
31123,16583,.090779012
6274,15260,.023892200
6776,16583,.026361309
2007,16583,.012777944
8031,16583,.028677323
40661,16583,.117946498
12549,16583,.041088701
5772,16583,.023984255
23342,16583,.070234827
