iters,price,time
20832,63427,.064459063
3262,59562,.017001773
26354,63427,.074945584
50701,63427,.094973380
28111,63427,.080216311
58482,63427,.151291816
51956,63427,.137773020
8784,63427,.030662351
66514,63427,.125897207
71785,63427,.152981592
