iters,price,time
45932,86015,.134120818
32378,86015,.094814767
61494,86015,.090810522
47187,86015,.140068025
7780,78325,.026997315
22589,86015,.065917267
45681,86015,.130692680
18573,86015,.055761850
14055,86015,.044951451
55219,86015,.118509088
