iters,price,time
752,43199,.014042828
752,60507,.009153590
5772,60507,.023173816
1003,58755,.010913788
501,60507,.009183869
8031,60507,.030614610
7278,58755,.027668799
1003,58755,.009907733
501,60507,.008063816
3513,60507,.016699620
