iters,price,time
4768,17104,.034613645
13051,17104,.044544878
3262,14835,.016242035
39155,17104,.116213928
5019,15389,.021762045
2760,17104,.015036905
43924,17104,.099058055
27107,17104,.080625408
34637,17104,.068312340
25601,17104,.079111352
