iters,price,time
30872,75549,.098193435
38653,75549,.100734822
53462,75549,.162474022
5772,75549,.024486432
20832,75549,.038729153
66263,75549,.163301004
50450,75549,.165427487
60992,75549,.158756395
9788,75549,.035670225
25601,75549,.081545278
