iters,price,time
13804,21026,.047826250
752,21026,.009572902
22840,15863,.068940952
10039,15863,.021522227
9286,21026,.031913479
3513,18368,.016818504
2760,21026,.015326164
11796,21026,.042884761
31374,15863,.083991393
501,21026,.008630415
