iters,price,time
4266,16462,.029534167
12549,17183,.045498658
15059,17183,.047278165
15561,16462,.037898418
22087,17183,.076354934
22589,17183,.071362154
13051,17183,.042094400
16314,16462,.035025833
17318,17183,.056210033
501,14655,.009253351
