iters,price,time
21083,58017,.075492310
15059,58017,.045927217
36645,58017,.110689846
58733,58017,.160823900
49697,58017,.132640857
7780,58017,.027507871
48944,58017,.135068961
12298,58017,.038861356
32629,58017,.074188530
9537,58017,.033516161
