iters,price,time
73040,75469,.168152729
49697,75469,.146690749
33633,75469,.069260793
14055,74024,.044767243
7027,75469,.025609269
17569,75469,.055961151
10039,74024,.033774720
6776,75469,.026579977
17318,75469,.047508948
21585,75469,.064660358
