iters,price,time
6274,50943,.028663687
18071,52887,.054679279
3011,50943,.015310874
2760,46367,.014954737
4015,50212,.019193657
24346,52887,.070872040
13051,50943,.042393808
8533,50943,.029401289
30119,52887,.059776701
15059,52887,.063388029
