iters,price,time
15310,87608,.056219892
2509,87608,.013345310
3262,80326,.015823195
1254,87608,.010088119
10792,87608,.039457530
1756,82321,.011158706
15059,87608,.049398062
501,82321,.008056907
10290,87608,.038904232
501,56278,.007929539
