iters,price,time
51454,51064,.101831921
59486,51064,.093581944
79315,51064,.170958798
25601,51064,.053080631
30370,51064,.073232912
35139,51064,.103631328
18573,51064,.058948492
1003,46087,.010097491
88853,51064,.226477548
36645,51064,.104522021
