iters,price,time
1003,59173,.016716142
3764,50420,.017743147
24848,59173,.077131876
8282,52084,.033213246
2258,59173,.015916447
4517,59173,.022198520
10541,59173,.037297058
12047,54397,.043730199
2509,59173,.014825560
11294,52084,.059954841
