iters,price,time
22840,14717,.074286808
22087,14717,.055378241
19075,14717,.061430028
23091,14717,.069138925
26605,14717,.080865017
51203,14717,.102452563
39908,14717,.104013819
41163,14717,.181056354
19828,14717,.089555050
9537,14717,.040216744
