iters,price,time
4768,15601,.036775335
37398,15601,.106604536
16816,15601,.053160940
31123,15601,.077612490
33633,15601,.055454683
72287,15601,.133515240
16063,15601,.051505714
3262,14154,.015555267
11294,15601,.033396036
31374,15601,.092061611
