iters,price,time
29366,55634,.105646143
22338,55634,.062604084
67016,55634,.194853558
43673,55367,.126662425
47940,55634,.123416256
33884,55367,.107170483
20832,55634,.070371829
6023,55634,.025251506
26354,55634,.080825652
9788,52537,.035388767
