iters,price,time
20832,54006,.083730874
2007,53411,.013607361
15561,54006,.054319225
7780,54006,.031095720
1756,50132,.012874803
2007,49698,.012895202
11545,54006,.026972317
4517,54006,.021140566
752,54006,.009558545
12800,54006,.045892296
