iters,price,time
70530,88458,.214842821
17569,88458,.059907541
72036,88458,.189891967
56725,88458,.172914454
65259,88458,.204601124
50199,88458,.106621642
57729,88458,.179693983
48944,88458,.122576724
52960,88458,.109239692
27358,88458,.089908266
