iters,price,time
2258,13177,.027315799
3262,13431,.016429474
752,13177,.008897826
13051,13431,.046861815
23844,13431,.068256978
12800,13431,.043365025
35139,13431,.107167172
6525,13431,.025120856
17067,13431,.056388274
20581,13177,.079207176
