iters,price,time
752,67328,.024593912
1003,96148,.009100168
2007,83985,.014031026
3262,88368,.014930357
13804,96148,.044688453
752,62560,.009068558
19326,96148,.059318089
25852,96148,.052533074
22840,96148,.070952003
46183,96148,.118842066
