iters,price,time
46183,50668,.086448357
32880,50668,.062625701
2760,46530,.015621839
14808,50668,.046180457
15059,50668,.048013803
28864,50668,.082171265
2258,50668,.013326453
22589,49522,.068750107
17569,50668,.054860806
31123,50668,.091458968
