iters,price,time
17569,17806,.064841489
1756,17806,.012889643
18573,16634,.058147604
8533,17440,.029621329
11545,17806,.040193188
20581,17440,.036899137
5019,16468,.023223040
10290,16634,.022675682
1756,17806,.012558654
10541,17440,.036933146
