iters,price,time
76805,52170,.132549948
17318,52170,.055626060
1003,52170,.010395621
7027,52170,.026418743
24095,52170,.071724231
8282,51144,.029644579
34135,52170,.098100808
49948,52170,.130456469
5270,52170,.020658073
27358,52170,.062442345
