iters,price,time
36394,53267,.119633615
8784,53267,.030445732
19075,50116,.057270932
21334,53267,.065674377
18824,53267,.056193246
22087,53267,.067920855
44426,53267,.122231239
10039,53267,.033577267
19326,50116,.036244369
24848,53267,.069618839
