iters,price,time
15059,15437,.064946570
17569,16211,.035862694
51454,16211,.108070060
24848,16211,.045364927
27860,16211,.085530436
18322,16211,.061204076
23593,15437,.073031708
33884,15437,.100791881
16816,15437,.053736446
26354,16211,.074512510
