iters,price,time
60239,17690,.166759691
63251,17690,.177734630
13804,17690,.052613072
38151,17690,.107312314
21083,17690,.065323592
30370,15987,.069970320
18322,15987,.055758077
1254,17690,.010613258
20832,15987,.061463962
752,15773,.009818087
