iters,price,time
7780,54261,.042597752
6776,54261,.025305659
19075,54261,.057733051
7278,54261,.021777485
46434,54261,.130711737
50199,54261,.079359838
1505,49867,.010676093
14055,54261,.043590101
16816,54261,.051249553
501,54261,.008878925
