iters,price,time
19326,58666,.081816667
35641,58666,.127081888
15059,58666,.056435288
3262,54705,.019515312
56725,58666,.193981575
66514,58666,.166977181
2760,58666,.017796404
22338,58666,.078699204
36645,58666,.129445981
2007,58666,.015874748
