iters,price,time
17318,16942,.056422374
40159,16942,.107695783
5521,16942,.022462380
27358,16942,.080792629
17318,16942,.051460556
18071,16942,.028629652
26605,16942,.076296486
1756,15066,.011109587
16816,16942,.039897026
16816,16942,.053372960
