iters,price,time
2760,85339,.030983641
1003,77225,.008974117
27609,85339,.061992710
11043,85339,.038982943
5270,85339,.022414870
2509,76808,.013661163
22087,85339,.049266905
18322,79259,.063372804
33633,85339,.108227785
46685,85339,.129442985
