iters,price,time
75299,18216,.185949349
58733,18216,.120161665
17820,18216,.055430413
70279,18216,.151719623
72538,18216,.195139044
49446,18216,.151022284
35139,18216,.080395955
13302,18216,.044328314
46434,18216,.089099784
60239,18216,.109368793
