iters,price,time
25852,53343,.081832102
2007,53343,.012351483
8282,53343,.029077189
26856,53343,.073870387
44928,53343,.102904549
9537,53343,.033688685
81323,53343,.174602212
24346,53343,.078994474
28362,53343,.065918870
3011,53343,.014790674
