iters,price,time
53462,60569,.118931888
70028,60569,.126387760
77307,60569,.170594591
78311,60569,.190354491
37147,60569,.107652806
68020,60569,.143192057
47187,60569,.137131848
75048,60569,.184099822
64004,60569,.181665430
60992,60569,.175784275
