iters,price,time
41916,47508,.132549172
23091,47508,.070173344
56976,47508,.160785121
4768,47508,.020230405
46936,47508,.126636721
47940,47508,.111776258
6274,47508,.024692481
4517,47508,.020495391
18573,47508,.058201583
20079,47508,.064957301
