iters,price,time
30370,60374,.116033217
752,49872,.009102057
1756,60374,.011761544
57478,60374,.158652275
20079,60374,.055985318
27107,60374,.066458087
59235,60374,.129207439
30872,60374,.088233191
26856,60374,.079832517
13804,60232,.031814825
