iters,price,time
2258,74624,.016760863
2258,94304,.012943555
6023,96953,.023199200
42418,96953,.081608985
8282,84683,.030991295
11043,96953,.039950850
9035,96953,.031548847
20330,96953,.068308452
501,96953,.007790658
10039,96953,.036771812
