iters,price,time
1756,13831,.028051937
14808,15241,.029693648
34637,15241,.087197536
14055,15241,.050182878
22087,15241,.065108711
14808,15241,.047502581
34888,15241,.091298751
49446,15241,.135167435
36896,15241,.068946122
3011,15241,.015653223
