iters,price,time
45932,61805,.130130760
10792,61805,.036660881
25350,61805,.060098647
42418,61805,.124337368
12549,61805,.042200372
25099,61805,.071891010
17318,59430,.051569305
47940,61805,.132127334
25350,61805,.070780095
56725,61805,.104307371
