iters,price,time
52709,54816,.124800795
46685,54816,.146637427
34135,54816,.065808039
33382,54816,.098517485
36394,54816,.094153487
43924,54816,.130896610
52458,54816,.145951204
14557,54816,.047145909
44677,54816,.093693346
1003,48318,.009475906
