iters,price,time
15561,82297,.041350006
43422,89036,.144395858
8784,89036,.031334381
16063,87121,.057152029
7780,89036,.029290271
44426,89036,.137296219
4768,87121,.022083404
7027,89036,.019195110
37147,89036,.116484270
14808,89036,.051037172
