iters,price,time
11545,17069,.043646289
57980,17069,.161483507
40159,17069,.112134549
23091,16961,.067774955
54215,17069,.148241926
3262,17069,.016921486
29115,17069,.086643932
28362,16961,.080912738
19828,17069,.063316843
17820,16961,.053633669
