iters,price,time
58984,93933,.179061021
24095,93933,.068059806
58231,93933,.087098978
61494,93933,.106251385
50199,93933,.132178468
17318,91665,.053055794
58984,93933,.165515465
53713,93933,.150724906
38151,93933,.100587976
47689,93933,.135839041
