iters,price,time
9286,55402,.046821583
5019,54136,.031760051
18071,55402,.062546280
6274,55402,.058437709
12800,55435,.063611447
501,47148,.015027733
752,55435,.016121094
18322,55402,.071582278
501,44989,.009037749
6274,55435,.025150522
