iters,price,time
49697,61862,.131478232
50199,61862,.141122592
9286,57817,.032535309
25350,60765,.078558269
4517,61862,.018700303
46936,61862,.133053006
42669,61862,.164200274
19828,61862,.084433158
26354,61862,.078897623
1756,57817,.010573151
