iters,price,time
61745,13758,.196524289
48944,13758,.095699169
10541,13758,.037337204
4768,13758,.021695273
20330,13758,.065243644
43422,13758,.131368613
64255,13758,.144125978
752,12637,.008873195
14557,13758,.048951753
8282,13758,.031087960
