iters,price,time
501,91446,.014140871
752,91506,.008879406
752,91506,.008558266
1254,91506,.009702084
501,91506,.008519698
752,91281,.008316124
3513,91506,.017700726
752,91101,.007916103
501,91446,.007087719
48693,75101,.092182827
