iters,price,time
63251,19342,.176002690
60741,19342,.098854119
43924,19342,.104062643
57980,19342,.163847129
69275,19342,.164070767
39908,19342,.110445609
84837,19342,.155414458
82578,19342,.231128841
61996,19342,.136325676
31876,19342,.096716375
