iters,price,time
63251,89364,.134387043
3764,84113,.017697891
41665,89364,.093840779
14557,89364,.048773973
29617,89364,.092532776
28362,89364,.087879786
71785,89364,.184188525
1756,86432,.011909001
33884,89364,.104342353
9788,89364,.034510823
