iters,price,time
67518,15780,.204009226
49446,15780,.144694526
38653,15780,.104857388
12298,15780,.042397099
22840,15780,.070624170
10290,15780,.035423218
24597,15780,.055355533
33633,15780,.103775489
80068,15780,.208566655
15059,15780,.050500215
