iters,price,time
4266,60371,.026473954
29115,60371,.081234352
20330,60371,.061276945
19326,60371,.057325757
14557,60371,.044602263
16816,60371,.050986881
1003,53257,.009995716
752,55567,.009760291
10039,60371,.035951238
39908,60371,.091172419
