iters,price,time
54717,56484,.170077983
26103,56484,.079011436
53964,56484,.101353415
35641,56484,.106799073
501,48482,.008874291
46183,56484,.131852154
37900,56484,.101780713
24597,56484,.073344671
44677,56484,.129486238
4768,56484,.019838756
