iters,price,time
13553,60508,.048907939
2509,47629,.013211247
1003,47139,.010390872
7278,60508,.026668676
24597,60508,.076652433
12549,60508,.035592507
8282,56695,.027466197
7780,60508,.028069541
11043,60508,.025787114
13553,60508,.042768850
