iters,price,time
25350,81569,.071696087
4768,81569,.024865576
18573,81569,.059367678
15812,81569,.051466459
4517,81569,.019492809
20079,76854,.048249339
43673,81569,.118024222
35390,81569,.105388314
7027,81569,.026511986
5019,81569,.020539355
