iters,price,time
37649,86503,.120108172
18824,86503,.061118879
21334,86503,.054137884
14808,86503,.049493640
38402,86503,.118963423
35390,86503,.113506463
50450,86503,.092291149
6776,82446,.026394772
27860,86503,.085076788
60239,86503,.093706001
