iters,price,time
22087,106319,.074466586
26354,106319,.075023913
10290,106319,.036275454
38653,106319,.116502835
18573,106319,.067964448
75550,106319,.173453399
34888,106319,.105617763
43171,106319,.118127744
23844,106319,.078227887
33382,106319,.060313402
