iters,price,time
30119,50291,.071442703
35139,50291,.105941647
18824,50291,.059739089
8282,47837,.024402876
24346,50291,.079349737
15812,47837,.079271353
20832,50291,.079082542
32378,50291,.119143877
3513,46398,.019859591
14557,49960,.032788152
