iters,price,time
36896,18240,.083050933
27860,18187,.079731673
14306,18240,.043616572
8784,18187,.029280673
38151,18240,.114339032
12047,16819,.034896922
23593,18240,.073549738
24095,18240,.065614794
8533,18240,.029778105
32127,18240,.088046634
