iters,price,time
17569,14854,.069388998
3262,14854,.016763989
25601,14854,.047931862
1254,14222,.013011631
4015,14854,.019751129
1003,13047,.010015174
4266,14854,.018768684
15812,14854,.051581959
2007,14854,.014435499
8282,14854,.028218330
