iters,price,time
27860,54305,.075650406
4517,58920,.019065832
30370,58920,.086115932
17318,58920,.051787662
33131,58920,.081735692
39155,58920,.106766225
8533,54305,.029898359
33131,58920,.094188424
41665,58920,.118839475
20832,58920,.061133060
