iters,price,time
6023,17003,.041912622
16565,14551,.031991514
10290,17003,.036255686
501,17003,.008499078
7027,17003,.025543755
11796,17003,.038216978
16314,14551,.050716218
501,17003,.008624994
752,17003,.009331296
501,17003,.008429255
