iters,price,time
57478,58133,.132156321
11796,55434,.041187376
18071,54808,.054249121
18071,58133,.060178905
29366,58133,.077397519
76052,58133,.213548340
4266,58133,.019687451
45932,58133,.134956703
42167,58133,.129469700
52709,58133,.145316500
