iters,price,time
40410,14453,.125062510
2007,14306,.012213925
2007,14453,.012856479
7027,14306,.020829446
46685,14453,.094031924
9035,14453,.029902707
23844,14453,.067731162
17820,14453,.054305835
3262,14453,.019128005
43422,14453,.109913511
