iters,price,time
60239,69250,.093916824
38151,69250,.087370511
27860,69250,.078988518
28111,69250,.066559130
42920,69250,.122854060
33131,69250,.109213336
10290,69250,.034221670
26856,69250,.077056802
12800,69250,.039259466
9537,66790,.022309452
