iters,price,time
3262,56052,.021523373
3262,51284,.015687750
43673,56052,.105985481
3011,56052,.015044068
24095,56052,.042121227
47438,56052,.133973431
20079,56052,.062980439
3764,56052,.016806861
52207,56052,.146432305
21083,56052,.068760010
