iters,price,time
47187,18035,.098078926
65008,18035,.165158057
48442,18035,.108306506
72036,18035,.175963276
73542,18035,.168016480
6776,17415,.026245677
33382,18035,.080697742
16063,18035,.048925552
41414,18035,.095023215
28362,18035,.065709063
