iters,price,time
22589,94805,.088144752
5019,94805,.032518477
1505,94805,.010917179
56725,97400,.182766511
12298,97400,.048348694
10290,94805,.058593406
26354,94805,.095016238
1254,97400,.012780324
14055,94805,.048163330
17318,94805,.055071916
