iters,price,time
60490,17334,.168870443
59235,17334,.186359017
14808,13485,.050753635
24597,17334,.067142456
5270,17334,.021121269
3764,17334,.020213994
48191,17334,.091733693
29366,17334,.077418063
51454,17334,.140542829
1254,14405,.010450717
