iters,price,time
71785,18595,.182227461
42920,18595,.127380750
4517,18595,.018430211
26354,17347,.052980420
17067,17347,.051469139
14055,17347,.027040758
14306,17347,.042657321
21836,18595,.064637891
13051,17347,.041788761
4517,18595,.015566392
