iters,price,time
3011,16428,.032002811
1003,16428,.010288979
8031,16433,.030309251
18573,16433,.060567549
8533,16433,.031809621
1756,16433,.012958279
5521,16433,.022819779
10290,16433,.036225493
13553,16433,.042746403
18824,16433,.047155111
