iters,price,time
6023,53570,.039359770
5270,53570,.021589129
2007,49564,.012656787
15059,50850,.043012701
75299,53570,.192630430
3262,53570,.015154715
40661,53570,.082928224
14808,53570,.044898054
4015,53570,.019279982
29366,53570,.081450247
