iters,price,time
33633,17580,.102234607
11545,20267,.041329331
2007,16741,.012345372
1756,20267,.012355094
5772,16741,.022938575
27107,20267,.060220273
3513,20267,.016632307
9035,20267,.032089846
14557,20267,.046095440
4768,20267,.020969129
