iters,price,time
26605,86088,.098012410
44677,86088,.090514070
76554,86088,.138812684
39155,86088,.116319110
56223,86088,.172280511
50952,86088,.152979539
53713,86088,.151098300
27358,86088,.084822001
36896,86088,.114653217
45681,86088,.139425887
