iters,price,time
26354,15710,.093383149
22338,15710,.065696044
24095,15710,.077576151
18573,15710,.064030042
6274,15710,.024248006
31374,15710,.087801681
17820,15710,.054669121
27860,15710,.080393510
6274,15710,.024519810
32127,15710,.093824849
