iters,price,time
4768,73339,.030507675
18071,79477,.052955256
33131,79477,.067391949
2007,79477,.013126660
2760,73339,.014327247
26856,79477,.078283523
17067,79477,.053851371
64255,79477,.118067452
41414,79477,.112867596
45430,79477,.114659179
