iters,price,time
44677,71822,.095153345
98140,71822,.171999373
49948,71822,.100620588
64757,71822,.172696306
98391,71822,.207367546
55972,71822,.124533864
86343,71822,.219028810
52709,71822,.138659817
60741,71822,.149336835
81574,71822,.182868005
