iters,price,time
752,51594,.024936478
5521,52671,.022885995
23593,54896,.050681823
23342,54896,.072599776
2007,54896,.013993153
17318,54896,.057121717
6525,54896,.024817510
1756,52671,.011461459
11796,54896,.042895308
752,52671,.008733818
