iters,price,time
29366,61779,.108928697
26103,61779,.080223839
16565,61779,.056510783
36645,61779,.108425924
42418,61779,.133328853
52207,61779,.162042956
23342,61779,.075800383
19828,61779,.067658553
21836,61779,.054361296
50450,61779,.086017463
