iters,price,time
50450,67277,.153164869
27107,67277,.072835537
13804,67277,.035091088
20832,67277,.065620785
9788,67277,.043667414
43673,67277,.143132452
69024,67277,.145677580
15059,67277,.049795942
20581,67277,.059910191
8031,67277,.030333006
