iters,price,time
48693,53084,.097239801
39406,53084,.091810194
48693,52332,.142814709
3011,49058,.015513205
7027,51282,.027428019
58231,53084,.168185737
44677,53084,.094086785
54968,53084,.104870002
54215,53084,.110758782
60992,53084,.178096984
