iters,price,time
23342,106621,.088741539
6525,106621,.027255303
7027,106621,.029259552
3011,106621,.017358882
11545,106621,.039514871
2760,106621,.015239948
18322,106621,.060131073
2007,102399,.012968638
27107,106621,.091498268
16314,106621,.063132189
