iters,price,time
4015,17684,.025479492
5019,18579,.020486936
2509,13847,.014261787
13302,18579,.034546366
18824,17684,.058695763
7278,18579,.028437805
4517,16484,.020506327
3764,18579,.017461293
14055,18579,.047850461
1254,18579,.010312342
