iters,price,time
52709,54036,.181177210
43422,54036,.109467502
47187,54036,.109493001
11545,54036,.042647934
49948,54036,.151940647
51705,54036,.157598420
46434,54036,.144701433
44175,54036,.116557916
17067,54036,.056137124
46936,54036,.149624116
