iters,price,time
1003,61356,.026477966
18071,64382,.063575357
9788,61356,.025768635
45932,64382,.124542430
10792,64382,.041952318
15059,64382,.048894548
3262,63099,.017717643
9788,64382,.035439730
11796,64382,.044034731
7278,64382,.030657427
