iters,price,time
22087,104132,.068177771
4768,104132,.020522649
12298,104132,.041699064
1003,99749,.009922075
12800,104132,.030410294
8533,104132,.031081318
19326,104132,.064424251
17067,104132,.060173961
28864,104132,.089782981
1003,96497,.009149894
