iters,price,time
4015,80628,.032239178
36645,80628,.101413771
26103,82687,.083481898
15310,82687,.047030593
34637,82687,.099922513
10039,82687,.033367421
14808,82687,.048568951
26856,82687,.044995880
1756,80628,.011797609
17569,80628,.052708639
