iters,price,time
65761,16714,.161784699
74295,16714,.147447992
27358,16714,.082631146
36394,16714,.107622087
76303,16714,.219891765
64255,16714,.134647807
50450,16714,.146550672
77307,16714,.210388134
76052,16714,.149782183
76554,16714,.145060460
