iters,price,time
8533,55559,.035092200
27358,55559,.076750265
9035,55559,.023870128
30370,55559,.093889677
19828,55559,.059085233
7278,55559,.027686329
1505,46044,.011831529
23091,55559,.065512017
10290,55559,.055859372
43422,55559,.114302807
