iters,price,time
39155,101009,.113721048
35641,101009,.092785611
43171,101009,.132733734
39155,101009,.097500038
52207,101009,.151075928
16063,101009,.052616884
15059,101009,.050715957
14808,101009,.052528976
15310,101009,.030430817
37147,101009,.073608821
