iters,price,time
55470,66178,.111147847
30119,66178,.088232416
27860,66178,.057290785
57980,66178,.160442757
38653,66178,.112191632
36645,61500,.103164510
30872,61500,.093288152
23593,66178,.069984217
24848,66178,.057856687
33884,66178,.097779980
