iters,price,time
81323,15733,.191614326
45179,15733,.137015571
34386,15733,.059403387
51454,15733,.146157925
24848,15733,.074369923
17067,15733,.054111013
85339,15733,.135241662
59988,15733,.161041802
33382,15733,.066255715
20581,15733,.067355819
