iters,price,time
7780,51723,.032515972
8031,51723,.028479856
3011,51723,.014729551
30872,51723,.058162193
27358,51723,.078952643
23091,51723,.064870520
15310,51723,.049184719
31876,51723,.095870336
19075,51723,.048665285
18071,51723,.033484565
