iters,price,time
59737,53513,.135237575
15310,52857,.052584456
752,53513,.008965736
2007,49549,.012551050
39155,53513,.123421712
42418,53513,.071115677
2509,48678,.014312249
9788,51704,.036198371
24346,53513,.059823700
9035,52857,.033916381
