iters,price,time
2007,82625,.028535973
1505,82625,.010959405
752,94582,.008484691
2007,84645,.011308297
1756,76452,.009999864
5521,84645,.021936548
752,84645,.008246720
10541,94582,.035670857
752,108947,.009729497
4015,94582,.018273016
