iters,price,time
8031,58824,.034370920
5270,58824,.022623368
7780,52419,.027937579
10039,56658,.034854511
1505,58824,.011043395
10039,58824,.035558091
7278,57835,.022693812
5270,57862,.022434120
9537,58824,.024792802
2007,58824,.013730246
