iters,price,time
66765,85103,.197745169
7027,81831,.027721234
11043,81831,.039182921
40661,85103,.099748906
31374,85103,.094910931
24346,85103,.083767794
6525,85103,.027503668
22087,85103,.085337783
18824,81831,.062962825
45681,85103,.151960445
