iters,price,time
47940,18045,.102544373
23593,18045,.069027181
8533,18045,.031691374
1756,17823,.012578091
25099,18045,.044467809
16565,18045,.054292019
6274,17823,.024833791
5019,18045,.023094068
19828,18045,.038713091
4517,16183,.020345891
