iters,price,time
4768,94791,.024646232
34135,100346,.086818110
15812,94791,.051790899
18573,100346,.060768021
22589,100346,.052506608
34637,100346,.075459872
25099,100346,.084071235
17318,100346,.056702049
3011,100346,.015554790
22087,100346,.068188948
