iters,price,time
41916,72713,.096329285
36394,72713,.093079893
9788,68308,.032707684
11043,72713,.037052891
18322,72713,.057388308
15310,72713,.049019994
13553,72713,.042757384
15059,72713,.046181133
48442,72713,.138322406
10792,68308,.034785583
