iters,price,time
29115,59019,.083930721
46434,59019,.121955751
42920,59019,.097475978
4517,59019,.018785381
19075,59019,.054935129
41665,59019,.113511479
10290,58687,.034105963
37649,59019,.089256925
34888,58633,.097184460
36896,59019,.099690679
