iters,price,time
2007,53716,.018725131
37900,55581,.083748307
43673,55581,.125975131
1003,48336,.010108071
11043,55581,.036907984
501,53039,.007800041
19075,55581,.062848111
52960,55581,.158551889
4517,53716,.020072574
2509,53716,.015438734
