iters,price,time
14055,54159,.060101582
7529,56222,.019967151
1254,53251,.011633675
42669,54159,.132411809
3011,54159,.015713083
10039,54159,.036431773
1003,52167,.010876617
4517,53251,.020843047
21083,56222,.067446147
6274,56222,.024564165
