iters,price,time
9788,69769,.048520112
5772,69769,.022908227
14557,69769,.047434089
12549,69769,.041479539
18573,69769,.057634477
38151,69769,.086428955
53713,69769,.165738412
6023,69769,.025282048
11294,69769,.036198411
21836,60499,.050072070
