iters,price,time
7027,88443,.032039676
4768,81540,.014659538
9537,80810,.033272463
29617,88443,.080154278
501,73907,.007663640
36645,88443,.075708248
32127,88443,.099777314
1254,80810,.009863904
501,84566,.008020367
16816,84566,.057258939
