iters,price,time
42167,16808,.087791527
48693,16808,.131096904
26103,16808,.071308035
27860,16808,.078511509
7780,16808,.027925501
30119,16739,.083365170
13051,16808,.041056033
60992,16808,.137622863
69275,16808,.169251653
9788,16808,.032235516
