iters,price,time
22087,64632,.078676536
20832,64632,.070038036
5521,64632,.024295882
7278,64632,.031591273
21334,64632,.069802273
9035,64632,.031523042
56725,64632,.099857294
5019,64323,.024076908
6525,64632,.024657504
4768,64632,.022035803
