iters,price,time
3262,43477,.021369374
15812,43477,.052114107
1254,43041,.009783871
19326,43477,.058468127
34637,43477,.102274527
8031,43123,.029718490
23593,43477,.073183517
33884,43477,.098699032
8784,43477,.031716297
1254,43123,.011358764
