iters,price,time
22840,84839,.083609987
33633,84839,.081537368
29366,84839,.088741054
31876,84839,.098356162
8031,84839,.031591473
49697,84839,.147628758
18322,83408,.055791407
4517,84839,.018649266
45179,84839,.138374610
18322,84839,.060622779
