iters,price,time
17318,47691,.098814453
501,30523,.013998038
1505,47662,.022161990
4768,47691,.030651380
25852,47691,.081333047
16314,47691,.048583684
7027,47691,.029020876
6023,47691,.025524629
23091,47691,.095776561
15561,47691,.060836589
