iters,price,time
20832,92638,.084554960
2509,84929,.012664582
752,92638,.008921572
10039,84929,.037221097
501,79131,.008334469
2007,92638,.012465892
4768,92638,.019785188
5019,84929,.021520458
5521,92638,.022497412
7529,84929,.026443881
