iters,price,time
37147,17583,.135035784
18071,17583,.037217025
4266,17583,.015866617
44175,17583,.076833290
42920,17583,.076094061
56976,17583,.160199035
37398,17583,.096702087
16063,17583,.048728737
54717,17583,.149167291
61243,17583,.159234179
