iters,price,time
51203,16500,.157436390
45681,16500,.163224382
31625,16500,.109454532
55972,16500,.198922176
94375,16500,.269882525
38151,16500,.149364418
67267,16500,.239854042
22840,16500,.103164109
68271,16500,.190241581
63000,16500,.133592853
