iters,price,time
5772,15820,.033965440
9537,15820,.028911131
14306,15820,.044989709
7529,15820,.027030954
27860,15820,.085012686
10039,15820,.036088566
53964,15820,.163396307
37900,15820,.114230003
3764,15820,.019024172
2258,15820,.013856838
