iters,price,time
16565,17569,.072298500
2258,16845,.013947186
501,15875,.009581494
16816,17569,.057382090
3764,17539,.019988622
33633,17569,.103341108
2007,17569,.014504080
10039,17569,.043414826
31374,17569,.100235281
10039,17569,.038755373
