iters,price,time
39406,59020,.112341666
501,53889,.009161376
12800,58224,.044223558
11294,59020,.040832020
2509,54779,.014700015
26856,59020,.085964983
16565,59020,.037459710
5521,59020,.022786775
4266,54485,.019524505
38151,59020,.077448030
