iters,price,time
15310,68193,.060375511
4768,68193,.013499539
28362,68193,.052736453
5019,68193,.020100616
57227,68193,.094282424
2760,64628,.014312224
24346,68193,.071609742
27609,68193,.067153291
27609,68193,.080234490
15059,68193,.045356491
