iters,price,time
3513,73798,.022279038
22840,80798,.069284414
3262,80798,.016172322
36143,80798,.105397652
55219,80798,.157585275
31374,80798,.066384977
48693,80798,.134791561
11545,80798,.037874467
15059,80798,.048824405
31123,80798,.087592371
