iters,price,time
5772,62702,.029697991
84586,62702,.185226787
53964,62702,.160149424
75801,62702,.199447880
49948,62702,.143823048
64255,62702,.121250663
92367,62702,.175353480
43171,62702,.105705045
37147,62702,.081907100
55470,62702,.147657634
