iters,price,time
7780,54883,.044497011
14055,55640,.046732652
501,54883,.008511507
46434,55640,.099283185
14306,55640,.049311050
24095,55640,.075149378
8784,52781,.032625030
10792,55640,.023359060
10541,55640,.035760293
8533,52781,.022774376
