iters,price,time
501,54101,.013096528
27107,55616,.091010059
5521,54101,.024118272
33633,54101,.098660614
28362,54101,.081254607
15812,55616,.057928094
8031,53801,.029421402
38151,55616,.085255210
10541,53801,.036342637
5521,55616,.021475547
