iters,price,time
57729,97029,.106888148
69526,97029,.183952640
61494,97029,.191572220
57980,97029,.150470104
52709,97029,.158316434
87598,97029,.198611432
60741,97029,.152690330
59737,97029,.108801163
86343,97029,.244422832
63000,97029,.188701665
