iters,price,time
29617,16115,.092188358
36645,16115,.112036061
10541,16115,.039094320
5521,16115,.024210268
50952,16115,.148095441
70028,16115,.198442223
67016,16115,.121529446
46183,16115,.131272815
33633,16115,.092900450
66514,16115,.192561738
