iters,price,time
10039,70607,.051983472
2509,66782,.014064530
20581,70607,.050299456
22338,70607,.070123981
16063,66782,.050997206
12047,70607,.040622565
9035,70607,.033588128
27107,70607,.072144500
53211,70607,.105043575
1003,60519,.011395549
