iters,price,time
4768,68867,.036572097
2007,68867,.012701312
14557,68867,.035927803
6776,68867,.026318476
7529,68134,.028828657
6274,68867,.025044659
11043,68867,.037078099
2509,68867,.013453355
5772,68867,.022756162
752,51638,.008148578
