iters,price,time
24346,60308,.082436497
18322,60308,.059306326
56725,60308,.109384023
61745,60308,.158368835
2258,60308,.014165127
19075,60308,.062101633
15059,60308,.051689775
23593,60308,.070674187
2509,60308,.014172997
2258,55093,.013696055
