iters,price,time
5270,108266,.037134612
14306,116135,.039617681
32629,116135,.105880099
25852,116135,.086030819
34135,116135,.103390782
16063,116135,.050914047
52960,116135,.113310392
46936,116135,.089424320
43673,116135,.140487177
4768,116135,.019277928
