iters,price,time
28362,49739,.088614422
41916,49739,.115366337
21083,53651,.065041607
32127,49739,.053216481
14055,49739,.026599965
25601,49739,.075465704
18071,53651,.060428242
49195,49739,.141483007
48191,49739,.132390012
2007,49674,.012667778
