iters,price,time
8282,95022,.045111512
11796,95022,.042080875
32127,95022,.086961189
6525,95022,.026718337
23091,95022,.075718275
4266,87729,.018624117
42418,95022,.131548151
1254,68556,.010789590
36896,95022,.119964598
11043,95022,.038910038
