iters,price,time
83582,51711,.177585845
74546,51711,.166917787
62247,51711,.100876508
44426,51711,.131935979
65510,51711,.160959921
52960,51711,.160321624
51454,51711,.147333158
38904,51711,.116514508
70781,51711,.200255251
18573,51711,.058373842
