iters,price,time
52458,18537,.180684939
70279,18537,.223778641
20079,18537,.052470610
21334,18537,.063154081
45430,18537,.127155529
9035,18537,.035716089
39406,18537,.124589926
37147,18537,.088278970
35892,18537,.085953716
6776,18537,.026424094
