iters,price,time
8031,82781,.043993758
44677,82781,.116423083
35139,80111,.104098682
8031,80111,.028826869
38653,82781,.112742418
752,82781,.008731713
2760,82781,.014619256
21334,82781,.039549421
21585,82781,.036675529
2760,82781,.015647663
