iters,price,time
29115,15603,.050451091
46434,15603,.126940347
38904,15603,.105263966
53462,15603,.092016083
71283,15603,.188242296
47438,15603,.129236419
4517,14341,.020673327
40661,15603,.126404402
67769,15603,.171594493
5019,15603,.023444879
