iters,price,time
51956,82070,.154568319
62498,82070,.148572264
5270,68605,.022059404
16565,82070,.045528910
40159,82070,.084617269
52960,82070,.149190787
54466,82070,.139347566
27107,76059,.170819982
40410,82070,.149410146
50199,82070,.188061474
