iters,price,time
33131,82705,.120648020
49446,82705,.155368730
752,82560,.008840878
4768,82705,.020966804
64255,82705,.195020918
60992,82705,.155403977
4266,82705,.019826567
501,75866,.007976856
60741,82705,.102098160
14306,82705,.052115931
