iters,price,time
7278,17814,.030077001
41414,17916,.127718075
34888,17814,.063240316
26856,17916,.070657776
34135,17916,.098329050
41163,17916,.113041890
11796,17916,.038810508
43422,17916,.121373547
50450,17916,.126800826
6525,17445,.026211672
