iters,price,time
26856,16734,.105128862
41414,16734,.128463205
26605,16734,.081805220
27860,16734,.085055939
15812,16228,.052550672
31625,16734,.096167074
64004,16734,.157988211
5521,16228,.024305566
42167,16734,.131659765
48442,16734,.112851926
