iters,price,time
4015,18109,.035044624
9286,19184,.033524581
24848,19184,.077999365
32880,19184,.096377542
10039,19184,.035014281
13553,19184,.028692573
2007,15303,.013728642
26103,19184,.080171465
43422,19184,.126392123
10039,19184,.035559669
