iters,price,time
51454,70015,.148989721
69777,70015,.168300648
15812,70015,.047901754
16314,70015,.029831361
38904,70015,.119450490
11545,70015,.037223618
1505,62799,.010561800
29868,70015,.102905640
16565,70015,.071338123
35641,70015,.111427226
