iters,price,time
45430,54991,.127867034
23091,54991,.067762817
22338,54991,.058032404
13051,54991,.042285511
6525,54991,.024459319
42418,54991,.128462344
8784,54991,.030445176
30119,54991,.083374057
20832,54991,.053008033
4768,54991,.020684889
