iters,price,time
4266,83797,.027441409
19326,83797,.074566914
76805,83797,.182003400
4517,83797,.021360987
41916,83797,.101758245
12549,83797,.048645817
35139,83797,.103915276
33382,83797,.117603224
39657,83797,.089688205
47438,83797,.147078345
