iters,price,time
16565,16383,.048168804
27609,17461,.049315493
22589,17461,.068110633
63251,17461,.178462106
57729,17461,.145401408
37147,17461,.107878367
29115,17461,.085535486
56725,17461,.127249940
29617,17461,.091705510
9286,17461,.031875201
