iters,price,time
6023,20020,.038321779
30621,15817,.082970183
13553,20020,.039762559
42920,15817,.115730127
9286,15324,.030541951
41163,20020,.108159731
7027,20020,.026358988
1003,20020,.010241236
31876,20020,.066123547
7529,20020,.029053623
