iters,price,time
51956,57891,.157154901
68522,57891,.183337582
8784,57891,.031302486
47689,57891,.076061282
74546,57891,.203658071
58984,57891,.098189523
105670,57891,.206815781
105419,57891,.208047968
69777,57891,.136664830
77558,57891,.192672245
