iters,price,time
4517,61815,.036572552
9286,66776,.033087169
15561,66776,.053619568
41414,66776,.123180415
11043,66776,.039474514
8282,66776,.027801594
32127,66776,.103947953
14306,66776,.047449614
501,66776,.008391994
12047,66776,.040658268
