iters,price,time
1254,67594,.015548304
44426,78928,.098169143
12047,68507,.039247510
752,55294,.008967219
24346,68507,.070857132
54968,68507,.111104564
3011,78928,.013819697
8533,68507,.029335032
17067,67594,.048536248
14557,68507,.044196231
