iters,price,time
9286,54641,.036989049
32880,54641,.066870816
33633,54641,.099354977
26354,54641,.078207407
1003,54641,.009404135
4768,54641,.020095216
12549,54641,.040536690
48191,54641,.107425396
6274,54641,.024695873
9035,54641,.031078432
