iters,price,time
752,109,.017859374
501,109,.010088108
501,109,.009784643
501,109,.011070227
501,109,.010484892
501,109,.010921122
501,77,.009702716
501,109,.009358326
501,109,.010164901
501,109,.009059340
