iters,price,time
501,139,.019418197
501,130,.017391909
501,139,.020001352
501,139,.021828136
501,139,.014034307
501,139,.018599621
752,139,.014321186
501,130,.015650609
501,139,.016417932
501,139,.012626314
