iters,price,time
501,109,.028307912
501,109,.008984137
501,109,.009747823
501,109,.009393405
501,109,.010505266
501,109,.009478973
501,109,.011968240
501,109,.009883962
501,109,.009321487
501,109,.011032204
