iters,price,time
501,98,.017855642
752,104,.012434596
501,98,.009811213
501,98,.010547006
1254,98,.011779870
752,105,.010972134
501,95,.013409162
501,98,.010741558
752,98,.010687560
501,104,.009550644
