iters,price,time
501,119,.014963850
501,119,.010472889
501,119,.011265195
501,119,.008656956
752,119,.010815425
501,110,.010440452
501,119,.011786727
501,119,.010415890
501,119,.010412549
501,119,.011061135
