iters,price,time
501,129,.017125745
501,120,.010832999
501,129,.011232838
501,129,.011741556
752,129,.012181488
501,129,.010088914
501,129,.010678162
501,129,.011953206
501,129,.011233113
501,129,.011024294
