iters,price,time
501,109,.046505704
501,109,.014263185
501,109,.011519997
501,109,.011711775
501,109,.012458673
501,109,.014232772
501,109,.015146349
501,109,.011125147
501,109,.010455050
752,109,.012717969
