iters,price,time
501,107,.014763141
1254,107,.011148317
1003,107,.012605609
752,107,.009839393
501,107,.009272679
501,107,.008099489
501,107,.008340110
501,107,.009539865
752,107,.008956865
501,83,.009293017
