iters,price,time
752,55,.015485804
1254,55,.011204354
752,55,.011005478
1003,55,.015363800
1254,55,.014925016
501,55,.009862536
1003,55,.009641379
752,44,.009851285
1505,55,.013555667
752,55,.011168801
