iters,price,time
501,129,.016078418
501,129,.010386609
501,129,.009225143
501,129,.011154658
501,129,.010956174
501,129,.010131296
501,129,.009810928
501,129,.010302333
501,129,.011912072
501,129,.010271554
