iters,price,time
501,105,.028444217
501,105,.013327014
501,105,.014165352
501,105,.010039375
501,105,.011263351
501,105,.009437359
501,105,.008919412
501,105,.016448324
501,105,.011855153
501,105,.010733092
