iters,price,time
501,101,.014745232
501,101,.010472179
501,102,.010904204
501,102,.010647207
501,102,.009634490
501,102,.008572374
501,102,.010069558
752,102,.010145868
501,101,.010135528
501,102,.010403130
