iters,price,time
1254,68,.021306819
752,68,.011554734
501,51,.011909733
752,68,.010465275
1254,51,.013157774
752,68,.015350630
752,67,.014032163
1505,68,.016989855
752,67,.012433039
501,67,.011764129
