iters,price,time
1756,50,.017576488
1003,50,.011483692
752,48,.009532846
1254,49,.010833750
2007,49,.011707576
1505,49,.012340812
1003,55,.011522136
1254,48,.011547830
1003,55,.010151890
501,55,.010628713
