iters,price,time
501,119,.015995785
501,119,.011020562
501,119,.011336647
501,119,.010148208
501,119,.011152515
501,119,.010346011
752,119,.011146678
501,119,.011302887
752,119,.011065853
501,119,.009773927
