iters,price,time
501,114,.014954106
501,114,.011487806
752,106,.012072940
501,114,.008639502
501,114,.010897071
501,114,.011233855
501,114,.009308507
501,101,.009711407
501,114,.012049054
501,106,.011588648
