iters,price,time
752,78,.016984947
501,79,.010394745
1003,79,.011386957
501,79,.010391934
1003,79,.010884752
752,79,.011360167
1254,79,.013625605
1254,79,.012917039
752,79,.012707679
752,79,.011120714
