iters,price,time
2509,97,.024274682
1003,81,.011999960
1505,97,.014518718
501,83,.009951366
501,83,.008998379
752,97,.011570423
501,97,.010607722
501,97,.009270048
501,83,.011151618
501,97,.010470164
