iters,price,time
501,104,.015994538
501,104,.010050977
1003,104,.010191968
501,104,.009931704
501,95,.010515711
752,104,.011577909
501,104,.009381071
501,104,.010132879
501,104,.011496612
501,104,.009794727
