iters,price,time
1003,111,.016520759
501,111,.010488575
501,119,.011170328
501,119,.009949362
501,119,.024075637
501,119,.020802044
752,119,.015346021
752,111,.013695714
501,111,.014563109
501,119,.012516790
