iters,price,time
1254,49,.025382416
1003,65,.011852078
752,65,.012120897
501,64,.009609132
752,65,.010516604
1254,65,.012322182
752,65,.010891309
752,65,.010505236
1254,65,.012388283
752,65,.011097339
