iters,price,time
501,119,.015561839
501,119,.010046684
501,119,.009359615
1003,112,.012360435
752,119,.011457663
501,119,.009940365
501,119,.009082063
501,112,.009418197
501,112,.013775778
501,119,.014703894
