iters,price,time
501,78,.015468511
501,78,.010430052
501,78,.011360297
752,54,.011353224
501,78,.008582337
1003,55,.011325205
752,78,.011825567
4517,55,.023537697
2258,55,.015817418
501,78,.010522694
