iters,price,time
1003,119,.029744146
501,119,.010618894
501,119,.010498488
501,119,.010806222
501,119,.012551711
501,119,.009216010
501,119,.010448107
501,119,.011151643
501,119,.010134202
501,119,.009458038
