iters,price,time
1003,63,.017605559
501,63,.010465981
752,63,.011154928
501,63,.009392998
501,63,.011878423
1003,63,.013022075
752,63,.011779153
1003,63,.012118617
752,54,.011284191
752,54,.013197827
