iters,price,time
501,102,.015706786
501,102,.011323376
501,102,.010287785
501,102,.009644670
752,102,.009837589
501,102,.011579230
752,94,.012511544
501,102,.008606745
501,102,.009611787
752,102,.010671249
