iters,price,time
752,50,.016944359
2258,50,.015842586
1254,50,.013978982
1756,50,.012868392
501,49,.010650669
501,49,.011821459
1003,50,.012839787
1003,50,.011071169
501,50,.010641081
1003,50,.014003739
