iters,price,time
501,112,.015867860
501,128,.011182457
501,128,.010058902
501,128,.010829616
501,128,.010112213
501,112,.010701882
501,128,.009894528
501,128,.012614446
501,128,.009378336
501,128,.010033574
