iters,price,time
501,109,.015037621
501,109,.008633110
752,109,.009696087
501,109,.010637871
501,109,.011884484
501,109,.008944360
501,109,.009375996
501,109,.010995659
501,109,.009312755
501,109,.010262462
