iters,price,time
1003,98,.017407876
501,115,.008545367
752,98,.011445109
501,115,.009937165
501,115,.010529763
501,115,.009649389
501,115,.010777642
501,98,.009178638
752,93,.009863514
501,115,.009626810
