iters,price,time
1254,108,.018186059
752,107,.011511501
501,108,.008688491
752,108,.010003897
1254,108,.013073775
501,96,.009837274
752,108,.009154863
501,108,.010350775
2007,108,.013523123
1003,108,.012001373
