iters,price,time
501,109,.016243137
501,109,.010769095
501,109,.011501272
501,109,.008514598
752,109,.009996312
501,109,.010594001
501,109,.010058466
501,109,.010399644
1003,109,.012519789
501,109,.009308016
