iters,price,time
501,119,.016235749
501,119,.010784886
501,119,.010927890
501,119,.010548754
501,119,.010682972
752,119,.010660362
501,119,.011315822
501,119,.008722330
501,119,.011437555
501,119,.010987248
