iters,price,time
752,119,.018563862
501,119,.010730217
1003,119,.013026349
752,119,.011021669
501,119,.010556364
752,119,.011606498
752,119,.011700487
501,119,.008842695
501,119,.009964833
501,119,.009498941
