iters,price,time
752,50,.017829803
501,101,.009419364
501,101,.010052685
501,100,.011091639
501,101,.009624477
1003,101,.011374969
501,101,.010689774
1254,101,.012063408
501,101,.009600170
1003,101,.010426390
