iters,price,time
752,77,.028157364
1003,77,.011688028
501,77,.011693089
501,77,.010244498
752,77,.011360087
501,77,.010712748
1003,77,.012595579
501,77,.009522387
752,77,.014017210
1003,77,.012678463
