iters,price,time
501,72,.016434519
1254,72,.011581059
501,72,.010086661
2007,72,.014912928
501,72,.009367960
752,72,.010204275
501,72,.010913206
752,72,.010722171
752,72,.011667018
1254,72,.013920740
