iters,price,time
501,109,.019099376
501,109,.011834659
501,109,.011148271
1003,109,.013117478
501,109,.011052067
501,109,.013640608
501,109,.013123445
501,109,.011617934
501,109,.013062332
501,109,.010964264
