Sada,Průměrný čas,Směrodatná odchylka času,Průměrný počet iterací,Směrodatná odchylka počtu iterací,Průměrná chyba,Směrodatná odchylka chyby
wuf20-78-M1,0.142,0.037,58812.707,18538.328,0.002,0.008
wuf50-201-M1,0.015,0.003,924.010,360.583,0.123,0.023
wuf75-310-M1,0.015,0.001,568.017,60.233,0.130,0.022
