iters,price,time
209584,-22,1.537368934
199795,-96,1.419090271
208078,-207,1.388309724
217114,-88,1.583155712
216361,-26,1.556798999
3513,2277,.039502668
229413,-24,1.636140345
210086,-22,1.567367490
219373,-199,1.597360336
223389,-211,1.623021895
