iters,price,time
207325,-50,1.579664284
205066,-103,1.420037239
221130,-105,1.472679811
218118,-57,1.700741189
218871,-173,1.418653685
221883,-57,1.486734788
224142,-173,1.449017681
229413,-153,1.743162900
199042,-172,1.402072778
201050,-57,1.765799685
