iters,price,time
302956,-86,2.296255321
331821,-1740,2.450420709
269824,-568,2.007917902
252756,-574,1.856084074
321028,-554,2.383326580
314251,-556,2.265015354
335837,-555,2.485566932
314753,-555,2.332386027
300948,-555,1.929821697
306721,-162,2.272350316
