iters,price,time
196532,-782,1.377175550
222887,-781,1.719681727
213349,-835,1.728631534
218369,-826,1.647279154
218871,-781,1.691350741
220126,-809,1.635308149
221130,-2172,1.671969981
210839,-2145,1.512032091
223389,-384,1.738505877
200548,-2054,1.489235562
