iters,price,time
283378,-1641,2.045417186
332072,-1577,2.375167726
285135,-802,2.055710723
334582,-1648,2.460651890
258529,-458,1.998910125
276601,-1856,2.038145500
297936,-760,2.120788164
316259,-583,2.264141462
321530,-1086,2.247157534
314753,-1363,2.221482994
