iters,price,time
309482,-2327,2.326226074
323287,-2571,2.448534796
323538,-1285,2.377761984
289402,-2571,2.201471553
333829,-2572,2.536780652
304211,-1941,1.905886936
308478,-1285,2.050298410
340857,-788,2.659879330
287896,-1744,2.174074153
319271,-2571,2.166280188
