iters,price,time
337594,-2252,2.647454632
323538,-2490,2.339120435
317765,-2223,2.195838242
283880,-2564,2.152101470
321028,-1162,2.402963520
314000,-2223,2.314126627
347383,-2340,2.550073324
308478,-2533,2.342043801
291661,-2223,1.942918736
334080,-2023,2.460650317
