iters,price,time
304964,-15,2.352866431
336841,-906,2.547422409
349642,-15,2.685659161
310737,-907,2.356442327
340857,-83,2.609486700
300446,-5,2.259024514
308729,-760,2.436736996
302454,-12,2.233159867
347383,-14,2.580587533
323036,-405,2.351301632
