iters,price,time
259784,-1705,1.943375805
254764,-1078,1.867510097
258278,-1779,1.901864380
272334,-1715,2.030621738
226150,-1069,1.729065548
264804,-1554,1.990508468
267816,-1069,2.029582346
315757,-1077,2.390868151
271079,-1771,1.935050844
248238,-1177,1.885726350
