iters,price,time
146834,-688,.997302092
190508,-1207,1.477202198
146583,-1508,1.078332184
156874,-796,1.060092767
176201,-95,1.407982423
165659,-553,1.261592719
156372,-1282,1.120865083
160639,-508,1.211387629
180468,-1614,1.277748540
173440,-95,1.298717868
