iters,price,time
339100,-56,2.510794446
341108,-1337,2.153108090
346630,-1037,2.576330283
334331,-36,2.387360817
338096,-1053,2.454845704
336590,-1135,2.421784664
333327,-60,2.435980790
351148,-620,2.597085993
341610,-1026,2.083246142
343618,-35,2.541131214
