iters,price,time
335586,-601,2.513256510
349140,-94,2.648245735
327805,-689,2.462714141
306972,-112,2.400326094
330064,-875,2.468839051
332323,-963,2.486343287
322283,-81,2.437769277
342112,-1,2.565955968
335084,-95,2.571936278
328558,-597,2.422274326
