iters,price,time
333327,-2629,2.459329661
263800,-2489,2.016582572
290155,-4109,1.855103143
338849,-4845,2.201258916
275848,-3576,2.006416570
298187,-2615,2.190731627
275848,-3038,1.865851649
307725,-3260,2.226497111
291912,-3990,2.111133034
303207,-2779,2.156986720
