iters,price,time
258780,0,1.791979515
220879,0,1.467595590
219373,-32,1.563557487
217867,0,1.645871896
231923,0,1.843866578
232927,0,1.603581206
238951,0,1.985126833
230417,-121,1.823487247
228409,0,1.845331330
752,24605,.016975043
