iters,price,time
199795,-1082,1.458115039
242214,-1070,1.762189467
235939,-1072,1.665026463
212847,-1069,1.575824158
289653,-1071,2.051452877
230919,-1082,1.713803803
242214,-1069,1.748046863
204815,-145,1.423730804
174946,-1071,1.321142020
227907,-1070,1.613576747
