iters,price,time
313498,-1484,2.251702102
331821,-1484,2.436142149
323287,-1475,2.380236784
322032,-1485,2.331128487
318267,-874,2.386477351
325044,-859,2.417152968
314251,-1485,2.317273984
340104,-1104,2.623870782
325797,-1484,2.494366530
329060,-909,2.454820590
