iters,price,time
752,253236,.021369042
752,247239,.013623136
501,247127,.011406330
1003,266104,.013985659
752,249116,.012725594
501,190552,.011913244
1003,239257,.015395410
501,232706,.011729539
752,214326,.014336396
2509,246762,.019237796
