iters,price,time
752,257691,.017943616
1003,260260,.016366113
501,259406,.011788426
501,265650,.012486070
501,286324,.011025887
501,267163,.011351521
1003,260096,.014834697
501,287004,.013162560
501,271380,.012836170
752,276796,.012654628
