iters,price,time
501,291419,.020773894
501,271706,.013212349
752,302902,.012851405
501,258231,.012098048
1756,284799,.018103486
501,266515,.011277568
1003,287114,.014221470
501,271653,.011134445
501,273605,.011986350
752,290459,.014545445
