iters,price,time
752,63685,.032333232
752,58500,.015154018
501,58559,.014272412
1003,63532,.018957585
501,61484,.013051772
1756,62948,.035665752
752,63826,.017749755
2760,66969,.035376604
501,54258,.017324551
752,63326,.021492309
