iters,price,time
501,165824,.016299439
1254,156962,.015695345
501,131246,.010974739
501,153881,.011894133
1003,145124,.013700839
2760,156811,.027570180
501,149091,.010608809
752,146015,.013403891
501,145031,.011245507
752,147205,.013197121
