iters,price,time
752,138221,.019418476
752,123911,.012413807
1003,137512,.014010106
501,111298,.011207424
1254,132547,.015866051
752,122830,.014442528
501,135733,.010894310
1003,126766,.014279982
501,109651,.012272246
501,123513,.012483686
