iters,price,time
501,104945,.027277136
501,96901,.011291245
501,109992,.013084281
501,99619,.011154143
501,100161,.011197365
1254,114671,.017729470
752,100947,.012387673
501,102443,.011116456
501,100541,.012964356
752,115747,.012734050
