iters,price,time
752,280690,.021949844
752,286792,.014227227
1003,272844,.015639237
501,294099,.011964849
1505,289008,.017388163
1254,269841,.015513972
752,258716,.012550504
501,282436,.012462605
501,276860,.011912303
501,261787,.012601155
