iters,price,time
501,263122,.017194537
501,278430,.011476855
501,232884,.012067755
501,254795,.012214365
501,248230,.012236202
501,265754,.011637757
501,275402,.011402352
1254,265301,.012437338
501,247312,.013235009
501,262468,.010262291
