iters,price,time
501,124457,.028639622
501,115641,.010896260
501,141660,.012163794
1254,130438,.015376385
752,133532,.013108736
501,141840,.012351989
501,141130,.012523382
501,148443,.011039273
752,132608,.013264374
1003,129744,.015798502
