iters,price,time
501,176422,.018403205
1003,189962,.016562874
501,179544,.012201301
501,183316,.011640694
752,172192,.013042410
3011,192112,.027189883
501,186149,.011291179
752,195793,.012149241
501,183447,.013510760
501,173747,.011992717
