iters,price,time
501,149375,.036867847
752,163674,.023924302
1003,169509,.020349674
2258,164395,.024721040
1003,163217,.017678514
752,156722,.019422640
1254,170129,.021532581
501,156998,.012424522
752,155738,.014111915
752,163388,.013051988
