iters,price,time
501,55160,.027500032
1254,59094,.015271459
501,52589,.012531843
1756,61252,.019142108
1003,53282,.013927087
2007,61924,.020040221
501,56447,.012036160
1003,55375,.015201359
1003,60622,.015067664
501,59500,.010801364
