iters,price,time
752,215201,.030787260
501,242787,.018540132
1003,248183,.019411328
1756,267650,.028885026
2007,262429,.033919737
1756,240094,.021281075
3011,256421,.037932118
752,240231,.024232601
1756,253474,.021617313
1756,260276,.018353254
