iters,price,time
501,32974,.029142393
752,38503,.017629610
501,33085,.013140603
752,31465,.017726951
752,36753,.015228242
752,24991,.012193505
501,29667,.010672726
501,31898,.010894906
501,34023,.010845021
501,35291,.010071401
