iters,price,time
1505,43068,.022686864
752,42999,.012126353
501,41909,.011291621
501,41197,.011511255
501,45504,.011687052
1003,43566,.013056511
3513,45876,.022583667
2007,42568,.021068403
1254,46634,.014055162
501,41908,.010944792
