iters,price,time
1003,52479,.032126557
1756,55469,.022623228
1003,57102,.016035465
501,43617,.014258496
752,48963,.014935005
1003,53710,.015168537
501,51426,.012427778
2509,56077,.023712757
1003,51670,.015646446
752,54082,.013002804
