iters,price,time
501,142494,.017918683
1003,154852,.014377839
501,153253,.012016347
752,148148,.012925522
501,139445,.011407863
2007,156563,.018578200
501,137881,.011658016
4015,158352,.030811442
501,141871,.012012529
501,156800,.010985815
