iters,price,time
752,54926,.030282604
501,45108,.010658710
752,50958,.013542792
2007,55662,.016906407
501,45818,.011349602
501,44059,.011128553
752,49201,.013679909
1003,52629,.014966957
501,51798,.011657750
1756,53593,.020650614
