iters,price,time
501,185859,.017517290
501,203913,.011453244
1003,221287,.015514634
501,207372,.012088129
501,185821,.010932815
752,205098,.013598970
501,195611,.010586421
1254,190094,.014433862
752,191387,.014115056
1254,199391,.015534707
