iters,price,time
501,148085,.025900001
752,157952,.013722245
752,137838,.013451608
752,120291,.012655190
501,144447,.012074097
501,137746,.012266455
1003,153441,.014449978
501,142538,.011867101
501,149287,.012369212
1254,154291,.015899295
