iters,price,time
752,198453,.031076418
1003,185612,.013810283
752,188960,.013578940
752,163027,.012092307
752,181739,.013150000
752,186937,.015214189
501,175674,.012661145
501,182457,.011407969
501,180118,.011856857
1254,195315,.017601521
