iters,price,time
1254,47426,.034216069
1003,42010,.013749126
501,49376,.012314618
752,50639,.012203074
501,51211,.011264598
1254,47451,.016099508
3262,48839,.027416888
501,45902,.010883108
752,48606,.011684448
752,48968,.012703355
