iters,price,time
501,239676,.022179062
501,240069,.012610063
501,255482,.011894684
752,240327,.013942016
752,253896,.012602598
501,243774,.013000966
501,257341,.012619276
501,221037,.013132046
501,232342,.012488741
501,231676,.012322087
