iters,price,time
1505,322429,.034115602
501,262738,.012988016
501,351256,.011884990
501,296558,.011736176
752,348885,.013269559
501,323487,.010830248
501,326320,.011568820
501,352632,.012963529
752,343522,.013479741
752,360726,.014132571
