iters,price,time
501,39282,.018930287
501,41993,.013100507
501,39712,.012663075
752,41985,.011997390
501,41874,.011068263
501,41036,.015997678
501,43280,.013131876
752,42787,.013982272
501,41929,.012505813
501,42592,.012952338
