iters,price,time
501,135400,.025637297
501,145024,.017676940
752,155976,.026948000
501,127214,.017112876
1003,147363,.025560787
2509,160307,.034988396
501,150857,.016034093
501,125661,.014756284
501,156384,.016208392
501,151632,.013803114
