iters,price,time
501,122922,.016247341
752,135124,.012580411
501,129801,.010897316
501,131160,.011957664
1003,134577,.015703906
501,121133,.010341577
501,127789,.011232332
752,119889,.012981427
501,116699,.012630362
501,130382,.011353914
