iters,price,time
752,221422,.029337431
501,206747,.011609428
501,215574,.010873265
501,212362,.011483948
501,219828,.012621700
1505,235559,.017963383
1505,233443,.016679829
501,230192,.012009303
501,217152,.010710574
1254,231235,.015307739
