iters,price,time
1254,157554,.023694822
501,153246,.012696127
1254,157586,.018147250
501,141120,.012387137
752,154517,.013407543
501,140636,.012173117
752,152673,.012712318
1254,158281,.016086322
1003,165154,.014425721
501,138537,.013201714
