iters,price,time
1003,55514,.022448093
1003,57591,.015612757
752,52245,.013220105
752,53682,.013010438
501,53292,.013725496
3262,58919,.027315453
752,50108,.015583586
2007,59193,.020925625
1003,52510,.015920446
1505,55694,.019381721
