iters,price,time
501,206486,.017760515
501,210566,.011255842
501,230855,.012276504
501,193985,.011026514
501,223161,.011303924
501,222305,.011471310
501,181837,.010605112
501,232964,.011455319
752,232076,.013330596
501,216088,.011111808
