iters,price,time
501,61791,.029707044
1003,62347,.015083229
501,61057,.011893211
752,64158,.013184151
501,61959,.012208144
752,60356,.013519046
501,54656,.013433758
752,58382,.015174047
752,61230,.020536886
501,59739,.030956062
