iters,price,time
501,148215,.019370064
1003,162841,.015365659
4015,165580,.032979659
501,133455,.012632150
2509,171842,.022057931
1756,157147,.019305206
501,132228,.012469327
752,165473,.012895794
1254,159152,.017285262
501,149853,.013211958
