iters,price,time
501,189967,.017658721
1003,214352,.014771357
1003,212194,.014643773
1003,225684,.013938775
1505,212984,.016056561
752,217140,.013301631
752,214757,.012679235
501,235960,.012993782
501,215586,.011830882
501,226354,.012681003
