iters,price,time
501,152711,.029256527
1254,162343,.016722745
501,159594,.011469451
501,141204,.012089638
752,164049,.013209524
1254,167815,.015810675
501,152153,.011817276
501,164340,.010175461
501,175466,.010260312
1003,167460,.014672698
