iters,price,time
501,147483,.018055595
501,153326,.011038957
2007,163843,.018726273
1254,154564,.016085270
501,152603,.012613760
501,129604,.011791006
501,130980,.012114013
1003,165355,.014808213
1254,158770,.015634749
1505,161176,.017067109
