iters,price,time
501,221935,.020114569
752,215262,.013992392
752,239158,.013778357
1505,235922,.018176545
501,238675,.013406025
4015,236586,.026895370
752,197039,.012622447
501,249329,.015668283
1756,230058,.019623335
1003,239293,.015380007
