iters,price,time
4517,157172,.050039724
501,141013,.011974026
752,155946,.013762032
752,162893,.013514980
501,154588,.011838968
501,155249,.012613910
501,154166,.011181455
501,139926,.011686000
501,155440,.012615423
752,162917,.011839007
