iters,price,time
501,98248,.029006207
1003,112264,.013385516
4517,111865,.028734038
501,110042,.012070270
501,102974,.012268895
752,109092,.013111617
501,109183,.011173705
1756,108159,.018900781
501,85437,.013144897
501,107766,.013270511
