iters,price,time
501,94320,.024737347
752,93282,.018845561
2509,112665,.032868176
1254,110464,.018525684
501,97800,.013478363
501,107793,.013650658
752,102663,.013325701
2007,105525,.026567162
501,110030,.012178868
501,116247,.015693832
