iters,price,time
501,243529,.018163131
501,286321,.011560390
501,279047,.011437374
501,281717,.012150068
752,280139,.015234913
752,290578,.011789744
501,273998,.011138227
501,267155,.012209346
501,288550,.012630401
1003,260383,.016198783
