iters,price,time
1003,97755,.030130032
1003,91701,.012747561
752,109218,.013955347
501,92170,.009895796
501,97530,.010168873
501,107515,.011553788
1003,97133,.012669447
501,98172,.011010213
501,104251,.011915534
752,90210,.011872261
