iters,price,time
501,243203,.027994608
501,236885,.011567833
752,260049,.012970983
2007,266426,.021770776
501,213227,.012334690
501,254326,.012017083
501,227848,.012513958
501,265059,.012125546
501,227730,.011184651
501,225198,.010580359
