iters,price,time
501,216724,.039533105
501,227065,.020606740
752,221167,.017915056
1003,248472,.024058448
1003,226475,.023120734
1756,236510,.022934258
501,223134,.016150566
501,203358,.015173271
501,224991,.014968760
752,217623,.018069877
