iters,price,time
501,197835,.017108609
501,227147,.011176059
501,254244,.013385415
1003,209949,.014832870
501,238660,.011668357
501,252126,.012337722
752,234936,.013843081
2760,244926,.036231580
1003,233850,.015882432
501,196588,.013571397
