iters,price,time
752,57104,.022807936
501,49553,.012502497
752,53881,.013548773
501,47671,.013453666
501,52838,.013232384
752,57438,.014167803
752,56150,.015242618
501,53355,.011517087
501,56434,.012767203
1505,53536,.017749203
