iters,price,time
501,128272,.028685354
1003,146219,.014211351
501,138750,.010897817
501,125545,.011209307
501,136357,.012278819
1505,131846,.016045114
501,127732,.011164442
1003,143019,.014399551
1254,142258,.015198289
752,130166,.013681573
