iters,price,time
752,111637,.030336808
501,103006,.009862877
501,81527,.011330175
752,102587,.012380208
1003,95159,.014138682
1254,111678,.015310864
501,100703,.011623776
501,108096,.011251208
501,110860,.011825953
1003,99584,.014864065
