iters,price,time
501,249455,.022979308
1003,245736,.015856432
501,239540,.012051700
501,241709,.012674923
501,255389,.011778622
501,237637,.012517847
752,259138,.015191891
1003,246980,.013409311
501,230599,.013990463
501,263406,.013522303
