iters,price,time
501,124650,.029420259
1003,133463,.015765249
2258,131279,.020443363
1003,125700,.014245842
752,112429,.013503982
752,112334,.011723246
752,127025,.012393638
501,123521,.011583890
752,124913,.012742541
1505,131557,.018475443
