iters,price,time
501,220525,.017607242
2258,254396,.022670298
501,219641,.011360868
1003,223281,.015537984
501,213747,.011900025
752,241744,.013917419
501,227432,.012043318
501,216752,.011540922
501,234600,.010918386
752,229875,.014542681
