iters,price,time
1003,172325,.021451360
2007,161748,.021241790
1003,155456,.015135418
3764,158027,.031141714
1756,153673,.019024843
501,163911,.012451815
501,138657,.010859950
752,151487,.012198581
501,152339,.013641771
752,164393,.014084232
