iters,price,time
501,43937,.015307247
752,48654,.012099731
501,48697,.011581030
501,45299,.010132348
1505,46582,.016490961
501,45314,.010817578
501,48431,.011159653
501,42229,.010472509
501,50295,.010631803
752,48984,.012264471
