iters,price,time
752,127700,.019363807
752,129146,.012347340
501,131857,.012438244
1003,133376,.014739766
752,137211,.012947408
752,135631,.013326153
501,124021,.011369409
501,147760,.011487791
752,152966,.014460197
501,140472,.012959430
