iters,price,time
501,313436,.018654410
501,303390,.012243947
501,307624,.011339708
501,310723,.012237694
1505,304039,.017506259
501,314868,.011597670
1505,317283,.017559806
1254,297396,.016794983
1756,317989,.017551190
501,305582,.012028295
