iters,price,time
752,189220,.019424688
752,224502,.013397880
752,197919,.014417370
501,202703,.010369291
501,185026,.011104868
752,196666,.011305557
501,211582,.011314138
501,203287,.010616735
501,180970,.011704044
1003,205216,.013121015
