iters,price,time
752,197956,.017792967
752,215008,.012263229
1003,198976,.015493850
752,222435,.012653184
501,206990,.011879189
501,216367,.011298749
501,208597,.011463840
501,155099,.010944322
501,200858,.010597226
501,211473,.012034737
