iters,price,time
752,168018,.019637672
501,155161,.012442222
1254,164704,.016293745
501,143514,.011676441
501,135584,.012464975
1756,165425,.020321570
2007,174897,.021551266
5521,161563,.038019420
501,157876,.010387962
501,144951,.012435659
