iters,price,time
501,51050,.016063754
501,51240,.010958563
501,48737,.010274881
752,54373,.013239331
501,52433,.010539297
501,46997,.011174171
501,52179,.011031784
752,50061,.012043018
501,47846,.011219904
501,49864,.010256841
