iters,price,time
501,175355,.015998044
501,190295,.013426083
1003,197048,.013777666
501,180629,.011360232
752,174309,.014788890
752,187946,.014761473
1003,190015,.013920370
1254,187890,.014540050
501,173325,.011187732
501,185174,.012455337
