iters,price,time
501,177995,.017474788
752,177482,.013667856
752,175497,.013556974
501,179502,.012167556
752,171198,.014282041
2007,194302,.020332114
1003,194872,.015954902
501,173788,.012536767
1254,193546,.016855269
501,179469,.013161843
