iters,price,time
1505,147245,.022657738
752,149325,.015883504
501,157744,.011833603
501,163933,.013029259
752,155281,.013229372
501,152739,.012867195
501,154470,.011949650
1003,152053,.014215338
501,139159,.012893956
2007,160083,.021775105
