iters,price,time
501,335755,.026658633
752,326387,.013784911
501,286525,.012262067
501,305470,.011613782
501,311909,.011999490
501,320976,.011859446
1254,331042,.017492894
752,321208,.012766251
1254,345967,.017103479
501,246040,.011210871
