iters,price,time
1756,169806,.026376859
752,151318,.012172079
752,169050,.013504859
2258,157416,.016354500
752,158142,.012952793
501,118119,.011418413
1003,167448,.014047579
1756,164038,.021244369
1505,163794,.018541704
1756,162802,.020396432
