iters,price,time
752,158278,.028731983
501,157680,.013085968
501,147992,.012249613
501,150539,.011098772
501,158006,.012574485
752,155819,.012150378
501,149933,.010522844
501,146061,.011006254
1003,158979,.014297846
501,162485,.011423502
