iters,price,time
501,122490,.017458608
501,114013,.014688785
501,124645,.011024650
501,109789,.011886222
501,117354,.011993559
501,109282,.012920462
1003,122770,.014697787
1254,124502,.016576821
752,111378,.012353947
501,114991,.012576568
