iters,price,time
2007,151818,.027729029
501,162552,.012168283
501,150440,.011538412
752,157816,.012464969
501,142567,.011308478
501,167676,.011351114
1505,169822,.017093995
501,156475,.011569502
501,142729,.011479405
501,153693,.011961266
