iters,price,time
1254,159090,.034674386
501,160170,.012206896
752,151598,.013816992
752,164786,.012922741
501,153179,.011284136
2258,172358,.023503858
501,146152,.013820398
501,150768,.011238924
1003,148508,.014123072
1756,151087,.020933149
