iters,price,time
501,219425,.026000037
752,214196,.011731462
1003,203484,.012738599
501,221731,.010859113
501,224698,.009994344
501,239481,.012067110
501,204794,.010851874
501,187656,.010488650
501,224790,.011182832
501,222529,.011914102
