iters,price,time
501,238947,.017938766
752,238185,.013735069
752,240428,.012460923
501,198529,.013354506
752,239991,.014177351
501,237096,.010916672
501,250664,.012232165
501,235474,.011006666
752,241467,.013604029
501,233890,.012731820
