iters,price,time
501,51829,.015851955
501,55831,.012020930
501,47880,.014404571
1505,58658,.024742106
1756,55180,.022883896
501,55115,.012817409
1003,51892,.018214399
501,58867,.013512384
2258,55441,.022166845
1003,55348,.013954440
