iters,price,time
501,148612,.027845823
501,147392,.012357394
1254,161493,.017335818
752,133173,.012926978
501,142842,.012858799
1505,155300,.018373448
1003,151666,.014168354
752,157652,.012682596
501,165170,.012217171
501,140743,.013446473
