iters,price,time
501,65982,.020081034
501,63744,.011080171
1003,66316,.013511938
501,67801,.011957319
1003,68755,.014302485
501,64668,.011454237
501,68419,.012968553
752,59916,.014513093
501,59437,.009961926
752,66882,.012952918
