iters,price,time
752,242026,.019752330
501,239907,.012434732
501,239561,.012027904
501,236459,.011793931
501,258321,.012702730
501,210108,.013363013
752,245192,.014477916
752,224743,.014705677
501,235141,.012136943
501,247615,.010624428
