iters,price,time
752,126956,.019068162
752,126456,.012905593
501,130238,.011403203
501,125101,.013194135
501,123751,.012433796
501,121639,.012939773
501,116785,.011776492
501,92240,.011307170
1003,118520,.019565078
501,130945,.012374161
