iters,price,time
501,256415,.020660017
1254,287295,.017605810
1254,281305,.017768761
2007,288804,.023024661
501,256273,.012629414
1254,291292,.016649119
1505,290932,.017539583
4015,297336,.033575800
501,297978,.013151814
501,246731,.010246827
