iters,price,time
1254,57125,.032390195
1003,53022,.014647375
3262,60978,.026125353
1756,58197,.017874413
2760,60417,.024127951
1003,59196,.016426669
2509,62903,.028772200
1505,60660,.019504031
2509,61660,.025710819
1003,54786,.015060841
