iters,price,time
752,159559,.031184560
501,167076,.011895441
501,161450,.013008104
501,140835,.012695822
752,161714,.013084175
2509,166401,.022130985
2258,172831,.019421472
1254,163671,.014468112
1003,169928,.015297344
501,137484,.011873479
