iters,price,time
752,61935,.028377626
1254,65757,.024013752
501,59806,.017804810
1505,64025,.025251290
501,66295,.036034568
1003,60611,.018591119
1003,63052,.021555109
501,56858,.018807433
501,65447,.014672668
501,59194,.016797893
