iters,price,time
1003,235523,.018977945
501,192644,.011373577
1254,234338,.016004411
1003,233687,.013497219
752,236111,.012463898
1254,242973,.016185057
752,231863,.012176378
501,199184,.011729609
752,232600,.012185044
501,229135,.011118845
