iters,price,time
752,147030,.018733808
501,138368,.011973580
1254,154283,.015814964
501,131388,.010939271
752,144888,.012923237
501,134644,.011709339
501,132332,.011907313
501,109501,.010741778
501,143101,.013026144
752,143779,.013055766
