iters,price,time
501,224348,.017082248
752,216509,.011240283
1003,230110,.014331577
501,239336,.010958082
1003,243676,.014640216
501,220776,.011107327
752,215660,.010965907
1003,231006,.014335713
752,239064,.011558506
2258,231780,.021925497
