iters,price,time
501,231073,.017763306
752,261583,.013423579
1756,259120,.021219812
2007,263765,.023376032
501,236638,.012686789
1003,278895,.013462253
501,273730,.011893767
1003,280918,.014601984
501,271763,.012051820
1254,271429,.016803741
