iters,price,time
501,54278,.026876143
752,47078,.012974370
1003,54969,.015234668
752,55265,.016423588
501,53783,.012833591
501,45770,.013911051
501,51598,.013089124
1756,55891,.017308635
1756,54565,.020324346
9788,53962,.064943955
