iters,price,time
501,167345,.027492162
501,140941,.011276190
501,158883,.012456739
501,151305,.010942338
1003,152962,.012863783
501,150809,.012513944
2007,163197,.018922950
1254,163650,.016194990
752,164660,.013705318
501,135235,.013242703
