iters,price,time
1254,50000,.024858543
752,48827,.014396259
752,49796,.013988956
1003,52559,.016211512
1003,53214,.014569296
3764,52743,.032069673
501,44852,.014184700
501,50671,.013094509
752,52078,.015809613
2509,54948,.025408520
