iters,price,time
1003,64775,.031280809
1756,65482,.019147248
752,63142,.013021464
752,67118,.013674996
1003,66677,.015067839
752,69293,.012664076
501,66068,.012330633
1254,62709,.015047009
1003,65795,.014430701
501,59770,.012410070
