iters,price,time
501,55374,.028167448
501,60273,.012087358
501,63764,.010750665
501,61538,.014642094
1003,61059,.022825210
1254,58783,.021996910
501,57339,.011585774
752,59025,.013508095
501,56820,.012368851
501,58859,.011919066
