iters,price,time
501,195442,.017033359
1003,247064,.012941210
501,180089,.012659878
501,249530,.012906860
501,219623,.010262322
752,226194,.012779376
501,195646,.011573305
501,244198,.010955341
501,239334,.012345656
1003,238896,.014337097
