iters,price,time
501,210252,.023767757
501,196529,.010952326
501,225972,.011756901
1254,235967,.017658200
501,239091,.012186017
752,225412,.013695524
501,223377,.011588819
752,234024,.013680571
501,210700,.011334222
501,231663,.011166371
