iters,price,time
501,53312,.028075518
501,56862,.012458748
501,55474,.012406708
501,57388,.012669691
501,59959,.012417519
752,60689,.012618128
501,59043,.012190586
501,57175,.011956367
501,54895,.012215758
1254,58180,.020012713
