iters,price,time
501,208159,.019076627
501,213035,.011773417
501,231776,.011115703
1003,226597,.012494321
501,227429,.012198916
501,218457,.010228567
1003,221557,.013990278
1505,227344,.016345278
501,236389,.011300658
752,234378,.012916825
