iters,price,time
2007,60157,.024383699
501,57738,.010787527
501,60915,.012515036
752,56361,.012384260
1505,58447,.016407011
1505,59637,.016550271
501,53792,.012174990
501,61386,.010388989
501,50446,.011568284
752,58784,.015337821
