iters,price,time
752,54777,.022354168
501,52046,.013608011
752,57550,.013612456
2509,60104,.025724776
1003,57356,.019163088
1505,56332,.021334968
2258,59367,.027015504
1254,57755,.019386560
1254,53269,.017798462
1003,54759,.018307647
