iters,price,time
752,123829,.024022114
752,134499,.017075946
501,134667,.017802595
501,141238,.014655851
1003,138044,.016447528
752,131991,.018314650
501,135437,.014552143
1003,124010,.017344303
501,121932,.026433707
501,130027,.033534310
