iters,price,time
1003,141935,.031282953
501,130788,.011569427
752,144213,.013135137
1003,143665,.015223802
1003,153137,.014182340
501,134573,.011927417
501,152157,.011373362
1003,147299,.014267383
1505,145655,.019157753
501,148023,.012709709
