iters,price,time
501,142398,.018467769
1505,163629,.016377284
752,145872,.012895549
501,149215,.011507498
2258,153462,.019626335
752,145787,.013137788
501,147807,.012666817
501,143951,.010510847
752,143635,.013539240
752,154083,.013420082
