iters,price,time
501,46263,.016231561
501,42517,.011852143
752,43495,.012445482
501,38430,.010928622
501,44798,.010625976
752,43542,.011850225
501,44134,.009838956
501,37914,.010144701
752,41113,.012145795
1003,43574,.013144666
