iters,price,time
501,122323,.017537534
1254,132674,.015718905
1003,119339,.016232362
1003,119796,.015825540
1003,133787,.015735577
752,132846,.013280875
501,139324,.012724021
501,130926,.013252481
501,123200,.012484803
752,123871,.013964103
