iters,price,time
501,255782,.016833582
1003,263981,.013617629
501,217558,.011896217
752,247959,.014487253
752,250226,.014875070
501,255483,.012470971
752,248160,.014615464
752,226948,.014548827
501,228423,.014014228
1756,250788,.020612582
