iters,price,time
501,206435,.019456209
1254,206330,.016080041
1254,193467,.016808148
501,210735,.013461731
752,211208,.014084794
501,175136,.014585606
501,212353,.013201769
1003,203392,.014055858
501,186922,.013270180
501,154854,.011047863
