iters,price,time
501,252855,.028473614
752,260356,.012415411
752,259563,.010556875
501,247828,.010826265
501,258040,.010557306
1505,260355,.017013551
501,250390,.010769151
501,247387,.010784710
1003,262714,.013123083
1003,258596,.013941985
