iters,price,time
501,201570,.028070408
501,158991,.011177127
1003,183002,.014660295
501,192103,.011563937
501,174988,.011778417
752,193741,.013364340
501,168333,.010028800
501,199580,.012255855
1003,189886,.012748247
501,183158,.010824406
