iters,price,time
2258,283589,.026301304
501,252251,.011979867
752,280760,.013635188
501,247216,.011580664
501,265052,.011639436
1003,292773,.015612101
1756,265993,.016935217
1003,292192,.016185157
1003,280368,.013641545
501,283991,.011600687
