iters,price,time
501,214862,.016989225
501,210248,.011809827
501,191643,.011589230
752,207232,.013740616
501,167943,.010493312
501,185489,.011554287
1003,210644,.013520329
501,208735,.012298522
501,199143,.010997853
752,216091,.011716213
