iters,price,time
501,250773,.017269722
501,274498,.011284607
752,265224,.012403969
501,265268,.012064138
1505,272651,.018481099
501,268192,.010799830
1756,265857,.020770949
11796,277409,.077460098
752,270326,.014053619
752,216666,.013350068
