iters,price,time
752,215107,.019117952
2509,229269,.023075613
1505,216884,.016844047
501,177423,.010347248
752,201607,.011379028
501,206860,.011757007
1505,200459,.015677521
501,203541,.010388582
1003,185828,.012977756
752,217257,.012702705
