iters,price,time
1003,152104,.021594214
501,159092,.011528890
501,133008,.013513535
501,161561,.012456238
752,150782,.012341850
752,160554,.014600004
1505,165267,.016541258
501,119684,.012412889
752,154598,.012850358
752,156688,.013253589
