iters,price,time
501,44839,.015972065
501,56455,.012138891
501,57466,.011389327
501,49400,.011987377
2258,57301,.019879925
501,52900,.013629398
501,51204,.011872131
501,59910,.012620868
501,56101,.011230714
1756,59894,.017939628
