iters,price,time
501,126458,.027485865
1003,136261,.014788911
501,129796,.011191860
501,135817,.011460809
1003,141484,.013449348
752,138143,.013367963
1756,135564,.018542361
501,120112,.011622532
752,126195,.012260153
1003,133260,.013956889
