iters,price,time
501,119877,.017747725
1756,131433,.017676068
501,118294,.011941619
1003,129299,.013695769
501,119265,.012928843
1003,135066,.016715816
501,130956,.011680825
752,125819,.014673454
501,126855,.010601982
1003,132067,.013420984
