iters,price,time
501,254540,.016249149
501,277125,.010431234
1003,290581,.014417991
501,256279,.011426083
752,279185,.015072753
2007,294324,.018808911
501,282224,.011997034
1254,270953,.014610514
1756,276131,.017726861
752,279064,.011564728
