iters,price,time
2258,59188,.023164212
501,49529,.011421920
1003,54675,.014691454
1003,60069,.013607164
501,54683,.011005127
1003,59814,.015924087
501,54621,.012169039
501,56727,.011873078
501,53445,.015044610
2760,55857,.030482822
