iters,price,time
1756,279224,.028290224
5521,285051,.039950498
501,275790,.013157821
752,284331,.013860925
752,270066,.012718821
752,281510,.014934775
501,265436,.011914812
501,246505,.010940304
501,245160,.012123262
1003,266861,.014943502
