iters,price,time
1505,64310,.023818138
752,58910,.014219401
752,55977,.012975797
2258,62045,.023272901
2007,59873,.022935720
501,65458,.012217642
3011,64302,.030444189
501,61439,.010199717
501,56002,.011669239
1505,64641,.015826957
