iters,price,time
501,139318,.024525195
501,149220,.013246405
1003,145174,.019761438
1003,141649,.018880853
501,131292,.014859967
752,141869,.015148433
501,145197,.013456492
1003,148752,.014771027
501,142484,.013477047
1505,151073,.017302669
