iters,price,time
501,248628,.016620280
752,292202,.013268476
1003,276456,.015384240
1756,287899,.019065827
1254,291145,.017663455
501,280921,.012828090
1003,250392,.014317675
501,291489,.012572917
1003,247173,.014381992
6023,289052,.043678369
