iters,price,time
501,247056,.026348448
2007,276069,.020438894
1505,283517,.016354456
1505,279047,.016796466
501,268142,.011637277
501,256581,.012215518
752,260805,.012095223
752,265752,.013040611
752,265295,.012525506
501,258424,.012436811
