iters,price,time
501,109937,.017440969
752,123183,.014112161
501,132827,.011609694
1254,138873,.014449537
501,131742,.012064850
501,109007,.010985325
501,133054,.011014580
501,132380,.011956226
1003,123933,.015004788
752,118373,.013446207
