iters,price,time
1756,131478,.025177734
1003,129664,.014508905
1254,133279,.016593628
501,101456,.010871882
501,86343,.011855694
1756,121919,.018670597
1003,119985,.014038846
501,127369,.011909512
501,105261,.011401465
752,119534,.013476550
