iters,price,time
1756,169902,.034395032
752,165264,.013096624
752,161654,.014144142
752,151014,.013518205
501,142427,.010942668
1505,165427,.017831552
1756,165565,.020397459
1003,168985,.014192344
2007,161738,.021094909
752,168859,.012304002
