iters,price,time
501,42226,.015549636
752,48379,.013029365
2760,47873,.023049116
1003,44606,.015202466
1003,46284,.013938654
752,42524,.013457153
501,46928,.012905848
501,48139,.010425404
1254,47680,.014964362
501,39191,.012779652
