iters,price,time
501,47264,.018761110
1003,48779,.015702458
752,49283,.013027636
1756,53813,.019149327
501,43817,.012875666
501,53435,.014225773
1003,48617,.014568780
1756,49082,.018993860
3513,52885,.028115885
1003,48435,.016741716
