iters,price,time
1505,232633,.020784214
1505,240315,.016889990
501,225646,.012011989
752,241835,.015072127
501,228754,.011233665
501,213649,.012731029
1254,243004,.015844229
501,242837,.011353625
1003,248333,.015635981
752,247609,.013918561
