iters,price,time
501,117973,.020272831
501,114140,.011874080
1003,118555,.015450106
1254,132465,.014889172
501,121416,.012736304
501,114038,.012714453
2258,127446,.021098612
501,128516,.011881634
1254,121666,.018229713
1505,124437,.017287981
