iters,price,time
1254,141059,.018996053
752,143939,.013777366
1254,139931,.016330079
501,113744,.012236398
501,142782,.011058254
501,136146,.011045916
752,143180,.013947902
501,136652,.011582507
501,134850,.011159743
501,137995,.013891002
