iters,price,time
2760,51778,.029091486
1003,50071,.013560331
1003,51197,.014801970
501,46157,.012090298
501,49543,.012657479
2258,51295,.021667124
501,50877,.011887361
501,44393,.011176484
1003,47941,.013920164
501,47023,.011165880
