iters,price,time
752,308977,.024079118
501,282752,.013177017
752,290460,.013916878
1254,291228,.017189553
1505,317373,.020733753
501,313189,.011069612
501,284022,.012542413
1003,329310,.017197643
501,304891,.010815574
1756,308049,.017862506
