iters,price,time
752,159418,.029807164
1505,166694,.017395497
501,150647,.010124397
752,149088,.013044604
501,150283,.012070285
501,144097,.012562000
501,165723,.011108060
501,163207,.011948803
1254,162280,.016261373
752,159629,.012204582
