iters,price,time
1003,53287,.021922657
1003,45839,.015173767
752,48657,.014529299
501,42122,.013213392
501,43118,.013402548
752,45694,.013852419
501,44301,.011547751
1003,48958,.018803014
1254,49557,.017662693
501,46477,.013296340
