iters,price,time
1254,48825,.039408677
1254,48501,.022449120
501,38068,.017366392
501,44050,.017639543
501,39000,.015129683
752,46951,.015108507
752,49134,.016899257
501,42111,.013432972
1254,47909,.016751385
501,45493,.012321991
