iters,price,time
1003,67269,.032091240
1003,67432,.015188570
501,75146,.011977813
1505,72818,.019359694
1003,63025,.015013235
501,64395,.011024304
501,63822,.011452522
501,71587,.012433520
752,66420,.019890355
752,66920,.021378711
