iters,price,time
501,157061,.028989851
501,140521,.011054881
501,136883,.011695283
1003,152283,.016289406
1003,149065,.014007426
501,147567,.013017582
1003,149848,.015723630
501,131109,.011458515
752,143009,.013384143
3011,158048,.021434744
