iters,price,time
1003,267090,.029656296
752,256211,.011750919
501,258723,.010935891
2760,283330,.025021926
1254,275959,.013836708
501,256612,.009303848
1254,287470,.013787795
752,254433,.011152980
752,247339,.012245320
501,264871,.010418535
