iters,price,time
752,120778,.019773065
501,111584,.009775960
1003,121485,.014547028
501,106470,.011728315
752,109044,.013479411
501,114326,.011616897
501,123176,.011155781
1505,127545,.014705931
752,114055,.012068832
501,118856,.011932752
