iters,price,time
1003,50429,.021105739
752,45765,.014554522
1254,59145,.014446311
1003,55471,.015323142
501,53889,.011774444
1003,58420,.013783412
501,49402,.010020112
1505,56865,.014765546
501,47829,.011542154
752,56414,.012290842
