iters,price,time
1003,181099,.020752314
501,140182,.012112897
752,178619,.013636085
1756,175935,.018489124
1003,145579,.015201209
1756,185060,.019191592
501,174140,.012994999
3011,187211,.028699461
501,171655,.012249543
1003,159130,.015106914
