iters,price,time
1254,67467,.023610130
1003,71542,.016944294
1756,73845,.020726861
1003,65675,.015470791
2007,69223,.021470212
752,67505,.014234209
752,64568,.015895633
752,72915,.017777578
752,66497,.012047682
1003,72088,.017737828
