iters,price,time
1254,262219,.023577057
501,223058,.011895145
2760,241548,.026668471
1505,253524,.016655026
752,256084,.013104469
501,230949,.011301384
1003,231490,.013329599
501,258542,.010847857
1003,242650,.014680217
1003,243826,.013833448
