iters,price,time
501,105010,.019215214
501,147751,.011884680
1003,146398,.014163885
501,145688,.010154360
752,143278,.012349270
3513,150919,.028757382
2007,148351,.020760469
501,149030,.013589056
501,145175,.012363987
1003,141233,.013892100
