iters,price,time
501,158910,.019800277
501,144535,.010779696
501,135681,.010678182
752,153808,.013689933
1003,154650,.014109040
1254,164048,.015435618
752,153282,.013704446
501,153991,.012728369
1254,150381,.015712237
752,158296,.013442414
