iters,price,time
752,55626,.018322461
501,55014,.011912182
501,54067,.011589276
501,56281,.012084126
1003,55190,.014562648
501,56822,.011166161
752,51311,.013766705
752,56132,.012315483
752,52211,.011859406
752,54402,.012125325
