iters,price,time
1254,144426,.024165172
4266,150194,.032717653
501,133051,.012218003
752,146607,.014095569
752,145268,.013328862
752,124903,.012804505
4517,152222,.035380622
752,156342,.014016668
501,142781,.011876178
501,139263,.011992016
