iters,price,time
1254,140513,.030672911
501,138290,.012313310
1756,136760,.017224099
752,135698,.014412230
1254,133609,.015781930
752,133863,.015536080
752,128553,.013482672
501,138275,.012292761
501,132903,.011894989
1003,140958,.014311261
