iters,price,time
1756,267272,.023847063
1254,253802,.016394141
501,246779,.012030484
501,253205,.012704654
752,236126,.013529080
501,263701,.012919339
752,213915,.012286739
501,236490,.011969928
752,251575,.012131959
1505,243007,.016700733
