iters,price,time
501,264013,.020047334
752,251135,.012852662
501,253607,.012861594
752,241639,.013953628
752,237467,.012708827
1003,200520,.013926831
752,205367,.011774330
501,237358,.011281081
501,251381,.012750090
752,253000,.013437305
