iters,price,time
1756,296376,.029735989
501,272194,.012293963
501,322410,.011433477
501,262358,.012123963
501,298941,.012395132
752,309405,.013326032
1003,334146,.013610851
752,322472,.014345117
752,312251,.012826136
501,301572,.011328852
