iters,price,time
501,50825,.021826142
752,49228,.012442126
752,55419,.013572785
501,45787,.011948226
752,54121,.012929028
1254,47112,.016661954
1003,43810,.014487705
1505,51363,.018024174
501,53206,.012257939
1003,54542,.015233977
