iters,price,time
752,156425,.017683332
501,155345,.012274987
752,156675,.011489894
501,149815,.011519893
752,163808,.013588714
501,150928,.011515069
1254,171003,.015181291
752,158030,.012888606
752,156655,.014186562
1003,159774,.014241533
