iters,price,time
1003,70091,.024353648
501,68482,.011465518
752,62047,.017872579
1003,62269,.026461104
501,68164,.015462975
1254,71724,.020150292
1254,68956,.023186464
501,65863,.012897557
752,69203,.014008838
1254,63390,.019844856
