iters,price,time
752,127107,.028451442
501,136724,.012190459
1254,136888,.016640844
1003,143735,.016485240
752,147601,.012469469
501,139960,.013206073
501,128988,.012076892
1254,141331,.016643242
501,157994,.013299035
1254,136959,.016765812
