iters,price,time
1003,268328,.019474068
752,266870,.012325939
1505,270225,.017004119
752,262171,.012900638
501,270182,.013395489
752,270065,.012951105
1003,277540,.015029847
1254,266982,.016814416
1003,288013,.015361320
5019,281540,.035461427
