iters,price,time
1003,220258,.022768690
501,221956,.010778569
1003,229453,.012377719
501,218460,.011003549
752,221244,.012346403
501,228265,.011896528
1254,245809,.017232595
501,223991,.011082936
501,163332,.011783266
752,236643,.012632436
