iters,price,time
752,49171,.032077513
1254,50664,.015676453
752,45198,.013018920
501,48609,.012899416
501,41991,.011804722
501,48071,.013439639
501,45511,.011945166
501,51004,.014049782
501,37677,.012571258
501,44454,.013045295
