iters,price,time
1756,62604,.044323739
2007,62029,.038134500
1003,58855,.018239056
501,62077,.018050640
501,54921,.023002483
501,62145,.022112466
1254,61893,.024317479
501,58027,.020432076
501,55749,.039893566
501,59446,.021845906
