iters,price,time
1003,135744,.021894387
752,130213,.012677841
752,123190,.014704955
1254,152413,.016545591
501,135311,.012241047
1254,132073,.016285022
752,143611,.013843026
501,137779,.011270524
3011,144742,.025125094
1505,145775,.018292453
