iters,price,time
501,257154,.016991765
501,241999,.010663935
752,248149,.012084498
752,244690,.013222380
1003,250309,.014758256
501,230862,.010520239
752,232054,.013360383
501,245256,.010241066
1505,247150,.016105710
752,245034,.012821633
