iters,price,time
501,88199,.018843587
501,90117,.012082588
501,84450,.012243977
1505,95163,.018443021
1003,93676,.014020726
752,91823,.012961861
2760,100680,.026034238
501,79519,.011781402
752,92725,.013970651
501,87906,.012538086
