iters,price,time
501,60622,.016478312
501,57623,.014022765
501,57531,.013721348
501,58402,.014799345
501,59172,.013634637
501,56460,.014464655
501,52601,.014696654
501,64734,.013580193
501,60156,.011776608
752,61461,.014433771
