iters,price,time
1003,294563,.021415312
501,272160,.011606268
1505,287890,.019267012
501,307817,.011590177
1003,304985,.014862286
501,319179,.012332226
1505,286872,.017854220
501,288781,.012209056
501,247465,.014789827
501,285411,.012270343
