iters,price,time
501,166724,.018310983
501,149912,.011922372
501,156670,.012850022
1756,159157,.018844965
501,155678,.012259728
1505,147337,.018217725
501,159693,.012559700
501,123606,.011432025
1003,156684,.014131513
752,154777,.014017986
