iters,price,time
501,141045,.018628746
1254,153530,.016458796
501,165966,.012743303
1254,155934,.016887130
1254,152806,.017509174
2007,150126,.020391228
501,132214,.012342511
752,139381,.014985186
752,157626,.014862776
1003,160214,.015542297
