iters,price,time
1254,175035,.022500594
501,153038,.011954428
501,168692,.012495418
752,146999,.013199916
501,155423,.010779124
501,160220,.011910820
501,156061,.011970750
501,156655,.012235275
752,163408,.015001764
501,171629,.009648136
