iters,price,time
752,129233,.018992957
501,132403,.012837237
1756,124918,.018334839
501,126042,.012620147
501,124295,.013576411
1003,132454,.015600573
1003,145143,.016115243
1003,139502,.015094049
501,119848,.011681516
752,132387,.013234562
