iters,price,time
752,248698,.019665138
1756,268353,.018961352
2258,268187,.026161566
752,243148,.013310883
501,241271,.011751986
752,248347,.013244822
501,261409,.012424963
501,262971,.013074651
501,240704,.012662423
501,257233,.011318492
