iters,price,time
501,141819,.018709065
6023,181190,.041668826
501,133174,.011420762
2760,168375,.021725030
501,142554,.011545040
1003,172962,.014927736
1505,168425,.016470753
2509,183923,.020986231
6023,177242,.041497798
501,140538,.013177117
