iters,price,time
2258,124262,.025013695
1254,118510,.017048393
501,61585,.011960595
501,118511,.012818261
1254,117341,.015540864
752,133542,.014478522
1254,113571,.015159335
1003,131325,.014765181
1254,119112,.014680484
501,67808,.011242727
