iters,price,time
501,230884,.020667391
1003,255487,.014859491
501,238168,.010504440
1003,239740,.014236429
1254,234798,.015747935
1003,228324,.014099406
752,260867,.014007015
501,229199,.011707746
501,230522,.011676011
501,240225,.011214482
