iters,price,time
2007,163194,.034842257
3011,166367,.024388208
1003,162029,.014748223
501,149378,.013536575
501,141600,.012823511
501,122517,.012168473
501,137620,.012612387
1003,162144,.015695881
4266,154180,.032737345
1756,158385,.017468912
