iters,price,time
501,204025,.017106564
501,241918,.012290225
752,216165,.014242471
501,235892,.011785665
501,219908,.012321736
501,229499,.010697219
3262,243481,.026667638
752,245430,.012222883
752,236064,.014156937
501,238060,.011297752
