iters,price,time
501,167549,.027938615
1254,172024,.016289286
501,150828,.010992248
1756,166290,.020628041
501,167964,.012101220
501,165490,.011746896
501,170524,.011991594
501,152089,.011412746
501,146292,.011957058
752,168839,.013944630
