iters,price,time
1505,163177,.023981896
501,168736,.010936611
501,157096,.011608126
501,163563,.011712981
752,142135,.011933909
501,152847,.011935166
501,144043,.012876718
1254,154456,.014697350
2258,174317,.024297551
501,161604,.011094552
