iters,price,time
1756,67123,.027466287
501,66457,.013704336
1505,68805,.016911826
501,69029,.011577167
1505,65632,.015008376
501,64435,.011149925
752,69758,.013954310
1003,64808,.014315625
501,63314,.012285702
1254,68271,.016763504
