iters,price,time
501,141493,.017704508
1254,143766,.015538444
2258,141807,.020816035
501,119332,.012748116
501,133532,.012744615
3764,148805,.029694534
501,118699,.012679195
2258,149241,.021833016
3011,148277,.025711205
1756,142016,.020144686
