iters,price,time
752,262589,.023051652
752,268366,.014467246
501,225962,.011769194
752,234676,.015833078
501,273798,.012698652
501,254812,.012034272
752,247862,.012979324
752,264974,.013803331
501,239289,.012248711
501,248535,.012467140
