iters,price,time
1003,266414,.031057667
1254,261729,.012398448
501,267695,.011996825
2509,256929,.021088236
1003,270398,.014412867
1254,249570,.016106055
2007,276970,.022146641
501,250986,.011358969
1254,273302,.017145905
1254,270411,.012200148
