iters,price,time
501,155581,.017627987
752,163158,.013431264
1254,156388,.014576229
501,154906,.012112150
501,162064,.011157378
501,149379,.010482964
501,155000,.012591361
501,153950,.011865704
501,167385,.012439291
501,141691,.012186353
