iters,price,time
501,140925,.025798256
501,140226,.011188910
501,150971,.012363742
501,137779,.012156725
501,147235,.012194107
1003,134835,.013667760
752,135354,.013510991
1003,133895,.013624814
752,139078,.014012675
1505,144330,.015778634
