iters,price,time
501,131092,.027960733
2258,149642,.022034977
501,142085,.011165675
1003,136120,.015381760
501,163835,.011922743
1003,163919,.014143927
501,155430,.011923619
501,136702,.012100778
501,138692,.011490450
501,143058,.013279979
