iters,price,time
501,166452,.029013837
501,166051,.012060776
501,165636,.012846720
501,171490,.013056682
1254,168590,.016364785
501,173448,.013026134
752,173731,.013852108
501,158866,.012799455
1254,176019,.015927088
2007,174661,.021504196
