iters,price,time
1003,264202,.038800540
752,284572,.016604439
752,282825,.020171603
1756,277160,.023791005
3513,267478,.031917106
1505,274226,.017631549
501,265967,.011657712
752,262155,.015318879
501,242186,.017852442
1003,256946,.023628459
