iters,price,time
501,45501,.017627100
752,42969,.012326701
752,45236,.012710074
501,41576,.009998817
501,41025,.013125910
501,41369,.010802123
501,40497,.011265585
501,43769,.012756353
501,48919,.011581535
752,44154,.012326972
