iters,price,time
2007,276917,.027651020
501,280740,.012811488
1505,278426,.018725667
2760,287873,.023257220
752,263761,.012127264
1003,264840,.014986849
501,250362,.011213150
2258,272428,.020034700
1254,282634,.015954736
2007,285154,.021177612
