iters,price,time
752,174418,.024059074
501,193825,.012892062
501,171270,.011947099
501,208582,.011814300
501,187748,.012843249
501,205974,.012080914
501,206716,.011346976
501,223662,.012171328
501,191831,.011875527
501,171046,.011939039
