iters,price,time
752,136909,.030215841
1003,140409,.014555063
501,144988,.012766662
1254,146614,.016424434
752,135898,.013483573
752,151155,.013721183
752,149700,.015659150
752,130048,.012523246
1254,148040,.017549907
3262,137480,.026307961
