iters,price,time
501,138285,.028214944
1003,140319,.014019800
501,138277,.011683044
1254,146720,.014525411
501,138224,.011627022
752,137087,.013133118
501,136257,.011561481
752,145360,.013698385
501,147400,.012773485
752,139525,.013357928
