iters,price,time
752,256128,.023951563
752,269200,.013315097
752,285170,.013913141
501,255573,.011741410
2007,274344,.018262716
501,252334,.011603638
501,268007,.011457618
501,234872,.012441610
2760,276871,.025581973
501,237201,.011560264
