iters,price,time
1254,227953,.024961932
501,210144,.011556557
1505,210723,.019267579
752,217779,.014115452
501,228262,.011432555
1505,226603,.015738658
1254,232248,.017259185
752,212806,.014325323
501,200419,.011259573
2509,224092,.021687974
