iters,price,time
1756,49846,.028009512
752,44572,.014262303
752,51055,.018434194
501,41978,.017382022
1756,49196,.023013489
501,44664,.015685135
501,47759,.015529157
501,44780,.012536041
1003,51154,.015974649
752,44518,.013780482
