iters,price,time
501,523497,.029731690
501,539139,.013611463
501,496047,.014006810
501,527768,.011862598
752,508282,.013828514
501,515049,.013520740
501,512969,.012534603
501,518427,.014193873
501,518791,.014986910
501,528356,.014561430
