iters,price,time
501,447006,.019831216
501,451560,.015108362
501,434299,.014008558
501,440964,.013112603
501,425810,.013603955
501,411730,.014607849
501,428592,.015022177
752,449630,.018031012
501,434626,.014666302
501,424928,.015628172
