iters,price,time
752,483657,.019386426
501,477836,.013575514
501,496510,.013412648
501,404649,.012393449
501,471435,.013691661
501,466252,.012296983
501,458478,.011978404
501,475863,.014040525
501,453385,.013255417
501,494368,.013828809
