iters,price,time
501,386354,.020374485
501,404470,.013518987
501,390797,.012274916
501,411767,.012959616
501,424719,.014052863
501,376656,.013158152
501,435326,.013655207
501,409224,.013231206
501,439674,.014617518
501,407383,.012588306
