iters,price,time
501,367852,.017911158
501,388072,.011599484
501,386711,.013455775
501,393758,.013102009
501,395165,.014288584
501,369547,.013037575
752,390673,.015886375
501,405379,.013010709
501,374257,.012787887
501,381887,.012763866
