iters,price,time
501,443302,.029657133
501,434820,.011852488
501,421273,.014319963
501,426262,.013239977
501,462369,.013444865
501,446313,.013960887
752,446290,.014916079
752,449326,.016460317
501,432256,.013399483
501,443531,.013007116
