iters,price,time
501,379607,.020290990
752,364651,.015592043
501,385258,.012797150
752,366608,.013992017
501,370254,.014180682
501,388836,.013288386
752,384123,.015154426
501,380505,.013706545
501,367221,.012913067
501,390832,.013163040
