iters,price,time
501,385116,.017874243
501,394209,.011945952
501,385810,.012476622
501,366421,.012402325
501,346264,.012144467
752,370115,.015814964
501,396095,.013944370
501,399998,.012766783
752,371120,.014851781
501,396669,.013858335
