iters,price,time
501,387018,.031130206
501,405092,.012065631
501,378420,.013058801
501,406155,.013598534
501,387411,.012669196
501,405158,.017637906
501,410470,.013931485
501,375216,.015013495
501,408648,.013827416
752,422264,.019530907
