iters,price,time
501,468428,.021364750
501,531449,.014041661
501,531394,.015544426
501,505425,.015008726
752,533106,.015936055
752,512130,.014825441
752,519856,.014592755
501,494001,.012593030
501,534683,.012326745
501,523964,.014856671
