iters,price,time
501,354698,.030850150
501,353428,.012509895
501,334848,.013435247
501,335901,.011920949
501,321282,.012292730
501,357284,.013604531
501,356257,.013631817
501,339608,.014068257
501,332647,.014766138
501,313214,.014617979
