iters,price,time
501,326954,.029724247
1003,386584,.018683702
501,413485,.013276943
501,373534,.012795773
501,350987,.014658592
752,385017,.015618318
752,366641,.014234776
501,316320,.012017319
501,384891,.012848820
752,359522,.014171580
