iters,price,time
752,471784,.022868781
501,472302,.013232964
501,479505,.013393566
501,425294,.013943119
501,471453,.012923111
501,464109,.012434070
1003,460306,.015916372
501,472816,.013414302
501,428871,.014092789
752,428227,.015406092
