iters,price,time
501,288912,.029385693
752,357509,.014616416
752,356937,.013893924
501,357259,.011847198
1003,341871,.017890204
501,330113,.011622618
501,309686,.012510713
501,286151,.012844771
501,332771,.014405778
501,328756,.014260645
