iters,price,time
501,451221,.020262667
501,458524,.014614672
501,445910,.013046558
501,493656,.013268692
501,454576,.014181694
501,502558,.013876040
501,470091,.014092003
501,455307,.012409909
501,491197,.013821581
501,437723,.013269044
