iters,price,time
1756,10353,.021455358
1254,10543,.017315539
1003,10222,.011990042
501,10773,.011320435
501,9867,.009859651
501,10025,.010946812
501,8196,.012777984
501,9945,.010872549
501,10157,.010578617
501,9489,.012521809
