iters,price,time
752,12172,.018347634
501,11405,.011607550
501,9873,.011100801
3764,12903,.028143312
501,9124,.010909665
752,11698,.012269091
752,12426,.011685579
752,12226,.012879108
752,11978,.012605303
1756,12638,.018594711
