iters,price,time
752,34809,.025459372
501,32504,.011798270
501,28588,.011559719
501,32258,.010833950
2258,33070,.020617781
752,32371,.012889552
501,28936,.011534601
752,34183,.013507584
1756,33142,.017256256
752,32616,.013043457
