iters,price,time
1505,28658,.025815083
1003,26986,.014387617
501,23662,.012181598
501,25213,.010860260
2007,25689,.019409240
1003,26008,.014202699
752,26796,.013314665
501,24667,.012186582
752,26326,.014670765
1254,26187,.017294898
