iters,price,time
501,10913,.016768819
501,11538,.012017689
752,11592,.013416244
501,11073,.010573501
1254,12101,.015156103
501,11904,.012106850
752,11398,.012764698
501,11423,.010341849
501,11472,.009692452
752,11248,.011723407
