iters,price,time
501,11299,.022383594
501,10539,.011237687
501,11827,.011232127
3262,13305,.024705119
752,13075,.012554786
501,12732,.010412826
1254,12723,.014934383
752,12180,.013034640
501,12974,.010750942
1003,12634,.012228934
