iters,price,time
1003,17514,.020966238
752,17967,.014044718
501,17528,.011106746
501,14647,.011295538
501,17791,.012441956
501,16773,.010722596
501,15120,.011850138
752,13219,.012267371
501,17889,.012222286
501,18013,.012418596
