iters,price,time
501,8366,.016723892
1003,9122,.012103158
501,7453,.011832940
752,8174,.013898157
501,8755,.012808692
501,7947,.010973577
1756,8577,.017277967
501,8502,.010089066
752,9476,.011817406
501,8092,.011056045
