iters,price,time
3262,24941,.034506495
2007,24704,.019060843
1254,24171,.016332303
501,24341,.012085003
501,22488,.010937418
501,24633,.011619743
4768,26068,.034698652
501,22841,.011307896
2007,25177,.019088070
1505,23963,.017240991
