iters,price,time
501,20186,.017847026
752,18772,.012831281
501,18869,.010821451
501,20472,.013519041
501,21185,.012477188
501,19828,.011033932
501,20536,.010809163
1505,21607,.019520963
752,20982,.012904386
752,22608,.014700326
