iters,price,time
501,19728,.018611443
501,19232,.011175038
501,18176,.011730500
501,18182,.011764029
752,18555,.010502195
501,21308,.013563507
501,18207,.012014809
752,18160,.011832831
501,18858,.012159720
1003,18240,.015048186
