iters,price,time
501,22414,.017340182
501,15962,.012089307
1254,21168,.013873104
501,22566,.011539915
752,21677,.012566338
501,20508,.011032705
501,19477,.012051244
752,18597,.013335837
501,19641,.011013498
501,21142,.010626774
