iters,price,time
501,31273,.026850419
1505,31509,.018797123
501,28823,.011393840
1254,34326,.016606523
752,32653,.013947266
501,30108,.012397386
501,31764,.010770478
752,32415,.012071978
501,19741,.012184724
1003,32137,.015428279
