iters,price,time
752,35975,.018557059
501,35349,.012767032
1003,36451,.014309538
1003,34932,.014094231
501,32795,.011461235
501,35239,.011871350
501,32391,.012484908
501,37938,.011071795
752,37355,.011984716
501,33805,.012203971
