iters,price,time
501,30264,.018723096
501,29571,.012007665
501,31242,.012361557
752,31565,.011168675
1003,28422,.015212086
1505,30329,.018060800
501,29373,.012074844
501,29806,.011933654
1756,32065,.018948107
501,31621,.011560054
