iters,price,time
501,12861,.017833420
2007,14353,.020676890
752,13635,.011981450
501,14362,.011070021
1003,14134,.013749627
501,12370,.010383008
2258,14507,.022223007
501,12314,.011429329
1756,14658,.018168020
501,12139,.010790632
