iters,price,time
1003,8461,.028598728
2258,8848,.018014381
1756,9035,.018145792
501,8070,.011082520
501,8059,.011121765
1003,9250,.014131297
1505,7744,.016036953
1756,8487,.017866844
1756,8436,.016156547
1254,7788,.018451426
