iters,price,time
752,18216,.022645871
752,20310,.011783531
501,19371,.012218293
1003,19704,.014423397
501,19579,.010719651
501,16995,.011825612
2258,19439,.021289230
1254,20888,.015211113
501,19363,.011388066
501,18259,.012247505
