iters,price,time
501,26076,.021583494
2509,26602,.038454783
501,26305,.014612298
1505,27932,.021517041
752,27125,.014723816
1756,26889,.019682326
501,24127,.013873260
1254,25500,.015650444
2760,26812,.026049046
752,25973,.013622485
