iters,price,time
501,26847,.029646046
1003,28143,.014657229
1254,26995,.015851999
501,25751,.011711408
1254,27586,.015134946
1003,26426,.015991837
1254,26140,.014265459
2258,26719,.024204323
501,25776,.012870562
501,24201,.010439610
