iters,price,time
752,12357,.029063472
501,12013,.012267763
501,11942,.010605158
501,11900,.012073471
501,13044,.011683771
501,12578,.013896028
1254,12822,.014356998
752,12618,.014146461
501,10811,.011447944
752,12287,.012614907
