iters,price,time
501,24533,.036635507
752,24712,.016446602
501,23686,.014716968
501,25682,.014101140
501,25032,.012642855
501,20982,.012970226
501,20744,.012560759
501,25140,.015038527
752,24583,.014415207
752,24306,.014977276
