iters,price,time
501,7820,.015248049
501,8348,.011031668
501,8436,.012246958
1254,8855,.015793322
501,8654,.011111511
501,8699,.010802415
501,8446,.012469198
501,8633,.010810545
501,8588,.010952853
1003,8684,.013548930
