iters,price,time
1505,10748,.020893133
501,10951,.010238797
752,10991,.012016497
501,10318,.011147059
1003,10700,.015741397
2258,10753,.019206792
501,10496,.011171445
501,8741,.010390030
752,9877,.011677037
2760,9975,.025311094
