iters,price,time
501,22150,.018264599
3011,25245,.026478969
1756,24819,.016883157
1003,24834,.013899709
501,21980,.012071448
752,24205,.014486427
501,22259,.012676746
6776,24118,.044152337
501,22747,.011999239
501,22648,.011263957
