iters,price,time
752,25279,.020421972
752,24601,.012262072
1003,25747,.014482635
3764,26267,.030668763
501,23156,.011264599
752,24714,.013051733
1254,25619,.016804015
1254,25571,.017015293
752,25568,.013549514
501,26469,.012601306
