iters,price,time
501,8080,.016693600
501,7530,.010719928
501,7745,.009950405
501,7198,.010711977
501,8012,.011195481
1003,7102,.013544320
501,8275,.009978484
501,8323,.011363639
501,7846,.010244377
501,6427,.011731423
