iters,price,time
1756,12592,.034993136
501,12746,.013621958
1254,12878,.017970723
752,12830,.013289647
1003,12223,.015969083
752,12649,.013572003
501,12164,.011391388
501,11639,.012588482
1003,12893,.016567208
1254,11954,.014539964
