iters,price,time
501,9948,.015499614
752,10550,.013033878
501,10126,.011289812
501,10376,.011685299
1003,10275,.015850421
1003,10260,.013249345
501,10436,.011134875
501,9817,.011332128
752,9554,.012329726
501,10140,.010714587
