iters,price,time
501,26279,.017453698
501,26471,.011727495
501,27816,.011747603
501,23565,.010870314
752,29349,.015547286
501,27917,.011393481
1505,27600,.018580128
1003,28307,.013926922
4015,27990,.031144518
501,25159,.012552698
