iters,price,time
1003,8493,.029818070
501,8244,.015413079
501,8992,.013071711
752,9321,.018055294
7278,8869,.053066223
1003,8289,.015034136
752,8938,.012868371
1003,9002,.015252828
752,8750,.013027886
752,8575,.012981498
