iters,price,time
501,10073,.015602687
1003,11625,.015093464
752,11358,.011414250
501,10228,.011870512
501,11895,.011077682
501,11701,.010271429
1003,11892,.012289400
752,12055,.013428198
1003,11925,.015194753
1003,12633,.013921340
