iters,price,time
1756,35180,.023505139
501,28775,.011095485
1003,30076,.013084902
752,35449,.013882271
1756,32516,.017767409
501,29213,.012863212
501,28746,.010851889
752,29458,.012984849
1003,35969,.014565639
1254,33494,.016067757
