iters,price,time
1756,12891,.026167732
1756,12226,.017743803
501,9333,.012277637
1254,12647,.017311130
752,10465,.013638706
1756,12478,.019929820
501,12340,.013101708
1003,13161,.013941229
1003,12506,.016437575
1505,11777,.017034020
