iters,price,time
752,22041,.019976514
501,21099,.010181116
501,22620,.011601879
752,22124,.011328416
501,22459,.012790317
2007,21646,.016879175
752,23274,.012973363
501,23911,.012194958
1756,20579,.018403314
1254,23533,.015310064
