iters,price,time
501,21847,.019432914
501,22890,.012223298
501,19408,.011732639
2258,25349,.020712648
1003,23614,.014870487
501,23228,.010680888
501,18933,.011856716
752,21836,.011934881
752,25529,.012024368
1254,23608,.015331784
