iters,price,time
501,27483,.017230882
501,30054,.012161444
501,29780,.011158345
752,31020,.013940277
501,29808,.011419976
501,29017,.010712282
752,28881,.014578854
1003,32171,.014741139
752,28720,.012457907
501,26390,.012695831
