iters,price,time
1003,19191,.018286657
752,20189,.012676495
501,19833,.012126452
1254,22756,.015379285
752,21634,.012867004
752,22714,.013516697
1003,23482,.014355627
1003,23734,.013558456
2007,21752,.020943164
1003,19658,.014163434
