iters,price,time
501,8058,.015836530
1505,7502,.016299505
501,7021,.011078097
501,7749,.011222574
752,8201,.014085535
501,7276,.010532935
501,7684,.011342202
1003,7998,.013920039
1003,7732,.013483649
501,6908,.010939712
