iters,price,time
501,30376,.016489448
501,28334,.011049628
752,29574,.011262725
501,31637,.011412652
501,28866,.009740669
501,32053,.012983658
501,32350,.010816751
1003,31481,.013747203
752,30662,.013011374
752,30003,.014548225
