iters,price,time
1505,28218,.026532010
752,27901,.012674867
501,26134,.011130011
501,26585,.011447158
752,26922,.011723733
501,26521,.012913793
501,25562,.011271779
752,26593,.012206161
752,27858,.012765886
752,27560,.013972990
