iters,price,time
501,9430,.016157529
501,10004,.010481651
1254,9695,.014968360
752,9403,.013395375
501,9995,.010708895
2760,9159,.022545369
501,7714,.010750601
501,8667,.010543408
752,10062,.012367248
501,9631,.012188656
