iters,price,time
501,14622,.041111900
501,14394,.021325189
501,14177,.018089033
1254,15628,.018188448
501,14063,.013164619
501,16438,.014165278
501,16252,.011909944
752,15827,.014722163
3011,15824,.026816885
1003,16330,.016033132
