iters,price,time
1254,15201,.021231079
501,14467,.011985893
1505,15391,.015860476
3011,15226,.025365759
752,15685,.012826697
2007,15637,.021935917
1756,15306,.018724800
501,14951,.012450928
1254,15301,.015779240
2007,15976,.018676532
