iters,price,time
752,13186,.019870016
501,12204,.011042329
1003,12115,.015451358
2760,13300,.023929557
501,11908,.010991952
501,11771,.012022844
501,10318,.011631430
501,13000,.010610813
501,12082,.012563845
501,10762,.011381117
