iters,price,time
1756,20934,.023709710
501,22035,.010951279
501,20173,.011643779
752,21032,.014186939
501,17888,.011484675
752,22558,.015333793
501,19561,.012764523
752,20375,.013758354
501,18000,.011060118
501,20123,.011805589
