iters,price,time
501,20403,.023091533
752,20463,.012949122
1003,22077,.013573706
1505,21064,.019053063
752,17494,.014052923
501,20040,.011318517
1505,20921,.016196914
1003,21927,.015921361
752,22854,.012753967
2509,21490,.023332980
