iters,price,time
1003,21857,.021800143
501,14578,.011515784
501,20420,.011440105
1756,20150,.018600738
1003,21701,.014100619
501,18920,.011088146
752,20424,.012096039
501,21684,.011598247
501,19327,.010858617
1003,20580,.013174593
