iters,price,time
501,9701,.017293202
501,9999,.011936488
1003,10464,.014200576
752,10088,.014541623
501,8619,.012016267
1254,9638,.018181892
501,10457,.013622349
501,10150,.013614134
501,9992,.011282127
752,9608,.014727904
