iters,price,time
752,22837,.020089195
1003,24267,.014280568
501,23876,.012659101
2509,22360,.023670896
501,20883,.011286015
501,22453,.011106861
501,23014,.012398002
752,22143,.013567078
501,22515,.010969324
501,21798,.011727224
