iters,price,time
752,10426,.017716947
1254,9360,.015033749
752,9150,.011736501
501,9653,.010470960
1003,9237,.014394973
2007,10327,.020589127
501,9394,.010397490
501,10722,.009963751
1003,9581,.014100944
1003,9442,.015275812
