iters,price,time
1254,13288,.020592413
501,12044,.010197982
1756,13717,.016185197
1505,12977,.017368831
1003,13490,.012498304
501,12715,.011481102
501,13142,.011834438
1003,12641,.013542029
501,13117,.011060985
501,12223,.010531832
