iters,price,time
1003,23553,.021492325
2509,25389,.024992780
1003,23509,.014675033
1254,23369,.016121770
2509,25253,.019291599
501,22890,.012044020
1254,24137,.015678878
752,23248,.013594476
501,22190,.010559945
1756,23375,.017449710
