iters,price,time
501,20101,.019051304
752,22841,.012483195
1505,22915,.015571828
1003,23004,.015849094
1003,21746,.014905969
501,20949,.012431577
501,19191,.011613406
752,20351,.013502961
501,21147,.011588959
501,20379,.012464089
