iters,price,time
752,37364,.020505746
501,38898,.013566438
1254,38768,.018642217
501,37380,.011299776
501,37767,.013885297
501,34768,.012921624
1003,38508,.016667800
752,35599,.013809918
1254,37888,.017595419
1756,39794,.022404269
