iters,price,time
1003,10941,.022735989
1756,10018,.017966289
752,10455,.012597990
501,9675,.011057082
1505,10655,.017689744
752,10490,.012314933
2007,10763,.018631827
2007,10914,.018043171
3011,10059,.024625789
1505,10717,.017239324
