iters,price,time
501,8166,.016194249
1505,8392,.016031773
752,8627,.012621119
501,8265,.011572633
2509,8514,.020596466
501,8325,.011268146
1003,8850,.013554470
501,8255,.012199061
501,7828,.010948919
1003,8697,.012955664
