iters,price,time
501,34415,.017816787
501,29588,.015654006
501,31757,.015839952
2007,33685,.025996030
4768,35692,.045257377
501,33705,.011736241
1003,35748,.014739030
752,31213,.013129531
501,32327,.012396113
2760,34817,.025485948
