iters,price,time
501,31215,.018168360
752,31344,.013081184
752,30154,.012437628
2760,32912,.023761601
501,30666,.012845944
1003,30013,.016427145
1505,32549,.017419448
501,32419,.010998905
501,32614,.012821422
3262,33390,.029218198
