iters,price,time
1505,26075,.021719984
752,26406,.014235607
752,26974,.012077578
752,26397,.014355937
752,23044,.013018268
752,24993,.012836847
1756,26315,.020698044
501,23878,.011922383
752,26084,.014171626
752,24891,.013031668
