iters,price,time
501,32615,.017234463
501,29943,.011907910
1003,38817,.016000860
7278,38060,.048831148
501,37570,.010962536
2007,38141,.020358606
4015,38807,.031988753
1756,37427,.016773858
1756,38336,.018300413
501,34569,.012236609
