iters,price,time
501,9916,.015309051
501,9909,.010690135
501,10433,.011160475
501,10319,.010185414
501,9975,.009253381
501,9816,.011389176
501,9687,.009943777
1505,10081,.015819722
752,10220,.011511020
501,8458,.012069229
