iters,price,time
1254,27044,.021193898
1254,28742,.015009147
1505,27294,.016597035
752,26023,.011988474
752,30111,.013490302
1003,26855,.012324737
752,29460,.012535063
752,29184,.013339207
501,29112,.012791084
501,28711,.013479952
