iters,price,time
501,15935,.015476626
752,15824,.012284365
501,14970,.010758330
501,15582,.010494606
501,14388,.011613416
752,16695,.012620462
501,15474,.011197425
501,15747,.011234652
752,16420,.012750732
501,16038,.011759991
