iters,price,time
1003,24766,.021024079
501,19796,.010438749
501,24510,.011521255
1505,25693,.017321065
501,23378,.013070428
1756,26298,.021124150
1003,25696,.014441211
1003,24732,.015245734
1003,24462,.014515167
2007,25818,.018031424
