iters,price,time
501,21791,.018293765
501,20523,.010932965
752,18398,.013082506
501,20597,.012453333
501,22287,.011190924
501,21495,.012064159
1254,21463,.015322381
501,21771,.011266212
501,20585,.013273673
1254,20930,.017386610
