iters,price,time
501,13843,.014672112
501,13951,.011292076
501,13265,.012273363
501,13874,.013843808
2007,13958,.018981631
501,13945,.011800650
501,12375,.011781769
1505,13909,.017660564
501,13314,.011007191
501,13839,.010871111
