iters,price,time
1003,20835,.019555209
1003,20739,.014267197
501,16308,.012098128
1254,19739,.015792982
501,20014,.013450651
501,21663,.012017714
752,20176,.013082406
1254,20391,.015902962
1003,20789,.014793530
501,16723,.011632713
