iters,price,time
1003,21619,.023043491
752,20618,.013075773
501,19577,.010748877
501,22281,.011594104
752,22765,.012789100
501,20192,.011366008
752,22032,.012553143
752,23974,.012916254
1003,22189,.014945725
501,19363,.011226856
