iters,price,time
1254,11326,.015385692
1003,11485,.013852124
501,10199,.010518607
1505,11458,.016073948
501,11290,.011444793
1003,11169,.013263563
501,11159,.011198598
752,11788,.013722245
1756,11247,.019148575
501,10513,.010700144
