iters,price,time
501,26621,.018669254
501,18237,.011600100
752,24949,.016452844
2258,26411,.021553350
501,23516,.012181693
1003,25997,.013320967
501,26110,.012280848
1254,24625,.015763309
2007,26420,.022216645
501,26228,.013273106
