iters,price,time
752,14356,.018752178
501,13402,.010241387
1003,14672,.015491846
501,14467,.012507096
1003,14022,.013720126
501,13339,.011833933
501,14666,.011053775
4768,15458,.035326990
752,14338,.011758159
1254,14106,.014092823
