iters,price,time
1505,12441,.022204396
1003,13251,.014206827
752,12940,.013276302
501,10199,.011215856
501,11906,.011729038
501,11832,.011822381
1254,12440,.014557994
1003,11420,.016406646
501,11513,.013612150
501,10881,.014087198
