iters,price,time
501,6935,.015593830
501,7165,.011333816
501,7578,.011502700
501,7797,.011371057
752,7862,.013077812
501,8302,.011210164
1003,6836,.014393273
501,7625,.011195552
501,7957,.010947262
1254,8743,.015256510
