iters,price,time
501,25657,.018076500
501,25390,.011362165
501,25714,.010866172
501,24734,.012150148
501,25231,.011063679
1254,25190,.016311619
2258,26169,.023091634
501,24541,.014843475
501,25011,.012291538
752,24313,.014490160
