iters,price,time
501,25954,.028262410
752,25652,.012986086
752,27859,.014861224
1254,27228,.017695321
501,23405,.012610824
501,24558,.013037325
1505,26301,.018477982
501,25712,.014154878
501,27039,.011196418
501,24179,.012079022
