iters,price,time
501,34367,.021857693
501,28445,.013069742
1505,34686,.017693111
501,32212,.011617869
501,31011,.010817308
501,32806,.013283691
501,29908,.012086957
752,30668,.012669687
752,31593,.016380095
501,33656,.013180044
