iters,price,time
1505,14240,.025598405
501,13946,.010457460
752,13143,.012684626
501,13674,.011683865
501,13128,.010453131
1254,13421,.016594925
752,13479,.012913603
501,13725,.010265352
752,14151,.012560066
1003,14228,.012309442
