iters,price,time
501,25326,.020959410
501,24694,.011826399
1003,27400,.021381011
501,23641,.016708933
1003,26651,.018485016
501,22804,.015708190
501,18616,.013323166
501,23966,.016379218
1756,24344,.021254023
501,25419,.010487281
