iters,price,time
501,27793,.021234611
501,32607,.012625302
501,29780,.010542222
752,31286,.014235236
752,31387,.013378378
501,33668,.011201017
501,32093,.012357515
752,32232,.012280763
752,31715,.014142770
501,31162,.012403492
