iters,price,time
1003,24772,.020835662
501,28068,.012056484
501,23662,.011021904
501,25546,.012688483
501,26796,.010596896
501,24495,.011004025
501,25549,.011121781
2509,28068,.021888537
1003,27143,.014545470
501,26729,.011019220
