iters,price,time
2760,24714,.031302445
2258,25283,.022458096
501,20681,.012636673
501,25399,.014694024
1003,25603,.014482745
752,26139,.013975801
501,19303,.011651038
501,26155,.013070109
1003,20542,.016116715
1756,25093,.021538703
