iters,price,time
501,26619,.032966964
1254,28035,.029097132
2760,29278,.026949057
1003,28153,.014911580
1505,27014,.015671890
1003,27390,.016400549
501,27447,.012385087
501,30037,.011959503
752,27582,.012410651
501,25732,.011915088
