iters,price,time
752,25807,.017832598
1003,30909,.013697763
501,28830,.012224705
501,28225,.011059231
1003,30481,.014512472
501,28461,.009593282
1254,29638,.015432658
501,29829,.012276329
752,29927,.011942099
501,27580,.010906604
