iters,price,time
1254,10098,.019354534
501,10296,.010773209
752,10959,.011482235
1254,10585,.015071461
501,10741,.010974754
1003,10478,.013641827
501,9448,.011510148
501,10420,.011245833
752,10237,.012057952
501,10894,.010956765
