iters,price,time
501,25213,.024544122
501,24763,.010004979
1003,26931,.014829743
501,26971,.011770802
1505,26856,.017904851
752,27612,.013570544
501,26476,.011365903
501,25542,.011615835
752,24558,.013245468
2509,26741,.022094871
