iters,price,time
501,11961,.017446259
1756,13859,.019866359
501,13427,.011294721
1254,13234,.015704478
501,13574,.012551064
1254,13098,.015820825
501,12021,.010947658
501,12684,.013329158
501,11083,.012861694
501,12677,.012988202
