iters,price,time
501,37175,.019987301
501,31741,.015709056
501,34284,.014083171
1254,33017,.017543731
1254,35952,.020437857
501,31951,.013699392
1003,36573,.016894599
501,33548,.013184447
1003,36807,.016882571
1505,34535,.018500761
