iters,price,time
501,20490,.017750897
501,20309,.011220224
501,24193,.011876044
752,19578,.011806781
1003,22244,.013978606
1003,21421,.013812979
752,22881,.014004049
501,23086,.012263895
1003,21631,.013969002
501,22867,.011375676
