iters,price,time
752,19933,.020213386
1505,17623,.014338094
1254,15777,.014513615
752,17566,.012593120
1756,19132,.018633876
1003,20344,.013419110
501,15328,.011959719
1254,17864,.015967806
1505,18637,.017059970
752,16784,.013111076
