iters,price,time
501,25538,.021615751
1505,34332,.018902655
501,30485,.011242116
501,31154,.011977222
1756,36112,.019490294
501,29815,.012761963
1003,34516,.014834382
1003,34799,.016524766
2007,34009,.019346975
8784,34097,.057547647
