iters,price,time
3262,25643,.039173648
501,24944,.011257285
1003,26067,.014726190
1003,24457,.013797373
752,25259,.015813481
1254,27163,.015774842
1003,25816,.017175019
1003,23957,.016165258
501,27208,.010927966
501,24210,.011628334
