iters,price,time
501,28032,.018026710
1003,31689,.014949773
2007,31960,.022271144
1505,31516,.019680768
752,31555,.014656408
1254,28904,.016721938
1003,30720,.015448198
1505,31381,.018452514
501,31360,.012081000
1254,29467,.016540417
