iters,price,time
1003,27267,.020468325
501,28888,.011773302
501,30408,.012390418
1003,27490,.016722069
501,27596,.010487582
752,30855,.013882176
752,31804,.012099256
501,27720,.011349691
1254,31102,.016313416
2258,30130,.022473481
