iters,price,time
501,14420,.017690627
752,14237,.012349999
501,13042,.010359166
752,13745,.011903762
501,14421,.010560612
501,13789,.011746645
752,14603,.011229040
1756,14251,.018339373
501,13790,.014258295
752,12599,.012169385
