iters,price,time
501,20242,.022753652
501,19065,.010771781
1003,20486,.014070401
1003,21195,.014241208
1003,21217,.014576208
752,18704,.013040962
501,22072,.011092108
752,20768,.012883591
752,20776,.013903597
752,21654,.013176451
