iters,price,time
752,10556,.012100873
752,11486,.012584523
752,11772,.012908884
501,11062,.011578489
1003,11520,.013958497
501,10251,.011285789
752,11026,.013266133
1003,10722,.013500901
752,10882,.012094637
501,10454,.011053055
