iters,price,time
501,10887,.017661241
1756,11763,.015007754
1756,12471,.016879995
1254,12605,.015601941
752,12241,.011419540
501,10787,.011157012
1254,12583,.015139015
501,10579,.011055103
501,11357,.010105436
1003,12312,.013797053
