iters,price,time
752,10488,.020523992
501,10233,.013335681
501,9787,.015150141
501,10230,.016143202
752,10138,.019635312
752,10575,.017154636
501,10342,.012457300
501,10452,.014353979
752,10552,.013719941
752,9602,.012899106
