iters,price,time
2007,29132,.034542624
752,25553,.013477583
752,25955,.013430532
3011,28277,.027204040
501,29069,.013157023
501,25072,.009826849
1254,27336,.014902107
2509,28572,.024661426
752,27655,.014234330
1254,29706,.014816514
