iters,price,time
501,9857,.020998108
501,9370,.010474838
501,10136,.011661302
501,7596,.010582003
1003,9680,.013591977
1003,8163,.013703584
1505,10025,.015567094
501,10288,.011475628
501,9935,.011099663
1003,9535,.014135270
