iters,price,time
501,11243,.019832484
501,11850,.013691501
1505,12321,.024357064
501,10626,.015136010
2007,11871,.019150283
1003,11261,.014484143
752,12854,.014686459
501,12372,.013130228
1003,10931,.016328661
752,12445,.013229037
