iters,price,time
501,20958,.016315250
501,23745,.010920806
501,24237,.012132990
501,26402,.011206097
501,22543,.012653501
501,25421,.011799062
501,25834,.011688705
752,25214,.013538679
501,25386,.010390827
752,26375,.011913751
