iters,price,time
501,15775,.019660175
501,18448,.012814980
1254,18628,.014655926
1003,17589,.017276234
752,19037,.012668139
1505,18697,.019956316
752,18758,.013340851
501,16764,.011849933
501,15724,.009919726
501,17878,.012497707
