iters,price,time
501,26334,.016743535
752,26421,.014025310
1003,28532,.015325472
501,25919,.012124844
501,22878,.011413248
1505,28377,.018509683
501,25056,.010331218
1254,24606,.016232597
752,28525,.012980321
752,28509,.013622915
