iters,price,time
752,11939,.021768082
1254,12266,.019145965
752,11537,.014309839
2007,11859,.020352342
501,11069,.012367984
501,10539,.011304655
1254,10216,.015669045
501,11371,.013610752
1254,11944,.017174274
2007,12223,.022650750
