iters,price,time
752,29543,.028760257
1756,31032,.019293247
501,28302,.011501101
3262,29331,.028130432
752,28019,.013841027
501,26772,.011012186
501,27799,.011142971
2509,30382,.022148840
752,26049,.014294926
1003,29866,.015588220
