iters,price,time
752,9308,.026298629
501,9072,.011780261
3262,10299,.025548137
501,9823,.010652643
752,9857,.012663806
752,9881,.012046369
501,10149,.011534630
752,10152,.012163468
752,9287,.012708326
501,8686,.011102284
