iters,price,time
501,41708,.017856163
501,39311,.013771369
501,37657,.011315927
1254,37952,.018531444
501,40591,.013516366
1254,40938,.020888433
501,40348,.012728955
1254,39536,.016001430
752,40951,.014717610
501,36277,.013812643
