iters,price,time
501,33865,.020142777
501,31300,.011417221
501,32649,.011794373
501,30747,.010758886
1003,32848,.013688987
752,32585,.012626304
501,30085,.012310439
501,33130,.010372146
501,29739,.011489143
752,31860,.011393184
