iters,price,time
501,22886,.020127658
1003,22479,.013399703
752,19793,.013408415
501,20983,.010687074
501,21099,.011933609
501,20640,.012113062
1505,22273,.016692903
1505,22493,.017858658
501,20255,.011066108
1003,21261,.013055249
