iters,price,time
501,27934,.017275793
501,24878,.012198019
752,24927,.014299018
1003,28483,.014418473
501,28784,.012639579
501,27059,.011857398
501,28679,.011210856
501,28825,.011975840
1254,28118,.016941699
501,26708,.011461541
