iters,price,time
1505,25055,.031035159
752,24248,.013794148
501,24683,.012151686
501,23307,.012716852
501,23618,.012156761
501,24495,.010813722
501,18173,.011634802
2509,25341,.027999156
501,24532,.014655410
1003,25341,.015366646
