iters,price,time
501,9514,.015271269
752,12386,.013354572
752,11962,.013047600
752,11314,.014488065
501,11305,.011552004
501,12083,.010669741
501,11844,.010329274
752,11171,.012827979
501,10759,.011487726
1003,12149,.010708384
