iters,price,time
501,8698,.016351155
501,9267,.010766791
501,6682,.011485461
1003,8524,.013273727
752,9009,.013860840
1003,8753,.013113110
2007,9230,.018451231
1505,9058,.016097945
1505,9288,.017042271
501,8641,.011695263
