iters,price,time
501,23603,.029625723
1003,24328,.015990008
752,25278,.014030696
1003,27304,.015179929
501,25584,.012052326
1756,29041,.019190962
752,27238,.012479002
1505,27550,.017828781
3513,27734,.025809227
1756,25688,.017743533
