iters,price,time
752,29925,.018128012
501,29464,.011190237
1254,31416,.014988793
1003,27106,.015153078
1505,29632,.015321159
752,28746,.015773909
1003,23312,.014070486
501,25331,.012157942
501,24554,.010788147
752,27252,.013362953
