iters,price,time
501,22975,.024759890
501,25248,.011373763
501,23801,.011320896
752,22260,.012785373
501,26006,.011549995
501,26526,.011117047
752,22688,.013551523
501,23913,.012308921
501,22827,.012064444
1003,20100,.015623427
