iters,price,time
1003,14298,.019341931
752,12930,.014075171
501,12777,.012038910
501,13366,.010670017
501,12584,.010881857
501,12069,.011201689
752,14169,.012545756
1254,13929,.014061369
1756,14832,.017628227
752,13362,.011442939
