iters,price,time
1254,31400,.024579741
501,34827,.013544865
501,26956,.010249763
1505,34894,.017240991
501,34430,.012742641
1003,35654,.014744511
1003,30918,.013964774
501,31379,.011077501
752,30939,.013893958
501,33890,.011488932
