iters,price,time
4517,11614,.037444946
501,11315,.010973326
1254,9713,.016474029
752,10295,.011522217
501,7974,.011196909
752,11380,.013043687
1003,10428,.012496545
752,10467,.012673048
1505,10649,.015526211
501,11062,.011840951
