iters,price,time
752,15562,.017288617
1003,14439,.014652304
752,14274,.013693972
1756,17436,.018562443
752,16097,.014447797
501,14585,.012187079
501,15362,.012446270
501,10890,.011393760
501,16720,.012666351
501,14496,.013484315
