iters,price,time
501,17678,.018558242
501,19014,.011579056
1003,18493,.014084252
501,18940,.013316339
1003,17681,.014807472
501,17822,.011761764
501,18520,.013184441
501,16376,.011817175
752,19604,.011980754
752,17741,.015647338
