iters,price,time
2258,11296,.029641032
501,11379,.011127421
2007,11564,.021431854
501,10082,.011500034
501,12049,.013262645
752,10734,.012864604
2007,11329,.019167661
3262,12201,.026598974
2258,11173,.020467304
1254,11129,.014979345
