iters,price,time
501,11012,.021851666
752,11697,.012339560
501,10702,.010005104
1003,11635,.013154600
752,10738,.011625439
501,11208,.010045090
501,9531,.010915095
752,11571,.011151789
501,9970,.010181497
501,9724,.009914406
