iters,price,time
501,22079,.018453451
1505,23923,.016797488
501,23163,.011122678
501,24985,.011948702
501,24333,.011134474
501,23057,.012782572
1254,24639,.016677794
2007,25490,.020589633
501,22168,.011843852
1505,25507,.020270392
