iters,price,time
2509,26198,.030820038
1505,25798,.018932512
501,23286,.011926345
501,23434,.011741981
1003,25265,.013319205
2007,25821,.019291304
501,25301,.010931636
501,24086,.011743570
501,26574,.012991527
501,24364,.011423659
