iters,price,time
501,10513,.016302617
752,11487,.014521855
501,10240,.016810007
1003,11541,.020220095
1003,12100,.020307697
752,11596,.020472398
501,11805,.015314241
501,11121,.015615682
501,10856,.010639518
1003,11460,.014901066
