iters,price,time
1505,10969,.021495806
1003,9814,.014698286
501,9611,.010162430
1505,10281,.014476292
752,10123,.012480349
752,10242,.011797509
1003,10778,.012482799
501,8017,.010963973
752,10410,.011384678
1003,10180,.013629582
