iters,price,time
1003,26064,.033383111
501,25078,.012925386
501,23832,.012863969
1505,28476,.018304687
1756,26983,.019581294
501,23453,.010914224
1003,26104,.014760612
501,25311,.011849803
1003,27773,.013076791
752,25253,.014412606
