iters,price,time
1003,19764,.020684700
501,21552,.013532021
501,17723,.012386745
501,21329,.011039979
1756,23106,.017246798
501,21271,.011222273
752,24835,.013039454
501,20530,.013146659
501,21522,.011971596
501,20727,.011560599
