iters,price,time
501,26249,.022596681
501,27601,.013640409
752,27841,.013546896
501,23603,.011742103
1003,27265,.015007359
752,26510,.012555033
501,28627,.011475332
1003,26575,.016019570
501,27143,.013117694
501,26147,.012526573
