iters,price,time
501,33641,.017664812
2007,36859,.019656662
752,36446,.011376518
501,37238,.012254853
752,35737,.013081790
2509,36929,.022582840
2007,37302,.019425449
1003,36344,.013778073
1003,35239,.015960563
1756,35725,.017490083
