iters,price,time
1003,23963,.021431447
501,22242,.012712468
501,23775,.013696255
752,16103,.015862509
1254,24888,.017343538
501,23332,.012500022
1003,23153,.015782045
3513,25130,.030373304
501,23272,.011544985
1254,24126,.018095250
