iters,price,time
752,20897,.028543012
752,21030,.014020856
501,18601,.013480948
1003,22512,.015830453
501,20780,.010443317
501,22108,.012142624
501,23933,.011305622
501,22387,.011494435
752,20298,.013094931
501,22362,.011306979
