iters,price,time
501,29422,.016002508
501,27257,.011322459
501,27954,.010207902
752,28619,.012207322
501,26125,.010219980
501,26658,.010979388
501,26866,.012239454
501,29717,.010271293
752,29078,.012053297
501,31545,.010564770
