iters,price,time
501,21036,.019847798
501,19520,.012087774
501,22222,.011397458
501,17451,.011903786
501,20117,.011195746
752,20818,.012255319
752,21604,.015242413
501,18667,.012600339
1254,21691,.018380566
501,19520,.012198621
