iters,price,time
1003,25407,.033349076
1505,27347,.018154404
501,26723,.013192758
501,26718,.014711472
501,28190,.014971776
501,26700,.014846090
501,25788,.026825591
501,23543,.027479647
501,26641,.018146509
1003,27946,.019893831
