iters,price,time
752,10932,.019093746
501,9823,.012459014
501,9820,.011777906
501,10630,.012199287
501,11021,.010904440
752,9821,.014217493
501,9656,.012720008
501,10320,.012943445
501,11215,.012286313
501,11569,.010488134
