iters,price,time
501,24153,.017457591
501,24648,.011312766
501,26292,.011781177
501,25202,.010960116
752,25389,.013126410
1254,26098,.014222783
501,23906,.011502138
752,24894,.012703723
752,25748,.013810064
501,24867,.011494790
