iters,price,time
752,21651,.017998149
501,21352,.013227459
501,22185,.012138746
1003,20616,.013484911
752,21375,.014342010
501,18461,.012014354
501,20376,.012132884
501,20456,.012061875
501,21331,.012231558
752,21178,.012716893
