iters,price,time
1505,31275,.025287769
501,32369,.012390758
501,29166,.011060433
1756,32511,.019512261
501,30447,.010425979
501,31021,.010445101
501,28610,.010285436
752,29117,.013338210
1254,34109,.016013262
1505,35086,.017962051
