iters,price,time
501,9426,.016615289
501,9674,.010084395
501,10246,.012336626
752,9590,.013057438
501,10196,.011922362
501,9106,.010274755
501,10472,.011434018
501,9936,.011127902
501,10287,.011302055
1505,10740,.015771149
