iters,price,time
501,11244,.028526811
1254,11641,.016125989
501,12025,.010764041
1003,12253,.014100224
501,11648,.013224402
752,12771,.012851289
1003,12081,.015131516
501,10629,.012702936
2258,12277,.022429091
1254,11885,.014436732
