iters,price,time
1756,20716,.038471550
3011,21229,.027178001
1003,19137,.017341142
1254,21227,.018963001
501,18477,.011462318
501,21071,.012020475
501,19578,.010764487
501,19508,.011041698
501,17400,.010409984
501,20592,.010878350
