iters,price,time
1254,13360,.020208663
752,12723,.015952668
752,12724,.013704306
501,11461,.012780990
2007,12630,.019916053
752,13308,.012775219
501,12429,.013537467
501,12996,.012810395
1003,12763,.016416530
501,13095,.013778117
