iters,price,time
1003,27486,.027635246
4768,29137,.037087873
1254,25577,.017104846
5019,27946,.037362413
1003,27417,.012926538
752,27003,.014108655
501,25824,.011756269
1254,28055,.014489428
2007,28680,.023491393
752,25417,.014178558
