iters,price,time
752,13971,.017742817
501,12141,.011061334
5270,13594,.037788518
1756,13450,.020347064
501,13479,.011907820
752,13331,.012460296
1254,12726,.013957235
2258,14196,.022132578
3011,13898,.024615218
5270,13990,.037026164
