iters,price,time
1254,13523,.023828984
2007,13775,.021057502
2007,13349,.027225797
501,9310,.012090018
501,12894,.011776067
501,11278,.011235474
501,11786,.011424334
501,11794,.011907273
501,14010,.012161524
752,13254,.014520943
