iters,price,time
1505,36723,.025872638
501,33302,.010669841
1756,38412,.019917501
2509,38374,.023481510
2258,37111,.020409813
752,33084,.014621264
752,38637,.013313974
1003,38399,.012861904
501,33444,.010481450
7529,36612,.048196849
