iters,price,time
501,23035,.018033954
501,26724,.011253778
501,23796,.012889628
501,25198,.011763984
501,27950,.011703553
1003,29738,.012819438
501,27629,.013510571
501,28248,.013122347
501,29251,.011778958
1505,28924,.019435891
