iters,price,time
1003,10592,.042799825
1003,9796,.020795656
752,10721,.017506610
501,10336,.018792308
501,10240,.016678310
501,10307,.016966286
752,10666,.014569901
752,10409,.013212866
501,10904,.012029818
752,10526,.012299038
