iters,price,time
1254,9810,.015929047
752,10090,.012091475
1003,9515,.012875570
501,8835,.010877197
752,9240,.011897359
501,9656,.012303000
501,8806,.009929054
2760,10074,.027041850
2509,10204,.022100186
501,9030,.013122719
