iters,price,time
752,18847,.019535090
1003,20831,.014671225
2509,22920,.023151989
752,23418,.013176772
2007,22435,.018669199
501,22051,.012990160
752,20676,.013554615
1254,22888,.017361151
501,19915,.010045341
501,20538,.010596070
