iters,price,time
501,11103,.016931755
1254,11017,.015096049
501,9818,.011538222
1003,11291,.014885761
2258,11497,.020875164
1505,11419,.017241228
5019,11022,.034248932
752,10831,.013297889
1254,11159,.014739531
752,10880,.012185254
