iters,price,time
1756,8532,.019652620
752,8221,.013581205
501,8093,.009655175
2007,8767,.018018263
501,8381,.011158767
501,7375,.009956466
752,8382,.011874836
501,7393,.010569525
501,7762,.010939668
752,8101,.012006532
