iters,price,time
4015,36976,.042975607
3513,36785,.030063580
1756,35367,.020447695
752,35641,.013069933
501,36747,.011753966
2760,36461,.025933495
1003,36192,.013041197
501,34322,.012298111
2007,34015,.021856781
501,33812,.012218263
