iters,price,time
501,25340,.018612204
1254,32582,.018556958
752,28605,.014407221
501,29563,.013384063
752,28481,.012853258
501,30367,.010718124
501,30384,.012269616
501,29959,.011407317
752,29306,.012718821
752,29000,.013320778
