iters,price,time
752,10051,.018831975
1003,9030,.013267610
501,9935,.010843888
501,10041,.010759793
501,9072,.012013932
501,9370,.013206529
501,9975,.010214680
752,9304,.011372961
501,10160,.011164868
1003,9777,.013283070
