iters,price,time
1254,23491,.024502649
5270,24272,.038589676
501,23536,.012036215
501,19681,.012327251
501,22224,.012697119
3764,24592,.030633886
501,21881,.011469160
501,23369,.011387598
1003,23415,.015132198
752,21032,.014869685
