iters,price,time
1003,28399,.019655339
752,28196,.013318809
752,27336,.013811356
501,27559,.011178960
1505,27802,.018088203
501,26569,.011285575
501,26004,.012102682
501,25619,.013339413
1254,26251,.017041334
2258,28795,.023690104
