iters,price,time
501,21351,.028664624
1505,22400,.019266231
752,19730,.012457872
752,21545,.014327649
752,22334,.012967101
1003,21718,.014922942
501,18370,.010543489
752,22150,.014584294
752,21317,.014700597
752,21946,.013892801
