iters,price,time
752,12569,.018582859
5772,13401,.046688454
3011,13413,.031906677
501,12809,.013443517
1003,11846,.015682526
501,12685,.014449857
3764,13285,.037643309
1756,13107,.021339581
1254,13327,.015531606
1756,13078,.018916281
