iters,price,time
501,14550,.025985950
3513,19264,.026958601
1505,18397,.015279103
501,18544,.011268812
501,17877,.011505736
501,16151,.012461538
1254,19077,.016458068
501,14649,.011522787
3011,19850,.024903279
2509,16079,.023712757
