iters,price,time
501,14019,.016849929
501,12885,.010233527
501,13713,.010999788
501,13887,.010517996
501,13618,.010787831
501,13311,.011661883
501,13157,.012932720
501,13149,.011590021
501,13305,.012531773
1003,12739,.047196826
