iters,price,time
501,8407,.017959210
1254,8677,.016420713
501,8435,.012069103
752,7982,.013422737
752,8782,.012559717
1756,8697,.017350481
501,8468,.012539873
1254,8339,.017497607
501,6219,.010503117
501,7647,.012615833
