iters,price,time
1003,12978,.018525353
501,12413,.009609959
2007,13534,.017608014
2760,12701,.024587875
752,12298,.012845673
3513,12838,.026932255
752,12586,.011385010
2007,13115,.018553632
1505,12064,.015735532
2760,12530,.022004464
