iters,price,time
501,31310,.017455341
1003,28982,.014646122
752,30129,.013196294
501,24323,.011812337
501,29052,.011324558
501,32550,.011993939
752,30636,.013515610
752,29853,.012707028
501,23678,.013110485
501,30738,.013124176
