iters,price,time
752,28347,.021624487
752,32388,.013782576
1756,31273,.020679159
501,28749,.011190798
752,31543,.014880520
501,29238,.012906985
501,27036,.011663793
1003,31595,.015221919
501,23712,.011342993
1003,31243,.013331148
