iters,price,time
752,11944,.038085967
501,10751,.017730412
501,10721,.016530242
752,13336,.015656135
501,11665,.012457772
2007,12902,.020924688
501,13167,.012277932
1003,12392,.017119975
501,10180,.012074619
1505,13360,.022287555
