iters,price,time
501,23039,.021582036
501,32045,.011481349
1003,35537,.013160906
1756,33428,.020424311
3011,34386,.024002991
1003,33073,.013875743
501,34605,.011950060
501,27478,.010653896
1756,35296,.017154766
752,32768,.013140357
