iters,price,time
1003,27704,.021710602
501,28213,.014584586
1756,29227,.019184409
3262,27484,.030373359
3513,29080,.030339974
752,27638,.012741404
3764,29891,.030412102
1003,29134,.014856364
1003,28578,.015441819
501,27147,.012044201
