iters,price,time
501,23114,.018398065
1756,24619,.018647487
501,21459,.011368502
501,23656,.012284134
501,20922,.011508004
752,22549,.013465584
501,23187,.011103521
752,22423,.013921687
501,23253,.011976946
1756,23595,.020797756
