iters,price,time
752,13006,.027368946
1254,13772,.014477595
1003,13254,.015777246
501,12778,.009932025
752,12826,.011962759
501,13108,.011061525
501,13628,.011312641
501,14243,.010635395
501,12901,.010607823
752,12707,.011943869
