iters,price,time
501,23773,.035115334
501,23005,.013648609
752,21698,.013154990
501,17421,.011422260
501,21505,.012778556
752,20798,.013929026
752,21456,.012695606
752,21643,.015960406
1756,21954,.018768799
501,20549,.012441139
