iters,price,time
501,26367,.019906961
1003,28656,.015802304
1003,25283,.018314144
501,27789,.013180700
1756,29797,.020448703
1003,29124,.015701381
752,29059,.016638564
1003,28314,.017023275
3262,27917,.025861332
2007,27686,.021304509
