iters,price,time
501,33066,.028989040
1254,38291,.017548871
1254,37333,.015614395
501,35798,.013130543
501,34535,.011012366
1254,35873,.017623422
501,34640,.012209121
501,32433,.012214696
752,33441,.013269414
1003,36286,.013954455
