iters,price,time
1003,28258,.022634950
752,29869,.013060805
501,27091,.011932546
1003,30627,.014753934
501,30521,.012369423
1003,30941,.015077178
501,30132,.012166359
752,30599,.014098160
501,29406,.011617569
501,30618,.011694586
