iters,price,time
2007,31697,.058217268
501,32904,.020868621
1505,32198,.027157512
501,30025,.018353981
501,31226,.022636969
501,28754,.025314781
501,27804,.014939529
501,27449,.021293679
1254,32496,.030736017
752,30374,.016721173
