iters,price,time
501,8645,.010524537
501,10462,.011391061
752,10135,.012136637
501,9496,.010483399
501,10633,.010101618
752,10532,.013417031
501,9221,.011159723
501,10884,.012091191
1003,10266,.013488483
1003,10534,.012557487
