iters,price,time
752,32893,.019122446
1505,33203,.017266906
1003,32827,.015712718
501,35052,.011622879
1254,33895,.017806568
1003,33097,.012894301
1003,34566,.016618801
752,29086,.013557165
3262,34937,.029867545
501,31865,.012279160
