iters,price,time
752,24555,.021135346
1254,23702,.015683151
1003,23558,.013494855
501,25028,.010153794
1505,24411,.016082014
1254,23658,.018138253
501,24650,.012066879
1003,22801,.015544261
501,23596,.012815100
752,26319,.013280781
