iters,price,time
501,23320,.021662229
752,23804,.014604488
501,23484,.011535026
501,21472,.013118435
1254,23598,.016040510
501,20923,.012809424
501,22265,.011794377
501,22800,.010475564
1003,23045,.015012133
501,21889,.011019008
