iters,price,time
1254,33172,.026136824
1254,31796,.019194002
1254,29251,.016373512
1756,32133,.030235915
752,26786,.018379464
752,32551,.018710763
752,30871,.018213557
752,33524,.017370169
1003,32514,.019594959
501,28813,.031435665
