iters,price,time
3011,31145,.035255593
501,27505,.011305492
752,28829,.013763164
501,26173,.011117037
1505,30527,.013798797
752,28149,.014243217
1254,30028,.016481459
2760,30230,.024992596
501,29740,.011758970
752,27225,.012743958
