iters,price,time
752,25836,.017546535
1254,25793,.016393280
501,26089,.012693162
501,26521,.013239517
752,25069,.011823082
501,25936,.011339698
501,24159,.013466772
1003,25951,.016081078
752,26878,.012810762
2258,27322,.023297798
