iters,price,time
1003,11274,.020459689
1003,11526,.012736365
752,10954,.009406920
501,9413,.012351538
501,10871,.009941332
1003,11514,.014714483
752,11536,.012200554
752,10096,.013297819
1003,11272,.012889813
501,9368,.009496842
