iters,price,time
752,18864,.018336858
501,19945,.011848320
1003,17633,.014387016
1003,18011,.014498359
501,16587,.011775146
501,18366,.012185155
501,18438,.009892764
501,17280,.011441662
501,19336,.011086934
1505,17762,.017445603
