iters,price,time
1254,32679,.036452607
1003,31490,.014821593
752,33696,.014692662
752,33779,.016147144
1254,34309,.016918204
752,32783,.013374003
1254,33301,.016317750
752,33430,.014063538
501,31864,.011984541
1254,33471,.018250327
