iters,price,time
1254,9152,.019757355
1505,9774,.016885352
501,8167,.011125743
752,9295,.012564736
501,10436,.010609886
1003,9803,.013481295
1003,10140,.014873988
501,8764,.010408527
501,9157,.010992338
1003,10147,.013222439
