iters,price,time
752,14211,.028039764
501,11520,.011517607
501,13514,.011280268
1003,13890,.013792304
1254,13720,.015490909
2007,13955,.019681700
1003,13338,.012193595
752,14140,.013568286
501,13853,.012655780
1254,14171,.016103470
