iters,price,time
752,29675,.018842570
501,30731,.010920942
501,31786,.012693938
1003,32984,.014590862
501,29966,.012064199
1254,30152,.015724054
752,31926,.013216212
1003,28759,.014626305
501,31485,.011268546
1505,33327,.015151595
