iters,price,time
1756,9530,.022812819
3011,9724,.024229009
1254,10139,.014267183
501,8592,.010922259
1003,9240,.013006270
752,9250,.013372315
501,8973,.011067591
1756,9017,.019020646
501,8963,.010864012
501,8703,.011343249
