iters,price,time
752,21638,.018534716
1003,21881,.014758352
1505,22355,.017062269
2007,23151,.017197569
752,21952,.012877695
752,21348,.012829162
752,22531,.013111321
1254,23442,.017300822
1003,22658,.015565952
1003,22299,.014313832
