iters,price,time
501,8222,.015252734
501,8987,.011611171
1254,9654,.014664412
752,8500,.012632837
1756,8963,.017105863
2007,9188,.019289210
1254,9022,.014795233
752,8627,.012756767
501,8261,.010707103
501,7625,.010578546
