iters,price,time
501,29103,.019962848
501,28431,.011954404
501,27126,.011938428
752,27338,.014049315
1254,29890,.015390011
501,27862,.012068617
1254,28905,.015025899
501,25529,.012318004
501,25126,.012222506
752,27976,.013225129
