iters,price,time
8533,355,.099308683
5270,354,.060172994
13804,354,.140404418
3011,356,.038338781
5270,347,.062921937
7027,355,.089783232
5270,355,.064712823
6023,354,.073810186
3011,356,.039903087
23091,354,.261065809
