iters,price,time
752,469,.015143994
1254,481,.021074034
2509,467,.034738318
1254,480,.020707037
1756,482,.025605743
1756,466,.024093480
2007,466,.029273750
3011,466,.040848576
1254,483,.020891219
1756,481,.026652155
