iters,price,time
2258,406,.031520798
5521,406,.064208288
1254,409,.020560201
5772,403,.058445440
501,404,.012144963
1254,404,.020367803
1254,418,.019661071
3262,397,.043127121
2509,398,.033734162
6274,411,.067644451
