iters,price,time
5772,410,.070816384
5019,421,.063371758
5772,411,.070907618
6776,413,.082115664
5270,419,.067043572
3513,412,.045024260
3513,419,.044960047
5772,420,.070205290
5521,409,.057234052
1505,412,.022741815
