iters,price,time
1505,424,.023284964
2509,424,.034131798
1003,423,.018357136
1505,422,.023715206
1505,421,.022918532
1756,424,.025669018
1505,423,.019494727
752,421,.014931684
2007,420,.029314127
2007,424,.028956889
