iters,price,time
5019,420,.061145464
6023,421,.074320833
12047,420,.134749976
6776,411,.079099012
6525,412,.078136457
4015,420,.051242470
1003,402,.018472182
12047,421,.141444438
5270,423,.065384168
1003,412,.014938752
