iters,price,time
93371,-12,.860949234
109937,-14,1.002525680
55972,381,.534300146
102909,-14,.981158921
38904,-12,.398227214
103411,-14,.960090988
84084,-15,.757270900
71785,-8,.654066696
55972,-17,.516509488
79064,-15,.713938117
