iters,price,time
10541,414,.113137213
5521,416,.069592838
7529,405,.089977383
6023,407,.072545192
3513,403,.046273814
3764,406,.050365436
6274,403,.071818036
3011,404,.038913766
10290,394,.115970964
5521,413,.063767395
