iters,price,time
11796,312,.119295913
6023,323,.074279283
5772,323,.057720783
18071,323,.183724759
7529,325,.088262122
7529,330,.078415852
4015,320,.051077665
5521,326,.064177694
8282,332,.101092345
9286,334,.108751943
