iters,price,time
2760,424,.037655369
7027,425,.074962320
4266,425,.054390217
3262,426,.043629201
8533,427,.092108269
3262,408,.044988462
3262,422,.044009534
1254,425,.019907698
6023,404,.073254743
1003,423,.018569958
