iters,price,time
2509,505,.034947529
4015,486,.044999513
21836,513,.233941141
3262,514,.042626769
1756,514,.025629018
2258,504,.030646275
3764,504,.048693605
6776,513,.071431031
6776,505,.081071883
13051,496,.143189406
