iters,price,time
1254,355,.020378915
3764,355,.047942863
20330,356,.219904730
15812,355,.159317665
14306,356,.165162069
2760,356,.037143094
1254,355,.020561497
6023,355,.068795884
10039,355,.117880235
3262,355,.042410199
