iters,price,time
1254,431,.020073590
752,419,.015129017
1003,421,.016676216
1505,418,.022903564
1003,427,.018114433
1756,417,.025693119
4015,411,.045498256
2258,426,.031062982
752,428,.015459694
1756,430,.025077622
