iters,price,time
2007,473,.028833116
1756,470,.026980212
1003,466,.018185738
1756,467,.025574799
4266,466,.054581633
2007,469,.029209351
2760,474,.038729704
1756,470,.025862279
1505,472,.021435025
2760,470,.038704386
