iters,price,time
6525,454,.079346887
5019,456,.063402211
9286,453,.095745317
2258,454,.030448803
4517,453,.057749543
9537,453,.110927170
7780,456,.094323482
7529,448,.091181597
1505,448,.022343382
9537,456,.114237441
