iters,price,time
2007,402,.038806505
6023,396,.084846098
1756,395,.032459484
8533,383,.110408282
2007,394,.037511824
2509,403,.051391355
15310,403,.192184937
5521,385,.067825759
4015,386,.064077002
1254,403,.024061929
