iters,price,time
4266,471,.054535149
2509,479,.033970744
1756,489,.027670342
1505,471,.023553036
1254,462,.021311838
3262,471,.035618277
2007,474,.029202448
1003,480,.018984552
2007,471,.029097443
2760,471,.035750309
