iters,price,time
1505,485,.024475530
5270,486,.062322881
6525,486,.079951380
2258,486,.032030458
2007,485,.030148253
1254,484,.020557351
3262,486,.042232644
3764,486,.043184872
1505,485,.023926080
2760,486,.033044302
