iters,price,time
1505,495,.048771563
1003,493,.042438784
2509,495,.054009077
752,494,.029839816
4266,486,.073825410
3262,485,.072321493
1254,492,.031019970
1505,494,.030685846
752,485,.028053360
1254,494,.029189778
