iters,price,time
43924,328,.410209856
9035,328,.101326413
19075,328,.202924637
22338,328,.206589252
74546,-28,.658963593
96383,-29,.841560863
9035,328,.102742984
24597,328,.230273034
66012,-32,.569945088
92869,-31,.836683909
