iters,price,time
76805,-29,.681645057
22840,392,.223726416
31876,391,.298935788
3513,383,.044210223
84084,-25,.770189273
2760,391,.036501530
15561,391,.151822200
11294,390,.124258777
2007,391,.028009792
3513,381,.045749317
