iters,price,time
2760,477,.037991971
2760,478,.034589198
5772,465,.073274887
1505,469,.024597575
3011,485,.040902078
4517,481,.059687690
1254,469,.021032334
2007,474,.028539531
1254,476,.021818899
3262,477,.040249867
