iters,price,time
1254,500,.019323280
1254,490,.022080890
7780,487,.093519124
2258,489,.032127318
3262,500,.044138319
1254,470,.022003612
2007,488,.029920647
1254,489,.020751386
1756,498,.025230210
1756,490,.027212487
