iters,price,time
3011,388,.040237833
15059,384,.152171458
11043,390,.129736852
14808,393,.153873164
8031,395,.093851154
11043,390,.125200343
6274,395,.060411109
2007,394,.027080714
21585,394,.220958716
2258,391,.030718172
