iters,price,time
1505,485,.031433201
752,494,.023020318
1756,493,.043524611
3011,484,.065492544
1254,486,.109725681
1254,486,.050973450
1505,494,.062123911
752,495,.035184477
1505,496,.047481340
1254,493,.045013274
