iters,price,time
11294,363,.138501137
6023,345,.075102108
13302,365,.159166290
2007,348,.030119758
8282,363,.102013258
19577,361,.201358040
15561,349,.181040584
21585,360,.216775844
7780,347,.098643751
1505,362,.022407289
