iters,price,time
9537,441,.111752678
4266,433,.051946121
1505,441,.023647903
18322,441,.191904596
1756,433,.025623491
3011,440,.034884523
4266,441,.051952814
20079,440,.216779100
7027,443,.102600050
7529,442,.088226654
