iters,price,time
2509,428,.034193978
2007,430,.027820870
2760,427,.037753481
3262,428,.036936153
9035,430,.099784544
4015,431,.052549675
2760,428,.038020081
1254,429,.021168564
3764,430,.050037389
4768,430,.059748586
