iters,price,time
1254,336,.028665536
2509,324,.037886731
2509,331,.038460083
2509,324,.040087201
2258,332,.041967182
752,335,.019006519
2258,335,.038170519
1505,334,.025761596
2258,332,.031409469
1756,329,.027965236
