iters,price,time
5019,378,.061318694
6776,386,.081829692
11294,377,.132160574
8784,383,.103514554
14557,385,.155206178
3764,386,.051257533
4015,382,.056426212
7027,383,.087456060
7278,386,.086985149
2258,385,.032928861
