iters,price,time
30621,346,.311641703
1756,345,.027823847
1254,337,.019485956
5019,337,.063567899
3011,345,.041082259
16816,340,.196216315
7529,334,.084081580
18071,345,.206765148
1756,345,.025511056
5270,345,.058429403
