iters,price,time
7027,433,.069664095
5521,422,.068035894
8533,440,.096371796
3262,413,.043628103
5019,432,.063347021
9788,432,.100808212
9286,424,.100371471
6776,433,.080595667
1254,423,.020136826
8784,413,.085264533
