iters,price,time
3011,474,.036191007
2258,472,.032469182
1003,466,.014902618
2258,471,.031071673
1254,472,.020745780
2258,472,.031642701
4517,464,.057194936
3513,473,.044880715
1003,472,.018471024
1756,466,.025926391
