iters,price,time
2760,455,.037501324
3011,457,.038073052
1003,454,.016391437
1254,457,.020659480
1505,446,.022477053
1254,456,.019300351
1756,457,.025533339
1505,457,.022570913
1254,445,.020891625
2007,456,.029502412
