iters,price,time
2258,470,.032684043
2258,472,.032379150
5521,399,.066134212
7278,470,.085762316
3764,470,.043674707
8533,469,.099586390
9035,470,.105741360
5019,471,.060888237
2760,471,.033123735
6274,470,.066281244
