iters,price,time
7529,403,.090824995
3262,402,.042261003
15812,402,.166089564
2760,402,.038364961
7027,403,.071301738
1505,402,.023249571
5521,402,.066424598
2258,402,.031427430
37398,403,.351298896
4266,403,.052877913
