iters,price,time
11545,353,.119450324
3764,353,.044579038
501,364,.012506504
8784,361,.087942421
7278,363,.082144379
25601,354,.281587696
6525,362,.076574059
5521,351,.067433938
21334,363,.206041069
6776,362,.079942066
