iters,price,time
6023,426,.064357775
10290,391,.104700629
1505,426,.023739247
17067,417,.191044231
3262,409,.042215757
5270,419,.067283751
6023,419,.059900702
4768,417,.059285276
6023,408,.074903537
4015,427,.051510142
