iters,price,time
1254,458,.022020595
2007,458,.029960714
2007,457,.028916045
752,471,.014699890
3262,462,.043198617
3262,480,.043808855
3011,461,.041231253
2007,457,.028956457
1756,466,.026703523
3262,466,.034701592
